# SUSY Les Houches Accord 2 - MSSM spectrum + Decays
# SPheno v4.0.5be
# W. Porod, Comput. Phys. Commun. 153 (2003) 275-315, hep-ph/0301101;
# W. Porod, F.~Staub, Comput. Phys. Commun. 183 (2012) 2458
#                     arXiv:1104.1573 [hep-ph] 
# in case of problems send email to porod@physik.uni-wuerzburg.de
# Created: 07.09.2021,  16:12
Block SPINFO         # Program information
     1   SPheno      # spectrum calculator
     2   v4.0.5be    # version number
#
Block SPhenoINFO     # SPheno specific information
    1      2         # using 2-loop RGEs
    2      2         # using pole masses for boundary conditions at mZ
Block MODSEL  # Model selection
    1    0    # general MSSM
Block MINPAR  # Input parameters
    3    5.17685995E+01  # tanb at m_Z    
    4    1.00000000E+00  # Sign(mu)
Block EXTPAR  # non-universal input parameters
    0    3.88041347E+03  # scale for input parameters
    1   -4.38774278E+01  # M_1
    2   -1.69215489E+03  # M_2
    3    4.21567016E+03  # M_3
   11   -6.79329366E+03  # A_t
   12   -1.12196756E+03  # A_b
   13    8.95595013E+02  # A_tau
   23    3.11527128E+02  # mu
   25    5.12195388E+01  # tan(beta)
   26    4.23403415E+03  # m_A, pole mass
   31    1.00000000E+04  # M_L11
   32    1.00000000E+04  # M_L22
   33    1.00000000E+04  # M_L33
   34    1.00000000E+04  # M_E11
   35    1.00000000E+04  # M_E22
   36    1.00000000E+04  # M_E33
   41    1.00000000E+04  # M_Q11
   42    1.00000000E+04  # M_Q22
   43    4.78560540E+03  # M_Q33
   44    1.00000000E+04  # M_U11
   45    1.00000000E+04  # M_U22
   46    3.05666567E+03  # M_U33
   47    1.00000000E+04  # M_D11
   48    1.00000000E+04  # M_D22
   49    2.22176113E+03  # M_D33
Block SMINPUTS  # SM parameters
         1     1.27908970E+02  # alpha_em^-1(MZ)^MSbar
         2     1.16637870E-05  # G_mu [GeV^-2]
         3     1.18400000E-01  # alpha_s(MZ)^MSbar
         4     9.11876000E+01  # m_Z(pole)
         5     4.18000000E+00  # m_b(m_b), MSbar
         6     1.73200000E+02  # m_t(pole)
         7     1.77700000E+00  # m_tau(pole)
         8     0.00000000E+00  # m_nu_3
        11     5.10998930E-04  # m_e(pole)
        12     0.00000000E+00  # m_nu_1
        13     1.05658372E-01  # m_muon(pole)
        14     0.00000000E+00  # m_nu_2
        21     5.00000000E-03  # m_d(2 GeV), MSbar
        22     2.50000000E-03  # m_u(2 GeV), MSbar
        23     9.50000000E-02  # m_s(2 GeV), MSbar
        24     1.27000000E+00  # m_c(m_c), MSbar
Block gauge Q=  3.88041347E+03  # (SUSY scale)
   1    3.55362975E-01  # g'(Q)^DRbar
   2    6.65198874E-01  # g(Q)^DRbar
   3    1.21977796E+00  # g3(Q)^DRbar
Block Yu Q=  3.88041347E+03  # (SUSY scale)
  1  1     8.38596995E-06   # Y_u(Q)^DRbar
  2  2     4.26007274E-03   # Y_c(Q)^DRbar
  3  3     1.01309253E+00   # Y_t(Q)^DRbar
Block Yd Q=  3.88041347E+03  # (SUSY scale)
  1  1     8.63116091E-04   # Y_d(Q)^DRbar
  2  2     1.63992057E-02   # Y_s(Q)^DRbar
  3  3     8.55940701E-01   # Y_b(Q)^DRbar
Block Ye Q=  3.88041347E+03  # (SUSY scale)
  1  1     1.50620069E-04   # Y_e(Q)^DRbar
  2  2     3.11434533E-02   # Y_mu(Q)^DRbar
  3  3     5.23781651E-01   # Y_tau(Q)^DRbar
Block Au Q=  3.88041347E+03  # (SUSY scale)
  1  1     0.00000000E+00   # A_u(Q)^DRbar
  2  2     0.00000000E+00   # A_c(Q)^DRbar
  3  3    -6.79329353E+03   # A_t(Q)^DRbar
Block Ad Q=  3.88041347E+03  # (SUSY scale)
  1  1     0.00000000E+00   # A_d(Q)^DRbar
  2  2     0.00000000E+00   # A_s(Q)^DRbar
  3  3    -1.12196758E+03   # A_b(Q)^DRbar
Block Ae Q=  3.88041347E+03  # (SUSY scale)
  1  1     0.00000000E+00   # A_e(Q)^DRbar
  2  2     0.00000000E+00   # A_mu(Q)^DRbar
  3  3     8.95595017E+02   # A_tau(Q)^DRbar
Block MSOFT Q=  3.88041347E+03  # soft SUSY breaking masses at Q
   1   -4.38774278E+01  # M_1
   2   -1.69215489E+03  # M_2
   3    4.21567016E+03  # M_3
  21    1.79390243E+07  # M^2_(H,d)
  22    1.16066190E+05  # M^2_(H,u)
  31    1.00000000E+04  # M_(L,11)
  32    1.00000000E+04  # M_(L,22)
  33    1.00000000E+04  # M_(L,33)
  34    1.00000000E+04  # M_(E,11)
  35    1.00000000E+04  # M_(E,22)
  36    1.00000000E+04  # M_(E,33)
  41    1.00000000E+04  # M_(Q,11)
  42    1.00000000E+04  # M_(Q,22)
  43    4.78560540E+03  # M_(Q,33)
  44    1.00000000E+04  # M_(U,11)
  45    1.00000000E+04  # M_(U,22)
  46    3.05666567E+03  # M_(U,33)
  47    1.00000000E+04  # M_(D,11)
  48    1.00000000E+04  # M_(D,22)
  49    2.22176113E+03  # M_(D,33)
Block MASS  # Mass spectrum
#   PDG code      mass          particle
         6     1.73200000E+02  # m_t(pole)
        23     9.11876000E+01  # m_Z(pole)
        24     8.04299946E+01  # W+
        15     1.77700000E+00  # m_tau(pole)
        25     1.27570718E+02  # h0
        35     4.23190781E+03  # H0
        36     4.23403415E+03  # A0
        37     4.23158809E+03  # H+
   1000001     1.00989357E+04  # ~d_L
   2000001     1.00755151E+04  # ~d_R
   1000002     1.00985749E+04  # ~u_L
   2000002     1.00781364E+04  # ~u_R
   1000003     1.00989402E+04  # ~s_L
   2000003     1.00755231E+04  # ~s_R
   1000004     1.00985794E+04  # ~c_L
   2000004     1.00781371E+04  # ~c_R
   1000005     2.35768147E+03  # ~b_1
   2000005     4.82951465E+03  # ~b_2
   1000006     3.11223692E+03  # ~t_1
   2000006     4.83819486E+03  # ~t_2
   1000011     1.00200983E+04  # ~e_L-
   2000011     1.00093695E+04  # ~e_R-
   1000012     1.00193388E+04  # ~nu_eL
   1000013     1.00201208E+04  # ~mu_L-
   2000013     1.00094115E+04  # ~mu_R-
   1000014     1.00193606E+04  # ~nu_muL
   1000015     1.00212168E+04  # ~tau_1-
   2000015     1.00266926E+04  # ~tau_2-
   1000016     1.00255812E+04  # ~nu_tauL
   1000021     4.69515301E+03  # ~g
   1000022     4.35498274E+01  # ~chi_10
   1000023     3.23795895E+02  # ~chi_20
   1000025     3.26516288E+02  # ~chi_30
   1000035     1.80549563E+03  # ~chi_40
   1000024     3.22006386E+02  # ~chi_1+
   1000037     1.80546363E+03  # ~chi_2+
# Higgs mixing
Block alpha # Effective Higgs mixing angle
          -1.93373363E-02   # alpha
Block Hmix Q=  3.88041347E+03  # Higgs mixing parameters
   1    3.11527128E+02  # mu
   2    5.12195388E+01  # tan[beta](Q)
   3    2.42962820E+02  # v(Q)
   4    1.79270452E+07  # m^2_A(Q)
Block stopmix # stop mixing matrix
   1  1     6.89394671E-02   # Re[R_st(1,1)]
   1  2     9.97620845E-01   # Re[R_st(1,2)]
   2  1    -9.97620845E-01   # Re[R_st(2,1)]
   2  2     6.89394671E-02   # Re[R_st(2,2)]
Block sbotmix # sbottom mixing matrix
   1  1     2.04855462E-03   # Re[R_sb(1,1)]
   1  2     9.99997902E-01   # Re[R_sb(1,2)]
   2  1    -9.99997902E-01   # Re[R_sb(2,1)]
   2  2     2.04855462E-03   # Re[R_sb(2,2)]
Block staumix # stau mixing matrix
   1  1     2.52849778E-01   # Re[R_sta(1,1)]
   1  2     9.67505550E-01   # Re[R_sta(1,2)]
   2  1    -9.67505550E-01   # Re[R_sta(2,1)]
   2  2     2.52849778E-01   # Re[R_sta(2,2)]
Block Nmix # neutralino mixing matrix
   1  1    -9.89970973E-01   # Re[N(1,1)]
   1  2     5.57459650E-04   # Re[N(1,2)]
   1  3    -1.40315746E-01   # Re[N(1,3)]
   1  4    -1.63906440E-02   # Re[N(1,4)]
   2  1     1.10962878E-01   # Re[N(2,1)]
   2  2     3.71465018E-02   # Re[N(2,2)]
   2  3    -7.00493800E-01   # Re[N(2,3)]
   2  4    -7.03999868E-01   # Re[N(2,4)]
   3  1    -8.74258093E-02   # Re[N(3,1)]
   3  2     2.71236961E-02   # Re[N(3,2)]
   3  3     6.99692157E-01   # Re[N(3,3)]
   3  4    -7.08556222E-01   # Re[N(3,4)]
   4  1     1.19997297E-03   # Re[N(4,1)]
   4  2    -9.98941506E-01   # Re[N(4,2)]
   4  3    -7.12842255E-03   # Re[N(4,3)]
   4  4    -4.54270174E-02   # Re[N(4,4)]
Block Umix # chargino mixing matrix
   1  1    -1.00862233E-02   # Re[U(1,1)]
   1  2     9.99949133E-01   # Re[U(1,2)]
   2  1    -9.99949133E-01   # Re[U(2,1)]
   2  2    -1.00862233E-02   # Re[U(2,2)]
Block Vmix # chargino mixing matrix
   1  1     6.42636578E-02   # Re[V(1,1)]
   1  2     9.97932955E-01   # Re[V(1,2)]
   2  1     9.97932955E-01   # Re[V(2,1)]
   2  2    -6.42636578E-02   # Re[V(2,2)]
DECAY        23     2.49520000E+00   # Z
DECAY        24     2.08500000E+00   # W
DECAY   2000011     5.02894507E+01   # ~e^-_R
#    BR                NDA      ID1      ID2
     9.80082883E-01    2     1000022        11   # BR(~e^-_R -> chi^0_1 e^-)
     1.22880189E-02    2     1000023        11   # BR(~e^-_R -> chi^0_2 e^-)
     7.62766057E-03    2     1000025        11   # BR(~e^-_R -> chi^0_3 e^-)
DECAY   1000011     1.36454786E+02   # ~e^-_L
#    BR                NDA      ID1      ID2
     9.02069903E-02    2     1000022        11   # BR(~e^-_L -> chi^0_1 e^-)
     2.99890008E-03    2     1000023        11   # BR(~e^-_L -> chi^0_2 e^-)
     1.23677051E-04    2     1000025        11   # BR(~e^-_L -> chi^0_3 e^-)
     3.01536597E-01    2     1000035        11   # BR(~e^-_L -> chi^0_4 e^-)
     6.05068210E-01    2    -1000037        12   # BR(~e^-_L -> chi^-_2 nu_e)
#    BR                NDA      ID1      ID2       ID3
DECAY   2000013     5.06751323E+01   # ~mu^-_R
#    BR                NDA      ID1      ID2
     9.72702719E-01    2     1000022        13   # BR(~mu^-_R -> chi^0_1 mu^-)
     1.40607894E-02    2     1000023        13   # BR(~mu^-_R -> chi^0_2 mu^-)
     9.43154478E-03    2     1000025        13   # BR(~mu^-_R -> chi^0_3 mu^-)
     3.80306504E-03    2    -1000024        14   # BR(~mu^-_R -> chi^-_1 nu_mu)
DECAY   1000013     1.36648072E+02   # ~mu^-_L
#    BR                NDA      ID1      ID2
     9.01074530E-02    2     1000022        13   # BR(~mu^-_L -> chi^0_1 mu^-)
     3.68748883E-03    2     1000023        13   # BR(~mu^-_L -> chi^0_2 mu^-)
     8.14718622E-04    2     1000025        13   # BR(~mu^-_L -> chi^0_3 mu^-)
     3.01110915E-01    2     1000035        13   # BR(~mu^-_L -> chi^0_4 mu^-)
     6.04213892E-01    2    -1000037        14   # BR(~mu^-_L -> chi^-_2 nu_mu)
#    BR                NDA      ID1      ID2       ID3
DECAY   1000015     1.61565382E+02   # ~tau^-_1
#    BR                NDA      ID1      ID2
     3.08484069E-01    2     1000022        15   # BR(~tau^-_1 -> chi^0_1 tau^-)
     1.67214175E-01    2     1000023        15   # BR(~tau^-_1 -> chi^0_2 tau^-)
     1.59948199E-01    2     1000025        15   # BR(~tau^-_1 -> chi^0_3 tau^-)
     1.53083176E-02    2     1000035        15   # BR(~tau^-_1 -> chi^0_4 tau^-)
     3.18325432E-01    2    -1000024        16   # BR(~tau^-_1 -> chi^-_1 nu_tau)
     3.07198082E-02    2    -1000037        16   # BR(~tau^-_1 -> chi^-_2 nu_tau)
DECAY   2000015     1.89114491E+02   # ~tau^-_2
#    BR                NDA      ID1      ID2
     7.39110812E-02    2     1000022        15   # BR(~tau^-_2 -> chi^0_1 tau^-)
     1.45902299E-01    2     1000023        15   # BR(~tau^-_2 -> chi^0_2 tau^-)
     1.48137784E-01    2     1000025        15   # BR(~tau^-_2 -> chi^0_3 tau^-)
     2.04676606E-01    2     1000035        15   # BR(~tau^-_2 -> chi^0_4 tau^-)
     1.66952983E-02    2    -1000024        16   # BR(~tau^-_2 -> chi^-_1 nu_tau)
     4.10676931E-01    2    -1000037        16   # BR(~tau^-_2 -> chi^-_2 nu_tau)
#    BR                NDA      ID1      ID2       ID3
DECAY   1000012     1.36458266E+02   # ~nu_e
#    BR                NDA      ID1      ID2
     9.05789544E-02    2     1000022        12   # BR(~nu_e -> chi^0_1 nu_e)
     1.57972800E-04    2     1000023        12   # BR(~nu_e -> chi^0_2 nu_e)
     1.75778589E-03    2     1000025        12   # BR(~nu_e -> chi^0_3 nu_e)
     3.02277911E-01    2     1000035        12   # BR(~nu_e -> chi^0_4 nu_e)
     2.66385775E-03    2     1000024        11   # BR(~nu_e -> chi^+_1 e^-)
     6.02563518E-01    2     1000037        11   # BR(~nu_e -> chi^+_2 e^-)
#    BR                NDA      ID1      ID2       ID3
DECAY   1000014     1.36651526E+02   # ~nu_mu
#    BR                NDA      ID1      ID2
     9.04510495E-02    2     1000022        14   # BR(~nu_mu -> chi^0_1 nu_mu)
     1.57749731E-04    2     1000023        14   # BR(~nu_mu -> chi^0_2 nu_mu)
     1.75530377E-03    2     1000025        14   # BR(~nu_mu -> chi^0_3 nu_mu)
     3.01851158E-01    2     1000035        14   # BR(~nu_mu -> chi^0_4 nu_mu)
     4.07178203E-03    2     1000024        13   # BR(~nu_mu -> chi^+_1 mu^-)
     6.01712957E-01    2     1000037        13   # BR(~nu_mu -> chi^+_2 mu^-)
#    BR                NDA      ID1      ID2       ID3
DECAY   1000016     1.91159697E+02   # ~nu_tau
#    BR                NDA      ID1      ID2
     6.46995612E-02    2     1000022        16   # BR(~nu_tau -> chi^0_1 nu_tau)
     1.12838540E-04    2     1000023        16   # BR(~nu_tau -> chi^0_2 nu_tau)
     1.25557059E-03    2     1000025        16   # BR(~nu_tau -> chi^0_3 nu_tau)
     2.15931855E-01    2     1000035        16   # BR(~nu_tau -> chi^0_4 nu_tau)
     2.87532886E-01    2     1000024        15   # BR(~nu_tau -> chi^+_1 tau^-)
     4.30467289E-01    2     1000037        15   # BR(~nu_tau -> chi^+_2 tau^-)
#    BR                NDA      ID1      ID2       ID3
DECAY   2000001     4.93020940E+02   # ~d_R
#    BR                NDA      ID1      ID2
     1.11813130E-02    2     1000022         1   # BR(~d_R -> chi^0_1 d)
     1.40339853E-04    2     1000023         1   # BR(~d_R -> chi^0_2 d)
     9.88590859E-01    2     1000021         1   # BR(~d_R -> ~g d)
DECAY   1000001     6.16164110E+02   # ~d_L
#    BR                NDA      ID1      ID2
     2.25607340E-03    2     1000022         1   # BR(~d_L -> chi^0_1 d)
     1.31328187E-04    2     1000025         1   # BR(~d_L -> chi^0_3 d)
     6.74889337E-02    2     1000035         1   # BR(~d_L -> chi^0_4 d)
     1.35192780E-01    2    -1000037         2   # BR(~d_L -> chi^-_2 u)
     7.94894354E-01    2     1000021         1   # BR(~d_L -> ~g d)
DECAY   2000003     4.93129056E+02   # ~s_R
#    BR                NDA      ID1      ID2
     1.11810166E-02    2     1000022         3   # BR(~s_R -> chi^0_1 s)
     1.93690748E-04    2     1000023         3   # BR(~s_R -> chi^0_2 s)
     1.40408760E-04    2     1000025         3   # BR(~s_R -> chi^0_3 s)
     1.09081464E-04    2    -1000024         4   # BR(~s_R -> chi^-_1 c)
     9.88375771E-01    2     1000021         3   # BR(~s_R -> ~g s)
DECAY   1000003     6.16222043E+02   # ~s_L
#    BR                NDA      ID1      ID2
     2.25758377E-03    2     1000022         3   # BR(~s_L -> chi^0_1 s)
     1.74034540E-04    2     1000025         3   # BR(~s_L -> chi^0_3 s)
     6.74826273E-02    2     1000035         3   # BR(~s_L -> chi^0_4 s)
     1.35180161E-01    2    -1000037         4   # BR(~s_L -> chi^-_2 c)
     7.94820367E-01    2     1000021         3   # BR(~s_L -> ~g s)
DECAY   1000005     6.71265998E+01   # ~b_1
#    BR                NDA      ID1      ID2
     2.93600285E-02    2     1000022         5   # BR(~b_1 -> chi^0_1 b)
     2.42032435E-01    2     1000023         5   # BR(~b_1 -> chi^0_2 b)
     2.41192902E-01    2     1000025         5   # BR(~b_1 -> chi^0_3 b)
     4.87405615E-01    2    -1000024         6   # BR(~b_1 -> chi^-_1 t)
DECAY   2000005     2.89016858E+02   # ~b_2
#    BR                NDA      ID1      ID2
     7.05349213E-03    2     1000022         5   # BR(~b_2 -> chi^0_1 b)
     1.18468532E-01    2     1000023         5   # BR(~b_2 -> chi^0_2 b)
     1.18311390E-01    2     1000025         5   # BR(~b_2 -> chi^0_3 b)
     5.43488002E-02    2     1000035         5   # BR(~b_2 -> chi^0_4 b)
     3.35892188E-01    2    -1000024         6   # BR(~b_2 -> chi^-_1 t)
     1.10175117E-01    2    -1000037         6   # BR(~b_2 -> chi^-_2 t)
     3.96816462E-03    2     1000021         5   # BR(~b_2 -> ~g b)
     2.51096458E-01    2     1000006       -24   # BR(~b_2 -> ~t_1 W^-)
     2.45324342E-04    2     1000005        23   # BR(~b_2 -> ~b_1 Z)
     4.40533302E-04    2     1000005        25   # BR(~b_2 -> ~b_1 h^0)
DECAY   2000002     5.10167929E+02   # ~u_R
#    BR                NDA      ID1      ID2
     4.32332374E-02    2     1000022         2   # BR(~u_R -> chi^0_1 u)
     5.42060089E-04    2     1000023         2   # BR(~u_R -> chi^0_2 u)
     3.36477627E-04    2     1000025         2   # BR(~u_R -> chi^0_3 u)
     9.55888165E-01    2     1000021         2   # BR(~u_R -> ~g u)
DECAY   1000002     6.16146282E+02   # ~u_L
#    BR                NDA      ID1      ID2
     2.22769640E-03    2     1000022         2   # BR(~u_L -> chi^0_1 u)
     2.33132583E-04    2     1000023         2   # BR(~u_L -> chi^0_2 u)
     6.74304360E-02    2     1000035         2   # BR(~u_L -> chi^0_4 u)
     5.94885975E-04    2     1000024         1   # BR(~u_L -> chi^+_1 d)
     1.34646607E-01    2     1000037         1   # BR(~u_L -> chi^+_2 d)
     7.94857630E-01    2     1000021         2   # BR(~u_L -> ~g u)
DECAY   2000004     5.10175231E+02   # ~c_R
#    BR                NDA      ID1      ID2
     4.32326218E-02    2     1000022         4   # BR(~c_R -> chi^0_1 c)
     5.45579096E-04    2     1000023         4   # BR(~c_R -> chi^0_2 c)
     3.40046671E-04    2     1000025         4   # BR(~c_R -> chi^0_3 c)
     9.55874563E-01    2     1000021         4   # BR(~c_R -> ~g c)
DECAY   1000004     6.16204179E+02   # ~c_L
#    BR                NDA      ID1      ID2
     2.22748958E-03    2     1000022         4   # BR(~c_L -> chi^0_1 c)
     2.36037751E-04    2     1000023         4   # BR(~c_L -> chi^0_2 c)
     6.74241402E-02    2     1000035         4   # BR(~c_L -> chi^0_4 c)
     6.82083718E-04    2     1000024         3   # BR(~c_L -> chi^+_1 s)
     1.34634031E-01    2     1000037         3   # BR(~c_L -> chi^+_2 s)
     7.94783641E-01    2     1000021         4   # BR(~c_L -> ~g c)
DECAY   1000006     1.30223845E+02   # ~t_1
#    BR                NDA      ID1      ID2
     5.16020262E-02    2     1000022         6   # BR(~t_1 -> chi^0_1 t)
     2.35594090E-01    2     1000023         6   # BR(~t_1 -> chi^0_2 t)
     2.36766103E-01    2     1000025         6   # BR(~t_1 -> chi^0_3 t)
     1.25627560E-03    2     1000035         6   # BR(~t_1 -> chi^0_4 t)
     4.72204777E-01    2     1000024         5   # BR(~t_1 -> chi^+_1 b)
     2.56535382E-03    2     1000037         5   # BR(~t_1 -> chi^+_2 b)
#    BR                NDA      ID1      ID2       ID3
DECAY   2000006     3.08300231E+02   # ~t_2
#    BR                NDA      ID1      ID2
     2.54158577E-03    2     1000022         6   # BR(~t_2 -> chi^0_1 t)
     1.57052059E-01    2     1000023         6   # BR(~t_2 -> chi^0_2 t)
     1.60186159E-01    2     1000025         6   # BR(~t_2 -> chi^0_3 t)
     5.01220245E-02    2     1000035         6   # BR(~t_2 -> chi^0_4 t)
     2.29522015E-01    2     1000024         5   # BR(~t_2 -> chi^+_1 b)
     1.00088305E-01    2     1000037         5   # BR(~t_2 -> chi^+_2 b)
     4.62038789E-04    2     1000005        24   # BR(~t_2 -> ~b_1 W^+)
     1.18559451E-01    2     1000006        23   # BR(~t_2 -> ~t_1 Z)
     1.81466363E-01    2     1000006        25   # BR(~t_2 -> ~t_1 h^0)
DECAY   1000024     2.14425204E-01   # chi^+_1
#    BR                NDA      ID1      ID2
     9.99526804E-01    2     1000022        24   # BR(chi^+_1 -> chi^0_1 W^+)
#    BR                NDA      ID1      ID2       ID3
     4.73189813E-04    3     1000022        -5         6   # BR(chi^+_1 -> chi^0_1 b_bar t)
DECAY   1000037     1.58278933E+01   # chi^+_2
#    BR                NDA      ID1      ID2
     2.43134930E-01    2     1000023        24   # BR(chi^+_2 -> chi^0_2 W^+)
     2.41970548E-01    2     1000025        24   # BR(chi^+_2 -> chi^0_3 W^+)
     2.41702233E-01    2     1000024        23   # BR(chi^+_2 -> chi^+_1 Z)
     2.43729403E-01    2     1000024        25   # BR(chi^+_2 -> chi^+_1 h^0)
#    BR                NDA      ID1      ID2       ID3
     1.15665673E-02    3     1000024         6        -6   # BR(chi^+_2 -> chi^+_1 t t_bar)
     9.07072714E-03    3     1000023        -5         6   # BR(chi^+_2 -> chi^0_2 b_bar t)
     8.71670651E-03    3     1000025        -5         6   # BR(chi^+_2 -> chi^0_3 b_bar t)
DECAY   1000022     0.00000000E+00   # chi^0_1
DECAY   1000023     1.73887886E-01   # chi^0_2
#    BR                NDA      ID1      ID2
     4.92866639E-01    2     1000022        23   # BR(chi^0_2 -> chi^0_1 Z)
     5.07104518E-01    2     1000022        25   # BR(chi^0_2 -> chi^0_1 h^0)
#    BR                NDA      ID1      ID2       ID3
DECAY   1000025     2.39091554E-01   # chi^0_3
#    BR                NDA      ID1      ID2
     5.88819319E-01    2     1000022        23   # BR(chi^0_3 -> chi^0_1 Z)
     4.11173115E-01    2     1000022        25   # BR(chi^0_3 -> chi^0_1 h^0)
#    BR                NDA      ID1      ID2       ID3
DECAY   1000035     1.73100825E+01   # chi^0_4
#    BR                NDA      ID1      ID2
     2.22364733E-01    2     1000024       -24   # BR(chi^0_4 -> chi^+_1 W^-)
     2.22364733E-01    2    -1000024        24   # BR(chi^0_4 -> chi^-_1 W^+)
     7.65962904E-02    2     1000023        23   # BR(chi^0_4 -> chi^0_2 Z)
     1.45104969E-01    2     1000025        23   # BR(chi^0_4 -> chi^0_3 Z)
     1.46216093E-01    2     1000023        25   # BR(chi^0_4 -> chi^0_2 h^0)
     1.58299583E-01    2     1000025        25   # BR(chi^0_4 -> chi^0_3 h^0)
#    BR                NDA      ID1      ID2       ID3
     5.09705756E-03    3     1000023         6        -6   # BR(chi^0_4 -> chi^0_2 t t_bar)
     5.25836819E-03    3     1000025         6        -6   # BR(chi^0_4 -> chi^0_3 t t_bar)
     9.29501265E-03    3     1000024         5        -6   # BR(chi^0_4 -> chi^+_1 b t_bar)
     9.29501265E-03    3    -1000024        -5         6   # BR(chi^0_4 -> chi^-_1 b_bar t)
DECAY   1000021     1.21653095E+02   # ~g
#    BR                NDA      ID1      ID2
     4.99172938E-04    2     1000006        -4   # BR(~g -> ~t_1 c_bar)
     4.99172938E-04    2    -1000006         4   # BR(~g -> ~t^*_1 c)
     1.75603489E-01    2     1000006        -6   # BR(~g -> ~t_1 t_bar)
     1.75603489E-01    2    -1000006         6   # BR(~g -> ~t^*_1 t)
     3.19451407E-01    2     1000005        -5   # BR(~g -> ~b_1 b_bar)
     3.19451407E-01    2    -1000005         5   # BR(~g -> ~b^*_1 b)
#    BR                NDA      ID1      ID2       ID3
     1.05227124E-03    3     1000023         6        -6   # BR(~g -> chi^0_2 t t_bar)
     7.83216929E-04    3     1000023         5        -5   # BR(~g -> chi^0_2 b b_bar)
     1.06726204E-03    3     1000025         6        -6   # BR(~g -> chi^0_3 t t_bar)
     7.82111415E-04    3     1000025         5        -5   # BR(~g -> chi^0_3 b b_bar)
     2.73764216E-04    3     1000035         6        -6   # BR(~g -> chi^0_4 t t_bar)
     3.11425177E-04    3     1000035         5        -5   # BR(~g -> chi^0_4 b b_bar)
     1.88103600E-03    3     1000024         5        -6   # BR(~g -> chi^+_1 b t_bar)
     1.88103600E-03    3    -1000024        -5         6   # BR(~g -> chi^-_1 b_bar t)
     3.54851363E-04    3     1000037         5        -6   # BR(~g -> chi^+_2 b t_bar)
     3.54851363E-04    3    -1000037        -5         6   # BR(~g -> chi^-_2 b_bar t)
DECAY        25     4.03029908E-03   # Gamma(h0)
     2.45961444E-03   2        22        22   # BR(h0 -> photon photon)
     1.80124824E-03   2        22        23   # BR(h0 -> photon Z)
     3.64454235E-02   2        23        23   # BR(h0 -> Z Z)
     2.86633989E-01   2       -24        24   # BR(h0 -> W W)
     7.40976947E-02   2        21        21   # BR(h0 -> gluon gluon)
     4.58342881E-09   2       -11        11   # BR(h0 -> Electron electron)
     2.03880373E-04   2       -13        13   # BR(h0 -> Muon muon)
     5.87890310E-02   2       -15        15   # BR(h0 -> Tau tau)
     1.29958907E-07   2        -2         2   # BR(h0 -> Up up)
     2.52227447E-02   2        -4         4   # BR(h0 -> Charm charm)
     5.28598041E-07   2        -1         1   # BR(h0 -> Down down)
     1.91181797E-04   2        -3         3   # BR(h0 -> Strange strange)
     5.08472750E-01   2        -5         5   # BR(h0 -> Bottom bottom)
     5.68177915E-03   2   1000022   1000022   # BR(h0 -> neutralino1 neutralino1)
DECAY        35     1.60150428E+02   # Gamma(HH)
     1.49030332E-08   2        22        22   # BR(HH -> photon photon)
     2.30417858E-08   2        22        23   # BR(HH -> photon Z)
     3.64609744E-08   2        23        23   # BR(HH -> Z Z)
     7.21960681E-09   2       -24        24   # BR(HH -> W W)
     5.07595114E-06   2        21        21   # BR(HH -> gluon gluon)
     9.83057498E-09   2       -11        11   # BR(HH -> Electron electron)
     4.37745566E-04   2       -13        13   # BR(HH -> Muon muon)
     1.26433049E-01   2       -15        15   # BR(HH -> Tau tau)
     2.39708542E-14   2        -2         2   # BR(HH -> Up up)
     4.65051577E-09   2        -4         4   # BR(HH -> Charm charm)
     3.24305529E-04   2        -6         6   # BR(HH -> Top top)
     6.81138989E-07   2        -1         1   # BR(HH -> Down down)
     2.46383412E-04   2        -3         3   # BR(HH -> Strange strange)
     6.17111270E-01   2        -5         5   # BR(HH -> Bottom bottom)
     1.00537575E-03   2  -1000024   1000024   # BR(HH -> Chargino1 chargino1)
     7.44556820E-02   2  -1000024   1000037   # BR(HH -> Chargino1 chargino2)
     7.44556820E-02   2  -1000037   1000024   # BR(HH -> Chargino2 chargino1)
     7.46556867E-06   2  -1000037   1000037   # BR(HH -> Chargino2 chargino2)
     1.18737719E-03   2   1000022   1000022   # BR(HH -> neutralino1 neutralino1)
     1.51497229E-02   2   1000022   1000023   # BR(HH -> neutralino1 neutralino2)
     1.33819543E-02   2   1000022   1000025   # BR(HH -> neutralino1 neutralino3)
     1.36930140E-03   2   1000022   1000035   # BR(HH -> neutralino1 neutralino4)
     3.85260410E-05   2   1000023   1000023   # BR(HH -> neutralino2 neutralino2)
     4.76407247E-04   2   1000023   1000025   # BR(HH -> neutralino2 neutralino3)
     3.55457662E-02   2   1000023   1000035   # BR(HH -> neutralino2 neutralino4)
     5.55739018E-04   2   1000025   1000025   # BR(HH -> neutralino3 neutralino3)
     3.78084570E-02   2   1000025   1000035   # BR(HH -> neutralino3 neutralino4)
     3.73934976E-06   2   1000035   1000035   # BR(HH -> neutralino4 neutralino4)
     1.96518536E-07   2        25        25   # BR(HH -> h0 h0)
DECAY        36     1.50276523E+02   # Gamma(A0)
     1.69294230E-09   2        22        22   # BR(A0 -> photon photon)
     4.10502316E-09   2        22        23   # BR(A0 -> photon Z)
     8.35538135E-06   2        21        21   # BR(A0 -> gluon gluon)
     9.60641062E-09   2       -11        11   # BR(A0 -> Electron electron)
     4.27771846E-04   2       -13        13   # BR(A0 -> Muon muon)
     1.23552471E-01   2       -15        15   # BR(A0 -> Tau tau)
     2.16848533E-14   2        -2         2   # BR(A0 -> Up up)
     4.20694697E-09   2        -4         4   # BR(A0 -> Charm charm)
     2.94523560E-04   2        -6         6   # BR(A0 -> Top top)
     6.65572356E-07   2        -1         1   # BR(A0 -> Down down)
     2.40753152E-04   2        -3         3   # BR(A0 -> Strange strange)
     6.03015256E-01   2        -5         5   # BR(A0 -> Bottom bottom)
     1.08179217E-03   2  -1000024   1000024   # BR(A0 -> Chargino1 chargino1)
     7.94123618E-02   2  -1000024   1000037   # BR(A0 -> Chargino1 chargino2)
     7.94123618E-02   2  -1000037   1000024   # BR(A0 -> Chargino2 chargino1)
     1.39035744E-05   2  -1000037   1000037   # BR(A0 -> Chargino2 chargino2)
     1.25487435E-03   2   1000022   1000022   # BR(A0 -> neutralino1 neutralino1)
     1.49855040E-02   2   1000022   1000023   # BR(A0 -> neutralino1 neutralino2)
     1.54236508E-02   2   1000022   1000025   # BR(A0 -> neutralino1 neutralino3)
     1.49726106E-03   2   1000022   1000035   # BR(A0 -> neutralino1 neutralino4)
     3.88595865E-05   2   1000023   1000023   # BR(A0 -> neutralino2 neutralino2)
     4.74350036E-04   2   1000023   1000025   # BR(A0 -> neutralino2 neutralino3)
     4.04409963E-02   2   1000023   1000035   # BR(A0 -> neutralino2 neutralino4)
     6.55474359E-04   2   1000025   1000025   # BR(A0 -> neutralino3 neutralino3)
     3.77617356E-02   2   1000025   1000035   # BR(A0 -> neutralino3 neutralino4)
     6.97082878E-06   2   1000035   1000035   # BR(A0 -> neutralino4 neutralino4)
     8.73941969E-08   2        23        25   # BR(A0 -> Z h0)
     3.17789098E-13   2        23        35   # BR(A0 -> Z HH)
     1.54607298E-39   2        25        25   # BR(A0 -> h0 h0)
DECAY        37     1.77892705E+02   # Gamma(Hp)
     1.05423819E-08   2       -11        12   # BR(Hp -> Electron nu_e)
     4.50719753E-04   2       -13        14   # BR(Hp -> Muon nu_mu)
     1.27489220E-01   2       -15        16   # BR(Hp -> Tau nu_tau)
     6.30739637E-07   2        -1         2   # BR(Hp -> Down up)
     1.06883034E-05   2        -3         2   # BR(Hp -> Strange up)
     6.79031997E-06   2        -5         2   # BR(Hp -> Bottom up)
     2.97697910E-08   2        -1         4   # BR(Hp -> Down charm)
     2.27334961E-04   2        -3         4   # BR(Hp -> Strange charm)
     9.50887917E-04   2        -5         4   # BR(Hp -> Bottom charm)
     2.21240466E-08   2        -1         6   # BR(Hp -> Down top)
     8.21382350E-07   2        -3         6   # BR(Hp -> Strange top)
     6.41111867E-01   2        -5         6   # BR(Hp -> Bottom top)
     2.72262428E-02   2   1000022   1000024   # BR(Hp -> neutralino1 chargino1)
     2.49889567E-03   2   1000022   1000037   # BR(Hp -> neutralino1 chargino2)
     7.38335530E-04   2   1000023   1000024   # BR(Hp -> neutralino2 chargino1)
     6.63106109E-02   2   1000023   1000037   # BR(Hp -> neutralino2 chargino2)
     3.82402145E-06   2   1000024   1000025   # BR(Hp -> chargino1 neutralino3)
     6.58732856E-02   2   1000025   1000037   # BR(Hp -> neutralino3 chargino2)
     6.70997083E-02   2   1000024   1000035   # BR(Hp -> chargino1 neutralino4)
     6.74314008E-12   2   1000035   1000037   # BR(Hp -> neutralino4 chargino2)
     7.37217935E-08   2        24        25   # BR(Hp -> W h0)
DECAY         6     2.43000000E+00   # top
#    BR                NDA      ID1      ID2
     1.00000000E+00    2           5        24   # BR(t -> b W)
Block HiggsBoundsInputHiggsCouplingsFermions
# ScalarNormEffCoupSq PseudoSNormEffCoupSq NP IP1 IP2 IP2
    9.81241724E-01    0.00000000E+00        3  25   5   5  # h0-b-b eff. coupling^2, normalised to SM
    2.62345991E+03    0.00000000E+00        3  35   5   5  # H0-b-b eff. coupling^2, normalised to SM
    0.00000000E+00    2.62344115E+03        3  36   5   5  # A0-b-b eff. coupling^2, normalised to SM
#
    1.00000715E+00    0.00000000E+00        3  25   6   6  # h0-t-t eff. coupling^2, normalised to SM
    3.74028486E-04    0.00000000E+00        3  35   6   6  # H0-t-t eff. coupling^2, normalised to SM
    0.00000000E+00    3.81178742E-04        3  36   6   6  # A0-t-t eff. coupling^2, normalised to SM
#
    9.81241724E-01    0.00000000E+00        3  25  15  15  # h0-tau-tau eff. coupling^2, normalised to SM
    2.62345991E+03    0.00000000E+00        3  35  15  15  # H0-tau-tau eff. coupling^2, normalised to SM
    0.00000000E+00    2.62344115E+03        3  36  15  15  # A0-tau-tau eff. coupling^2, normalised to SM
#
Block HiggsBoundsInputHiggsCouplingsBosons
    9.99999966E-01        3  25  24  24  # h0-W-W eff. coupling^2, normalised to SM
    3.38497307E-08        3  35  24  24  # H0-W-W eff. coupling^2, normalised to SM
    0.00000000E+00        3  36  24  24  # A0-W-W eff. coupling^2, normalised to SM
#
    9.99999966E-01        3  25  23  23  # h0-Z-Z eff. coupling^2, normalised to SM
    3.38497307E-08        3  35  23  23  # H0-Z-Z eff. coupling^2, normalised to SM
    0.00000000E+00        3  36  23  23  # A0-Z-Z eff. coupling^2, normalised to SM
#
    1.26293501E+00        3  25  21  21  # h0-g-g eff. coupling^2, normalised to SM
    1.14500086E-02        3  35  21  21  # H0-g-g eff. coupling^2, normalised to SM
    1.36086685E-01        3  36  21  21  # A0-g-g eff. coupling^2, normalised to SM
#
    0.00000000E+00        3  25  25  23  # h0-h0-Z eff. coupling^2, normalised to SM
    0.00000000E+00        3  35  25  23  # H0-h0-Z eff. coupling^2, normalised to SM
    3.38497307E-08        3  36  25  23  # A0-h0-Z eff. coupling^2, normalised to SM
    0.00000000E+00        3  35  35  23  # H0-H0-Z eff. coupling^2, normalised to SM
    9.99999966E-01        3  36  35  23  # A0-H0-Z eff. coupling^2, normalised to SM
    0.00000000E+00        3  36  36  23  # A0-A0-Z eff. coupling^2, normalised to SM
#
    0.00000000E+00        4  25  21  21  23  # h0-g-g-Z eff. coupling^2, normalised to SM
    0.00000000E+00        4  35  21  21  23  # H0-g-g-Z eff. coupling^2, normalised to SM
    0.00000000E+00        4  36  21  21  23  # A0-g-g-Z eff. coupling^2, normalised to SM
Block SPhenoLowEnergy  # low energy observables
    1    3.09051452E-04   # BR(b -> s gamma)
    2    1.59199857E-06   # BR(b -> s mu+ mu-)
    3    3.52536599E-05   # BR(b -> s nu nu)
    4    3.02243885E-15   # BR(Bd -> e+ e-)
    5    1.29112995E-10   # BR(Bd -> mu+ mu-)
    6    2.69045029E-08   # BR(Bd -> tau+ tau-)
    7    1.00995688E-13   # BR(Bs -> e+ e-)
    8    4.31446331E-09   # BR(Bs -> mu+ mu-)
    9    9.11108329E-07   # BR(Bs -> tau+ tau-)
   10    9.60767840E-05   # BR(B_u -> tau nu)
   11    9.92436396E-01   # BR(B_u -> tau nu)/BR(B_u -> tau nu)_SM
   12    5.41868549E-01   # |Delta(M_Bd)| [ps^-1] 
   13    1.93553932E+01   # |Delta(M_Bs)| [ps^-1] 
   14    0.00000000E+00   # neutron EDM according to the chiral quark model
   15    0.00000000E+00   # neutron EDM according to the relativistic quark-parton model
   16    2.15700793E-03   # epsilon_K
   17    2.28165590E-15   # Delta(M_K)
   18    2.48045196E-11   # BR(K^0 -> pi^0 nu nu)
   19    8.29135101E-11   # BR(K^+ -> pi^+ nu nu)
   20   -4.64315705E-16   # Delta(g-2)_electron/2
   21   -1.98511193E-11   # Delta(g-2)_muon/2
   22   -5.62796288E-09   # Delta(g-2)_tau/2
   23    0.00000000E+00   # electric dipole moment of the electron
   24    0.00000000E+00   # electric dipole moment of the muon
   25    0.00000000E+00   # electric dipole moment of the tau
   26    0.00000000E+00   # Br(mu -> e gamma)
   27    0.00000000E+00   # Br(tau -> e gamma)
   28    0.00000000E+00   # Br(tau -> mu gamma)
   29    0.00000000E+00   # Br(mu -> 3 e)
   30    0.00000000E+00   # Br(tau -> 3 e)
   31    0.00000000E+00   # Br(tau -> 3 mu)
   39    6.67856342E-05   # Delta(rho_parameter)
   40    0.00000000E+00   # BR(Z -> e mu)
   41    0.00000000E+00   # BR(Z -> e tau)
   42    0.00000000E+00   # BR(Z -> mu tau)
Block FWCOEF Q=  1.60000000E+02  # Wilson coefficients at scale Q
#    id        order  M        value         comment
     0305 4422   00   0    -1.88819110E-01   # C7
     0305 4422   00   2    -1.74681120E-01   # C7
     0305 4322   00   2     7.00254969E-05   # C7'
     0305 6421   00   0    -9.52278348E-02   # C8
     0305 6421   00   2    -9.11765559E-02   # C8
     0305 6321   00   2    -4.24124637E-05   # C8'
 03051111 4133   00   0     1.62654018E+00   # C9 e+e-
 03051111 4133   00   2     1.62670497E+00   # C9 e+e-
 03051111 4233   00   2     5.68664901E-04   # C9' e+e-
 03051111 4137   00   0    -4.44923228E+00   # C10 e+e-
 03051111 4137   00   2    -4.44782693E+00   # C10 e+e-
 03051111 4237   00   2    -4.20964760E-03   # C10' e+e-
 03051313 4133   00   0     1.62654018E+00   # C9 mu+mu-
 03051313 4133   00   2     1.62670466E+00   # C9 mu+mu-
 03051313 4233   00   2     5.68664455E-04   # C9' mu+mu-
 03051313 4137   00   0    -4.44923228E+00   # C10 mu+mu-
 03051313 4137   00   2    -4.44782725E+00   # C10 mu+mu-
 03051313 4237   00   2    -4.20964800E-03   # C10' mu+mu-
 03051212 4137   00   0     1.50535012E+00   # C11 nu_1 nu_1
 03051212 4137   00   2     1.50504726E+00   # C11 nu_1 nu_1
 03051212 4237   00   2     9.10313667E-04   # C11' nu_1 nu_1
 03051414 4137   00   0     1.50535012E+00   # C11 nu_2 nu_2
 03051414 4137   00   2     1.50504726E+00   # C11 nu_2 nu_2
 03051414 4237   00   2     9.10313718E-04   # C11' nu_2 nu_2
 03051616 4137   00   0     1.50535012E+00   # C11 nu_3 nu_3
 03051616 4137   00   2     1.50504727E+00   # C11 nu_3 nu_3
 03051616 4237   00   2     9.10327909E-04   # C11' nu_3 nu_3
Block IMFWCOEF Q=  1.60000000E+02  # Im(Wilson coefficients) at scale Q
#    id        order  M        value         comment
     0305 4422   00   0     3.85838788E-07   # C7
     0305 4422   00   2    -2.51578698E-06   # C7
     0305 4322   00   2     2.58954328E-06   # C7'
     0305 6421   00   0     3.30496439E-07   # C8
     0305 6421   00   2    -1.31146857E-05   # C8
     0305 6321   00   2     1.01219475E-06   # C8'
 03051111 4133   00   2    -5.19616315E-07   # C9 e+e-
 03051111 4233   00   2     1.08431278E-05   # C9' e+e-
 03051111 4137   00   2     5.25201640E-06   # C10 e+e-
 03051111 4237   00   2    -8.02706548E-05   # C10' e+e-
 03051313 4133   00   2    -5.19619466E-07   # C9 mu+mu-
 03051313 4233   00   2     1.08431240E-05   # C9' mu+mu-
 03051313 4137   00   2     5.25202108E-06   # C10 mu+mu-
 03051313 4237   00   2    -8.02706662E-05   # C10' mu+mu-
 03051212 4137   00   2    -1.11700373E-06   # C11 nu_1 nu_1
 03051212 4237   00   2     1.73580990E-05   # C11' nu_1 nu_1
 03051414 4137   00   2    -1.11700358E-06   # C11 nu_2 nu_2
 03051414 4237   00   2     1.73580990E-05   # C11' nu_2 nu_2
 03051616 4137   00   2    -1.11695968E-06   # C11 nu_3 nu_3
 03051616 4237   00   2     1.73580989E-05   # C11' nu_3 nu_3
