# SUSY Les Houches Accord 2 - MSSM spectrum + Decays
# SPheno v4.0.5be
# W. Porod, Comput. Phys. Commun. 153 (2003) 275-315, hep-ph/0301101;
# W. Porod, F.~Staub, Comput. Phys. Commun. 183 (2012) 2458
#                     arXiv:1104.1573 [hep-ph] 
# in case of problems send email to porod@physik.uni-wuerzburg.de
# Created: 07.09.2021,  19:51
Block SPINFO         # Program information
     1   SPheno      # spectrum calculator
     2   v4.0.5be    # version number
#
Block SPhenoINFO     # SPheno specific information
    1      2         # using 2-loop RGEs
    2      2         # using pole masses for boundary conditions at mZ
Block MODSEL  # Model selection
    1    0    # general MSSM
Block MINPAR  # Input parameters
    3    3.12922978E+01  # tanb at m_Z    
    4   -1.00000000E+00  # Sign(mu)
Block EXTPAR  # non-universal input parameters
    0    3.92145841E+03  # scale for input parameters
    1   -2.00493999E+02  # M_1
    2   -6.42610538E+02  # M_2
    3    1.26198790E+03  # M_3
   11    2.41766181E+02  # A_t
   12    8.45910098E+02  # A_b
   13    1.28991406E+03  # A_tau
   23   -2.25295252E+02  # mu
   25    3.01642273E+01  # tan(beta)
   26    1.47832492E+02  # m_A, pole mass
   31    1.00000000E+04  # M_L11
   32    1.00000000E+04  # M_L22
   33    1.00000000E+04  # M_L33
   34    1.00000000E+04  # M_E11
   35    1.00000000E+04  # M_E22
   36    1.00000000E+04  # M_E33
   41    1.00000000E+04  # M_Q11
   42    1.00000000E+04  # M_Q22
   43    3.56045423E+03  # M_Q33
   44    1.00000000E+04  # M_U11
   45    1.00000000E+04  # M_U22
   46    4.29326219E+03  # M_U33
   47    1.00000000E+04  # M_D11
   48    1.00000000E+04  # M_D22
   49    2.69665678E+03  # M_D33
Block SMINPUTS  # SM parameters
         1     1.27908970E+02  # alpha_em^-1(MZ)^MSbar
         2     1.16637870E-05  # G_mu [GeV^-2]
         3     1.18400000E-01  # alpha_s(MZ)^MSbar
         4     9.11876000E+01  # m_Z(pole)
         5     4.18000000E+00  # m_b(m_b), MSbar
         6     1.73200000E+02  # m_t(pole)
         7     1.77700000E+00  # m_tau(pole)
         8     0.00000000E+00  # m_nu_3
        11     5.10998930E-04  # m_e(pole)
        12     0.00000000E+00  # m_nu_1
        13     1.05658372E-01  # m_muon(pole)
        14     0.00000000E+00  # m_nu_2
        21     5.00000000E-03  # m_d(2 GeV), MSbar
        22     2.50000000E-03  # m_u(2 GeV), MSbar
        23     9.50000000E-02  # m_s(2 GeV), MSbar
        24     1.27000000E+00  # m_c(m_c), MSbar
Block gauge Q=  3.92145841E+03  # (SUSY scale)
   1    3.55362975E-01  # g'(Q)^DRbar
   2    6.65198874E-01  # g(Q)^DRbar
   3    1.21977796E+00  # g3(Q)^DRbar
Block Yu Q=  3.92145841E+03  # (SUSY scale)
  1  1     8.38897827E-06   # Y_u(Q)^DRbar
  2  2     4.26160096E-03   # Y_c(Q)^DRbar
  3  3     1.01345596E+00   # Y_t(Q)^DRbar
Block Yd Q=  3.92145841E+03  # (SUSY scale)
  1  1     5.08488952E-04   # Y_d(Q)^DRbar
  2  2     9.66129010E-03   # Y_s(Q)^DRbar
  3  3     5.04261703E-01   # Y_b(Q)^DRbar
Block Ye Q=  3.92145841E+03  # (SUSY scale)
  1  1     8.87350405E-05   # Y_e(Q)^DRbar
  2  2     1.83475921E-02   # Y_mu(Q)^DRbar
  3  3     3.08576316E-01   # Y_tau(Q)^DRbar
Block Au Q=  3.92145841E+03  # (SUSY scale)
  1  1     0.00000000E+00   # A_u(Q)^DRbar
  2  2     0.00000000E+00   # A_c(Q)^DRbar
  3  3     2.41766182E+02   # A_t(Q)^DRbar
Block Ad Q=  3.92145841E+03  # (SUSY scale)
  1  1     0.00000000E+00   # A_d(Q)^DRbar
  2  2     0.00000000E+00   # A_s(Q)^DRbar
  3  3     8.45910101E+02   # A_b(Q)^DRbar
Block Ae Q=  3.92145841E+03  # (SUSY scale)
  1  1     0.00000000E+00   # A_e(Q)^DRbar
  2  2     0.00000000E+00   # A_mu(Q)^DRbar
  3  3     1.28991406E+03   # A_tau(Q)^DRbar
Block MSOFT Q=  3.92145841E+03  # soft SUSY breaking masses at Q
   1   -2.00493999E+02  # M_1
   2   -6.42610538E+02  # M_2
   3    1.26198790E+03  # M_3
  21   -6.92206822E+04  # M^2_(H,d)
  22    3.02283321E+05  # M^2_(H,u)
  31    1.00000000E+04  # M_(L,11)
  32    1.00000000E+04  # M_(L,22)
  33    1.00000000E+04  # M_(L,33)
  34    1.00000000E+04  # M_(E,11)
  35    1.00000000E+04  # M_(E,22)
  36    1.00000000E+04  # M_(E,33)
  41    1.00000000E+04  # M_(Q,11)
  42    1.00000000E+04  # M_(Q,22)
  43    3.56045423E+03  # M_(Q,33)
  44    1.00000000E+04  # M_(U,11)
  45    1.00000000E+04  # M_(U,22)
  46    4.29326219E+03  # M_(U,33)
  47    1.00000000E+04  # M_(D,11)
  48    1.00000000E+04  # M_(D,22)
  49    2.69665678E+03  # M_(D,33)
Block MASS  # Mass spectrum
#   PDG code      mass          particle
         6     1.73200000E+02  # m_t(pole)
        23     9.11876000E+01  # m_Z(pole)
        24     8.04299946E+01  # W+
        15     1.77700000E+00  # m_tau(pole)
        25     1.22307029E+02  # h0
        35     1.48369889E+02  # H0
        36     1.47832492E+02  # A0
        37     1.83968763E+02  # H+
   1000001     1.01227090E+04  # ~d_L
   2000001     1.00974473E+04  # ~d_R
   1000002     1.01223439E+04  # ~u_L
   2000002     1.01007992E+04  # ~u_R
   1000003     1.01227108E+04  # ~s_L
   2000003     1.00974503E+04  # ~s_R
   1000004     1.01223458E+04  # ~c_L
   2000004     1.01007998E+04  # ~c_R
   1000005     2.73109338E+03  # ~b_1
   2000005     3.58126287E+03  # ~b_2
   1000006     3.58343666E+03  # ~t_1
   2000006     4.29136539E+03  # ~t_2
   1000011     1.00214087E+04  # ~e_L-
   2000011     1.00088308E+04  # ~e_R-
   1000012     1.00206364E+04  # ~nu_eL
   1000013     1.00214168E+04  # ~mu_L-
   2000013     1.00088462E+04  # ~mu_R-
   1000014     1.00206443E+04  # ~nu_muL
   1000015     1.00132049E+04  # ~tau_1-
   2000015     1.00237254E+04  # ~tau_2-
   1000016     1.00229024E+04  # ~nu_tauL
   1000021     1.59537225E+03  # ~g
   1000022     1.84177983E+02  # ~chi_10
   1000023     2.48411673E+02  # ~chi_20
   1000025     2.55152622E+02  # ~chi_30
   1000035     7.04728063E+02  # ~chi_40
   1000024     2.39110387E+02  # ~chi_1+
   1000037     7.04924999E+02  # ~chi_2+
# Higgs mixing
Block alpha # Effective Higgs mixing angle
          -1.39106032E-01   # alpha
Block Hmix Q=  3.92145841E+03  # Higgs mixing parameters
   1   -2.25295252E+02  # mu
   2    3.01642273E+01  # tan[beta](Q)
   3    2.42958298E+02  # v(Q)
   4    2.18544457E+04  # m^2_A(Q)
Block stopmix # stop mixing matrix
   1  1    -9.99994468E-01   # Re[R_st(1,1)]
   1  2     3.32618174E-03   # Re[R_st(1,2)]
   2  1    -3.32618174E-03   # Re[R_st(2,1)]
   2  2    -9.99994468E-01   # Re[R_st(2,2)]
Block sbotmix # sbottom mixing matrix
   1  1    -3.02685552E-03   # Re[R_sb(1,1)]
   1  2     9.99995419E-01   # Re[R_sb(1,2)]
   2  1    -9.99995419E-01   # Re[R_sb(2,1)]
   2  2    -3.02685552E-03   # Re[R_sb(2,2)]
Block staumix # stau mixing matrix
   1  1    -6.77813078E-02   # Re[R_sta(1,1)]
   1  2     9.97700203E-01   # Re[R_sta(1,2)]
   2  1    -9.97700203E-01   # Re[R_sta(2,1)]
   2  2    -6.77813078E-02   # Re[R_sta(2,2)]
Block Nmix # neutralino mixing matrix
   1  1     8.50908363E-01   # Re[N(1,1)]
   1  2    -5.20435418E-02   # Re[N(1,2)]
   1  3    -4.13840345E-01   # Re[N(1,3)]
   1  4     3.19347141E-01   # Re[N(1,4)]
   2  1     6.76917332E-02   # Re[N(2,1)]
   2  2    -5.90791635E-02   # Re[N(2,2)]
   2  3     6.96197904E-01   # Re[N(2,3)]
   2  4     7.12204999E-01   # Re[N(2,4)]
   3  1     5.20801692E-01   # Re[N(3,1)]
   3  2     1.15076856E-01   # Re[N(3,2)]
   3  3     5.84573692E-01   # Re[N(3,3)]
   3  4    -6.11389003E-01   # Re[N(3,4)]
   4  1     1.17636788E-02   # Re[N(4,1)]
   4  2    -9.90231508E-01   # Re[N(4,2)]
   4  3     4.81481650E-02   # Re[N(4,3)]
   4  4    -1.30326247E-01   # Re[N(4,4)]
Block Umix # chargino mixing matrix
   1  1    -6.80535167E-02   # Re[U(1,1)]
   1  2    -9.97681672E-01   # Re[U(1,2)]
   2  1    -9.97681672E-01   # Re[U(2,1)]
   2  2     6.80535167E-02   # Re[U(2,2)]
Block Vmix # chargino mixing matrix
   1  1     1.84385980E-01   # Re[V(1,1)]
   1  2     9.82853911E-01   # Re[V(1,2)]
   2  1     9.82853911E-01   # Re[V(2,1)]
   2  2    -1.84385980E-01   # Re[V(2,2)]
DECAY        23     2.49520000E+00   # Z
DECAY        24     2.08500000E+00   # W
DECAY   2000011     5.02479897E+01   # ~e^-_R
#    BR                NDA      ID1      ID2
     7.24170067E-01    2     1000022        11   # BR(~e^-_R -> chi^0_1 e^-)
     4.58043411E-03    2     1000023        11   # BR(~e^-_R -> chi^0_2 e^-)
     2.71112336E-01    2     1000025        11   # BR(~e^-_R -> chi^0_3 e^-)
     1.37132003E-04    2     1000035        11   # BR(~e^-_R -> chi^0_4 e^-)
DECAY   1000011     1.43614613E+02   # ~e^-_L
#    BR                NDA      ID1      ID2
     4.97318751E-02    2     1000022        11   # BR(~e^-_L -> chi^0_1 e^-)
     1.61110271E-04    2     1000023        11   # BR(~e^-_L -> chi^0_2 e^-)
     4.74479776E-02    2     1000025        11   # BR(~e^-_L -> chi^0_3 e^-)
     2.94422360E-01    2     1000035        11   # BR(~e^-_L -> chi^0_4 e^-)
     2.84164496E-03    2    -1000024        12   # BR(~e^-_L -> chi^-_1 nu_e)
     6.05395032E-01    2    -1000037        12   # BR(~e^-_L -> chi^-_2 nu_e)
#    BR                NDA      ID1      ID2       ID3
DECAY   2000013     5.03819665E+01   # ~mu^-_R
#    BR                NDA      ID1      ID2
     7.22473159E-01    2     1000022        13   # BR(~mu^-_R -> chi^0_1 mu^-)
     5.21230551E-03    2     1000023        13   # BR(~mu^-_R -> chi^0_2 mu^-)
     2.70845841E-01    2     1000025        13   # BR(~mu^-_R -> chi^0_3 mu^-)
     1.39821215E-04    2     1000035        13   # BR(~mu^-_R -> chi^0_4 mu^-)
     1.32277299E-03    2    -1000024        14   # BR(~mu^-_R -> chi^-_1 nu_mu)
DECAY   1000013     1.43681765E+02   # ~mu^-_L
#    BR                NDA      ID1      ID2
     4.97886132E-02    2     1000022        13   # BR(~mu^-_L -> chi^0_1 mu^-)
     3.87153960E-04    2     1000023        13   # BR(~mu^-_L -> chi^0_2 mu^-)
     4.75852553E-02    2     1000025        13   # BR(~mu^-_L -> chi^0_3 mu^-)
     2.94286069E-01    2     1000035        13   # BR(~mu^-_L -> chi^0_4 mu^-)
     2.84031917E-03    2    -1000024        14   # BR(~mu^-_L -> chi^-_1 nu_mu)
     6.05112589E-01    2    -1000037        14   # BR(~mu^-_L -> chi^-_2 nu_mu)
#    BR                NDA      ID1      ID2       ID3
DECAY   1000015     8.85084166E+01   # ~tau^-_1
#    BR                NDA      ID1      ID2
     4.55723842E-01    2     1000022        15   # BR(~tau^-_1 -> chi^0_1 tau^-)
     1.03411318E-01    2     1000023        15   # BR(~tau^-_1 -> chi^0_2 tau^-)
     2.22559536E-01    2     1000025        15   # BR(~tau^-_1 -> chi^0_3 tau^-)
     6.63488857E-04    2     1000035        15   # BR(~tau^-_1 -> chi^0_4 tau^-)
     2.16354790E-01    2    -1000024        16   # BR(~tau^-_1 -> chi^-_1 nu_tau)
     1.28702522E-03    2    -1000037        16   # BR(~tau^-_1 -> chi^-_2 nu_tau)
DECAY   2000015     1.62267271E+02   # ~tau^-_2
#    BR                NDA      ID1      ID2
     5.98274587E-02    2     1000022        15   # BR(~tau^-_2 -> chi^0_1 tau^-)
     5.83941592E-02    2     1000023        15   # BR(~tau^-_2 -> chi^0_2 tau^-)
     8.44318685E-02    2     1000025        15   # BR(~tau^-_2 -> chi^0_3 tau^-)
     2.60856888E-01    2     1000035        15   # BR(~tau^-_2 -> chi^0_4 tau^-)
     7.24715823E-04    2    -1000024        16   # BR(~tau^-_2 -> chi^-_1 nu_tau)
     5.35764910E-01    2    -1000037        16   # BR(~tau^-_2 -> chi^-_2 nu_tau)
#    BR                NDA      ID1      ID2       ID3
DECAY   1000012     1.43619178E+02   # ~nu_e
#    BR                NDA      ID1      ID2
     7.87682092E-02    2     1000022        12   # BR(~nu_e -> chi^0_1 nu_e)
     2.78230281E-03    2     1000023        12   # BR(~nu_e -> chi^0_2 nu_e)
     8.16350043E-03    2     1000025        12   # BR(~nu_e -> chi^0_3 nu_e)
     3.01958885E-01    2     1000035        12   # BR(~nu_e -> chi^0_4 nu_e)
     2.08582245E-02    2     1000024        11   # BR(~nu_e -> chi^+_1 e^-)
     5.87468878E-01    2     1000037        11   # BR(~nu_e -> chi^+_2 e^-)
#    BR                NDA      ID1      ID2       ID3
DECAY   1000014     1.43686323E+02   # ~nu_mu
#    BR                NDA      ID1      ID2
     7.87314633E-02    2     1000022        14   # BR(~nu_mu -> chi^0_1 nu_mu)
     2.78100485E-03    2     1000023        14   # BR(~nu_mu -> chi^0_2 nu_mu)
     8.15969211E-03    2     1000025        14   # BR(~nu_mu -> chi^0_3 nu_mu)
     3.01818024E-01    2     1000035        14   # BR(~nu_mu -> chi^0_4 nu_mu)
     2.13128432E-02    2     1000024        13   # BR(~nu_mu -> chi^+_1 mu^-)
     5.87196973E-01    2     1000037        13   # BR(~nu_mu -> chi^+_2 mu^-)
#    BR                NDA      ID1      ID2       ID3
DECAY   1000016     1.62616534E+02   # ~nu_tau
#    BR                NDA      ID1      ID2
     6.95820213E-02    2     1000022        16   # BR(~nu_tau -> chi^0_1 nu_tau)
     2.45782281E-03    2     1000023        16   # BR(~nu_tau -> chi^0_2 nu_tau)
     7.21145023E-03    2     1000025        16   # BR(~nu_tau -> chi^0_3 nu_tau)
     2.66744640E-01    2     1000035        16   # BR(~nu_tau -> chi^0_4 nu_tau)
     1.34509217E-01    2     1000024        15   # BR(~nu_tau -> chi^+_1 tau^-)
     5.19494849E-01    2     1000037        15   # BR(~nu_tau -> chi^+_2 tau^-)
#    BR                NDA      ID1      ID2       ID3
DECAY   2000001     7.63361924E+02   # ~d_R
#    BR                NDA      ID1      ID2
     5.34343574E-03    2     1000022         1   # BR(~d_R -> chi^0_1 d)
     2.00049793E-03    2     1000025         1   # BR(~d_R -> chi^0_3 d)
     9.92621155E-01    2     1000021         1   # BR(~d_R -> ~g d)
DECAY   1000001     8.93613326E+02   # ~d_L
#    BR                NDA      ID1      ID2
     2.06482390E-03    2     1000022         1   # BR(~d_L -> chi^0_1 d)
     2.52011992E-04    2     1000023         1   # BR(~d_L -> chi^0_2 d)
     4.86227176E-02    2     1000035         1   # BR(~d_L -> chi^0_4 d)
     4.61314024E-04    2    -1000024         2   # BR(~d_L -> chi^-_1 u)
     9.82973559E-02    2    -1000037         2   # BR(~d_L -> chi^-_2 u)
     8.50276914E-01    2     1000021         1   # BR(~d_L -> ~g d)
DECAY   2000003     7.63399527E+02   # ~s_R
#    BR                NDA      ID1      ID2
     5.34736647E-03    2     1000022         3   # BR(~s_R -> chi^0_1 s)
     2.00875917E-03    2     1000025         3   # BR(~s_R -> chi^0_3 s)
     9.92572586E-01    2     1000021         3   # BR(~s_R -> ~g s)
DECAY   1000003     8.93635874E+02   # ~s_L
#    BR                NDA      ID1      ID2
     2.06836243E-03    2     1000022         3   # BR(~s_L -> chi^0_1 s)
     2.62160430E-04    2     1000023         3   # BR(~s_L -> chi^0_2 s)
     4.86215473E-02    2     1000035         3   # BR(~s_L -> chi^0_4 s)
     4.65251034E-04    2    -1000024         4   # BR(~s_L -> chi^-_1 c)
     9.82950319E-02    2    -1000037         4   # BR(~s_L -> chi^-_2 c)
     8.50255625E-01    2     1000021         3   # BR(~s_L -> ~g s)
DECAY   1000005     1.22142675E+02   # ~b_1
#    BR                NDA      ID1      ID2
     2.82909540E-02    2     1000022         5   # BR(~b_1 -> chi^0_1 b)
     5.39347742E-02    2     1000023         5   # BR(~b_1 -> chi^0_2 b)
     4.12421061E-02    2     1000025         5   # BR(~b_1 -> chi^0_3 b)
     2.04013003E-04    2     1000035         5   # BR(~b_1 -> chi^0_4 b)
     1.10012155E-01    2    -1000024         6   # BR(~b_1 -> chi^-_1 t)
     4.00406084E-04    2    -1000037         6   # BR(~b_1 -> chi^-_2 t)
     7.65915592E-01    2     1000021         5   # BR(~b_1 -> ~g b)
DECAY   2000005     3.16375530E+02   # ~b_2
#    BR                NDA      ID1      ID2
     1.17427419E-02    2     1000022         5   # BR(~b_2 -> chi^0_1 b)
     2.77584649E-02    2     1000023         5   # BR(~b_2 -> chi^0_2 b)
     1.94254904E-02    2     1000025         5   # BR(~b_2 -> chi^0_3 b)
     4.54700371E-02    2     1000035         5   # BR(~b_2 -> chi^0_4 b)
     2.20698779E-01    2    -1000024         6   # BR(~b_2 -> chi^-_1 t)
     9.94623919E-02    2    -1000037         6   # BR(~b_2 -> chi^-_2 t)
     5.74058660E-01    2     1000021         5   # BR(~b_2 -> ~g b)
     6.45772577E-04    2     1000005        36   # BR(~b_2 -> ~b_1 A^0)
     1.06966917E-04    2     1000005        25   # BR(~b_2 -> ~b_1 h^0)
     5.98125059E-04    2     1000005        35   # BR(~b_2 -> ~b_1 H^0)
DECAY   2000002     7.80544475E+02   # ~u_R
#    BR                NDA      ID1      ID2
     2.09101337E-02    2     1000022         2   # BR(~u_R -> chi^0_1 u)
     1.32259188E-04    2     1000023         2   # BR(~u_R -> chi^0_2 u)
     7.82835317E-03    2     1000025         2   # BR(~u_R -> chi^0_3 u)
     9.71125294E-01    2     1000021         2   # BR(~u_R -> ~g u)
DECAY   1000002     8.93602854E+02   # ~u_L
#    BR                NDA      ID1      ID2
     4.93094358E-04    2     1000022         2   # BR(~u_L -> chi^0_1 u)
     1.10122258E-04    2     1000023         2   # BR(~u_L -> chi^0_2 u)
     2.15056901E-03    2     1000025         2   # BR(~u_L -> chi^0_3 u)
     4.82118063E-02    2     1000035         2   # BR(~u_L -> chi^0_4 u)
     3.38647682E-03    2     1000024         1   # BR(~u_L -> chi^+_1 d)
     9.53948455E-02    2     1000037         1   # BR(~u_L -> chi^+_2 d)
     8.50253086E-01    2     1000021         2   # BR(~u_L -> ~g u)
DECAY   2000004     7.80551783E+02   # ~c_R
#    BR                NDA      ID1      ID2
     2.09104158E-02    2     1000022         4   # BR(~c_R -> chi^0_1 c)
     1.34626909E-04    2     1000023         4   # BR(~c_R -> chi^0_2 c)
     7.83002385E-03    2     1000025         4   # BR(~c_R -> chi^0_3 c)
     9.71116226E-01    2     1000021         4   # BR(~c_R -> ~g c)
DECAY   1000004     8.93625378E+02   # ~c_L
#    BR                NDA      ID1      ID2
     4.93498955E-04    2     1000022         4   # BR(~c_L -> chi^0_1 c)
     1.12193122E-04    2     1000023         4   # BR(~c_L -> chi^0_2 c)
     2.15204379E-03    2     1000025         4   # BR(~c_L -> chi^0_3 c)
     4.82106650E-02    2     1000035         4   # BR(~c_L -> chi^0_4 c)
     3.40724703E-03    2     1000024         3   # BR(~c_L -> chi^+_1 s)
     9.53925560E-02    2     1000037         3   # BR(~c_L -> chi^+_2 s)
     8.50231796E-01    2     1000021         4   # BR(~c_L -> ~g c)
DECAY   1000006     3.16898741E+02   # ~t_1
#    BR                NDA      ID1      ID2
     2.38984077E-02    2     1000022         6   # BR(~t_1 -> chi^0_1 t)
     1.15738080E-01    2     1000023         6   # BR(~t_1 -> chi^0_2 t)
     8.73288286E-02    2     1000025         6   # BR(~t_1 -> chi^0_3 t)
     4.77035977E-02    2     1000035         6   # BR(~t_1 -> chi^0_4 t)
     5.99649859E-02    2     1000024         5   # BR(~t_1 -> chi^+_1 b)
     8.89400655E-02    2     1000037         5   # BR(~t_1 -> chi^+_2 b)
     4.52753404E-04    2     1000021         4   # BR(~t_1 -> ~g c)
     5.69424236E-01    2     1000021         6   # BR(~t_1 -> ~g t)
     1.27779678E-03    2     1000005        37   # BR(~t_1 -> ~b_1 H^+)
#    BR                NDA      ID1      ID2       ID3
     5.20503148E-03    3     1000022        24         5   # BR(~t_1 -> chi^0_1 W^+ b)
DECAY   2000006     4.33988413E+02   # ~t_2
#    BR                NDA      ID1      ID2
     3.63645188E-02    2     1000022         6   # BR(~t_2 -> chi^0_1 t)
     1.01551889E-01    2     1000023         6   # BR(~t_2 -> chi^0_2 t)
     8.05296122E-02    2     1000025         6   # BR(~t_2 -> chi^0_3 t)
     3.31480219E-03    2     1000035         6   # BR(~t_2 -> chi^0_4 t)
     1.93809143E-01    2     1000024         5   # BR(~t_2 -> chi^+_1 b)
     6.65576553E-03    2     1000037         5   # BR(~t_2 -> chi^+_2 b)
     5.77261679E-01    2     1000021         6   # BR(~t_2 -> ~g t)
     1.51266057E-04    2     2000005        37   # BR(~t_2 -> ~b_2 H^+)
     1.19755711E-04    2     1000006        25   # BR(~t_2 -> ~t_1 h^0)
DECAY   1000024     7.23104653E-04   # chi^+_1
#    BR                NDA      ID1      ID2       ID3
     3.33627774E-01    3     1000022        -1         2   # BR(chi^+_1 -> chi^0_1 d_bar u)
     3.32958827E-01    3     1000022        -3         4   # BR(chi^+_1 -> chi^0_1 s_bar c)
     1.11209906E-01    3     1000022       -11        12   # BR(chi^+_1 -> chi^0_1 e^+ nu_e)
     1.11209533E-01    3     1000022       -13        14   # BR(chi^+_1 -> chi^0_1 mu^+ nu_mu)
     1.10993960E-01    3     1000022       -15        16   # BR(chi^+_1 -> chi^0_1 tau^+ nu_tau)
DECAY   1000037     1.11707558E+01   # chi^+_2
#    BR                NDA      ID1      ID2
     1.94740956E-02    2     1000022        24   # BR(chi^+_2 -> chi^0_1 W^+)
     1.36476356E-01    2     1000023        24   # BR(chi^+_2 -> chi^0_2 W^+)
     1.23669221E-01    2     1000025        24   # BR(chi^+_2 -> chi^0_3 W^+)
     3.75056270E-02    2          37   1000022   # BR(chi^+_2 -> H^+ chi^0_1)
     1.05980078E-01    2          37   1000023   # BR(chi^+_2 -> H^+ chi^0_2)
     8.73952078E-02    2          37   1000025   # BR(chi^+_2 -> H^+ chi^0_3)
     1.34393045E-01    2     1000024        23   # BR(chi^+_2 -> chi^+_1 Z)
     1.15312623E-01    2     1000024        36   # BR(chi^+_2 -> chi^+_1 A^0)
     1.40932548E-01    2     1000024        25   # BR(chi^+_2 -> chi^+_1 h^0)
     9.67686840E-02    2     1000024        35   # BR(chi^+_2 -> chi^+_1 H^0)
#    BR                NDA      ID1      ID2       ID3
     2.64049782E-04    3     1000024         6        -6   # BR(chi^+_2 -> chi^+_1 t t_bar)
     1.48648163E-04    3     1000022        -5         6   # BR(chi^+_2 -> chi^0_1 b_bar t)
     9.30417736E-04    3     1000023        -5         6   # BR(chi^+_2 -> chi^0_2 b_bar t)
     7.49324286E-04    3     1000025        -5         6   # BR(chi^+_2 -> chi^0_3 b_bar t)
DECAY   1000022     0.00000000E+00   # chi^0_1
DECAY   1000023     1.23201126E-03   # chi^0_2
#    BR                NDA      ID1      ID2
     3.53470201E-03    2     1000022        22   # BR(chi^0_2 -> chi^0_1 photon)
#    BR                NDA      ID1      ID2       ID3
     1.18666824E-01    3     1000022         2        -2   # BR(chi^0_2 -> chi^0_1 u u_bar)
     1.18179483E-01    3     1000022         4        -4   # BR(chi^0_2 -> chi^0_1 c c_bar)
     1.52153929E-01    3     1000022         1        -1   # BR(chi^0_2 -> chi^0_1 d d_bar)
     1.52151721E-01    3     1000022         3        -3   # BR(chi^0_2 -> chi^0_1 s s_bar)
     1.48687380E-01    3     1000022         5        -5   # BR(chi^0_2 -> chi^0_1 b b_bar)
     3.43366338E-02    3     1000022        11       -11   # BR(chi^0_2 -> chi^0_1 e^- e^+)
     3.43366231E-02    3     1000022        13       -13   # BR(chi^0_2 -> chi^0_1 mu^- mu^+)
     3.43336920E-02    3     1000022        15       -15   # BR(chi^0_2 -> chi^0_1 tau^- tau^+)
     2.03475877E-01    3     1000022        12       -12   # BR(chi^0_2 -> chi^0_1 nu_e nu_bar_e)
DECAY   1000025     3.14879308E-05   # chi^0_3
#    BR                NDA      ID1      ID2
     5.04102148E-03    2     1000022        22   # BR(chi^0_3 -> chi^0_1 photon)
     1.23538205E-03    2     1000023        22   # BR(chi^0_3 -> chi^0_2 photon)
#    BR                NDA      ID1      ID2       ID3
     7.48507449E-02    3     1000022         2        -2   # BR(chi^0_3 -> chi^0_1 u u_bar)
     7.46797758E-02    3     1000022         4        -4   # BR(chi^0_3 -> chi^0_1 c c_bar)
     9.59497287E-02    3     1000022         1        -1   # BR(chi^0_3 -> chi^0_1 d d_bar)
     9.60060269E-02    3     1000022         3        -3   # BR(chi^0_3 -> chi^0_1 s s_bar)
     2.41046499E-01    3     1000022         5        -5   # BR(chi^0_3 -> chi^0_1 b b_bar)
     2.16297579E-02    3     1000022        11       -11   # BR(chi^0_3 -> chi^0_1 e^- e^+)
     2.16923311E-02    3     1000022        13       -13   # BR(chi^0_3 -> chi^0_1 mu^- mu^+)
     3.91143124E-02    3     1000022        15       -15   # BR(chi^0_3 -> chi^0_1 tau^- tau^+)
     1.28332096E-01    3     1000022        12       -12   # BR(chi^0_3 -> chi^0_1 nu_e nu_bar_e)
     1.24980317E-04    3     1000023         2        -2   # BR(chi^0_3 -> chi^0_2 u u_bar)
     1.60249733E-04    3     1000023         1        -1   # BR(chi^0_3 -> chi^0_2 d d_bar)
     1.59879851E-04    3     1000023         3        -3   # BR(chi^0_3 -> chi^0_2 s s_bar)
     2.14299408E-04    3     1000023        12       -12   # BR(chi^0_3 -> chi^0_2 nu_e nu_bar_e)
     3.38196226E-02    3     1000024         1        -2   # BR(chi^0_3 -> chi^+_1 d u_bar)
     3.38196226E-02    3    -1000024        -1         2   # BR(chi^0_3 -> chi^-_1 d_bar u)
     3.28051834E-02    3     1000024         3        -4   # BR(chi^0_3 -> chi^+_1 s c_bar)
     3.28051834E-02    3    -1000024        -3         4   # BR(chi^0_3 -> chi^-_1 s_bar c)
     1.12731719E-02    3     1000024        11       -12   # BR(chi^0_3 -> chi^+_1 e^- nu_bar_e)
     1.12731719E-02    3    -1000024       -11        12   # BR(chi^0_3 -> chi^-_1 e^+ nu_e)
     1.12715241E-02    3     1000024        13       -14   # BR(chi^0_3 -> chi^+_1 mu^- nu_bar_mu)
     1.12715241E-02    3    -1000024       -13        14   # BR(chi^0_3 -> chi^-_1 mu^+ nu_mu)
     1.06312181E-02    3     1000024        15       -16   # BR(chi^0_3 -> chi^+_1 tau^- nu_bar_tau)
     1.06312181E-02    3    -1000024       -15        16   # BR(chi^0_3 -> chi^-_1 tau^+ nu_tau)
DECAY   1000035     1.23961217E+01   # chi^0_4
#    BR                NDA      ID1      ID2
     1.30168592E-01    2     1000024       -24   # BR(chi^0_4 -> chi^+_1 W^-)
     1.30168592E-01    2    -1000024        24   # BR(chi^0_4 -> chi^-_1 W^+)
     1.06026476E-01    2          37  -1000024   # BR(chi^0_4 -> H^+ chi^-_1)
     1.06026476E-01    2         -37   1000024   # BR(chi^0_4 -> H^- chi^+_1)
     3.76024168E-03    2     1000022        23   # BR(chi^0_4 -> chi^0_1 Z)
     1.07464463E-01    2     1000023        23   # BR(chi^0_4 -> chi^0_2 Z)
     1.74961838E-02    2     1000025        23   # BR(chi^0_4 -> chi^0_3 Z)
     8.67587799E-03    2     1000022        36   # BR(chi^0_4 -> chi^0_1 A^0)
     1.75023628E-02    2     1000023        36   # BR(chi^0_4 -> chi^0_2 A^0)
     1.37440325E-02    2     1000025        36   # BR(chi^0_4 -> chi^0_3 A^0)
     1.61434500E-02    2     1000022        25   # BR(chi^0_4 -> chi^0_1 h^0)
     6.63972458E-02    2     1000023        25   # BR(chi^0_4 -> chi^0_2 h^0)
     9.44683362E-02    2     1000025        25   # BR(chi^0_4 -> chi^0_3 h^0)
     2.07879764E-02    2     1000022        35   # BR(chi^0_4 -> chi^0_1 H^0)
     1.13526721E-01    2     1000023        35   # BR(chi^0_4 -> chi^0_2 H^0)
     4.53998769E-02    2     1000025        35   # BR(chi^0_4 -> chi^0_3 H^0)
#    BR                NDA      ID1      ID2       ID3
     1.04505801E-03    3     1000024         5        -6   # BR(chi^0_4 -> chi^+_1 b t_bar)
     1.04505801E-03    3    -1000024        -5         6   # BR(chi^0_4 -> chi^-_1 b_bar t)
DECAY   1000021     7.43334575E-03   # ~g
#    BR                NDA      ID1      ID2
     9.59380863E-04    2     1000022        21   # BR(~g -> chi^0_1 g)
     8.33987115E-03    2     1000023        21   # BR(~g -> chi^0_2 g)
     5.65056515E-03    2     1000025        21   # BR(~g -> chi^0_3 g)
     1.47050881E-04    2     1000035        21   # BR(~g -> chi^0_4 g)
#    BR                NDA      ID1      ID2       ID3
     1.91803940E-04    3     1000022         2        -2   # BR(~g -> chi^0_1 u u_bar)
     1.91814530E-04    3     1000022         4        -4   # BR(~g -> chi^0_1 c c_bar)
     3.91183622E-02    3     1000022         6        -6   # BR(~g -> chi^0_1 t t_bar)
     5.27113488E-02    3     1000022         5        -5   # BR(~g -> chi^0_1 b b_bar)
     1.26356152E-01    3     1000023         6        -6   # BR(~g -> chi^0_2 t t_bar)
     1.02014747E-01    3     1000023         5        -5   # BR(~g -> chi^0_2 b b_bar)
     8.98442557E-02    3     1000025         6        -6   # BR(~g -> chi^0_3 t t_bar)
     7.50661659E-02    3     1000025         5        -5   # BR(~g -> chi^0_3 b b_bar)
     1.60366092E-04    3     1000035         2        -2   # BR(~g -> chi^0_4 u u_bar)
     1.60360233E-04    3     1000035         4        -4   # BR(~g -> chi^0_4 c c_bar)
     6.06552652E-03    3     1000035         6        -6   # BR(~g -> chi^0_4 t t_bar)
     1.61696382E-04    3     1000035         1        -1   # BR(~g -> chi^0_4 d d_bar)
     1.61696603E-04    3     1000035         3        -3   # BR(~g -> chi^0_4 s s_bar)
     1.27411687E-02    3     1000035         5        -5   # BR(~g -> chi^0_4 b b_bar)
     2.30485604E-01    3     1000024         5        -6   # BR(~g -> chi^+_1 b t_bar)
     2.30485604E-01    3    -1000024        -5         6   # BR(~g -> chi^-_1 b_bar t)
     1.27422831E-04    3     1000037         1        -2   # BR(~g -> chi^+_2 d u_bar)
     1.27422831E-04    3    -1000037        -1         2   # BR(~g -> chi^-_2 d_bar u)
     1.27421427E-04    3     1000037         3        -4   # BR(~g -> chi^+_2 s c_bar)
     1.27421427E-04    3    -1000037        -3         4   # BR(~g -> chi^-_2 s_bar c)
     9.03481092E-03    3     1000037         5        -6   # BR(~g -> chi^+_2 b t_bar)
     9.03481092E-03    3    -1000037        -5         6   # BR(~g -> chi^-_2 b_bar t)
DECAY        25     4.81065968E-02   # Gamma(h0)
     1.79516751E-04   2        22        22   # BR(h0 -> photon photon)
     9.30105652E-05   2        22        23   # BR(h0 -> photon Z)
     1.56116764E-03   2        23        23   # BR(h0 -> Z Z)
     1.36153449E-02   2       -24        24   # BR(h0 -> W W)
     4.08926352E-03   2        21        21   # BR(h0 -> gluon gluon)
     7.52915030E-09   2       -11        11   # BR(h0 -> Electron electron)
     3.34907821E-04   2       -13        13   # BR(h0 -> Muon muon)
     9.65562497E-02   2       -15        15   # BR(h0 -> Tau tau)
     9.80437964E-09   2        -2         2   # BR(h0 -> Up up)
     1.90273322E-03   2        -4         4   # BR(h0 -> Charm charm)
     8.78197246E-07   2        -1         1   # BR(h0 -> Down down)
     3.17632911E-04   2        -3         3   # BR(h0 -> Strange strange)
     8.81349277E-01   2        -5         5   # BR(h0 -> Bottom bottom)
DECAY        35     2.64067480E+00   # Gamma(HH)
     2.32753865E-07   2        22        22   # BR(HH -> photon photon)
     9.97544465E-08   2        22        23   # BR(HH -> photon Z)
     5.35235658E-06   2        23        23   # BR(HH -> Z Z)
     4.45709006E-05   2       -24        24   # BR(HH -> W W)
     9.07729677E-04   2        21        21   # BR(HH -> gluon gluon)
     7.86671917E-09   2       -11        11   # BR(HH -> Electron electron)
     3.49943886E-04   2       -13        13   # BR(HH -> Muon muon)
     1.00939105E-01   2       -15        15   # BR(HH -> Tau tau)
     4.33883161E-12   2        -2         2   # BR(HH -> Up up)
     8.42302795E-07   2        -4         4   # BR(HH -> Charm charm)
     8.87808587E-07   2        -1         1   # BR(HH -> Down down)
     3.21112674E-04   2        -3         3   # BR(HH -> Strange strange)
     8.97430115E-01   2        -5         5   # BR(HH -> Bottom bottom)
DECAY        36     2.70626389E+00   # Gamma(A0)
     3.29375630E-07   2        22        22   # BR(A0 -> photon photon)
     6.89835138E-09   2        22        23   # BR(A0 -> photon Z)
     8.94482345E-04   2        21        21   # BR(A0 -> gluon gluon)
     7.85357162E-09   2       -11        11   # BR(A0 -> Electron electron)
     3.49359362E-04   2       -13        13   # BR(A0 -> Muon muon)
     1.00828154E-01   2       -15        15   # BR(A0 -> Tau tau)
     1.77663632E-13   2        -2         2   # BR(A0 -> Up up)
     3.43934458E-08   2        -4         4   # BR(A0 -> Charm charm)
     8.86866266E-07   2        -1         1   # BR(A0 -> Down down)
     3.20771951E-04   2        -3         3   # BR(A0 -> Strange strange)
     8.97605927E-01   2        -5         5   # BR(A0 -> Bottom bottom)
     4.00547734E-08   2        23        25   # BR(A0 -> Z h0)
DECAY        37     4.01250441E-01   # Gamma(Hp)
     7.42444749E-08   2       -11        12   # BR(Hp -> Electron nu_e)
     3.17418110E-03   2       -13        14   # BR(Hp -> Muon nu_mu)
     8.97672602E-01   2       -15        16   # BR(Hp -> Tau nu_tau)
     7.08273793E-06   2        -1         2   # BR(Hp -> Down up)
     1.14648528E-04   2        -3         2   # BR(Hp -> Strange up)
     7.58670212E-05   2        -5         2   # BR(Hp -> Bottom up)
     3.32852472E-07   2        -1         4   # BR(Hp -> Down charm)
     2.55266357E-03   2        -3         4   # BR(Hp -> Strange charm)
     1.06230866E-02   2        -5         4   # BR(Hp -> Bottom charm)
     2.23245059E-08   2        -1         6   # BR(Hp -> Down top)
     5.31260985E-07   2        -3         6   # BR(Hp -> Strange top)
     8.54164716E-02   2        -5         6   # BR(Hp -> Bottom top)
     3.07092416E-05   2        24        25   # BR(Hp -> W h0)
     1.58785080E-04   2        24        35   # BR(Hp -> W HH)
     1.72941693E-04   2        24        36   # BR(Hp -> W A0)
DECAY         6     2.43000000E+00   # top
#    BR                NDA      ID1      ID2
     1.00000000E+00    2           5        24   # BR(t -> b W)
Block HiggsBoundsInputHiggsCouplingsFermions
# ScalarNormEffCoupSq PseudoSNormEffCoupSq NP IP1 IP2 IP2
    1.75125869E+01    0.00000000E+00        3  25   5   5  # h0-b-b eff. coupling^2, normalised to SM
    8.93368022E+02    0.00000000E+00        3  35   5   5  # H0-b-b eff. coupling^2, normalised to SM
    0.00000000E+00    9.09880609E+02        3  36   5   5  # A0-b-b eff. coupling^2, normalised to SM
#
    9.81851919E-01    0.00000000E+00        3  25   6   6  # h0-t-t eff. coupling^2, normalised to SM
    1.92471262E-02    0.00000000E+00        3  35   6   6  # H0-t-t eff. coupling^2, normalised to SM
    0.00000000E+00    1.09904529E-03        3  36   6   6  # A0-t-t eff. coupling^2, normalised to SM
#
    1.75125869E+01    0.00000000E+00        3  25  15  15  # h0-tau-tau eff. coupling^2, normalised to SM
    8.93368022E+02    0.00000000E+00        3  35  15  15  # H0-tau-tau eff. coupling^2, normalised to SM
    0.00000000E+00    9.09880609E+02        3  36  15  15  # A0-tau-tau eff. coupling^2, normalised to SM
#
Block HiggsBoundsInputHiggsCouplingsBosons
    9.88813106E-01        3  25  24  24  # h0-W-W eff. coupling^2, normalised to SM
    1.11868941E-02        3  35  24  24  # H0-W-W eff. coupling^2, normalised to SM
    0.00000000E+00        3  36  24  24  # A0-W-W eff. coupling^2, normalised to SM
#
    9.88813106E-01        3  25  23  23  # h0-Z-Z eff. coupling^2, normalised to SM
    1.11868941E-02        3  35  23  23  # H0-Z-Z eff. coupling^2, normalised to SM
    0.00000000E+00        3  36  23  23  # A0-Z-Z eff. coupling^2, normalised to SM
#
    9.56401346E-01        3  25  21  21  # h0-g-g eff. coupling^2, normalised to SM
    4.71267425E+00        3  35  21  21  # H0-g-g eff. coupling^2, normalised to SM
    1.40193058E+00        3  36  21  21  # A0-g-g eff. coupling^2, normalised to SM
#
    0.00000000E+00        3  25  25  23  # h0-h0-Z eff. coupling^2, normalised to SM
    0.00000000E+00        3  35  25  23  # H0-h0-Z eff. coupling^2, normalised to SM
    1.11868941E-02        3  36  25  23  # A0-h0-Z eff. coupling^2, normalised to SM
    0.00000000E+00        3  35  35  23  # H0-H0-Z eff. coupling^2, normalised to SM
    9.88813106E-01        3  36  35  23  # A0-H0-Z eff. coupling^2, normalised to SM
    0.00000000E+00        3  36  36  23  # A0-A0-Z eff. coupling^2, normalised to SM
#
    0.00000000E+00        4  25  21  21  23  # h0-g-g-Z eff. coupling^2, normalised to SM
    0.00000000E+00        4  35  21  21  23  # H0-g-g-Z eff. coupling^2, normalised to SM
    0.00000000E+00        4  36  21  21  23  # A0-g-g-Z eff. coupling^2, normalised to SM
Block SPhenoLowEnergy  # low energy observables
    1    5.78267643E-04   # BR(b -> s gamma)
    2    1.62786986E-06   # BR(b -> s mu+ mu-)
    3    3.52530041E-05   # BR(b -> s nu nu)
    4    2.55638207E-15   # BR(Bd -> e+ e-)
    5    1.09205731E-10   # BR(Bd -> mu+ mu-)
    6    2.28606230E-08   # BR(Bd -> tau+ tau-)
    7    8.77762476E-14   # BR(Bs -> e+ e-)
    8    3.74979836E-09   # BR(Bs -> mu+ mu-)
    9    7.95357506E-07   # BR(Bs -> tau+ tau-)
   10    1.42198657E-06   # BR(B_u -> tau nu)
   11    1.46885769E-02   # BR(B_u -> tau nu)/BR(B_u -> tau nu)_SM
   12    5.41742984E-01   # |Delta(M_Bd)| [ps^-1] 
   13    1.90703768E+01   # |Delta(M_Bs)| [ps^-1] 
   14    0.00000000E+00   # neutron EDM according to the chiral quark model
   15    0.00000000E+00   # neutron EDM according to the relativistic quark-parton model
   16    2.15899037E-03   # epsilon_K
   17    2.28187844E-15   # Delta(M_K)
   18    2.47979146E-11   # BR(K^0 -> pi^0 nu nu)
   19    8.29001016E-11   # BR(K^+ -> pi^+ nu nu)
   20    2.84727758E-16   # Delta(g-2)_electron/2
   21    1.21730596E-11   # Delta(g-2)_muon/2
   22    3.44801488E-09   # Delta(g-2)_tau/2
   23    0.00000000E+00   # electric dipole moment of the electron
   24    0.00000000E+00   # electric dipole moment of the muon
   25    0.00000000E+00   # electric dipole moment of the tau
   26    0.00000000E+00   # Br(mu -> e gamma)
   27    0.00000000E+00   # Br(tau -> e gamma)
   28    0.00000000E+00   # Br(tau -> mu gamma)
   29    0.00000000E+00   # Br(mu -> 3 e)
   30    0.00000000E+00   # Br(tau -> 3 e)
   31    0.00000000E+00   # Br(tau -> 3 mu)
   39    7.57105727E-05   # Delta(rho_parameter)
   40    0.00000000E+00   # BR(Z -> e mu)
   41    0.00000000E+00   # BR(Z -> e tau)
   42    0.00000000E+00   # BR(Z -> mu tau)
Block FWCOEF Q=  1.60000000E+02  # Wilson coefficients at scale Q
#    id        order  M        value         comment
     0305 4422   00   0    -1.88819110E-01   # C7
     0305 4422   00   2    -4.25993709E-01   # C7
     0305 4322   00   2    -4.36786960E-03   # C7'
     0305 6421   00   0    -9.52278348E-02   # C8
     0305 6421   00   2    -3.01264986E-01   # C8
     0305 6321   00   2    -3.74910889E-03   # C8'
 03051111 4133   00   0     1.62599710E+00   # C9 e+e-
 03051111 4133   00   2     1.62644597E+00   # C9 e+e-
 03051111 4233   00   2    -5.25379402E-04   # C9' e+e-
 03051111 4137   00   0    -4.44868920E+00   # C10 e+e-
 03051111 4137   00   2    -4.44689564E+00   # C10 e+e-
 03051111 4237   00   2     3.89763849E-03   # C10' e+e-
 03051313 4133   00   0     1.62599710E+00   # C9 mu+mu-
 03051313 4133   00   2     1.62644590E+00   # C9 mu+mu-
 03051313 4233   00   2    -5.26326352E-04   # C9' mu+mu-
 03051313 4137   00   0    -4.44868920E+00   # C10 mu+mu-
 03051313 4137   00   2    -4.44689571E+00   # C10 mu+mu-
 03051313 4237   00   2     3.89858893E-03   # C10' mu+mu-
 03051212 4137   00   0     1.50535012E+00   # C11 nu_1 nu_1
 03051212 4137   00   2     1.50496396E+00   # C11 nu_1 nu_1
 03051212 4237   00   2    -8.42948516E-04   # C11' nu_1 nu_1
 03051414 4137   00   0     1.50535012E+00   # C11 nu_2 nu_2
 03051414 4137   00   2     1.50496396E+00   # C11 nu_2 nu_2
 03051414 4237   00   2    -8.42742932E-04   # C11' nu_2 nu_2
 03051616 4137   00   0     1.50535012E+00   # C11 nu_3 nu_3
 03051616 4137   00   2     1.50496397E+00   # C11 nu_3 nu_3
 03051616 4237   00   2    -7.84808019E-04   # C11' nu_3 nu_3
Block IMFWCOEF Q=  1.60000000E+02  # Im(Wilson coefficients) at scale Q
#    id        order  M        value         comment
     0305 4422   00   0     3.85821114E-07   # C7
     0305 4422   00   2     5.67934642E-06   # C7
     0305 4322   00   2     5.75333372E-08   # C7'
     0305 6421   00   0     3.30481300E-07   # C8
     0305 6421   00   2     3.76803998E-05   # C8
     0305 6321   00   2     6.70140399E-07   # C8'
 03051111 4133   00   2     7.88720472E-07   # C9 e+e-
 03051111 4233   00   2     4.93309374E-06   # C9' e+e-
 03051111 4137   00   2    -7.00978366E-08   # C10 e+e-
 03051111 4237   00   2    -3.65021461E-05   # C10' e+e-
 03051313 4133   00   2     7.88718080E-07   # C9 mu+mu-
 03051313 4233   00   2     4.93309288E-06   # C9' mu+mu-
 03051313 4137   00   2    -7.00953190E-08   # C10 mu+mu-
 03051313 4237   00   2    -3.65021487E-05   # C10' mu+mu-
 03051212 4137   00   2     4.62488607E-08   # C11 nu_1 nu_1
 03051212 4237   00   2     7.89434300E-06   # C11' nu_1 nu_1
 03051414 4137   00   2     4.62489798E-08   # C11 nu_2 nu_2
 03051414 4237   00   2     7.89434300E-06   # C11' nu_2 nu_2
 03051616 4137   00   2     4.62825672E-08   # C11 nu_3 nu_3
 03051616 4237   00   2     7.89434298E-06   # C11' nu_3 nu_3
