# SUSY Les Houches Accord 2 - MSSM spectrum + Decays
# SPheno v4.0.5be
# W. Porod, Comput. Phys. Commun. 153 (2003) 275-315, hep-ph/0301101;
# W. Porod, F.~Staub, Comput. Phys. Commun. 183 (2012) 2458
#                     arXiv:1104.1573 [hep-ph] 
# in case of problems send email to porod@physik.uni-wuerzburg.de
# Created: 20.12.2022,  17:16
Block SPINFO         # Program information
     1   SPheno      # spectrum calculator
     2   v4.0.5be    # version number
#
Block SPhenoINFO     # SPheno specific information
    1      2         # using 2-loop RGEs
    2      2         # using pole masses for boundary conditions at mZ
Block MODSEL  # Model selection
    1    0    # general MSSM
Block MINPAR  # Input parameters
    3    5.74716861E+01  # tanb at m_Z    
    4    1.00000000E+00  # Sign(mu)
Block EXTPAR  # non-universal input parameters
    0    3.09832361E+03  # scale for input parameters
    1    3.61982436E+01  # M_1
    2   -1.35558403E+03  # M_2
    3    3.61046779E+03  # M_3
   11    1.10817255E+03  # A_t
   12    1.18809545E+03  # A_b
   13    1.84683643E+03  # A_tau
   23    2.37232439E+02  # mu
   25    5.72280395E+01  # tan(beta)
   26    3.35244836E+03  # m_A, pole mass
   31    1.00000000E+04  # M_L11
   32    1.00000000E+04  # M_L22
   33    1.00000000E+04  # M_L33
   34    1.00000000E+04  # M_E11
   35    1.00000000E+04  # M_E22
   36    1.00000000E+04  # M_E33
   41    1.00000000E+04  # M_Q11
   42    1.00000000E+04  # M_Q22
   43    3.93385277E+03  # M_Q33
   44    1.00000000E+04  # M_U11
   45    1.00000000E+04  # M_U22
   46    2.30003981E+03  # M_U33
   47    1.00000000E+04  # M_D11
   48    1.00000000E+04  # M_D22
   49    3.81457428E+03  # M_D33
Block SMINPUTS  # SM parameters
         1     1.27908970E+02  # alpha_em^-1(MZ)^MSbar
         2     1.16637870E-05  # G_mu [GeV^-2]
         3     1.18400000E-01  # alpha_s(MZ)^MSbar
         4     9.11876000E+01  # m_Z(pole)
         5     4.18000000E+00  # m_b(m_b), MSbar
         6     1.73200000E+02  # m_t(pole)
         7     1.77700000E+00  # m_tau(pole)
         8     0.00000000E+00  # m_nu_3
        11     5.10998930E-04  # m_e(pole)
        12     0.00000000E+00  # m_nu_1
        13     1.05658372E-01  # m_muon(pole)
        14     0.00000000E+00  # m_nu_2
        21     5.00000000E-03  # m_d(2 GeV), MSbar
        22     2.50000000E-03  # m_u(2 GeV), MSbar
        23     9.50000000E-02  # m_s(2 GeV), MSbar
        24     1.27000000E+00  # m_c(m_c), MSbar
Block gauge Q=  3.09832361E+03  # (SUSY scale)
   1    3.55362975E-01  # g'(Q)^DRbar
   2    6.65198874E-01  # g(Q)^DRbar
   3    1.21977796E+00  # g3(Q)^DRbar
Block Yu Q=  3.09832361E+03  # (SUSY scale)
  1  1     8.38565207E-06   # Y_u(Q)^DRbar
  2  2     4.25991125E-03   # Y_c(Q)^DRbar
  3  3     1.01305413E+00   # Y_t(Q)^DRbar
Block Yd Q=  3.09832361E+03  # (SUSY scale)
  1  1     9.64330616E-04   # Y_d(Q)^DRbar
  2  2     1.83222817E-02   # Y_s(Q)^DRbar
  3  3     9.56313793E-01   # Y_b(Q)^DRbar
Block Ye Q=  3.09832361E+03  # (SUSY scale)
  1  1     1.68282744E-04   # Y_e(Q)^DRbar
  2  2     3.47955343E-02   # Y_mu(Q)^DRbar
  3  3     5.85203645E-01   # Y_tau(Q)^DRbar
Block Au Q=  3.09832361E+03  # (SUSY scale)
  1  1     0.00000000E+00   # A_u(Q)^DRbar
  2  2     0.00000000E+00   # A_c(Q)^DRbar
  3  3     1.10817256E+03   # A_t(Q)^DRbar
Block Ad Q=  3.09832361E+03  # (SUSY scale)
  1  1     0.00000000E+00   # A_d(Q)^DRbar
  2  2     0.00000000E+00   # A_s(Q)^DRbar
  3  3     1.18809572E+03   # A_b(Q)^DRbar
Block Ae Q=  3.09832361E+03  # (SUSY scale)
  1  1     0.00000000E+00   # A_e(Q)^DRbar
  2  2     0.00000000E+00   # A_mu(Q)^DRbar
  3  3     1.84683656E+03   # A_tau(Q)^DRbar
Block MSOFT Q=  3.09832361E+03  # soft SUSY breaking masses at Q
   1    3.61982436E+01  # M_1
   2   -1.35558403E+03  # M_2
   3    3.61046779E+03  # M_3
  21    1.09027322E+07  # M^2_(H,d)
  22    1.00555766E+05  # M^2_(H,u)
  31    1.00000000E+04  # M_(L,11)
  32    1.00000000E+04  # M_(L,22)
  33    1.00000000E+04  # M_(L,33)
  34    1.00000000E+04  # M_(E,11)
  35    1.00000000E+04  # M_(E,22)
  36    1.00000000E+04  # M_(E,33)
  41    1.00000000E+04  # M_(Q,11)
  42    1.00000000E+04  # M_(Q,22)
  43    3.93385277E+03  # M_(Q,33)
  44    1.00000000E+04  # M_(U,11)
  45    1.00000000E+04  # M_(U,22)
  46    2.30003981E+03  # M_(U,33)
  47    1.00000000E+04  # M_(D,11)
  48    1.00000000E+04  # M_(D,22)
  49    3.81457428E+03  # M_(D,33)
Block MASS  # Mass spectrum
#   PDG code      mass          particle
         6     1.73200000E+02  # m_t(pole)
        23     9.11876000E+01  # m_Z(pole)
        24     8.04299946E+01  # W+
        15     1.77700000E+00  # m_tau(pole)
        25     1.20385525E+02  # h0
        35     3.35001680E+03  # H0
        36     3.35244836E+03  # A0
        37     3.34888515E+03  # H+
   1000001     1.00928935E+04  # ~d_L
   2000001     1.00693499E+04  # ~d_R
   1000002     1.00925233E+04  # ~u_L
   2000002     1.00723268E+04  # ~u_R
   1000003     1.00929072E+04  # ~s_L
   2000003     1.00693751E+04  # ~s_R
   1000004     1.00925369E+04  # ~c_L
   2000004     1.00723283E+04  # ~c_R
   1000005     3.88188578E+03  # ~b_1
   2000005     4.00594901E+03  # ~b_2
   1000006     2.39500613E+03  # ~t_1
   2000006     4.00817729E+03  # ~t_2
   1000011     1.00202848E+04  # ~e_L-
   2000011     1.00089881E+04  # ~e_R-
   1000012     1.00195197E+04  # ~nu_eL
   1000013     1.00203521E+04  # ~mu_L-
   2000013     1.00091181E+04  # ~mu_R-
   1000014     1.00195865E+04  # ~nu_muL
   1000015     1.00395511E+04  # ~tau_1-
   2000015     1.00469792E+04  # ~tau_2-
   1000016     1.00389328E+04  # ~nu_tauL
   1000021     4.05551911E+03  # ~g
   1000022     3.50360270E+01  # ~chi_10
   1000023     2.49233905E+02  # ~chi_20
   1000025     2.55150534E+02  # ~chi_30
   1000035     1.45582683E+03  # ~chi_40
   1000024     2.47930575E+02  # ~chi_1+
   1000037     1.45579348E+03  # ~chi_2+
# Higgs mixing
Block alpha # Effective Higgs mixing angle
          -1.74294747E-02   # alpha
Block Hmix Q=  3.09832361E+03  # Higgs mixing parameters
   1    2.37232439E+02  # mu
   2    5.72280395E+01  # tan[beta](Q)
   3    2.43235427E+02  # v(Q)
   4    1.12389100E+07  # m^2_A(Q)
Block stopmix # stop mixing matrix
   1  1    -1.37611409E-02   # Re[R_st(1,1)]
   1  2     9.99905311E-01   # Re[R_st(1,2)]
   2  1    -9.99905311E-01   # Re[R_st(2,1)]
   2  2    -1.37611409E-02   # Re[R_st(2,2)]
Block sbotmix # sbottom mixing matrix
   1  1     2.66152446E-02   # Re[R_sb(1,1)]
   1  2     9.99645752E-01   # Re[R_sb(1,2)]
   2  1    -9.99645752E-01   # Re[R_sb(2,1)]
   2  2     2.66152446E-02   # Re[R_sb(2,2)]
Block staumix # stau mixing matrix
   1  1     9.90252724E-01   # Re[R_sta(1,1)]
   1  2     1.39282243E-01   # Re[R_sta(1,2)]
   2  1    -1.39282243E-01   # Re[R_sta(2,1)]
   2  2     9.90252724E-01   # Re[R_sta(2,2)]
Block Nmix # neutralino mixing matrix
   1  1    -9.82910926E-01   # Re[N(1,1)]
   1  2    -1.78644189E-03   # Re[N(1,2)]
   1  3    -1.81829892E-01   # Re[N(1,3)]
   1  4     2.86497750E-02   # Re[N(1,4)]
   2  1     1.09061800E-01   # Re[N(2,1)]
   2  2     4.60145454E-02   # Re[N(2,2)]
   2  3    -7.00838290E-01   # Re[N(2,3)]
   2  4    -7.03430079E-01   # Re[N(2,4)]
   3  1     1.48285501E-01   # Re[N(3,1)]
   3  2    -3.39365835E-02   # Re[N(3,2)]
   3  3    -6.89703408E-01   # Re[N(3,3)]
   3  4     7.07932855E-01   # Re[N(3,4)]
   4  1     1.74489631E-03   # Re[N(4,1)]
   4  2    -9.98362549E-01   # Re[N(4,2)]
   4  3    -8.53171980E-03   # Re[N(4,3)]
   4  4    -5.65365948E-02   # Re[N(4,4)]
Block Umix # chargino mixing matrix
   1  1    -1.20797189E-02   # Re[U(1,1)]
   1  2     9.99927038E-01   # Re[U(1,2)]
   2  1    -9.99927038E-01   # Re[U(2,1)]
   2  2    -1.20797189E-02   # Re[U(2,2)]
Block Vmix # chargino mixing matrix
   1  1     8.00042506E-02   # Re[V(1,1)]
   1  2     9.96794522E-01   # Re[V(1,2)]
   2  1     9.96794522E-01   # Re[V(2,1)]
   2  2    -8.00042506E-02   # Re[V(2,2)]
DECAY        23     2.49520000E+00   # Z
DECAY        24     2.08500000E+00   # W
DECAY   2000011     5.02881449E+01   # ~e^-_R
#    BR                NDA      ID1      ID2
     9.66154848E-01    2     1000022        11   # BR(~e^-_R -> chi^0_1 e^-)
     1.18805800E-02    2     1000023        11   # BR(~e^-_R -> chi^0_2 e^-)
     2.19615430E-02    2     1000025        11   # BR(~e^-_R -> chi^0_3 e^-)
DECAY   1000011     1.39382854E+02   # ~e^-_L
#    BR                NDA      ID1      ID2
     8.78381111E-02    2     1000022        11   # BR(~e^-_L -> chi^0_1 e^-)
     3.43653681E-03    2     1000023        11   # BR(~e^-_L -> chi^0_2 e^-)
     6.47959146E-04    2     1000025        11   # BR(~e^-_L -> chi^0_3 e^-)
     3.01653311E-01    2     1000035        11   # BR(~e^-_L -> chi^0_4 e^-)
     6.06331849E-01    2    -1000037        12   # BR(~e^-_L -> chi^-_2 nu_e)
#    BR                NDA      ID1      ID2       ID3
DECAY   2000013     5.07703666E+01   # ~mu^-_R
#    BR                NDA      ID1      ID2
     9.57147636E-01    2     1000022        13   # BR(~mu^-_R -> chi^0_1 mu^-)
     1.40973246E-02    2     1000023        13   # BR(~mu^-_R -> chi^0_2 mu^-)
     2.40091036E-02    2     1000025        13   # BR(~mu^-_R -> chi^0_3 mu^-)
     4.74205070E-03    2    -1000024        14   # BR(~mu^-_R -> chi^-_1 nu_mu)
DECAY   1000013     1.39624918E+02   # ~mu^-_L
#    BR                NDA      ID1      ID2
     8.77435663E-02    2     1000022        13   # BR(~mu^-_L -> chi^0_1 mu^-)
     4.27857943E-03    2     1000023        13   # BR(~mu^-_L -> chi^0_2 mu^-)
     1.46803843E-03    2     1000025        13   # BR(~mu^-_L -> chi^0_3 mu^-)
     3.01132660E-01    2     1000035        13   # BR(~mu^-_L -> chi^0_4 mu^-)
     6.05285082E-01    2    -1000037        14   # BR(~mu^-_L -> chi^-_2 nu_mu)
#    BR                NDA      ID1      ID2       ID3
DECAY   1000015     2.07600100E+02   # ~tau^-_1
#    BR                NDA      ID1      ID2
     8.03398515E-02    2     1000022        15   # BR(~tau^-_1 -> chi^0_1 tau^-)
     1.63329233E-01    2     1000023        15   # BR(~tau^-_1 -> chi^0_2 tau^-)
     1.51365473E-01    2     1000025        15   # BR(~tau^-_1 -> chi^0_3 tau^-)
     1.98442315E-01    2     1000035        15   # BR(~tau^-_1 -> chi^0_4 tau^-)
     7.69026154E-03    2    -1000024        16   # BR(~tau^-_1 -> chi^-_1 nu_tau)
     3.98832865E-01    2    -1000037        16   # BR(~tau^-_1 -> chi^-_2 nu_tau)
#    BR                NDA      ID1      ID2       ID3
DECAY   2000015     1.87602628E+02   # ~tau^-_2
#    BR                NDA      ID1      ID2
     2.60558957E-01    2     1000022        15   # BR(~tau^-_2 -> chi^0_1 tau^-)
     1.82874186E-01    2     1000023        15   # BR(~tau^-_2 -> chi^0_2 tau^-)
     1.85452971E-01    2     1000025        15   # BR(~tau^-_2 -> chi^0_3 tau^-)
     5.04768191E-03    2     1000035        15   # BR(~tau^-_2 -> chi^0_4 tau^-)
     3.55927166E-01    2    -1000024        16   # BR(~tau^-_2 -> chi^-_1 nu_tau)
     1.01390383E-02    2    -1000037        16   # BR(~tau^-_2 -> chi^-_2 nu_tau)
#    BR                NDA      ID1      ID2       ID3
DECAY   1000012     1.39386865E+02   # ~nu_e
#    BR                NDA      ID1      ID2
     8.66417367E-02    2     1000022        12   # BR(~nu_e -> chi^0_1 nu_e)
     4.04578450E-03    2     1000025        12   # BR(~nu_e -> chi^0_3 nu_e)
     3.02748193E-01    2     1000035        12   # BR(~nu_e -> chi^0_4 nu_e)
     4.04535530E-03    2     1000024        11   # BR(~nu_e -> chi^+_1 e^-)
     6.02471522E-01    2     1000037        11   # BR(~nu_e -> chi^+_2 e^-)
#    BR                NDA      ID1      ID2       ID3
DECAY   1000014     1.39628903E+02   # ~nu_mu
#    BR                NDA      ID1      ID2
     8.64921253E-02    2     1000022        14   # BR(~nu_mu -> chi^0_1 nu_mu)
     4.03879838E-03    2     1000025        14   # BR(~nu_mu -> chi^0_3 nu_mu)
     3.02225586E-01    2     1000035        14   # BR(~nu_mu -> chi^0_4 nu_mu)
     5.76439379E-03    2     1000024        13   # BR(~nu_mu -> chi^+_1 mu^-)
     6.01431769E-01    2     1000037        13   # BR(~nu_mu -> chi^+_2 mu^-)
#    BR                NDA      ID1      ID2       ID3
DECAY   1000016     2.07990357E+02   # ~nu_tau
#    BR                NDA      ID1      ID2
     5.81763519E-02    2     1000022        16   # BR(~nu_tau -> chi^0_1 nu_tau)
     2.71659075E-03    2     1000025        16   # BR(~nu_tau -> chi^0_3 nu_tau)
     2.03316784E-01    2     1000035        16   # BR(~nu_tau -> chi^0_4 nu_tau)
     3.31110777E-01    2     1000024        15   # BR(~nu_tau -> chi^+_1 tau^-)
     4.04647664E-01    2     1000037        15   # BR(~nu_tau -> chi^+_2 tau^-)
DECAY   2000001     5.63484457E+02   # ~d_R
#    BR                NDA      ID1      ID2
     9.63828532E-03    2     1000022         1   # BR(~d_R -> chi^0_1 d)
     1.18682968E-04    2     1000023         1   # BR(~d_R -> chi^0_2 d)
     2.19246270E-04    2     1000025         1   # BR(~d_R -> chi^0_3 d)
     9.90023426E-01    2     1000021         1   # BR(~d_R -> ~g d)
DECAY   1000001     6.89375151E+02   # ~d_L
#    BR                NDA      ID1      ID2
     1.93406540E-03    2     1000022         1   # BR(~d_L -> chi^0_1 d)
     2.34471584E-04    2     1000025         1   # BR(~d_L -> chi^0_3 d)
     6.16236740E-02    2     1000035         1   # BR(~d_L -> chi^0_4 d)
     1.23557241E-01    2    -1000037         2   # BR(~d_L -> chi^-_2 u)
     8.12586113E-01    2     1000021         1   # BR(~d_L -> ~g d)
DECAY   2000003     5.63620912E+02   # ~s_R
#    BR                NDA      ID1      ID2
     9.63990977E-03    2     1000022         3   # BR(~s_R -> chi^0_1 s)
     1.77026549E-04    2     1000023         3   # BR(~s_R -> chi^0_2 s)
     2.75722413E-04    2     1000025         3   # BR(~s_R -> chi^0_3 s)
     1.19155622E-04    2    -1000024         4   # BR(~s_R -> chi^-_1 c)
     9.89788132E-01    2     1000021         3   # BR(~s_R -> ~g s)
DECAY   1000003     6.89447464E+02   # ~s_L
#    BR                NDA      ID1      ID2
     1.93708858E-03    2     1000022         3   # BR(~s_L -> chi^0_1 s)
     2.80767609E-04    2     1000025         3   # BR(~s_L -> chi^0_3 s)
     6.16173083E-02    2     1000035         3   # BR(~s_L -> chi^0_4 s)
     1.23544496E-01    2    -1000037         4   # BR(~s_L -> chi^-_2 c)
     8.12502836E-01    2     1000021         3   # BR(~s_L -> ~g s)
DECAY   1000005     1.42009068E+02   # ~b_1
#    BR                NDA      ID1      ID2
     3.24119987E-02    2     1000022         5   # BR(~b_1 -> chi^0_1 b)
     2.42341800E-01    2     1000023         5   # BR(~b_1 -> chi^0_2 b)
     2.33868446E-01    2     1000025         5   # BR(~b_1 -> chi^0_3 b)
     4.91343870E-01    2    -1000024         6   # BR(~b_1 -> chi^-_1 t)
DECAY   2000005     1.95739464E+02   # ~b_2
#    BR                NDA      ID1      ID2
     1.40907053E-02    2     1000022         5   # BR(~b_2 -> chi^0_1 b)
     1.81624651E-01    2     1000023         5   # BR(~b_2 -> chi^0_2 b)
     1.76774619E-01    2     1000025         5   # BR(~b_2 -> chi^0_3 b)
     6.77146027E-02    2     1000035         5   # BR(~b_2 -> chi^0_4 b)
     4.10357266E-01    2    -1000024         6   # BR(~b_2 -> chi^-_1 t)
     1.38250366E-01    2    -1000037         6   # BR(~b_2 -> chi^-_2 t)
     1.11742809E-02    2     1000006       -24   # BR(~b_2 -> ~t_1 W^-)
DECAY   2000002     5.80647199E+02   # ~u_R
#    BR                NDA      ID1      ID2
     3.74246084E-02    2     1000022         2   # BR(~u_R -> chi^0_1 u)
     4.60206549E-04    2     1000023         2   # BR(~u_R -> chi^0_2 u)
     8.50705575E-04    2     1000025         2   # BR(~u_R -> chi^0_3 u)
     9.61264366E-01    2     1000021         2   # BR(~u_R -> ~g u)
DECAY   1000002     6.89358134E+02   # ~u_L
#    BR                NDA      ID1      ID2
     2.01462860E-03    2     1000022         2   # BR(~u_L -> chi^0_1 u)
     2.75585216E-04    2     1000023         2   # BR(~u_L -> chi^0_2 u)
     6.15460751E-02    2     1000035         2   # BR(~u_L -> chi^0_4 u)
     8.24199537E-04    2     1000024         1   # BR(~u_L -> chi^+_1 d)
     1.22782451E-01    2     1000037         1   # BR(~u_L -> chi^+_2 d)
     8.12553410E-01    2     1000021         2   # BR(~u_L -> ~g u)
DECAY   2000004     5.80654581E+02   # ~c_R
#    BR                NDA      ID1      ID2
     3.74241419E-02    2     1000022         4   # BR(~c_R -> chi^0_1 c)
     4.63295161E-04    2     1000023         4   # BR(~c_R -> chi^0_2 c)
     8.53830087E-04    2     1000025         4   # BR(~c_R -> chi^0_3 c)
     9.61252347E-01    2     1000021         4   # BR(~c_R -> ~g c)
DECAY   1000004     6.89430399E+02   # ~c_L
#    BR                NDA      ID1      ID2
     2.01442441E-03    2     1000022         4   # BR(~c_L -> chi^0_1 c)
     2.78168931E-04    2     1000023         4   # BR(~c_L -> chi^0_2 c)
     6.15397250E-02    2     1000035         4   # BR(~c_L -> chi^0_4 c)
     9.21480760E-04    2     1000024         3   # BR(~c_L -> chi^+_1 s)
     1.22769774E-01    2     1000037         3   # BR(~c_L -> chi^+_2 s)
     8.12470132E-01    2     1000021         4   # BR(~c_L -> ~g c)
DECAY   1000006     1.00275867E+02   # ~t_1
#    BR                NDA      ID1      ID2
     5.12441708E-02    2     1000022         6   # BR(~t_1 -> chi^0_1 t)
     2.33869174E-01    2     1000023         6   # BR(~t_1 -> chi^0_2 t)
     2.38555740E-01    2     1000025         6   # BR(~t_1 -> chi^0_3 t)
     4.75345198E-04    2     1000035         6   # BR(~t_1 -> chi^0_4 t)
     4.74877008E-01    2     1000024         5   # BR(~t_1 -> chi^+_1 b)
     9.77014960E-04    2     1000037         5   # BR(~t_1 -> chi^+_2 b)
#    BR                NDA      ID1      ID2       ID3
DECAY   2000006     1.96566406E+02   # ~t_2
#    BR                NDA      ID1      ID2
     3.22439726E-03    2     1000022         6   # BR(~t_2 -> chi^0_1 t)
     2.04133967E-01    2     1000023         6   # BR(~t_2 -> chi^0_2 t)
     2.05746114E-01    2     1000025         6   # BR(~t_2 -> chi^0_3 t)
     6.76514329E-02    2     1000035         6   # BR(~t_2 -> chi^0_4 t)
     3.68663983E-01    2     1000024         5   # BR(~t_2 -> chi^+_1 b)
     1.34864347E-01    2     1000037         5   # BR(~t_2 -> chi^+_2 b)
     5.57989233E-03    2     1000006        23   # BR(~t_2 -> ~t_1 Z)
     1.01186078E-02    2     1000006        25   # BR(~t_2 -> ~t_1 h^0)
DECAY   1000024     1.55559139E-01   # chi^+_1
#    BR                NDA      ID1      ID2
     9.99973209E-01    2     1000022        24   # BR(chi^+_1 -> chi^0_1 W^+)
#    BR                NDA      ID1      ID2       ID3
DECAY   1000037     1.27845841E+01   # chi^+_2
#    BR                NDA      ID1      ID2
     1.83220193E-03    2     1000022        24   # BR(chi^+_2 -> chi^0_1 W^+)
     2.46365359E-01    2     1000023        24   # BR(chi^+_2 -> chi^0_2 W^+)
     2.42690989E-01    2     1000025        24   # BR(chi^+_2 -> chi^0_3 W^+)
     2.44170083E-01    2     1000024        23   # BR(chi^+_2 -> chi^+_1 Z)
     2.42265222E-01    2     1000024        25   # BR(chi^+_2 -> chi^+_1 h^0)
#    BR                NDA      ID1      ID2       ID3
     8.32178586E-03    3     1000024         6        -6   # BR(chi^+_2 -> chi^+_1 t t_bar)
     7.29284019E-03    3     1000023        -5         6   # BR(chi^+_2 -> chi^0_2 b_bar t)
     6.94984104E-03    3     1000025        -5         6   # BR(chi^+_2 -> chi^0_3 b_bar t)
DECAY   1000022     0.00000000E+00   # chi^0_1
DECAY   1000023     1.69575462E-01   # chi^0_2
#    BR                NDA      ID1      ID2
     6.67502271E-01    2     1000022        23   # BR(chi^0_2 -> chi^0_1 Z)
     3.32462830E-01    2     1000022        25   # BR(chi^0_2 -> chi^0_1 h^0)
#    BR                NDA      ID1      ID2       ID3
DECAY   1000025     1.24261465E-01   # chi^0_3
#    BR                NDA      ID1      ID2
     4.96540558E-01    2     1000022        23   # BR(chi^0_3 -> chi^0_1 Z)
     5.03453274E-01    2     1000022        25   # BR(chi^0_3 -> chi^0_1 h^0)
#    BR                NDA      ID1      ID2       ID3
DECAY   1000035     1.39335720E+01   # chi^0_4
#    BR                NDA      ID1      ID2
     2.26191269E-01    2     1000024       -24   # BR(chi^0_4 -> chi^+_1 W^-)
     2.26191269E-01    2    -1000024        24   # BR(chi^0_4 -> chi^-_1 W^+)
     7.56639937E-04    2     1000022        23   # BR(chi^0_4 -> chi^0_1 Z)
     7.90044630E-02    2     1000023        23   # BR(chi^0_4 -> chi^0_2 Z)
     1.45215793E-01    2     1000025        23   # BR(chi^0_4 -> chi^0_3 Z)
     8.93422919E-04    2     1000022        25   # BR(chi^0_4 -> chi^0_1 h^0)
     1.44504608E-01    2     1000023        25   # BR(chi^0_4 -> chi^0_2 h^0)
     1.54540344E-01    2     1000025        25   # BR(chi^0_4 -> chi^0_3 h^0)
#    BR                NDA      ID1      ID2       ID3
     3.63194810E-03    3     1000023         6        -6   # BR(chi^0_4 -> chi^0_2 t t_bar)
     3.68985308E-03    3     1000025         6        -6   # BR(chi^0_4 -> chi^0_3 t t_bar)
     7.62993689E-03    3     1000024         5        -6   # BR(chi^0_4 -> chi^+_1 b t_bar)
     7.62993689E-03    3    -1000024        -5         6   # BR(chi^0_4 -> chi^-_1 b_bar t)
DECAY   1000021     5.26932720E+01   # ~g
#    BR                NDA      ID1      ID2
     1.96118960E-04    2     1000006        -4   # BR(~g -> ~t_1 c_bar)
     1.96118960E-04    2    -1000006         4   # BR(~g -> ~t^*_1 c)
     4.83375713E-01    2     1000006        -6   # BR(~g -> ~t_1 t_bar)
     4.83375713E-01    2    -1000006         6   # BR(~g -> ~t^*_1 t)
     7.98548218E-03    2     1000005        -5   # BR(~g -> ~b_1 b_bar)
     7.98548218E-03    2    -1000005         5   # BR(~g -> ~b^*_1 b)
     6.73070571E-04    2     2000005        -5   # BR(~g -> ~b_2 b_bar)
     6.73070571E-04    2    -2000005         5   # BR(~g -> ~b^*_2 b)
#    BR                NDA      ID1      ID2       ID3
     3.30627584E-03    3     1000023         6        -6   # BR(~g -> chi^0_2 t t_bar)
     3.31680005E-03    3     1000025         6        -6   # BR(~g -> chi^0_3 t t_bar)
     9.90876366E-04    3     1000035         6        -6   # BR(~g -> chi^0_4 t t_bar)
     2.98657046E-03    3     1000024         5        -6   # BR(~g -> chi^+_1 b t_bar)
     2.98657046E-03    3    -1000024        -5         6   # BR(~g -> chi^-_1 b_bar t)
     8.43106393E-04    3     1000037         5        -6   # BR(~g -> chi^+_2 b t_bar)
     8.43106393E-04    3    -1000037        -5         6   # BR(~g -> chi^-_2 b_bar t)
DECAY        25     3.52323063E-03   # Gamma(h0)
     2.20887970E-03   2        22        22   # BR(h0 -> photon photon)
     1.06185352E-03   2        22        23   # BR(h0 -> photon Z)
     1.66723449E-02   2        23        23   # BR(h0 -> Z Z)
     1.51132502E-01   2       -24        24   # BR(h0 -> W W)
     7.17432929E-02   2        21        21   # BR(h0 -> gluon gluon)
     5.45072225E-09   2       -11        11   # BR(h0 -> Electron electron)
     2.42455114E-04   2       -13        13   # BR(h0 -> Muon muon)
     6.99018100E-02   2       -15        15   # BR(h0 -> Tau tau)
     1.55903650E-07   2        -2         2   # BR(h0 -> Up up)
     3.02507097E-02   2        -4         4   # BR(h0 -> Charm charm)
     6.35223318E-07   2        -1         1   # BR(h0 -> Down down)
     2.29745261E-04   2        -3         3   # BR(h0 -> Strange strange)
     6.11152632E-01   2        -5         5   # BR(h0 -> Bottom bottom)
     4.54029787E-02   2   1000022   1000022   # BR(h0 -> neutralino1 neutralino1)
DECAY        35     1.60221463E+02   # Gamma(HH)
     2.00018980E-08   2        22        22   # BR(HH -> photon photon)
     2.85123986E-08   2        22        23   # BR(HH -> photon Z)
     4.24202966E-08   2        23        23   # BR(HH -> Z Z)
     1.11097888E-08   2       -24        24   # BR(HH -> W W)
     7.07772694E-06   2        21        21   # BR(HH -> gluon gluon)
     1.06081652E-08   2       -11        11   # BR(HH -> Electron electron)
     4.72340580E-04   2       -13        13   # BR(HH -> Muon muon)
     1.36420104E-01   2       -15        15   # BR(HH -> Tau tau)
     1.68987141E-14   2        -2         2   # BR(HH -> Up up)
     3.27806152E-09   2        -4         4   # BR(HH -> Charm charm)
     2.19778766E-04   2        -6         6   # BR(HH -> Top top)
     7.60059959E-07   2        -1         1   # BR(HH -> Down down)
     2.74915922E-04   2        -3         3   # BR(HH -> Strange strange)
     6.61890926E-01   2        -5         5   # BR(HH -> Bottom bottom)
     1.23126878E-03   2  -1000024   1000024   # BR(HH -> Chargino1 chargino1)
     5.82375219E-02   2  -1000024   1000037   # BR(HH -> Chargino1 chargino2)
     5.82375219E-02   2  -1000037   1000024   # BR(HH -> Chargino2 chargino1)
     7.61914646E-06   2  -1000037   1000037   # BR(HH -> Chargino2 chargino2)
     1.54970430E-03   2   1000022   1000022   # BR(HH -> neutralino1 neutralino1)
     1.17780188E-02   2   1000022   1000023   # BR(HH -> neutralino1 neutralino2)
     9.41872010E-03   2   1000022   1000025   # BR(HH -> neutralino1 neutralino3)
     1.86159874E-03   2   1000022   1000035   # BR(HH -> neutralino1 neutralino4)
     6.06372558E-06   2   1000023   1000023   # BR(HH -> neutralino2 neutralino2)
     6.63888699E-04   2   1000023   1000025   # BR(HH -> neutralino2 neutralino3)
     2.78149158E-02   2   1000023   1000035   # BR(HH -> neutralino2 neutralino4)
     1.02232534E-03   2   1000025   1000025   # BR(HH -> neutralino3 neutralino3)
     2.88807248E-02   2   1000025   1000035   # BR(HH -> neutralino3 neutralino4)
     3.81951626E-06   2   1000035   1000035   # BR(HH -> neutralino4 neutralino4)
     2.70276207E-07   2        25        25   # BR(HH -> h0 h0)
DECAY        36     1.49092031E+02   # Gamma(A0)
     2.01348724E-09   2        22        22   # BR(A0 -> photon photon)
     4.88882728E-09   2        22        23   # BR(A0 -> photon Z)
     1.09201505E-05   2        21        21   # BR(A0 -> gluon gluon)
     1.04065654E-08   2       -11        11   # BR(A0 -> Electron electron)
     4.63362536E-04   2       -13        13   # BR(A0 -> Muon muon)
     1.33827272E-01   2       -15        15   # BR(A0 -> Tau tau)
     1.56479363E-14   2        -2         2   # BR(A0 -> Up up)
     3.03536925E-09   2        -4         4   # BR(A0 -> Charm charm)
     2.05299339E-04   2        -6         6   # BR(A0 -> Top top)
     7.45545119E-07   2        -1         1   # BR(A0 -> Down down)
     2.69665013E-04   2        -3         3   # BR(A0 -> Strange strange)
     6.49254738E-01   2        -5         5   # BR(A0 -> Bottom bottom)
     1.33641619E-03   2  -1000024   1000024   # BR(A0 -> Chargino1 chargino1)
     6.26584832E-02   2  -1000024   1000037   # BR(A0 -> Chargino1 chargino2)
     6.26584832E-02   2  -1000037   1000024   # BR(A0 -> Chargino2 chargino1)
     1.54411159E-05   2  -1000037   1000037   # BR(A0 -> Chargino2 chargino2)
     1.68641347E-03   2   1000022   1000022   # BR(A0 -> neutralino1 neutralino1)
     1.17735682E-02   2   1000022   1000023   # BR(A0 -> neutralino1 neutralino2)
     1.09551304E-02   2   1000022   1000025   # BR(A0 -> neutralino1 neutralino3)
     2.01135907E-03   2   1000022   1000035   # BR(A0 -> neutralino1 neutralino4)
     6.20646540E-06   2   1000023   1000023   # BR(A0 -> neutralino2 neutralino2)
     6.58285998E-04   2   1000023   1000025   # BR(A0 -> neutralino2 neutralino3)
     3.20730022E-02   2   1000023   1000035   # BR(A0 -> neutralino2 neutralino4)
     1.20667021E-03   2   1000025   1000025   # BR(A0 -> neutralino3 neutralino3)
     2.89206849E-02   2   1000025   1000035   # BR(A0 -> neutralino3 neutralino4)
     7.75183127E-06   2   1000035   1000035   # BR(A0 -> neutralino4 neutralino4)
     8.10520897E-08   2        23        25   # BR(A0 -> Z h0)
     6.26227074E-13   2        23        35   # BR(A0 -> Z HH)
     6.10714076E-41   2        25        25   # BR(A0 -> h0 h0)
DECAY        37     1.61720812E+02   # Gamma(Hp)
     1.13110482E-08   2       -11        12   # BR(Hp -> Electron nu_e)
     4.83582637E-04   2       -13        14   # BR(Hp -> Muon nu_mu)
     1.36784687E-01   2       -15        16   # BR(Hp -> Tau nu_tau)
     6.99788107E-07   2        -1         2   # BR(Hp -> Down up)
     1.18265714E-05   2        -3         2   # BR(Hp -> Strange up)
     7.01925720E-06   2        -5         2   # BR(Hp -> Bottom up)
     3.28671763E-08   2        -1         4   # BR(Hp -> Down charm)
     2.52189946E-04   2        -3         4   # BR(Hp -> Strange charm)
     9.82947219E-04   2        -5         4   # BR(Hp -> Bottom charm)
     1.60055805E-08   2        -1         6   # BR(Hp -> Down top)
     7.23331014E-07   2        -3         6   # BR(Hp -> Strange top)
     6.62994385E-01   2        -5         6   # BR(Hp -> Bottom top)
     2.37158320E-02   2   1000022   1000024   # BR(Hp -> neutralino1 chargino1)
     3.69830434E-03   2   1000022   1000037   # BR(Hp -> neutralino1 chargino2)
     7.38920283E-04   2   1000023   1000024   # BR(Hp -> neutralino2 chargino1)
     5.72983425E-02   2   1000023   1000037   # BR(Hp -> neutralino2 chargino2)
     7.77816995E-05   2   1000024   1000025   # BR(Hp -> chargino1 neutralino3)
     5.51809628E-02   2   1000025   1000037   # BR(Hp -> neutralino3 chargino2)
     5.77716603E-02   2   1000024   1000035   # BR(Hp -> chargino1 neutralino4)
     1.75079933E-11   2   1000035   1000037   # BR(Hp -> neutralino4 chargino2)
     7.45208586E-08   2        24        25   # BR(Hp -> W h0)
DECAY         6     2.43000000E+00   # top
#    BR                NDA      ID1      ID2
     1.00000000E+00    2           5        24   # BR(t -> b W)
Block HiggsBoundsInputHiggsCouplingsFermions
# ScalarNormEffCoupSq PseudoSNormEffCoupSq NP IP1 IP2 IP2
    9.95118824E-01    0.00000000E+00        3  25   5   5  # h0-b-b eff. coupling^2, normalised to SM
    3.27505339E+03    0.00000000E+00        3  35   5   5  # H0-b-b eff. coupling^2, normalised to SM
    0.00000000E+00    3.27504851E+03        3  36   5   5  # A0-b-b eff. coupling^2, normalised to SM
#
    1.00000149E+00    0.00000000E+00        3  25   6   6  # h0-t-t eff. coupling^2, normalised to SM
    3.03848576E-04    0.00000000E+00        3  35   6   6  # H0-t-t eff. coupling^2, normalised to SM
    0.00000000E+00    3.05338989E-04        3  36   6   6  # A0-t-t eff. coupling^2, normalised to SM
#
    9.95118824E-01    0.00000000E+00        3  25  15  15  # h0-tau-tau eff. coupling^2, normalised to SM
    3.27505339E+03    0.00000000E+00        3  35  15  15  # H0-tau-tau eff. coupling^2, normalised to SM
    0.00000000E+00    3.27504851E+03        3  36  15  15  # A0-tau-tau eff. coupling^2, normalised to SM
#
Block HiggsBoundsInputHiggsCouplingsBosons
    9.99999998E-01        3  25  24  24  # h0-W-W eff. coupling^2, normalised to SM
    1.82319315E-09        3  35  24  24  # H0-W-W eff. coupling^2, normalised to SM
    0.00000000E+00        3  36  24  24  # A0-W-W eff. coupling^2, normalised to SM
#
    9.99999998E-01        3  25  23  23  # h0-Z-Z eff. coupling^2, normalised to SM
    1.82319315E-09        3  35  23  23  # H0-Z-Z eff. coupling^2, normalised to SM
    0.00000000E+00        3  36  23  23  # A0-Z-Z eff. coupling^2, normalised to SM
#
    1.26434397E+00        3  25  21  21  # h0-g-g eff. coupling^2, normalised to SM
    1.72748480E-02        3  35  21  21  # H0-g-g eff. coupling^2, normalised to SM
    1.55295578E-01        3  36  21  21  # A0-g-g eff. coupling^2, normalised to SM
#
    0.00000000E+00        3  25  25  23  # h0-h0-Z eff. coupling^2, normalised to SM
    0.00000000E+00        3  35  25  23  # H0-h0-Z eff. coupling^2, normalised to SM
    1.82319315E-09        3  36  25  23  # A0-h0-Z eff. coupling^2, normalised to SM
    0.00000000E+00        3  35  35  23  # H0-H0-Z eff. coupling^2, normalised to SM
    9.99999998E-01        3  36  35  23  # A0-H0-Z eff. coupling^2, normalised to SM
    0.00000000E+00        3  36  36  23  # A0-A0-Z eff. coupling^2, normalised to SM
#
    0.00000000E+00        4  25  21  21  23  # h0-g-g-Z eff. coupling^2, normalised to SM
    0.00000000E+00        4  35  21  21  23  # H0-g-g-Z eff. coupling^2, normalised to SM
    0.00000000E+00        4  36  21  21  23  # A0-g-g-Z eff. coupling^2, normalised to SM
Block SPhenoLowEnergy  # low energy observables
    1    3.24345792E-04   # BR(b -> s gamma)
    2    1.58896023E-06   # BR(b -> s mu+ mu-)
    3    3.52324792E-05   # BR(b -> s nu nu)
    4    2.57374858E-15   # BR(Bd -> e+ e-)
    5    1.09947632E-10   # BR(Bd -> mu+ mu-)
    6    2.30172997E-08   # BR(Bd -> tau+ tau-)
    7    8.55693156E-14   # BR(Bs -> e+ e-)
    8    3.65552185E-09   # BR(Bs -> mu+ mu-)
    9    7.75566823E-07   # BR(Bs -> tau+ tau-)
   10    9.52676074E-05   # BR(B_u -> tau nu)
   11    9.84077911E-01   # BR(B_u -> tau nu)/BR(B_u -> tau nu)_SM
   12    5.42291990E-01   # |Delta(M_Bd)| [ps^-1] 
   13    1.93683654E+01   # |Delta(M_Bs)| [ps^-1] 
   14    0.00000000E+00   # neutron EDM according to the chiral quark model
   15    0.00000000E+00   # neutron EDM according to the relativistic quark-parton model
   16    2.15879871E-03   # epsilon_K
   17    2.28167508E-15   # Delta(M_K)
   18    2.47859079E-11   # BR(K^0 -> pi^0 nu nu)
   19    8.28715526E-11   # BR(K^+ -> pi^+ nu nu)
   20   -6.43657718E-16   # Delta(g-2)_electron/2
   21   -2.75187686E-11   # Delta(g-2)_muon/2
   22   -7.81507372E-09   # Delta(g-2)_tau/2
   23    0.00000000E+00   # electric dipole moment of the electron
   24    0.00000000E+00   # electric dipole moment of the muon
   25    0.00000000E+00   # electric dipole moment of the tau
   26    0.00000000E+00   # Br(mu -> e gamma)
   27    0.00000000E+00   # Br(tau -> e gamma)
   28    0.00000000E+00   # Br(tau -> mu gamma)
   29    0.00000000E+00   # Br(mu -> 3 e)
   30    0.00000000E+00   # Br(tau -> 3 e)
   31    0.00000000E+00   # Br(tau -> 3 mu)
   39    7.41742085E-05   # Delta(rho_parameter)
   40    0.00000000E+00   # BR(Z -> e mu)
   41    0.00000000E+00   # BR(Z -> e tau)
   42    0.00000000E+00   # BR(Z -> mu tau)
Block FWCOEF Q=  1.60000000E+02  # Wilson coefficients at scale Q
#    id        order  M        value         comment
     0305 4422   00   0    -1.88819110E-01   # C7
     0305 4422   00   2    -1.92814043E-01   # C7
     0305 4322   00   2    -1.11047602E-04   # C7'
     0305 6421   00   0    -9.52278348E-02   # C8
     0305 6421   00   2    -1.01782279E-01   # C8
     0305 6321   00   2    -1.48143095E-04   # C8'
 03051111 4133   00   0     1.61887380E+00   # C9 e+e-
 03051111 4133   00   2     1.61941197E+00   # C9 e+e-
 03051111 4233   00   2     5.35880423E-04   # C9' e+e-
 03051111 4137   00   0    -4.44156590E+00   # C10 e+e-
 03051111 4137   00   2    -4.43806847E+00   # C10 e+e-
 03051111 4237   00   2    -4.00962919E-03   # C10' e+e-
 03051313 4133   00   0     1.61887380E+00   # C9 mu+mu-
 03051313 4133   00   2     1.61941168E+00   # C9 mu+mu-
 03051313 4233   00   2     5.35879255E-04   # C9' mu+mu-
 03051313 4137   00   0    -4.44156590E+00   # C10 mu+mu-
 03051313 4137   00   2    -4.43806876E+00   # C10 mu+mu-
 03051313 4237   00   2    -4.00962946E-03   # C10' mu+mu-
 03051212 4137   00   0     1.50535012E+00   # C11 nu_1 nu_1
 03051212 4137   00   2     1.50459344E+00   # C11 nu_1 nu_1
 03051212 4237   00   2     8.68557672E-04   # C11' nu_1 nu_1
 03051414 4137   00   0     1.50535012E+00   # C11 nu_2 nu_2
 03051414 4137   00   2     1.50459344E+00   # C11 nu_2 nu_2
 03051414 4237   00   2     8.68557846E-04   # C11' nu_2 nu_2
 03051616 4137   00   0     1.50535012E+00   # C11 nu_3 nu_3
 03051616 4137   00   2     1.50459344E+00   # C11 nu_3 nu_3
 03051616 4237   00   2     8.68606943E-04   # C11' nu_3 nu_3
Block IMFWCOEF Q=  1.60000000E+02  # Im(Wilson coefficients) at scale Q
#    id        order  M        value         comment
     0305 4422   00   0     3.85812060E-07   # C7
     0305 4422   00   2    -7.95146948E-06   # C7
     0305 4322   00   2    -4.04657660E-08   # C7'
     0305 6421   00   0     3.30473544E-07   # C8
     0305 6421   00   2    -7.42004486E-06   # C8
     0305 6321   00   2    -1.17758283E-07   # C8'
 03051111 4133   00   2     2.10348511E-07   # C9 e+e-
 03051111 4233   00   2     1.07807524E-05   # C9' e+e-
 03051111 4137   00   2     3.91175424E-08   # C10 e+e-
 03051111 4237   00   2    -8.06728643E-05   # C10' e+e-
 03051313 4133   00   2     2.10344713E-07   # C9 mu+mu-
 03051313 4233   00   2     1.07807459E-05   # C9' mu+mu-
 03051313 4137   00   2     3.91217599E-08   # C10 mu+mu-
 03051313 4237   00   2    -8.06728835E-05   # C10' mu+mu-
 03051212 4137   00   2     8.02625129E-09   # C11 nu_1 nu_1
 03051212 4237   00   2     1.74751924E-05   # C11' nu_1 nu_1
 03051414 4137   00   2     8.02642346E-09   # C11 nu_2 nu_2
 03051414 4237   00   2     1.74751924E-05   # C11' nu_2 nu_2
 03051616 4137   00   2     8.07441664E-09   # C11 nu_3 nu_3
 03051616 4237   00   2     1.74751924E-05   # C11' nu_3 nu_3
