# SUSY Les Houches Accord 2 - MSSM spectrum + Decays
# SPheno v4.0.5be
# W. Porod, Comput. Phys. Commun. 153 (2003) 275-315, hep-ph/0301101;
# W. Porod, F.~Staub, Comput. Phys. Commun. 183 (2012) 2458
#                     arXiv:1104.1573 [hep-ph] 
# in case of problems send email to porod@physik.uni-wuerzburg.de
# Created: 07.09.2021,  17:56
Block SPINFO         # Program information
     1   SPheno      # spectrum calculator
     2   v4.0.5be    # version number
#
Block SPhenoINFO     # SPheno specific information
    1      2         # using 2-loop RGEs
    2      2         # using pole masses for boundary conditions at mZ
Block MODSEL  # Model selection
    1    0    # general MSSM
Block MINPAR  # Input parameters
    3    1.47901654E+01  # tanb at m_Z    
    4    1.00000000E+00  # Sign(mu)
Block EXTPAR  # non-universal input parameters
    0    3.64448533E+03  # scale for input parameters
    1   -2.15509986E+02  # M_1
    2   -1.11823697E+03  # M_2
    3    2.73084697E+03  # M_3
   11   -1.64078461E+02  # A_t
   12   -1.06045410E+03  # A_b
   13   -1.78919689E+02  # A_tau
   23    2.33195180E+02  # mu
   25    1.40979333E+01  # tan(beta)
   26    8.20465193E+02  # m_A, pole mass
   31    1.00000000E+04  # M_L11
   32    1.00000000E+04  # M_L22
   33    1.00000000E+04  # M_L33
   34    1.00000000E+04  # M_E11
   35    1.00000000E+04  # M_E22
   36    1.00000000E+04  # M_E33
   41    1.00000000E+04  # M_Q11
   42    1.00000000E+04  # M_Q22
   43    4.23299130E+03  # M_Q33
   44    1.00000000E+04  # M_U11
   45    1.00000000E+04  # M_U22
   46    3.02393237E+03  # M_U33
   47    1.00000000E+04  # M_D11
   48    1.00000000E+04  # M_D22
   49    2.29059821E+03  # M_D33
Block SMINPUTS  # SM parameters
         1     1.27908970E+02  # alpha_em^-1(MZ)^MSbar
         2     1.16637870E-05  # G_mu [GeV^-2]
         3     1.18400000E-01  # alpha_s(MZ)^MSbar
         4     9.11876000E+01  # m_Z(pole)
         5     4.18000000E+00  # m_b(m_b), MSbar
         6     1.73200000E+02  # m_t(pole)
         7     1.77700000E+00  # m_tau(pole)
         8     0.00000000E+00  # m_nu_3
        11     5.10998930E-04  # m_e(pole)
        12     0.00000000E+00  # m_nu_1
        13     1.05658372E-01  # m_muon(pole)
        14     0.00000000E+00  # m_nu_2
        21     5.00000000E-03  # m_d(2 GeV), MSbar
        22     2.50000000E-03  # m_u(2 GeV), MSbar
        23     9.50000000E-02  # m_s(2 GeV), MSbar
        24     1.27000000E+00  # m_c(m_c), MSbar
Block gauge Q=  3.64448533E+03  # (SUSY scale)
   1    3.55362975E-01  # g'(Q)^DRbar
   2    6.65198874E-01  # g(Q)^DRbar
   3    1.21977796E+00  # g3(Q)^DRbar
Block Yu Q=  3.64448533E+03  # (SUSY scale)
  1  1     8.40543825E-06   # Y_u(Q)^DRbar
  2  2     4.26996263E-03   # Y_c(Q)^DRbar
  3  3     1.01544445E+00   # Y_t(Q)^DRbar
Block Yd Q=  3.64448533E+03  # (SUSY scale)
  1  1     2.38120102E-04   # Y_d(Q)^DRbar
  2  2     4.52428195E-03   # Y_s(Q)^DRbar
  3  3     2.36140526E-01   # Y_b(Q)^DRbar
Block Ye Q=  3.64448533E+03  # (SUSY scale)
  1  1     4.15536992E-05   # Y_e(Q)^DRbar
  2  2     8.59198708E-03   # Y_mu(Q)^DRbar
  3  3     1.44503088E-01   # Y_tau(Q)^DRbar
Block Au Q=  3.64448533E+03  # (SUSY scale)
  1  1     0.00000000E+00   # A_u(Q)^DRbar
  2  2     0.00000000E+00   # A_c(Q)^DRbar
  3  3    -1.64078462E+02   # A_t(Q)^DRbar
Block Ad Q=  3.64448533E+03  # (SUSY scale)
  1  1     0.00000000E+00   # A_d(Q)^DRbar
  2  2     0.00000000E+00   # A_s(Q)^DRbar
  3  3    -1.06045410E+03   # A_b(Q)^DRbar
Block Ae Q=  3.64448533E+03  # (SUSY scale)
  1  1     0.00000000E+00   # A_e(Q)^DRbar
  2  2     0.00000000E+00   # A_mu(Q)^DRbar
  3  3    -1.78919688E+02   # A_tau(Q)^DRbar
Block MSOFT Q=  3.64448533E+03  # soft SUSY breaking masses at Q
   1   -2.15509986E+02  # M_1
   2   -1.11823697E+03  # M_2
   3    2.73084697E+03  # M_3
  21    5.70464469E+05  # M^2_(H,d)
  22    2.22087632E+05  # M^2_(H,u)
  31    1.00000000E+04  # M_(L,11)
  32    1.00000000E+04  # M_(L,22)
  33    1.00000000E+04  # M_(L,33)
  34    1.00000000E+04  # M_(E,11)
  35    1.00000000E+04  # M_(E,22)
  36    1.00000000E+04  # M_(E,33)
  41    1.00000000E+04  # M_(Q,11)
  42    1.00000000E+04  # M_(Q,22)
  43    4.23299130E+03  # M_(Q,33)
  44    1.00000000E+04  # M_(U,11)
  45    1.00000000E+04  # M_(U,22)
  46    3.02393237E+03  # M_(U,33)
  47    1.00000000E+04  # M_(D,11)
  48    1.00000000E+04  # M_(D,22)
  49    2.29059821E+03  # M_(D,33)
Block MASS  # Mass spectrum
#   PDG code      mass          particle
         6     1.73200000E+02  # m_t(pole)
        23     9.11876000E+01  # m_Z(pole)
        24     8.04299946E+01  # W+
        15     1.77700000E+00  # m_tau(pole)
        25     1.21074214E+02  # h0
        35     8.20570762E+02  # H0
        36     8.20465193E+02  # A0
        37     8.29990817E+02  # H+
   1000001     1.01099656E+04  # ~d_L
   2000001     1.00855166E+04  # ~d_R
   1000002     1.01096030E+04  # ~u_L
   2000002     1.00887655E+04  # ~u_R
   1000003     1.01099665E+04  # ~s_L
   2000003     1.00855175E+04  # ~s_R
   1000004     1.01096040E+04  # ~c_L
   2000004     1.00887664E+04  # ~c_R
   1000005     2.42863184E+03  # ~b_1
   2000005     4.29678079E+03  # ~b_2
   1000006     3.08985198E+03  # ~t_1
   2000006     4.29867624E+03  # ~t_2
   1000011     1.00209122E+04  # ~e_L-
   2000011     1.00088617E+04  # ~e_R-
   1000012     1.00201471E+04  # ~nu_eL
   1000013     1.00209147E+04  # ~mu_L-
   2000013     1.00088666E+04  # ~mu_R-
   1000014     1.00201497E+04  # ~nu_muL
   1000015     1.00102558E+04  # ~tau_1-
   2000015     1.00216390E+04  # ~tau_2-
   1000016     1.00208648E+04  # ~nu_tauL
   1000021     3.17833541E+03  # ~g
   1000022     2.00731863E+02  # ~chi_10
   1000023     2.53924527E+02  # ~chi_20
   1000025     2.64780978E+02  # ~chi_30
   1000035     1.20525857E+03  # ~chi_40
   1000024     2.48796109E+02  # ~chi_1+
   1000037     1.20429292E+03  # ~chi_2+
# Higgs mixing
Block alpha # Effective Higgs mixing angle
          -6.97214154E-02   # alpha
Block Hmix Q=  3.64448533E+03  # Higgs mixing parameters
   1    2.33195180E+02  # mu
   2    1.40979333E+01  # tan[beta](Q)
   3    2.43051995E+02  # v(Q)
   4    6.73163133E+05  # m^2_A(Q)
Block stopmix # stop mixing matrix
   1  1     6.74207960E-03   # Re[R_st(1,1)]
   1  2     9.99977272E-01   # Re[R_st(1,2)]
   2  1    -9.99977272E-01   # Re[R_st(2,1)]
   2  2     6.74207960E-03   # Re[R_st(2,2)]
Block sbotmix # sbottom mixing matrix
   1  1     7.72324495E-04   # Re[R_sb(1,1)]
   1  2     9.99999702E-01   # Re[R_sb(1,2)]
   2  1    -9.99999702E-01   # Re[R_sb(2,1)]
   2  2     7.72324495E-04   # Re[R_sb(2,2)]
Block staumix # stau mixing matrix
   1  1     2.65895904E-02   # Re[R_sta(1,1)]
   1  2     9.99646434E-01   # Re[R_sta(1,2)]
   2  1    -9.99646434E-01   # Re[R_sta(2,1)]
   2  2     2.65895904E-02   # Re[R_sta(2,2)]
Block Nmix # neutralino mixing matrix
   1  1    -8.39649270E-01   # Re[N(1,1)]
   1  2     2.41496089E-02   # Re[N(1,2)]
   1  3    -4.27610310E-01   # Re[N(1,3)]
   1  4    -3.33998987E-01   # Re[N(1,4)]
   2  1    -7.19530624E-02   # Re[N(2,1)]
   2  2     4.20164647E-02   # Re[N(2,2)]
   2  3     6.98674014E-01   # Re[N(2,3)]
   2  4    -7.10571598E-01   # Re[N(2,4)]
   3  1     5.38332630E-01   # Re[N(3,1)]
   3  2     4.90957237E-02   # Re[N(3,2)]
   3  3    -5.73515760E-01   # Re[N(3,3)]
   3  4    -6.15521943E-01   # Re[N(3,4)]
   4  1     3.13688839E-03   # Re[N(4,1)]
   4  2    -9.97617674E-01   # Re[N(4,2)]
   4  3    -9.14977876E-03   # Re[N(4,3)]
   4  4    -6.83038687E-02   # Re[N(4,4)]
Block Umix # chargino mixing matrix
   1  1    -1.29846257E-02   # Re[U(1,1)]
   1  2     9.99915696E-01   # Re[U(1,2)]
   2  1    -9.99915696E-01   # Re[U(2,1)]
   2  2    -1.29846257E-02   # Re[U(2,2)]
Block Vmix # chargino mixing matrix
   1  1     9.66464788E-02   # Re[V(1,1)]
   1  2     9.95318772E-01   # Re[V(1,2)]
   2  1     9.95318772E-01   # Re[V(2,1)]
   2  2    -9.66464788E-02   # Re[V(2,2)]
DECAY        23     2.49520000E+00   # Z
DECAY        24     2.08500000E+00   # W
DECAY   2000011     5.02416167E+01   # ~e^-_R
#    BR                NDA      ID1      ID2
     7.05134517E-01    2     1000022        11   # BR(~e^-_R -> chi^0_1 e^-)
     5.17565344E-03    2     1000023        11   # BR(~e^-_R -> chi^0_2 e^-)
     2.89680257E-01    2     1000025        11   # BR(~e^-_R -> chi^0_3 e^-)
DECAY   1000011     1.41110459E+02   # ~e^-_L
#    BR                NDA      ID1      ID2
     5.62562144E-02    2     1000022        11   # BR(~e^-_L -> chi^0_1 e^-)
     3.53826117E-02    2     1000025        11   # BR(~e^-_L -> chi^0_3 e^-)
     3.01135879E-01    2     1000035        11   # BR(~e^-_L -> chi^0_4 e^-)
     1.05269971E-04    2    -1000024        12   # BR(~e^-_L -> chi^-_1 nu_e)
     6.07116028E-01    2    -1000037        12   # BR(~e^-_L -> chi^-_2 nu_e)
#    BR                NDA      ID1      ID2       ID3
DECAY   2000013     5.02710032E+01   # ~mu^-_R
#    BR                NDA      ID1      ID2
     7.04776084E-01    2     1000022        13   # BR(~mu^-_R -> chi^0_1 mu^-)
     5.31518051E-03    2     1000023        13   # BR(~mu^-_R -> chi^0_2 mu^-)
     2.89607109E-01    2     1000025        13   # BR(~mu^-_R -> chi^0_3 mu^-)
     2.91994472E-04    2    -1000024        14   # BR(~mu^-_R -> chi^-_1 nu_mu)
DECAY   1000013     1.41125195E+02   # ~mu^-_L
#    BR                NDA      ID1      ID2
     5.62694080E-02    2     1000022        13   # BR(~mu^-_L -> chi^0_1 mu^-)
     3.54131775E-02    2     1000025        13   # BR(~mu^-_L -> chi^0_3 mu^-)
     3.01104524E-01    2     1000035        13   # BR(~mu^-_L -> chi^0_4 mu^-)
     1.05259005E-04    2    -1000024        14   # BR(~mu^-_L -> chi^-_1 nu_mu)
     6.07052795E-01    2    -1000037        14   # BR(~mu^-_L -> chi^-_2 nu_mu)
#    BR                NDA      ID1      ID2       ID3
DECAY   1000015     5.86170348E+01   # ~tau^-_1
#    BR                NDA      ID1      ID2
     6.19574514E-01    2     1000022        15   # BR(~tau^-_1 -> chi^0_1 tau^-)
     3.83303039E-02    2     1000023        15   # BR(~tau^-_1 -> chi^0_2 tau^-)
     2.69835422E-01    2     1000025        15   # BR(~tau^-_1 -> chi^0_3 tau^-)
     4.16901486E-04    2     1000035        15   # BR(~tau^-_1 -> chi^0_4 tau^-)
     7.10180289E-02    2    -1000024        16   # BR(~tau^-_1 -> chi^-_1 nu_tau)
     8.24828901E-04    2    -1000037        16   # BR(~tau^-_1 -> chi^-_2 nu_tau)
DECAY   2000015     1.45217353E+02   # ~tau^-_2
#    BR                NDA      ID1      ID2
     5.90393431E-02    2     1000022        15   # BR(~tau^-_2 -> chi^0_1 tau^-)
     1.42600790E-02    2     1000023        15   # BR(~tau^-_2 -> chi^0_2 tau^-)
     4.45248029E-02    2     1000025        15   # BR(~tau^-_2 -> chi^0_3 tau^-)
     2.92481464E-01    2     1000035        15   # BR(~tau^-_2 -> chi^0_4 tau^-)
     5.89662818E-01    2    -1000037        16   # BR(~tau^-_2 -> chi^-_2 nu_tau)
#    BR                NDA      ID1      ID2       ID3
DECAY   1000012     1.41114422E+02   # ~nu_e
#    BR                NDA      ID1      ID2
     6.97818306E-02    2     1000022        12   # BR(~nu_e -> chi^0_1 nu_e)
     2.02049112E-03    2     1000023        12   # BR(~nu_e -> chi^0_2 nu_e)
     1.77520804E-02    2     1000025        12   # BR(~nu_e -> chi^0_3 nu_e)
     3.03133059E-01    2     1000035        12   # BR(~nu_e -> chi^0_4 nu_e)
     5.83139484E-03    2     1000024        11   # BR(~nu_e -> chi^+_1 e^-)
     6.01481144E-01    2     1000037        11   # BR(~nu_e -> chi^+_2 e^-)
#    BR                NDA      ID1      ID2       ID3
DECAY   1000014     1.41129158E+02   # ~nu_mu
#    BR                NDA      ID1      ID2
     6.97745624E-02    2     1000022        14   # BR(~nu_mu -> chi^0_1 nu_mu)
     2.02028067E-03    2     1000023        14   # BR(~nu_mu -> chi^0_2 nu_mu)
     1.77502314E-02    2     1000025        14   # BR(~nu_mu -> chi^0_3 nu_mu)
     3.03101490E-01    2     1000035        14   # BR(~nu_mu -> chi^0_4 nu_mu)
     5.93491347E-03    2     1000024        13   # BR(~nu_mu -> chi^+_1 mu^-)
     6.01418522E-01    2     1000037        13   # BR(~nu_mu -> chi^+_2 mu^-)
#    BR                NDA      ID1      ID2       ID3
DECAY   1000016     1.45282762E+02   # ~nu_tau
#    BR                NDA      ID1      ID2
     6.77845670E-02    2     1000022        16   # BR(~nu_tau -> chi^0_1 nu_tau)
     1.96266168E-03    2     1000023        16   # BR(~nu_tau -> chi^0_2 nu_tau)
     1.72439899E-02    2     1000025        16   # BR(~nu_tau -> chi^0_3 nu_tau)
     2.94458128E-01    2     1000035        16   # BR(~nu_tau -> chi^0_4 nu_tau)
     3.42779297E-02    2     1000024        15   # BR(~nu_tau -> chi^+_1 tau^-)
     5.84272724E-01    2     1000037        15   # BR(~nu_tau -> chi^+_2 tau^-)
#    BR                NDA      ID1      ID2       ID3
DECAY   2000001     6.51438629E+02   # ~d_R
#    BR                NDA      ID1      ID2
     6.08889579E-03    2     1000022         1   # BR(~d_R -> chi^0_1 d)
     2.50144034E-03    2     1000025         1   # BR(~d_R -> chi^0_3 d)
     9.91364863E-01    2     1000021         1   # BR(~d_R -> ~g d)
DECAY   1000001     7.79217643E+02   # ~d_L
#    BR                NDA      ID1      ID2
     1.72106209E-03    2     1000022         1   # BR(~d_L -> chi^0_1 d)
     1.71471147E-04    2     1000023         1   # BR(~d_L -> chi^0_2 d)
     1.24737002E-04    2     1000025         1   # BR(~d_L -> chi^0_3 d)
     5.52936714E-02    2     1000035         1   # BR(~d_L -> chi^0_4 d)
     1.10978224E-01    2    -1000037         2   # BR(~d_L -> chi^-_2 u)
     8.31691601E-01    2     1000021         1   # BR(~d_L -> ~g d)
DECAY   2000003     6.51446894E+02   # ~s_R
#    BR                NDA      ID1      ID2
     6.08996761E-03    2     1000022         3   # BR(~s_R -> chi^0_1 s)
     2.50347408E-03    2     1000025         3   # BR(~s_R -> chi^0_3 s)
     9.91352413E-01    2     1000021         3   # BR(~s_R -> ~g s)
DECAY   1000003     7.79225501E+02   # ~s_L
#    BR                NDA      ID1      ID2
     1.72200746E-03    2     1000022         3   # BR(~s_L -> chi^0_1 s)
     1.74038175E-04    2     1000023         3   # BR(~s_L -> chi^0_2 s)
     1.26466428E-04    2     1000025         3   # BR(~s_L -> chi^0_3 s)
     5.52931195E-02    2     1000035         3   # BR(~s_L -> chi^0_4 s)
     1.10977158E-01    2    -1000037         4   # BR(~s_L -> chi^-_2 c)
     8.31683321E-01    2     1000021         3   # BR(~s_L -> ~g s)
DECAY   1000005     6.58168687E+00   # ~b_1
#    BR                NDA      ID1      ID2
     2.17280655E-01    2     1000022         5   # BR(~b_1 -> chi^0_1 b)
     1.96461271E-01    2     1000023         5   # BR(~b_1 -> chi^0_2 b)
     1.89652158E-01    2     1000025         5   # BR(~b_1 -> chi^0_3 b)
     3.96564686E-01    2    -1000024         6   # BR(~b_1 -> chi^-_1 t)
DECAY   2000005     2.10848301E+02   # ~b_2
#    BR                NDA      ID1      ID2
     6.79459352E-03    2     1000022         5   # BR(~b_2 -> chi^0_1 b)
     1.12306326E-02    2     1000023         5   # BR(~b_2 -> chi^0_2 b)
     7.58397950E-03    2     1000025         5   # BR(~b_2 -> chi^0_3 b)
     7.58618650E-02    2     1000035         5   # BR(~b_2 -> chi^0_4 b)
     4.10010178E-01    2    -1000024         6   # BR(~b_2 -> chi^-_1 t)
     1.56110805E-01    2    -1000037         6   # BR(~b_2 -> chi^-_2 t)
     3.29852450E-01    2     1000021         5   # BR(~b_2 -> ~g b)
     1.30125580E-03    2     1000006       -24   # BR(~b_2 -> ~t_1 W^-)
     3.85307628E-04    2     1000006       -37   # BR(~b_2 -> ~t_1 H^-)
     4.02840139E-04    2     1000005        36   # BR(~b_2 -> ~b_1 A^0)
     4.03097713E-04    2     1000005        35   # BR(~b_2 -> ~b_1 H^0)
DECAY   2000002     6.68621370E+02   # ~u_R
#    BR                NDA      ID1      ID2
     2.37373187E-02    2     1000022         2   # BR(~u_R -> chi^0_1 u)
     1.74232005E-04    2     1000023         2   # BR(~u_R -> chi^0_2 u)
     9.75175236E-03    2     1000025         2   # BR(~u_R -> chi^0_3 u)
     9.66336375E-01    2     1000021         2   # BR(~u_R -> ~g u)
DECAY   1000002     7.79203523E+02   # ~u_L
#    BR                NDA      ID1      ID2
     8.96869275E-04    2     1000022         2   # BR(~u_L -> chi^0_1 u)
     1.19833393E-03    2     1000025         2   # BR(~u_L -> chi^0_3 u)
     5.51688743E-02    2     1000035         2   # BR(~u_L -> chi^0_4 u)
     1.06553609E-03    2     1000024         1   # BR(~u_L -> chi^+_1 d)
     1.09957988E-01    2     1000037         1   # BR(~u_L -> chi^+_2 d)
     8.31663757E-01    2     1000021         2   # BR(~u_L -> ~g u)
DECAY   2000004     6.68628732E+02   # ~c_R
#    BR                NDA      ID1      ID2
     2.37376700E-02    2     1000022         4   # BR(~c_R -> chi^0_1 c)
     1.76990314E-04    2     1000023         4   # BR(~c_R -> chi^0_2 c)
     9.75371411E-03    2     1000025         4   # BR(~c_R -> chi^0_3 c)
     9.66325814E-01    2     1000021         4   # BR(~c_R -> ~g c)
DECAY   1000004     7.79211358E+02   # ~c_L
#    BR                NDA      ID1      ID2
     8.97384641E-04    2     1000022         4   # BR(~c_L -> chi^0_1 c)
     1.20010315E-03    2     1000025         4   # BR(~c_L -> chi^0_3 c)
     5.51683423E-02    2     1000035         4   # BR(~c_L -> chi^0_4 c)
     1.07078708E-03    2     1000024         3   # BR(~c_L -> chi^+_1 s)
     1.09956895E-01    2     1000037         3   # BR(~c_L -> chi^+_2 s)
     8.31655474E-01    2     1000021         4   # BR(~c_L -> ~g c)
DECAY   1000006     1.31193727E+02   # ~t_1
#    BR                NDA      ID1      ID2
     8.98096375E-02    2     1000022         6   # BR(~t_1 -> chi^0_1 t)
     2.39339588E-01    2     1000023         6   # BR(~t_1 -> chi^0_2 t)
     1.93543478E-01    2     1000025         6   # BR(~t_1 -> chi^0_3 t)
     1.75277738E-03    2     1000035         6   # BR(~t_1 -> chi^0_4 t)
     4.72006893E-01    2     1000024         5   # BR(~t_1 -> chi^+_1 b)
     3.54761148E-03    2     1000037         5   # BR(~t_1 -> chi^+_2 b)
#    BR                NDA      ID1      ID2       ID3
DECAY   2000006     2.09638674E+02   # ~t_2
#    BR                NDA      ID1      ID2
     4.83288775E-02    2     1000022         6   # BR(~t_2 -> chi^0_1 t)
     2.10490941E-01    2     1000023         6   # BR(~t_2 -> chi^0_2 t)
     1.59317185E-01    2     1000025         6   # BR(~t_2 -> chi^0_3 t)
     7.68334293E-02    2     1000035         6   # BR(~t_2 -> chi^0_4 t)
     2.46406238E-02    2     1000024         5   # BR(~t_2 -> chi^+_1 b)
     1.51545108E-01    2     1000037         5   # BR(~t_2 -> chi^+_2 b)
     3.26759939E-01    2     1000021         6   # BR(~t_2 -> ~g t)
     8.09853734E-04    2     1000005        37   # BR(~t_2 -> ~b_1 H^+)
     6.55806905E-04    2     1000006        23   # BR(~t_2 -> ~t_1 Z)
     1.96100802E-04    2     1000006        36   # BR(~t_2 -> ~t_1 A^0)
     1.77396653E-04    2     1000006        25   # BR(~t_2 -> ~t_1 h^0)
     1.96359606E-04    2     1000006        35   # BR(~t_2 -> ~t_1 H^0)
DECAY   1000024     3.51282571E-04   # chi^+_1
#    BR                NDA      ID1      ID2       ID3
     3.33853954E-01    3     1000022        -1         2   # BR(chi^+_1 -> chi^0_1 d_bar u)
     3.32907563E-01    3     1000022        -3         4   # BR(chi^+_1 -> chi^0_1 s_bar c)
     1.11285158E-01    3     1000022       -11        12   # BR(chi^+_1 -> chi^0_1 e^+ nu_e)
     1.11283573E-01    3     1000022       -13        14   # BR(chi^+_1 -> chi^0_1 mu^+ nu_mu)
     1.10669752E-01    3     1000022       -15        16   # BR(chi^+_1 -> chi^0_1 tau^+ nu_tau)
DECAY   1000037     1.25077369E+01   # chi^+_2
#    BR                NDA      ID1      ID2
     3.58484475E-02    2     1000022        24   # BR(chi^+_2 -> chi^0_1 W^+)
     1.97831741E-01    2     1000023        24   # BR(chi^+_2 -> chi^0_2 W^+)
     1.61378171E-01    2     1000025        24   # BR(chi^+_2 -> chi^0_3 W^+)
     1.73680680E-02    2          37   1000022   # BR(chi^+_2 -> H^+ chi^0_1)
     4.98518248E-02    2          37   1000023   # BR(chi^+_2 -> H^+ chi^0_2)
     2.62037657E-02    2          37   1000025   # BR(chi^+_2 -> H^+ chi^0_3)
     1.95927073E-01    2     1000024        23   # BR(chi^+_2 -> chi^+_1 Z)
     5.42331432E-02    2     1000024        36   # BR(chi^+_2 -> chi^+_1 A^0)
     1.93541268E-01    2     1000024        25   # BR(chi^+_2 -> chi^+_1 h^0)
     5.39124410E-02    2     1000024        35   # BR(chi^+_2 -> chi^+_1 H^0)
#    BR                NDA      ID1      ID2       ID3
     4.53739574E-03    3     1000024         6        -6   # BR(chi^+_2 -> chi^+_1 t t_bar)
     9.71334611E-04    3     1000022        -5         6   # BR(chi^+_2 -> chi^0_1 b_bar t)
     4.35052727E-03    3     1000023        -5         6   # BR(chi^+_2 -> chi^0_2 b_bar t)
     4.04441820E-03    3     1000025        -5         6   # BR(chi^+_2 -> chi^0_3 b_bar t)
DECAY   1000022     0.00000000E+00   # chi^0_1
DECAY   1000023     4.44136306E-04   # chi^0_2
#    BR                NDA      ID1      ID2
     6.91822190E-03    2     1000022        22   # BR(chi^0_2 -> chi^0_1 photon)
#    BR                NDA      ID1      ID2       ID3
     1.19011981E-01    3     1000022         2        -2   # BR(chi^0_2 -> chi^0_1 u u_bar)
     1.18233959E-01    3     1000022         4        -4   # BR(chi^0_2 -> chi^0_1 c c_bar)
     1.52596519E-01    3     1000022         1        -1   # BR(chi^0_2 -> chi^0_1 d d_bar)
     1.52591788E-01    3     1000022         3        -3   # BR(chi^0_2 -> chi^0_1 s s_bar)
     1.43738375E-01    3     1000022         5        -5   # BR(chi^0_2 -> chi^0_1 b b_bar)
     3.44363825E-02    3     1000022        11       -11   # BR(chi^0_2 -> chi^0_1 e^- e^+)
     3.44346529E-02    3     1000022        13       -13   # BR(chi^0_2 -> chi^0_1 mu^- mu^+)
     3.39518176E-02    3     1000022        15       -15   # BR(chi^0_2 -> chi^0_1 tau^- tau^+)
     2.04067361E-01    3     1000022        12       -12   # BR(chi^0_2 -> chi^0_1 nu_e nu_bar_e)
DECAY   1000025     1.38099015E-05   # chi^0_3
#    BR                NDA      ID1      ID2
     1.00146910E-02    2     1000022        22   # BR(chi^0_3 -> chi^0_1 photon)
     1.12039249E-02    2     1000023        22   # BR(chi^0_3 -> chi^0_2 photon)
#    BR                NDA      ID1      ID2       ID3
     6.34104818E-02    3     1000022         2        -2   # BR(chi^0_3 -> chi^0_1 u u_bar)
     6.31989406E-02    3     1000022         4        -4   # BR(chi^0_3 -> chi^0_1 c c_bar)
     8.12751195E-02    3     1000022         1        -1   # BR(chi^0_3 -> chi^0_1 d d_bar)
     8.12737987E-02    3     1000022         3        -3   # BR(chi^0_3 -> chi^0_1 s s_bar)
     7.89831211E-02    3     1000022         5        -5   # BR(chi^0_3 -> chi^0_1 b b_bar)
     1.83161497E-02    3     1000022        11       -11   # BR(chi^0_3 -> chi^0_1 e^- e^+)
     1.83157540E-02    3     1000022        13       -13   # BR(chi^0_3 -> chi^0_1 mu^- mu^+)
     1.82043253E-02    3     1000022        15       -15   # BR(chi^0_3 -> chi^0_1 tau^- tau^+)
     1.08722021E-01    3     1000022        12       -12   # BR(chi^0_3 -> chi^0_1 nu_e nu_bar_e)
     3.01324150E-03    3     1000023         2        -2   # BR(chi^0_3 -> chi^0_2 u u_bar)
     2.51035880E-03    3     1000023         4        -4   # BR(chi^0_3 -> chi^0_2 c c_bar)
     3.86358472E-03    3     1000023         1        -1   # BR(chi^0_3 -> chi^0_2 d d_bar)
     3.86015435E-03    3     1000023         3        -3   # BR(chi^0_3 -> chi^0_2 s s_bar)
     4.21958365E-04    3     1000023         5        -5   # BR(chi^0_3 -> chi^0_2 b b_bar)
     8.71905820E-04    3     1000023        11       -11   # BR(chi^0_3 -> chi^0_2 e^- e^+)
     8.70686334E-04    3     1000023        13       -13   # BR(chi^0_3 -> chi^0_2 mu^- mu^+)
     5.87392276E-04    3     1000023        15       -15   # BR(chi^0_3 -> chi^0_2 tau^- tau^+)
     5.16670351E-03    3     1000023        12       -12   # BR(chi^0_3 -> chi^0_2 nu_e nu_bar_e)
     7.21755944E-02    3     1000024         1        -2   # BR(chi^0_3 -> chi^+_1 d u_bar)
     7.21755944E-02    3    -1000024        -1         2   # BR(chi^0_3 -> chi^-_1 d_bar u)
     6.99954414E-02    3     1000024         3        -4   # BR(chi^0_3 -> chi^+_1 s c_bar)
     6.99954414E-02    3    -1000024        -3         4   # BR(chi^0_3 -> chi^-_1 s_bar c)
     2.40584731E-02    3     1000024        11       -12   # BR(chi^0_3 -> chi^+_1 e^- nu_bar_e)
     2.40584731E-02    3    -1000024       -11        12   # BR(chi^0_3 -> chi^-_1 e^+ nu_e)
     2.40549102E-02    3     1000024        13       -14   # BR(chi^0_3 -> chi^+_1 mu^- nu_bar_mu)
     2.40549102E-02    3    -1000024       -13        14   # BR(chi^0_3 -> chi^-_1 mu^+ nu_mu)
     2.26734245E-02    3     1000024        15       -16   # BR(chi^0_3 -> chi^+_1 tau^- nu_bar_tau)
     2.26734245E-02    3    -1000024       -15        16   # BR(chi^0_3 -> chi^-_1 tau^+ nu_tau)
DECAY   1000035     1.35489318E+01   # chi^0_4
#    BR                NDA      ID1      ID2
     1.83845862E-01    2     1000024       -24   # BR(chi^0_4 -> chi^+_1 W^-)
     1.83845862E-01    2    -1000024        24   # BR(chi^0_4 -> chi^-_1 W^+)
     3.86852196E-02    2          37  -1000024   # BR(chi^0_4 -> H^+ chi^-_1)
     3.86852196E-02    2         -37   1000024   # BR(chi^0_4 -> H^- chi^+_1)
     1.45192276E-02    2     1000022        23   # BR(chi^0_4 -> chi^0_1 Z)
     1.16641758E-01    2     1000023        23   # BR(chi^0_4 -> chi^0_2 Z)
     5.17283186E-02    2     1000025        23   # BR(chi^0_4 -> chi^0_3 Z)
     3.30939062E-03    2     1000022        36   # BR(chi^0_4 -> chi^0_1 A^0)
     6.97513709E-03    2     1000023        36   # BR(chi^0_4 -> chi^0_2 A^0)
     3.07870542E-03    2     1000025        36   # BR(chi^0_4 -> chi^0_3 A^0)
     1.87124827E-02    2     1000022        25   # BR(chi^0_4 -> chi^0_1 h^0)
     1.52041397E-01    2     1000023        25   # BR(chi^0_4 -> chi^0_2 h^0)
     9.46364422E-02    2     1000025        25   # BR(chi^0_4 -> chi^0_3 h^0)
     1.56965653E-02    2     1000022        35   # BR(chi^0_4 -> chi^0_1 H^0)
     3.29540271E-02    2     1000023        35   # BR(chi^0_4 -> chi^0_2 H^0)
     2.95329837E-02    2     1000025        35   # BR(chi^0_4 -> chi^0_3 H^0)
#    BR                NDA      ID1      ID2       ID3
     3.99319532E-04    3     1000022         6        -6   # BR(chi^0_4 -> chi^0_1 t t_bar)
     2.23558137E-03    3     1000023         6        -6   # BR(chi^0_4 -> chi^0_2 t t_bar)
     1.59279122E-03    3     1000025         6        -6   # BR(chi^0_4 -> chi^0_3 t t_bar)
     5.42440682E-03    3     1000024         5        -6   # BR(chi^0_4 -> chi^+_1 b t_bar)
     5.42440682E-03    3    -1000024        -5         6   # BR(chi^0_4 -> chi^-_1 b_bar t)
DECAY   1000021     1.71987805E+01   # ~g
#    BR                NDA      ID1      ID2
     4.73577186E-01    2     1000005        -5   # BR(~g -> ~b_1 b_bar)
     4.73577186E-01    2    -1000005         5   # BR(~g -> ~b^*_1 b)
     1.08697920E-04    2     1000023        21   # BR(~g -> chi^0_2 g)
#    BR                NDA      ID1      ID2       ID3
     4.77066629E-03    3     1000022         6        -6   # BR(~g -> chi^0_1 t t_bar)
     1.25487341E-02    3     1000023         6        -6   # BR(~g -> chi^0_2 t t_bar)
     9.43142978E-03    3     1000025         6        -6   # BR(~g -> chi^0_3 t t_bar)
     1.68627853E-04    3     1000035         6        -6   # BR(~g -> chi^0_4 t t_bar)
     1.89142850E-04    3     1000035         5        -5   # BR(~g -> chi^0_4 b b_bar)
     1.24974095E-02    3     1000024         5        -6   # BR(~g -> chi^+_1 b t_bar)
     1.24974095E-02    3    -1000024        -5         6   # BR(~g -> chi^-_1 b_bar t)
     1.93809701E-04    3     1000037         5        -6   # BR(~g -> chi^+_2 b t_bar)
     1.93809701E-04    3    -1000037        -5         6   # BR(~g -> chi^-_2 b_bar t)
DECAY        25     3.29457254E-03   # Gamma(h0)
     2.41304114E-03   2        22        22   # BR(h0 -> photon photon)
     1.21558089E-03   2        22        23   # BR(h0 -> photon Z)
     1.95724616E-02   2        23        23   # BR(h0 -> Z Z)
     1.74998957E-01   2       -24        24   # BR(h0 -> W W)
     7.76694413E-02   2        21        21   # BR(h0 -> gluon gluon)
     5.56082766E-09   2       -11        11   # BR(h0 -> Electron electron)
     2.47353172E-04   2       -13        13   # BR(h0 -> Muon muon)
     7.13149619E-02   2       -15        15   # BR(h0 -> Tau tau)
     1.49389184E-07   2        -2         2   # BR(h0 -> Up up)
     2.89902374E-02   2        -4         4   # BR(h0 -> Charm charm)
     6.47322496E-07   2        -1         1   # BR(h0 -> Down down)
     2.34121713E-04   2        -3         3   # BR(h0 -> Strange strange)
     6.23343041E-01   2        -5         5   # BR(h0 -> Bottom bottom)
DECAY        35     3.35576126E+00   # Gamma(HH)
     6.67471305E-10   2        22        22   # BR(HH -> photon photon)
     4.48352928E-08   2        22        23   # BR(HH -> photon Z)
     1.52590716E-04   2        23        23   # BR(HH -> Z Z)
     2.49532523E-04   2       -24        24   # BR(HH -> W W)
     6.67326372E-05   2        21        21   # BR(HH -> gluon gluon)
     7.92995186E-09   2       -11        11   # BR(HH -> Electron electron)
     3.52938360E-04   2       -13        13   # BR(HH -> Muon muon)
     1.01910255E-01   2       -15        15   # BR(HH -> Tau tau)
     3.17199329E-12   2        -2         2   # BR(HH -> Up up)
     6.15106720E-07   2        -4         4   # BR(HH -> Charm charm)
     3.57863872E-02   2        -6         6   # BR(HH -> Top top)
     6.86497075E-07   2        -1         1   # BR(HH -> Down down)
     2.48305244E-04   2        -3         3   # BR(HH -> Strange strange)
     6.46309271E-01   2        -5         5   # BR(HH -> Bottom bottom)
     1.22566128E-02   2  -1000024   1000024   # BR(HH -> Chargino1 chargino1)
     7.19916407E-02   2   1000022   1000022   # BR(HH -> neutralino1 neutralino1)
     5.15388373E-02   2   1000022   1000023   # BR(HH -> neutralino1 neutralino2)
     6.60216988E-03   2   1000022   1000025   # BR(HH -> neutralino1 neutralino3)
     3.13234902E-03   2   1000023   1000023   # BR(HH -> neutralino2 neutralino2)
     4.28627558E-02   2   1000023   1000025   # BR(HH -> neutralino2 neutralino3)
     2.52773554E-02   2   1000025   1000025   # BR(HH -> neutralino3 neutralino3)
     1.26091133E-03   2        25        25   # BR(HH -> h0 h0)
DECAY        36     3.35490823E+00   # Gamma(A0)
     1.47344978E-07   2        22        22   # BR(A0 -> photon photon)
     1.69217626E-07   2        22        23   # BR(A0 -> photon Z)
     2.18150795E-04   2        21        21   # BR(A0 -> gluon gluon)
     7.81879780E-09   2       -11        11   # BR(A0 -> Electron electron)
     3.47991276E-04   2       -13        13   # BR(A0 -> Muon muon)
     1.00483752E-01   2       -15        15   # BR(A0 -> Tau tau)
     2.94337981E-12   2        -2         2   # BR(A0 -> Up up)
     5.70585032E-07   2        -4         4   # BR(A0 -> Charm charm)
     4.07210609E-02   2        -6         6   # BR(A0 -> Top top)
     6.76886797E-07   2        -1         1   # BR(A0 -> Down down)
     2.44829263E-04   2        -3         3   # BR(A0 -> Strange strange)
     6.37303230E-01   2        -5         5   # BR(A0 -> Bottom bottom)
     1.73903487E-02   2  -1000024   1000024   # BR(A0 -> Chargino1 chargino1)
     7.44099742E-02   2   1000022   1000022   # BR(A0 -> neutralino1 neutralino1)
     5.32357532E-02   2   1000022   1000023   # BR(A0 -> neutralino1 neutralino2)
     6.19591601E-03   2   1000022   1000025   # BR(A0 -> neutralino1 neutralino3)
     6.26098028E-03   2   1000023   1000023   # BR(A0 -> neutralino2 neutralino2)
     3.28282757E-02   2   1000023   1000025   # BR(A0 -> neutralino2 neutralino3)
     3.01204657E-02   2   1000025   1000025   # BR(A0 -> neutralino3 neutralino3)
     2.37700061E-04   2        23        25   # BR(A0 -> Z h0)
     1.64729044E-38   2        25        25   # BR(A0 -> h0 h0)
DECAY        37     3.31092535E+00   # Gamma(Hp)
     9.06839909E-09   2       -11        12   # BR(Hp -> Electron nu_e)
     3.87702373E-04   2       -13        14   # BR(Hp -> Muon nu_mu)
     1.09663352E-01   2       -15        16   # BR(Hp -> Tau nu_tau)
     6.80925663E-07   2        -1         2   # BR(Hp -> Down up)
     1.13060677E-05   2        -3         2   # BR(Hp -> Strange up)
     7.12387795E-06   2        -5         2   # BR(Hp -> Bottom up)
     6.25652329E-08   2        -1         4   # BR(Hp -> Down charm)
     2.46074749E-04   2        -3         4   # BR(Hp -> Strange charm)
     9.97594484E-04   2        -5         4   # BR(Hp -> Bottom charm)
     3.15212171E-06   2        -1         6   # BR(Hp -> Down top)
     6.90553753E-05   2        -3         6   # BR(Hp -> Strange top)
     6.78148887E-01   2        -5         6   # BR(Hp -> Bottom top)
     1.15773020E-01   2   1000022   1000024   # BR(Hp -> neutralino1 chargino1)
     3.03862579E-04   2   1000023   1000024   # BR(Hp -> neutralino2 chargino1)
     9.41358977E-02   2   1000024   1000025   # BR(Hp -> chargino1 neutralino3)
     2.52156070E-04   2        24        25   # BR(Hp -> W h0)
     3.02344819E-08   2        24        35   # BR(Hp -> W HH)
     3.19667698E-08   2        24        36   # BR(Hp -> W A0)
DECAY         6     2.43000000E+00   # top
#    BR                NDA      ID1      ID2
     1.00000000E+00    2           5        24   # BR(t -> b W)
Block HiggsBoundsInputHiggsCouplingsFermions
# ScalarNormEffCoupSq PseudoSNormEffCoupSq NP IP1 IP2 IP2
    9.69435899E-01    0.00000000E+00        3  25   5   5  # h0-b-b eff. coupling^2, normalised to SM
    1.98782287E+02    0.00000000E+00        3  35   5   5  # H0-b-b eff. coupling^2, normalised to SM
    0.00000000E+00    1.98751723E+02        3  36   5   5  # A0-b-b eff. coupling^2, normalised to SM
#
    1.00015378E+00    0.00000000E+00        3  25   6   6  # h0-t-t eff. coupling^2, normalised to SM
    4.87762261E-03    0.00000000E+00        3  35   6   6  # H0-t-t eff. coupling^2, normalised to SM
    0.00000000E+00    5.03140291E-03        3  36   6   6  # A0-t-t eff. coupling^2, normalised to SM
#
    9.69435899E-01    0.00000000E+00        3  25  15  15  # h0-tau-tau eff. coupling^2, normalised to SM
    1.98782287E+02    0.00000000E+00        3  35  15  15  # H0-tau-tau eff. coupling^2, normalised to SM
    0.00000000E+00    1.98751723E+02        3  36  15  15  # A0-tau-tau eff. coupling^2, normalised to SM
#
Block HiggsBoundsInputHiggsCouplingsBosons
    9.99998807E-01        3  25  24  24  # h0-W-W eff. coupling^2, normalised to SM
    1.19325427E-06        3  35  24  24  # H0-W-W eff. coupling^2, normalised to SM
    0.00000000E+00        3  36  24  24  # A0-W-W eff. coupling^2, normalised to SM
#
    9.99998807E-01        3  25  23  23  # h0-Z-Z eff. coupling^2, normalised to SM
    1.19325427E-06        3  35  23  23  # H0-Z-Z eff. coupling^2, normalised to SM
    0.00000000E+00        3  36  23  23  # A0-Z-Z eff. coupling^2, normalised to SM
#
    1.26699456E+00        3  25  21  21  # h0-g-g eff. coupling^2, normalised to SM
    5.91553250E-03        3  35  21  21  # H0-g-g eff. coupling^2, normalised to SM
    1.07599476E-01        3  36  21  21  # A0-g-g eff. coupling^2, normalised to SM
#
    0.00000000E+00        3  25  25  23  # h0-h0-Z eff. coupling^2, normalised to SM
    0.00000000E+00        3  35  25  23  # H0-h0-Z eff. coupling^2, normalised to SM
    1.19325427E-06        3  36  25  23  # A0-h0-Z eff. coupling^2, normalised to SM
    0.00000000E+00        3  35  35  23  # H0-H0-Z eff. coupling^2, normalised to SM
    9.99998807E-01        3  36  35  23  # A0-H0-Z eff. coupling^2, normalised to SM
    0.00000000E+00        3  36  36  23  # A0-A0-Z eff. coupling^2, normalised to SM
#
    0.00000000E+00        4  25  21  21  23  # h0-g-g-Z eff. coupling^2, normalised to SM
    0.00000000E+00        4  35  21  21  23  # H0-g-g-Z eff. coupling^2, normalised to SM
    0.00000000E+00        4  36  21  21  23  # A0-g-g-Z eff. coupling^2, normalised to SM
Block SPhenoLowEnergy  # low energy observables
    1    3.66144461E-04   # BR(b -> s gamma)
    2    1.58685498E-06   # BR(b -> s mu+ mu-)
    3    3.52450352E-05   # BR(b -> s nu nu)
    4    2.57681283E-15   # BR(Bd -> e+ e-)
    5    1.10078514E-10   # BR(Bd -> mu+ mu-)
    6    2.30435619E-08   # BR(Bd -> tau+ tau-)
    7    8.66314424E-14   # BR(Bs -> e+ e-)
    8    3.70089235E-09   # BR(Bs -> mu+ mu-)
    9    7.84985173E-07   # BR(Bs -> tau+ tau-)
   10    9.48740599E-05   # BR(B_u -> tau nu)
   11    9.80012716E-01   # BR(B_u -> tau nu)/BR(B_u -> tau nu)_SM
   12    5.42593429E-01   # |Delta(M_Bd)| [ps^-1] 
   13    1.93785171E+01   # |Delta(M_Bs)| [ps^-1] 
   14    0.00000000E+00   # neutron EDM according to the chiral quark model
   15    0.00000000E+00   # neutron EDM according to the relativistic quark-parton model
   16    2.15994030E-03   # epsilon_K
   17    2.28168733E-15   # Delta(M_K)
   18    2.47943493E-11   # BR(K^0 -> pi^0 nu nu)
   19    8.28913092E-11   # BR(K^+ -> pi^+ nu nu)
   20   -1.76477760E-16   # Delta(g-2)_electron/2
   21   -7.54498206E-12   # Delta(g-2)_muon/2
   22   -2.13468391E-09   # Delta(g-2)_tau/2
   23    0.00000000E+00   # electric dipole moment of the electron
   24    0.00000000E+00   # electric dipole moment of the muon
   25    0.00000000E+00   # electric dipole moment of the tau
   26    0.00000000E+00   # Br(mu -> e gamma)
   27    0.00000000E+00   # Br(tau -> e gamma)
   28    0.00000000E+00   # Br(tau -> mu gamma)
   29    0.00000000E+00   # Br(mu -> 3 e)
   30    0.00000000E+00   # Br(tau -> 3 e)
   31    0.00000000E+00   # Br(tau -> 3 mu)
   39    3.61139211E-05   # Delta(rho_parameter)
   40    0.00000000E+00   # BR(Z -> e mu)
   41    0.00000000E+00   # BR(Z -> e tau)
   42    0.00000000E+00   # BR(Z -> mu tau)
Block FWCOEF Q=  1.60000000E+02  # Wilson coefficients at scale Q
#    id        order  M        value         comment
     0305 4422   00   0    -1.88819110E-01   # C7
     0305 4422   00   2    -2.34034425E-01   # C7
     0305 4322   00   2    -9.14616695E-04   # C7'
     0305 6421   00   0    -9.52278348E-02   # C8
     0305 6421   00   2    -1.48597077E-01   # C8
     0305 6321   00   2    -1.06025345E-03   # C8'
 03051111 4133   00   0     1.62303045E+00   # C9 e+e-
 03051111 4133   00   2     1.62348727E+00   # C9 e+e-
 03051111 4233   00   2     1.06365401E-05   # C9' e+e-
 03051111 4137   00   0    -4.44572255E+00   # C10 e+e-
 03051111 4137   00   2    -4.44330349E+00   # C10 e+e-
 03051111 4237   00   2    -7.75239227E-05   # C10' e+e-
 03051313 4133   00   0     1.62303045E+00   # C9 mu+mu-
 03051313 4133   00   2     1.62348724E+00   # C9 mu+mu-
 03051313 4233   00   2     1.06360417E-05   # C9' mu+mu-
 03051313 4137   00   0    -4.44572255E+00   # C10 mu+mu-
 03051313 4137   00   2    -4.44330351E+00   # C10 mu+mu-
 03051313 4237   00   2    -7.75234317E-05   # C10' mu+mu-
 03051212 4137   00   0     1.50535012E+00   # C11 nu_1 nu_1
 03051212 4137   00   2     1.50482769E+00   # C11 nu_1 nu_1
 03051212 4237   00   2     1.67761662E-05   # C11' nu_1 nu_1
 03051414 4137   00   0     1.50535012E+00   # C11 nu_2 nu_2
 03051414 4137   00   2     1.50482769E+00   # C11 nu_2 nu_2
 03051414 4237   00   2     1.67762737E-05   # C11' nu_2 nu_2
 03051616 4137   00   0     1.50535012E+00   # C11 nu_3 nu_3
 03051616 4137   00   2     1.50482769E+00   # C11 nu_3 nu_3
 03051616 4237   00   2     1.68065628E-05   # C11' nu_3 nu_3
Block IMFWCOEF Q=  1.60000000E+02  # Im(Wilson coefficients) at scale Q
#    id        order  M        value         comment
     0305 4422   00   0     3.85822417E-07   # C7
     0305 4422   00   2    -1.34438976E-06   # C7
     0305 4322   00   2     1.34174108E-07   # C7'
     0305 6421   00   0     3.30482416E-07   # C8
     0305 6421   00   2    -4.37944840E-06   # C8
     0305 6321   00   2    -3.77333435E-08   # C8'
 03051111 4133   00   2     1.89355257E-07   # C9 e+e-
 03051111 4233   00   2     8.62541539E-07   # C9' e+e-
 03051111 4137   00   2     7.03151421E-07   # C10 e+e-
 03051111 4237   00   2    -6.39116053E-06   # C10' e+e-
 03051313 4133   00   2     1.89354956E-07   # C9 mu+mu-
 03051313 4233   00   2     8.62541505E-07   # C9' mu+mu-
 03051313 4137   00   2     7.03151752E-07   # C10 mu+mu-
 03051313 4237   00   2    -6.39116063E-06   # C10' mu+mu-
 03051212 4137   00   2    -1.32670951E-07   # C11 nu_1 nu_1
 03051212 4237   00   2     1.38312505E-06   # C11' nu_1 nu_1
 03051414 4137   00   2    -1.32670937E-07   # C11 nu_2 nu_2
 03051414 4237   00   2     1.38312505E-06   # C11' nu_2 nu_2
 03051616 4137   00   2    -1.32666891E-07   # C11 nu_3 nu_3
 03051616 4237   00   2     1.38312504E-06   # C11' nu_3 nu_3
