# SUSY Les Houches Accord 2 - MSSM spectrum + Decays
# SPheno v4.0.5be
# W. Porod, Comput. Phys. Commun. 153 (2003) 275-315, hep-ph/0301101;
# W. Porod, F.~Staub, Comput. Phys. Commun. 183 (2012) 2458
#                     arXiv:1104.1573 [hep-ph] 
# in case of problems send email to porod@physik.uni-wuerzburg.de
# Created: 07.09.2021,  21:53
Block SPINFO         # Program information
     1   SPheno      # spectrum calculator
     2   v4.0.5be    # version number
#
Block SPhenoINFO     # SPheno specific information
    1      2         # using 2-loop RGEs
    2      2         # using pole masses for boundary conditions at mZ
Block MODSEL  # Model selection
    1    0    # general MSSM
Block MINPAR  # Input parameters
    3    5.68515009E+01  # tanb at m_Z    
    4    1.00000000E+00  # Sign(mu)
Block EXTPAR  # non-universal input parameters
    0    3.46757845E+03  # scale for input parameters
    1   -1.95216978E+02  # M_1
    2   -1.96326302E+03  # M_2
    3    1.89332944E+03  # M_3
   11   -4.37835529E+03  # A_t
   12    1.68689252E+03  # A_b
   13    2.90781238E+02  # A_tau
   23    2.12392523E+02  # mu
   25    5.67180112E+01  # tan(beta)
   26    2.77602963E+03  # m_A, pole mass
   31    1.00000000E+04  # M_L11
   32    1.00000000E+04  # M_L22
   33    1.00000000E+04  # M_L33
   34    1.00000000E+04  # M_E11
   35    1.00000000E+04  # M_E22
   36    1.00000000E+04  # M_E33
   41    1.00000000E+04  # M_Q11
   42    1.00000000E+04  # M_Q22
   43    3.00047978E+03  # M_Q33
   44    1.00000000E+04  # M_U11
   45    1.00000000E+04  # M_U22
   46    4.02661406E+03  # M_U33
   47    1.00000000E+04  # M_D11
   48    1.00000000E+04  # M_D22
   49    3.09532066E+03  # M_D33
Block SMINPUTS  # SM parameters
         1     1.27908970E+02  # alpha_em^-1(MZ)^MSbar
         2     1.16637870E-05  # G_mu [GeV^-2]
         3     1.18400000E-01  # alpha_s(MZ)^MSbar
         4     9.11876000E+01  # m_Z(pole)
         5     4.18000000E+00  # m_b(m_b), MSbar
         6     1.73200000E+02  # m_t(pole)
         7     1.77700000E+00  # m_tau(pole)
         8     0.00000000E+00  # m_nu_3
        11     5.10998930E-04  # m_e(pole)
        12     0.00000000E+00  # m_nu_1
        13     1.05658372E-01  # m_muon(pole)
        14     0.00000000E+00  # m_nu_2
        21     5.00000000E-03  # m_d(2 GeV), MSbar
        22     2.50000000E-03  # m_u(2 GeV), MSbar
        23     9.50000000E-02  # m_s(2 GeV), MSbar
        24     1.27000000E+00  # m_c(m_c), MSbar
Block gauge Q=  3.46757845E+03  # (SUSY scale)
   1    3.55362975E-01  # g'(Q)^DRbar
   2    6.65198874E-01  # g(Q)^DRbar
   3    1.21977796E+00  # g3(Q)^DRbar
Block Yu Q=  3.46757845E+03  # (SUSY scale)
  1  1     8.38567520E-06   # Y_u(Q)^DRbar
  2  2     4.25992300E-03   # Y_c(Q)^DRbar
  3  3     1.01305692E+00   # Y_t(Q)^DRbar
Block Yd Q=  3.46757845E+03  # (SUSY scale)
  1  1     9.55738934E-04   # Y_d(Q)^DRbar
  2  2     1.81590397E-02   # Y_s(Q)^DRbar
  3  3     9.47793537E-01   # Y_b(Q)^DRbar
Block Ye Q=  3.46757845E+03  # (SUSY scale)
  1  1     1.66783433E-04   # Y_e(Q)^DRbar
  2  2     3.44855243E-02   # Y_mu(Q)^DRbar
  3  3     5.79989786E-01   # Y_tau(Q)^DRbar
Block Au Q=  3.46757845E+03  # (SUSY scale)
  1  1     0.00000000E+00   # A_u(Q)^DRbar
  2  2     0.00000000E+00   # A_c(Q)^DRbar
  3  3    -4.37835918E+03   # A_t(Q)^DRbar
Block Ad Q=  3.46757845E+03  # (SUSY scale)
  1  1     0.00000000E+00   # A_d(Q)^DRbar
  2  2     0.00000000E+00   # A_s(Q)^DRbar
  3  3     1.68689112E+03   # A_b(Q)^DRbar
Block Ae Q=  3.46757845E+03  # (SUSY scale)
  1  1     0.00000000E+00   # A_e(Q)^DRbar
  2  2     0.00000000E+00   # A_mu(Q)^DRbar
  3  3     2.90781123E+02   # A_tau(Q)^DRbar
Block MSOFT Q=  3.46757845E+03  # soft SUSY breaking masses at Q
   1   -1.95216978E+02  # M_1
   2   -1.96326302E+03  # M_2
   3    1.89332944E+03  # M_3
  21    7.59786202E+06  # M^2_(H,d)
  22    1.62463891E+05  # M^2_(H,u)
  31    1.00000000E+04  # M_(L,11)
  32    1.00000000E+04  # M_(L,22)
  33    1.00000000E+04  # M_(L,33)
  34    1.00000000E+04  # M_(E,11)
  35    1.00000000E+04  # M_(E,22)
  36    1.00000000E+04  # M_(E,33)
  41    1.00000000E+04  # M_(Q,11)
  42    1.00000000E+04  # M_(Q,22)
  43    3.00047978E+03  # M_(Q,33)
  44    1.00000000E+04  # M_(U,11)
  45    1.00000000E+04  # M_(U,22)
  46    4.02661406E+03  # M_(U,33)
  47    1.00000000E+04  # M_(D,11)
  48    1.00000000E+04  # M_(D,22)
  49    3.09532066E+03  # M_(D,33)
Block MASS  # Mass spectrum
#   PDG code      mass          particle
         6     1.73200000E+02  # m_t(pole)
        23     9.11876000E+01  # m_Z(pole)
        24     8.04299946E+01  # W+
        15     1.77700000E+00  # m_tau(pole)
        25     1.24955870E+02  # h0
        35     2.77475317E+03  # H0
        36     2.77602963E+03  # A0
        37     2.77879188E+03  # H+
   1000001     1.01157790E+04  # ~d_L
   2000001     1.00924891E+04  # ~d_R
   1000002     1.01154167E+04  # ~u_L
   2000002     1.00955725E+04  # ~u_R
   1000003     1.01157877E+04  # ~s_L
   2000003     1.00925051E+04  # ~s_R
   1000004     1.01154254E+04  # ~c_L
   2000004     1.00955735E+04  # ~c_R
   1000005     3.01804731E+03  # ~b_1
   2000005     3.10867992E+03  # ~b_2
   1000006     3.01138635E+03  # ~t_1
   2000006     3.99287866E+03  # ~t_2
   1000011     1.00196847E+04  # ~e_L-
   2000011     1.00090266E+04  # ~e_R-
   1000012     1.00189216E+04  # ~nu_eL
   1000013     1.00197275E+04  # ~mu_L-
   2000013     1.00091091E+04  # ~mu_R-
   1000014     1.00189640E+04  # ~nu_muL
   1000015     1.00310606E+04  # ~tau_1-
   2000015     1.00332638E+04  # ~tau_2-
   1000016     1.00309959E+04  # ~nu_tauL
   1000021     2.29064120E+03  # ~g
   1000022     1.78869679E+02  # ~chi_10
   1000023     2.30152345E+02  # ~chi_20
   1000025     2.45161046E+02  # ~chi_30
   1000035     2.07551480E+03  # ~chi_40
   1000024     2.26339166E+02  # ~chi_1+
   1000037     2.07548220E+03  # ~chi_2+
# Higgs mixing
Block alpha # Effective Higgs mixing angle
          -1.76365570E-02   # alpha
Block Hmix Q=  3.46757845E+03  # Higgs mixing parameters
   1    2.12392523E+02  # mu
   2    5.67180112E+01  # tan[beta](Q)
   3    2.43070294E+02  # v(Q)
   4    7.70634051E+06  # m^2_A(Q)
Block stopmix # stop mixing matrix
   1  1     9.96047872E-01   # Re[R_st(1,1)]
   1  2     8.88179967E-02   # Re[R_st(1,2)]
   2  1    -8.88179967E-02   # Re[R_st(2,1)]
   2  2     9.96047872E-01   # Re[R_st(2,2)]
Block sbotmix # sbottom mixing matrix
   1  1     9.99385420E-01   # Re[R_sb(1,1)]
   1  2     3.50540035E-02   # Re[R_sb(1,2)]
   2  1    -3.50540035E-02   # Re[R_sb(2,1)]
   2  2     9.99385420E-01   # Re[R_sb(2,2)]
Block staumix # stau mixing matrix
   1  1     8.30756037E-01   # Re[R_sta(1,1)]
   1  2     5.56636691E-01   # Re[R_sta(1,2)]
   2  1    -5.56636691E-01   # Re[R_sta(2,1)]
   2  2     8.30756037E-01   # Re[R_sta(2,2)]
Block Nmix # neutralino mixing matrix
   1  1    -8.30079922E-01   # Re[N(1,1)]
   1  2     1.41435550E-02   # Re[N(1,2)]
   1  3    -4.38722630E-01   # Re[N(1,3)]
   1  4    -3.43932750E-01   # Re[N(1,4)]
   2  1    -7.48539577E-02   # Re[N(2,1)]
   2  2     2.52729809E-02   # Re[N(2,2)]
   2  3     6.99351633E-01   # Re[N(2,3)]
   2  4    -7.10398096E-01   # Re[N(2,4)]
   3  1     5.52596860E-01   # Re[N(3,1)]
   3  2     2.64018585E-02   # Re[N(3,2)]
   3  3    -5.64285366E-01   # Re[N(3,3)]
   3  4    -6.12798236E-01   # Re[N(3,4)]
   4  1     9.58256600E-04   # Re[N(4,1)]
   4  2    -9.99231794E-01   # Re[N(4,2)]
   4  3    -3.43121541E-03   # Re[N(4,3)]
   4  4    -3.90273026E-02   # Re[N(4,4)]
Block Umix # chargino mixing matrix
   1  1    -4.85774518E-03   # Re[U(1,1)]
   1  2     9.99988201E-01   # Re[U(1,2)]
   2  1    -9.99988201E-01   # Re[U(2,1)]
   2  2    -4.85774518E-03   # Re[U(2,2)]
Block Vmix # chargino mixing matrix
   1  1     5.52052121E-02   # Re[V(1,1)]
   1  2     9.98475030E-01   # Re[V(1,2)]
   2  1     9.98475030E-01   # Re[V(2,1)]
   2  2    -5.52052121E-02   # Re[V(2,2)]
DECAY        23     2.49520000E+00   # Z
DECAY        24     2.08500000E+00   # W
DECAY   2000011     5.02508598E+01   # ~e^-_R
#    BR                NDA      ID1      ID2
     6.89152333E-01    2     1000022        11   # BR(~e^-_R -> chi^0_1 e^-)
     5.60179443E-03    2     1000023        11   # BR(~e^-_R -> chi^0_2 e^-)
     3.05244921E-01    2     1000025        11   # BR(~e^-_R -> chi^0_3 e^-)
DECAY   1000011     1.33780731E+02   # ~e^-_L
#    BR                NDA      ID1      ID2
     6.07174112E-02    2     1000022        11   # BR(~e^-_L -> chi^0_1 e^-)
     3.40568227E-02    2     1000025        11   # BR(~e^-_L -> chi^0_3 e^-)
     3.01202056E-01    2     1000035        11   # BR(~e^-_L -> chi^0_4 e^-)
     6.03936836E-01    2    -1000037        12   # BR(~e^-_L -> chi^-_2 nu_e)
#    BR                NDA      ID1      ID2       ID3
DECAY   2000013     5.07243982E+01   # ~mu^-_R
#    BR                NDA      ID1      ID2
     6.83622353E-01    2     1000022        13   # BR(~mu^-_R -> chi^0_1 mu^-)
     7.83043619E-03    2     1000023        13   # BR(~mu^-_R -> chi^0_2 mu^-)
     3.03882556E-01    2     1000025        13   # BR(~mu^-_R -> chi^0_3 mu^-)
     4.66366991E-03    2    -1000024        14   # BR(~mu^-_R -> chi^-_1 nu_mu)
DECAY   1000013     1.34018209E+02   # ~mu^-_L
#    BR                NDA      ID1      ID2
     6.09503267E-02    2     1000022        13   # BR(~mu^-_L -> chi^0_1 mu^-)
     9.35413695E-04    2     1000023        13   # BR(~mu^-_L -> chi^0_2 mu^-)
     3.45591684E-02    2     1000025        13   # BR(~mu^-_L -> chi^0_3 mu^-)
     3.00669867E-01    2     1000035        13   # BR(~mu^-_L -> chi^0_4 mu^-)
     6.02869709E-01    2    -1000037        14   # BR(~mu^-_L -> chi^-_2 nu_mu)
#    BR                NDA      ID1      ID2       ID3
DECAY   1000015     1.95944013E+02   # ~tau^-_1
#    BR                NDA      ID1      ID2
     2.00979667E-01    2     1000022        15   # BR(~tau^-_1 -> chi^0_1 tau^-)
     1.56148853E-01    2     1000023        15   # BR(~tau^-_1 -> chi^0_2 tau^-)
     1.10402106E-01    2     1000025        15   # BR(~tau^-_1 -> chi^0_3 tau^-)
     1.41313712E-01    2     1000035        15   # BR(~tau^-_1 -> chi^0_4 tau^-)
     1.07812569E-01    2    -1000024        16   # BR(~tau^-_1 -> chi^-_1 nu_tau)
     2.83343094E-01    2    -1000037        16   # BR(~tau^-_1 -> chi^-_2 nu_tau)
DECAY   2000015     1.89603445E+02   # ~tau^-_2
#    BR                NDA      ID1      ID2
     1.54480756E-01    2     1000022        15   # BR(~tau^-_2 -> chi^0_1 tau^-)
     1.86176267E-01    2     1000023        15   # BR(~tau^-_2 -> chi^0_2 tau^-)
     2.16295507E-01    2     1000025        15   # BR(~tau^-_2 -> chi^0_3 tau^-)
     6.67930732E-02    2     1000035        15   # BR(~tau^-_2 -> chi^0_4 tau^-)
     2.42333175E-01    2    -1000024        16   # BR(~tau^-_2 -> chi^-_1 nu_tau)
     1.33921221E-01    2    -1000037        16   # BR(~tau^-_2 -> chi^-_2 nu_tau)
#    BR                NDA      ID1      ID2       ID3
DECAY   1000012     1.33784189E+02   # ~nu_e
#    BR                NDA      ID1      ID2
     6.89754189E-02    2     1000022        12   # BR(~nu_e -> chi^0_1 nu_e)
     1.40241038E-03    2     1000023        12   # BR(~nu_e -> chi^0_2 nu_e)
     2.37891866E-02    2     1000025        12   # BR(~nu_e -> chi^0_3 nu_e)
     3.01785020E-01    2     1000035        12   # BR(~nu_e -> chi^0_4 nu_e)
     2.00712796E-03    2     1000024        11   # BR(~nu_e -> chi^+_1 e^-)
     6.02040836E-01    2     1000037        11   # BR(~nu_e -> chi^+_2 e^-)
#    BR                NDA      ID1      ID2       ID3
DECAY   1000014     1.34021642E+02   # ~nu_mu
#    BR                NDA      ID1      ID2
     6.88535034E-02    2     1000022        14   # BR(~nu_mu -> chi^0_1 nu_mu)
     1.39993160E-03    2     1000023        14   # BR(~nu_mu -> chi^0_2 nu_mu)
     2.37471389E-02    2     1000025        14   # BR(~nu_mu -> chi^0_3 nu_mu)
     3.01251836E-01    2     1000035        14   # BR(~nu_mu -> chi^0_4 nu_mu)
     3.77038411E-03    2     1000024        13   # BR(~nu_mu -> chi^+_1 mu^-)
     6.00977206E-01    2     1000037        13   # BR(~nu_mu -> chi^+_2 mu^-)
#    BR                NDA      ID1      ID2       ID3
DECAY   1000016     2.01032824E+02   # ~nu_tau
#    BR                NDA      ID1      ID2
     4.59574480E-02    2     1000022        16   # BR(~nu_tau -> chi^0_1 nu_tau)
     9.34409217E-04    2     1000023        16   # BR(~nu_tau -> chi^0_2 nu_tau)
     1.58504551E-02    2     1000025        16   # BR(~nu_tau -> chi^0_3 nu_tau)
     2.01118615E-01    2     1000035        16   # BR(~nu_tau -> chi^0_4 nu_tau)
     3.34914022E-01    2     1000024        15   # BR(~nu_tau -> chi^+_1 tau^-)
     4.01225051E-01    2     1000037        15   # BR(~nu_tau -> chi^+_2 tau^-)
DECAY   2000001     7.22304050E+02   # ~d_R
#    BR                NDA      ID1      ID2
     5.37169218E-03    2     1000022         1   # BR(~d_R -> chi^0_1 d)
     2.37935427E-03    2     1000025         1   # BR(~d_R -> chi^0_3 d)
     9.92204906E-01    2     1000021         1   # BR(~d_R -> ~g d)
DECAY   1000001     8.42667204E+02   # ~d_L
#    BR                NDA      ID1      ID2
     1.38515132E-03    2     1000022         1   # BR(~d_L -> chi^0_1 d)
     2.73667721E-04    2     1000025         1   # BR(~d_L -> chi^0_3 d)
     4.84250536E-02    2     1000035         1   # BR(~d_L -> chi^0_4 d)
     9.69639392E-02    2    -1000037         2   # BR(~d_L -> chi^-_2 u)
     8.52870935E-01    2     1000021         1   # BR(~d_L -> ~g d)
DECAY   2000003     7.22437359E+02   # ~s_R
#    BR                NDA      ID1      ID2
     5.38828892E-03    2     1000022         3   # BR(~s_R -> chi^0_1 s)
     2.40798622E-03    2     1000025         3   # BR(~s_R -> chi^0_3 s)
     9.92023731E-01    2     1000021         3   # BR(~s_R -> ~g s)
DECAY   1000003     8.42737839E+02   # ~s_L
#    BR                NDA      ID1      ID2
     1.40014139E-03    2     1000022         3   # BR(~s_L -> chi^0_1 s)
     1.17122524E-04    2     1000023         3   # BR(~s_L -> chi^0_2 s)
     2.98620209E-04    2     1000025         3   # BR(~s_L -> chi^0_3 s)
     4.84210447E-02    2     1000035         3   # BR(~s_L -> chi^0_4 s)
     9.69559222E-02    2    -1000037         4   # BR(~s_L -> chi^-_2 c)
     8.52800342E-01    2     1000021         3   # BR(~s_L -> ~g s)
DECAY   1000005     1.68016376E+02   # ~b_1
#    BR                NDA      ID1      ID2
     6.56413795E-02    2     1000022         5   # BR(~b_1 -> chi^0_1 b)
     1.54799371E-01    2     1000023         5   # BR(~b_1 -> chi^0_2 b)
     9.96117255E-02    2     1000025         5   # BR(~b_1 -> chi^0_3 b)
     2.19019138E-02    2     1000035         5   # BR(~b_1 -> chi^0_4 b)
     3.58924800E-01    2    -1000024         6   # BR(~b_1 -> chi^-_1 t)
     4.42001108E-02    2    -1000037         6   # BR(~b_1 -> chi^-_2 t)
     2.54920699E-01    2     1000021         5   # BR(~b_1 -> ~g b)
DECAY   2000005     1.62596552E+02   # ~b_2
#    BR                NDA      ID1      ID2
     7.02553620E-02    2     1000022         5   # BR(~b_2 -> chi^0_1 b)
     1.65885886E-01    2     1000023         5   # BR(~b_2 -> chi^0_2 b)
     1.12453443E-01    2     1000025         5   # BR(~b_2 -> chi^0_3 b)
     3.36122653E-01    2    -1000024         6   # BR(~b_2 -> chi^-_1 t)
     3.15139416E-01    2     1000021         5   # BR(~b_2 -> ~g b)
DECAY   2000002     7.39467274E+02   # ~u_R
#    BR                NDA      ID1      ID2
     2.09942847E-02    2     1000022         2   # BR(~u_R -> chi^0_1 u)
     1.70652239E-04    2     1000023         2   # BR(~u_R -> chi^0_2 u)
     9.29904665E-03    2     1000025         2   # BR(~u_R -> chi^0_3 u)
     9.69535991E-01    2     1000021         2   # BR(~u_R -> ~g u)
DECAY   1000002     8.42654868E+02   # ~u_L
#    BR                NDA      ID1      ID2
     9.43505996E-04    2     1000022         2   # BR(~u_L -> chi^0_1 u)
     8.22032576E-04    2     1000025         2   # BR(~u_L -> chi^0_3 u)
     4.83906570E-02    2     1000035         2   # BR(~u_L -> chi^0_4 u)
     3.21948539E-04    2     1000024         1   # BR(~u_L -> chi^+_1 d)
     9.66680560E-02    2     1000037         1   # BR(~u_L -> chi^+_2 d)
     8.52846271E-01    2     1000021         2   # BR(~u_L -> ~g u)
DECAY   2000004     7.39474611E+02   # ~c_R
#    BR                NDA      ID1      ID2
     2.09946615E-02    2     1000022         4   # BR(~c_R -> chi^0_1 c)
     1.73135620E-04    2     1000023         4   # BR(~c_R -> chi^0_2 c)
     9.30080185E-03    2     1000025         4   # BR(~c_R -> chi^0_3 c)
     9.69526446E-01    2     1000021         4   # BR(~c_R -> ~g c)
DECAY   1000004     8.42725467E+02   # ~c_L
#    BR                NDA      ID1      ID2
     9.43939791E-04    2     1000022         4   # BR(~c_L -> chi^0_1 c)
     8.23590260E-04    2     1000025         4   # BR(~c_L -> chi^0_3 c)
     4.83866540E-02    2     1000035         4   # BR(~c_L -> chi^0_4 c)
     4.00366936E-04    2     1000024         3   # BR(~c_L -> chi^+_1 s)
     9.66600567E-02    2     1000037         3   # BR(~c_L -> chi^+_2 s)
     8.52775679E-01    2     1000021         4   # BR(~c_L -> ~g c)
DECAY   1000006     1.88667410E+02   # ~t_1
#    BR                NDA      ID1      ID2
     5.59809169E-04    2     1000022         4   # BR(~t_1 -> chi^0_1 c)
     3.51561436E-02    2     1000022         6   # BR(~t_1 -> chi^0_1 t)
     1.60022343E-01    2     1000023         6   # BR(~t_1 -> chi^0_2 t)
     1.25434650E-01    2     1000025         6   # BR(~t_1 -> chi^0_3 t)
     1.86430995E-02    2     1000035         6   # BR(~t_1 -> chi^0_4 t)
     2.80688451E-01    2     1000024         5   # BR(~t_1 -> chi^+_1 b)
     3.88798291E-02    2     1000037         5   # BR(~t_1 -> chi^+_2 b)
     1.00477473E-01    2     1000021         4   # BR(~t_1 -> ~g c)
     2.23314529E-01    2     1000021         6   # BR(~t_1 -> ~g t)
#    BR                NDA      ID1      ID2       ID3
     1.68192236E-02    3     1000022        24         5   # BR(~t_1 -> chi^0_1 W^+ b)
DECAY   2000006     3.70001827E+02   # ~t_2
#    BR                NDA      ID1      ID2
     4.52147359E-02    2     1000022         6   # BR(~t_2 -> chi^0_1 t)
     1.11137610E-01    2     1000023         6   # BR(~t_2 -> chi^0_2 t)
     8.58985774E-02    2     1000025         6   # BR(~t_2 -> chi^0_3 t)
     2.19450430E-01    2     1000024         5   # BR(~t_2 -> chi^+_1 b)
     3.75175868E-01    2     1000021         6   # BR(~t_2 -> ~g t)
     7.19038196E-02    2     1000005        24   # BR(~t_2 -> ~b_1 W^+)
     3.62433024E-02    2     1000006        23   # BR(~t_2 -> ~t_1 Z)
     5.49042678E-02    2     1000006        25   # BR(~t_2 -> ~t_1 h^0)
DECAY   1000024     3.32979044E-04   # chi^+_1
#    BR                NDA      ID1      ID2       ID3
     3.33869446E-01    3     1000022        -1         2   # BR(chi^+_1 -> chi^0_1 d_bar u)
     3.32892290E-01    3     1000022        -3         4   # BR(chi^+_1 -> chi^0_1 s_bar c)
     1.11290113E-01    3     1000022       -11        12   # BR(chi^+_1 -> chi^0_1 e^+ nu_e)
     1.11288497E-01    3     1000022       -13        14   # BR(chi^+_1 -> chi^0_1 mu^+ nu_mu)
     1.10659655E-01    3     1000022       -15        16   # BR(chi^+_1 -> chi^0_1 tau^+ nu_tau)
DECAY   1000037     1.86559583E+01   # chi^+_2
#    BR                NDA      ID1      ID2
     5.10729699E-02    2     1000022        24   # BR(chi^+_2 -> chi^0_1 W^+)
     2.42547142E-01    2     1000023        24   # BR(chi^+_2 -> chi^0_2 W^+)
     1.88981545E-01    2     1000025        24   # BR(chi^+_2 -> chi^0_3 W^+)
     2.40741071E-01    2     1000024        23   # BR(chi^+_2 -> chi^+_1 Z)
     2.40389687E-01    2     1000024        25   # BR(chi^+_2 -> chi^+_1 h^0)
#    BR                NDA      ID1      ID2       ID3
     1.40898450E-02    3     1000024         6        -6   # BR(chi^+_2 -> chi^+_1 t t_bar)
     8.40169482E-04    3     1000024         5        -5   # BR(chi^+_2 -> chi^+_1 b b_bar)
     2.40479973E-03    3     1000022        -5         6   # BR(chi^+_2 -> chi^0_1 b_bar t)
     1.05783124E-02    3     1000023        -5         6   # BR(chi^+_2 -> chi^0_2 b_bar t)
     8.26622258E-03    3     1000025        -5         6   # BR(chi^+_2 -> chi^0_3 b_bar t)
DECAY   1000022     0.00000000E+00   # chi^0_1
DECAY   1000023     3.69305616E-04   # chi^0_2
#    BR                NDA      ID1      ID2
     7.10968407E-03    2     1000022        22   # BR(chi^0_2 -> chi^0_1 photon)
#    BR                NDA      ID1      ID2       ID3
     1.19050112E-01    3     1000022         2        -2   # BR(chi^0_2 -> chi^0_1 u u_bar)
     1.18200949E-01    3     1000022         4        -4   # BR(chi^0_2 -> chi^0_1 c c_bar)
     1.52645441E-01    3     1000022         1        -1   # BR(chi^0_2 -> chi^0_1 d d_bar)
     1.52640276E-01    3     1000022         3        -3   # BR(chi^0_2 -> chi^0_1 s s_bar)
     1.43400722E-01    3     1000022         5        -5   # BR(chi^0_2 -> chi^0_1 b b_bar)
     3.44473323E-02    3     1000022        11       -11   # BR(chi^0_2 -> chi^0_1 e^- e^+)
     3.44454593E-02    3     1000022        13       -13   # BR(chi^0_2 -> chi^0_1 mu^- mu^+)
     3.39229943E-02    3     1000022        15       -15   # BR(chi^0_2 -> chi^0_1 tau^- tau^+)
     2.04132294E-01    3     1000022        12       -12   # BR(chi^0_2 -> chi^0_1 nu_e nu_bar_e)
DECAY   1000025     2.25594489E-05   # chi^0_3
#    BR                NDA      ID1      ID2
     6.67757159E-03    2     1000022        22   # BR(chi^0_3 -> chi^0_1 photon)
     1.65894233E-02    2     1000023        22   # BR(chi^0_3 -> chi^0_2 photon)
#    BR                NDA      ID1      ID2       ID3
     4.00969746E-02    3     1000022         2        -2   # BR(chi^0_3 -> chi^0_1 u u_bar)
     3.99742396E-02    3     1000022         4        -4   # BR(chi^0_3 -> chi^0_1 c c_bar)
     5.13922495E-02    3     1000022         1        -1   # BR(chi^0_3 -> chi^0_1 d d_bar)
     5.13916433E-02    3     1000022         3        -3   # BR(chi^0_3 -> chi^0_1 s s_bar)
     5.16218753E-02    3     1000022         5        -5   # BR(chi^0_3 -> chi^0_1 b b_bar)
     1.15811754E-02    3     1000022        11       -11   # BR(chi^0_3 -> chi^0_1 e^- e^+)
     1.15810274E-02    3     1000022        13       -13   # BR(chi^0_3 -> chi^0_1 mu^- mu^+)
     1.15383706E-02    3     1000022        15       -15   # BR(chi^0_3 -> chi^0_1 tau^- tau^+)
     6.87508615E-02    3     1000022        12       -12   # BR(chi^0_3 -> chi^0_1 nu_e nu_bar_e)
     8.96356129E-03    3     1000023         2        -2   # BR(chi^0_3 -> chi^0_2 u u_bar)
     8.15096228E-03    3     1000023         4        -4   # BR(chi^0_3 -> chi^0_2 c c_bar)
     1.14931050E-02    3     1000023         1        -1   # BR(chi^0_3 -> chi^0_2 d d_bar)
     1.14877990E-02    3     1000023         3        -3   # BR(chi^0_3 -> chi^0_2 s s_bar)
     4.38675817E-03    3     1000023         5        -5   # BR(chi^0_3 -> chi^0_2 b b_bar)
     2.59368427E-03    3     1000023        11       -11   # BR(chi^0_3 -> chi^0_2 e^- e^+)
     2.59179706E-03    3     1000023        13       -13   # BR(chi^0_3 -> chi^0_2 mu^- mu^+)
     2.11557986E-03    3     1000023        15       -15   # BR(chi^0_3 -> chi^0_2 tau^- tau^+)
     1.53695290E-02    3     1000023        12       -12   # BR(chi^0_3 -> chi^0_2 nu_e nu_bar_e)
     9.64214357E-02    3     1000024         1        -2   # BR(chi^0_3 -> chi^+_1 d u_bar)
     9.64214357E-02    3    -1000024        -1         2   # BR(chi^0_3 -> chi^-_1 d_bar u)
     9.43244580E-02    3     1000024         3        -4   # BR(chi^0_3 -> chi^+_1 s c_bar)
     9.43244580E-02    3    -1000024        -3         4   # BR(chi^0_3 -> chi^-_1 s_bar c)
     3.21404301E-02    3     1000024        11       -12   # BR(chi^0_3 -> chi^+_1 e^- nu_bar_e)
     3.21404301E-02    3    -1000024       -11        12   # BR(chi^0_3 -> chi^-_1 e^+ nu_e)
     3.21370523E-02    3     1000024        13       -14   # BR(chi^0_3 -> chi^+_1 mu^- nu_bar_mu)
     3.21370523E-02    3    -1000024       -13        14   # BR(chi^0_3 -> chi^-_1 mu^+ nu_mu)
     3.08025298E-02    3     1000024        15       -16   # BR(chi^0_3 -> chi^+_1 tau^- nu_bar_tau)
     3.08025298E-02    3    -1000024       -15        16   # BR(chi^0_3 -> chi^-_1 tau^+ nu_tau)
DECAY   1000035     1.96956453E+01   # chi^0_4
#    BR                NDA      ID1      ID2
     2.28922607E-01    2     1000024       -24   # BR(chi^0_4 -> chi^+_1 W^-)
     2.28922607E-01    2    -1000024        24   # BR(chi^0_4 -> chi^-_1 W^+)
     2.14698812E-02    2     1000022        23   # BR(chi^0_4 -> chi^0_1 Z)
     1.35216730E-01    2     1000023        23   # BR(chi^0_4 -> chi^0_2 Z)
     7.16283309E-02    2     1000025        23   # BR(chi^0_4 -> chi^0_3 Z)
     2.73163740E-02    2     1000022        25   # BR(chi^0_4 -> chi^0_1 h^0)
     1.45518803E-01    2     1000023        25   # BR(chi^0_4 -> chi^0_2 h^0)
     1.06737734E-01    2     1000025        25   # BR(chi^0_4 -> chi^0_3 h^0)
#    BR                NDA      ID1      ID2       ID3
     1.29786691E-03    3     1000022         6        -6   # BR(chi^0_4 -> chi^0_1 t t_bar)
     1.59473488E-04    3     1000022         5        -5   # BR(chi^0_4 -> chi^0_1 b b_bar)
     6.21989414E-03    3     1000023         6        -6   # BR(chi^0_4 -> chi^0_2 t t_bar)
     3.80760935E-04    3     1000023         5        -5   # BR(chi^0_4 -> chi^0_2 b b_bar)
     4.74805865E-03    3     1000025         6        -6   # BR(chi^0_4 -> chi^0_3 t t_bar)
     2.49256027E-04    3     1000025         5        -5   # BR(chi^0_4 -> chi^0_3 b b_bar)
     1.05484349E-02    3     1000024         5        -6   # BR(chi^0_4 -> chi^+_1 b t_bar)
     1.05484349E-02    3    -1000024        -5         6   # BR(chi^0_4 -> chi^-_1 b_bar t)
DECAY   1000021     1.64233770E-01   # ~g
#    BR                NDA      ID1      ID2
     3.94949528E-04    2     1000022        21   # BR(~g -> chi^0_1 g)
     1.69484686E-03    2     1000023        21   # BR(~g -> chi^0_2 g)
     1.95493209E-03    2     1000025        21   # BR(~g -> chi^0_3 g)
#    BR                NDA      ID1      ID2       ID3
     2.75272008E-02    3     1000022         6        -6   # BR(~g -> chi^0_1 t t_bar)
     6.28770809E-02    3     1000022         5        -5   # BR(~g -> chi^0_1 b b_bar)
     9.69535425E-02    3     1000023         6        -6   # BR(~g -> chi^0_2 t t_bar)
     1.48496191E-01    3     1000023         5        -5   # BR(~g -> chi^0_2 b b_bar)
     7.10616620E-02    3     1000025         6        -6   # BR(~g -> chi^0_3 t t_bar)
     9.70928904E-02    3     1000025         5        -5   # BR(~g -> chi^0_3 b b_bar)
     2.45866176E-01    3     1000024         5        -6   # BR(~g -> chi^+_1 b t_bar)
     2.45866176E-01    3    -1000024        -5         6   # BR(~g -> chi^-_1 b_bar t)
DECAY        25     3.46202805E-03   # Gamma(h0)
     2.62144149E-03   2        22        22   # BR(h0 -> photon photon)
     1.67074924E-03   2        22        23   # BR(h0 -> photon Z)
     3.08218014E-02   2        23        23   # BR(h0 -> Z Z)
     2.54834273E-01   2       -24        24   # BR(h0 -> W W)
     8.12452876E-02   2        21        21   # BR(h0 -> gluon gluon)
     4.84997668E-09   2       -11        11   # BR(h0 -> Electron electron)
     2.15735616E-04   2       -13        13   # BR(h0 -> Muon muon)
     6.22042360E-02   2       -15        15   # BR(h0 -> Tau tau)
     1.37590560E-07   2        -2         2   # BR(h0 -> Up up)
     2.67041652E-02   2        -4         4   # BR(h0 -> Charm charm)
     5.61381391E-07   2        -1         1   # BR(h0 -> Down down)
     2.03038307E-04   2        -3         3   # BR(h0 -> Strange strange)
     5.39478568E-01   2        -5         5   # BR(h0 -> Bottom bottom)
DECAY        35     1.01517802E+02   # Gamma(HH)
     2.13040847E-08   2        22        22   # BR(HH -> photon photon)
     1.78908876E-08   2        22        23   # BR(HH -> photon Z)
     1.05091875E-07   2        23        23   # BR(HH -> Z Z)
     3.52119076E-08   2       -24        24   # BR(HH -> W W)
     1.30426848E-05   2        21        21   # BR(HH -> gluon gluon)
     1.12926227E-08   2       -11        11   # BR(HH -> Electron electron)
     5.02788340E-04   2       -13        13   # BR(HH -> Muon muon)
     1.45209517E-01   2       -15        15   # BR(HH -> Tau tau)
     2.08945736E-14   2        -2         2   # BR(HH -> Up up)
     4.05289137E-09   2        -4         4   # BR(HH -> Charm charm)
     2.67944921E-04   2        -6         6   # BR(HH -> Top top)
     8.31208316E-07   2        -1         1   # BR(HH -> Down down)
     3.00657814E-04   2        -3         3   # BR(HH -> Strange strange)
     7.43148687E-01   2        -5         5   # BR(HH -> Bottom bottom)
     7.37666969E-04   2  -1000024   1000024   # BR(HH -> Chargino1 chargino1)
     2.61014570E-02   2  -1000024   1000037   # BR(HH -> Chargino1 chargino2)
     2.61014570E-02   2  -1000037   1000024   # BR(HH -> Chargino2 chargino1)
     1.00794803E-02   2   1000022   1000022   # BR(HH -> neutralino1 neutralino1)
     7.72268500E-03   2   1000022   1000023   # BR(HH -> neutralino1 neutralino2)
     6.64438700E-04   2   1000022   1000025   # BR(HH -> neutralino1 neutralino3)
     5.35547012E-03   2   1000022   1000035   # BR(HH -> neutralino1 neutralino4)
     4.58009556E-04   2   1000023   1000023   # BR(HH -> neutralino2 neutralino2)
     6.74510590E-03   2   1000023   1000025   # BR(HH -> neutralino2 neutralino3)
     1.51843244E-02   2   1000023   1000035   # BR(HH -> neutralino2 neutralino4)
     5.77793414E-03   2   1000025   1000025   # BR(HH -> neutralino3 neutralino3)
     5.62788726E-03   2   1000025   1000035   # BR(HH -> neutralino3 neutralino4)
     4.20342018E-07   2        25        25   # BR(HH -> h0 h0)
DECAY        36     9.47799882E+01   # Gamma(A0)
     8.99461398E-09   2        22        22   # BR(A0 -> photon photon)
     1.24774080E-08   2        22        23   # BR(A0 -> photon Z)
     1.97835861E-05   2        21        21   # BR(A0 -> gluon gluon)
     1.11903764E-08   2       -11        11   # BR(A0 -> Electron electron)
     4.98234651E-04   2       -13        13   # BR(A0 -> Muon muon)
     1.43894645E-01   2       -15        15   # BR(A0 -> Tau tau)
     1.96644691E-14   2        -2         2   # BR(A0 -> Up up)
     3.81409316E-09   2        -4         4   # BR(A0 -> Charm charm)
     2.55845543E-04   2        -6         6   # BR(A0 -> Top top)
     8.23635016E-07   2        -1         1   # BR(A0 -> Down down)
     2.97917047E-04   2        -3         3   # BR(A0 -> Strange strange)
     7.36385569E-01   2        -5         5   # BR(A0 -> Bottom bottom)
     8.04264442E-04   2  -1000024   1000024   # BR(A0 -> Chargino1 chargino1)
     2.80202297E-02   2  -1000024   1000037   # BR(A0 -> Chargino1 chargino2)
     2.80202297E-02   2  -1000037   1000024   # BR(A0 -> Chargino2 chargino1)
     1.03629378E-02   2   1000022   1000022   # BR(A0 -> neutralino1 neutralino1)
     8.85513562E-03   2   1000022   1000023   # BR(A0 -> neutralino1 neutralino2)
     6.45583356E-04   2   1000022   1000025   # BR(A0 -> neutralino1 neutralino3)
     7.82642706E-03   2   1000022   1000035   # BR(A0 -> neutralino1 neutralino4)
     5.40425902E-04   2   1000023   1000023   # BR(A0 -> neutralino2 neutralino2)
     7.40379265E-03   2   1000023   1000025   # BR(A0 -> neutralino2 neutralino3)
     1.10899097E-02   2   1000023   1000035   # BR(A0 -> neutralino2 neutralino4)
     5.89503382E-03   2   1000025   1000025   # BR(A0 -> neutralino3 neutralino3)
     9.18300118E-03   2   1000025   1000035   # BR(A0 -> neutralino3 neutralino4)
     1.73933486E-07   2        23        25   # BR(A0 -> Z h0)
     3.92756388E-14   2        23        35   # BR(A0 -> Z HH)
     8.19801410E-40   2        25        25   # BR(A0 -> h0 h0)
DECAY        37     1.22856857E+02   # Gamma(Hp)
     1.20893000E-08   2       -11        12   # BR(Hp -> Electron nu_e)
     5.16855333E-04   2       -13        14   # BR(Hp -> Muon nu_mu)
     1.46196062E-01   2       -15        16   # BR(Hp -> Tau nu_tau)
     7.68885166E-07   2        -1         2   # BR(Hp -> Down up)
     1.29677337E-05   2        -3         2   # BR(Hp -> Strange up)
     8.05191516E-06   2        -5         2   # BR(Hp -> Bottom up)
     3.60421692E-08   2        -1         4   # BR(Hp -> Down charm)
     2.77111380E-04   2        -3         4   # BR(Hp -> Strange charm)
     1.12755614E-03   2        -5         4   # BR(Hp -> Bottom charm)
     1.81851699E-08   2        -1         6   # BR(Hp -> Down top)
     8.05978900E-07   2        -3         6   # BR(Hp -> Strange top)
     7.60295551E-01   2        -5         6   # BR(Hp -> Bottom top)
     1.46885368E-02   2   1000022   1000024   # BR(Hp -> neutralino1 chargino1)
     1.05419942E-02   2   1000022   1000037   # BR(Hp -> neutralino1 chargino2)
     6.88692577E-06   2   1000023   1000024   # BR(Hp -> neutralino2 chargino1)
     2.12441109E-02   2   1000023   1000037   # BR(Hp -> neutralino2 chargino2)
     1.15050799E-02   2   1000024   1000025   # BR(Hp -> chargino1 neutralino3)
     1.18283860E-02   2   1000025   1000037   # BR(Hp -> neutralino3 chargino2)
     2.17490735E-02   2   1000024   1000035   # BR(Hp -> chargino1 neutralino4)
     1.34685006E-07   2        24        25   # BR(Hp -> W h0)
     1.19035757E-11   2        24        35   # BR(Hp -> W HH)
     1.78133703E-12   2        24        36   # BR(Hp -> W A0)
DECAY         6     2.43000000E+00   # top
#    BR                NDA      ID1      ID2
     1.00000000E+00    2           5        24   # BR(t -> b W)
Block HiggsBoundsInputHiggsCouplingsFermions
# ScalarNormEffCoupSq PseudoSNormEffCoupSq NP IP1 IP2 IP2
    1.00082824E+00    0.00000000E+00        3  25   5   5  # h0-b-b eff. coupling^2, normalised to SM
    3.21693197E+03    0.00000000E+00        3  35   5   5  # H0-b-b eff. coupling^2, normalised to SM
    0.00000000E+00    3.21693279E+03        3  36   5   5  # A0-b-b eff. coupling^2, normalised to SM
#
    9.99999743E-01    0.00000000E+00        3  25   6   6  # h0-t-t eff. coupling^2, normalised to SM
    3.11112575E-04    0.00000000E+00        3  35   6   6  # H0-t-t eff. coupling^2, normalised to SM
    0.00000000E+00    3.10855111E-04        3  36   6   6  # A0-t-t eff. coupling^2, normalised to SM
#
    1.00082824E+00    0.00000000E+00        3  25  15  15  # h0-tau-tau eff. coupling^2, normalised to SM
    3.21693197E+03    0.00000000E+00        3  35  15  15  # H0-tau-tau eff. coupling^2, normalised to SM
    0.00000000E+00    3.21693279E+03        3  36  15  15  # A0-tau-tau eff. coupling^2, normalised to SM
#
Block HiggsBoundsInputHiggsCouplingsBosons
    1.00000000E+00        3  25  24  24  # h0-W-W eff. coupling^2, normalised to SM
    5.32887186E-11        3  35  24  24  # H0-W-W eff. coupling^2, normalised to SM
    0.00000000E+00        3  36  24  24  # A0-W-W eff. coupling^2, normalised to SM
#
    1.00000000E+00        3  25  23  23  # h0-Z-Z eff. coupling^2, normalised to SM
    5.32887186E-11        3  35  23  23  # H0-Z-Z eff. coupling^2, normalised to SM
    0.00000000E+00        3  36  23  23  # A0-Z-Z eff. coupling^2, normalised to SM
#
    1.26199952E+00        3  25  21  21  # h0-g-g eff. coupling^2, normalised to SM
    1.91306886E-02        3  35  21  21  # H0-g-g eff. coupling^2, normalised to SM
    1.60608334E-01        3  36  21  21  # A0-g-g eff. coupling^2, normalised to SM
#
    0.00000000E+00        3  25  25  23  # h0-h0-Z eff. coupling^2, normalised to SM
    0.00000000E+00        3  35  25  23  # H0-h0-Z eff. coupling^2, normalised to SM
    5.32887186E-11        3  36  25  23  # A0-h0-Z eff. coupling^2, normalised to SM
    0.00000000E+00        3  35  35  23  # H0-H0-Z eff. coupling^2, normalised to SM
    1.00000000E+00        3  36  35  23  # A0-H0-Z eff. coupling^2, normalised to SM
    0.00000000E+00        3  36  36  23  # A0-A0-Z eff. coupling^2, normalised to SM
#
    0.00000000E+00        4  25  21  21  23  # h0-g-g-Z eff. coupling^2, normalised to SM
    0.00000000E+00        4  35  21  21  23  # H0-g-g-Z eff. coupling^2, normalised to SM
    0.00000000E+00        4  36  21  21  23  # A0-g-g-Z eff. coupling^2, normalised to SM
Block SPhenoLowEnergy  # low energy observables
    1    3.05171137E-04   # BR(b -> s gamma)
    2    1.59255808E-06   # BR(b -> s mu+ mu-)
    3    3.52490959E-05   # BR(b -> s nu nu)
    4    3.37406272E-15   # BR(Bd -> e+ e-)
    5    1.44130845E-10   # BR(Bd -> mu+ mu-)
    6    2.98710564E-08   # BR(Bd -> tau+ tau-)
    7    1.11708818E-13   # BR(Bs -> e+ e-)
    8    4.77203587E-09   # BR(Bs -> mu+ mu-)
    9    1.00287066E-06   # BR(Bs -> tau+ tau-)
   10    9.47597185E-05   # BR(B_u -> tau nu)
   11    9.78831614E-01   # BR(B_u -> tau nu)/BR(B_u -> tau nu)_SM
   12    5.41915190E-01   # |Delta(M_Bd)| [ps^-1] 
   13    1.93473744E+01   # |Delta(M_Bs)| [ps^-1] 
   14    0.00000000E+00   # neutron EDM according to the chiral quark model
   15    0.00000000E+00   # neutron EDM according to the relativistic quark-parton model
   16    2.15727949E-03   # epsilon_K
   17    2.28166048E-15   # Delta(M_K)
   18    2.48027716E-11   # BR(K^0 -> pi^0 nu nu)
   19    8.29102400E-11   # BR(K^+ -> pi^+ nu nu)
   20   -5.82317677E-16   # Delta(g-2)_electron/2
   21   -2.48960990E-11   # Delta(g-2)_muon/2
   22   -7.05552534E-09   # Delta(g-2)_tau/2
   23    0.00000000E+00   # electric dipole moment of the electron
   24    0.00000000E+00   # electric dipole moment of the muon
   25    0.00000000E+00   # electric dipole moment of the tau
   26    0.00000000E+00   # Br(mu -> e gamma)
   27    0.00000000E+00   # Br(tau -> e gamma)
   28    0.00000000E+00   # Br(tau -> mu gamma)
   29    0.00000000E+00   # Br(mu -> 3 e)
   30    0.00000000E+00   # Br(tau -> 3 e)
   31    0.00000000E+00   # Br(tau -> 3 mu)
   39    7.33061706E-05   # Delta(rho_parameter)
   40    0.00000000E+00   # BR(Z -> e mu)
   41    0.00000000E+00   # BR(Z -> e tau)
   42    0.00000000E+00   # BR(Z -> mu tau)
Block FWCOEF Q=  1.60000000E+02  # Wilson coefficients at scale Q
#    id        order  M        value         comment
     0305 4422   00   0    -1.88819110E-01   # C7
     0305 4422   00   2    -1.68384885E-01   # C7
     0305 4322   00   2    -3.89264577E-05   # C7'
     0305 6421   00   0    -9.52278348E-02   # C8
     0305 6421   00   2    -9.36433750E-02   # C8
     0305 6321   00   2    -1.96785568E-04   # C8'
 03051111 4133   00   0     1.62284578E+00   # C9 e+e-
 03051111 4133   00   2     1.62321294E+00   # C9 e+e-
 03051111 4233   00   2     8.65511681E-04   # C9' e+e-
 03051111 4137   00   0    -4.44553788E+00   # C10 e+e-
 03051111 4137   00   2    -4.44377051E+00   # C10 e+e-
 03051111 4237   00   2    -6.43932487E-03   # C10' e+e-
 03051313 4133   00   0     1.62284578E+00   # C9 mu+mu-
 03051313 4133   00   2     1.62321268E+00   # C9 mu+mu-
 03051313 4233   00   2     8.65509648E-04   # C9' mu+mu-
 03051313 4137   00   0    -4.44553788E+00   # C10 mu+mu-
 03051313 4137   00   2    -4.44377077E+00   # C10 mu+mu-
 03051313 4237   00   2    -6.43932485E-03   # C10' mu+mu-
 03051212 4137   00   0     1.50535012E+00   # C11 nu_1 nu_1
 03051212 4137   00   2     1.50496881E+00   # C11 nu_1 nu_1
 03051212 4237   00   2     1.39362722E-03   # C11' nu_1 nu_1
 03051414 4137   00   0     1.50535012E+00   # C11 nu_2 nu_2
 03051414 4137   00   2     1.50496881E+00   # C11 nu_2 nu_2
 03051414 4237   00   2     1.39362755E-03   # C11' nu_2 nu_2
 03051616 4137   00   0     1.50535012E+00   # C11 nu_3 nu_3
 03051616 4137   00   2     1.50496881E+00   # C11 nu_3 nu_3
 03051616 4237   00   2     1.39372070E-03   # C11' nu_3 nu_3
Block IMFWCOEF Q=  1.60000000E+02  # Im(Wilson coefficients) at scale Q
#    id        order  M        value         comment
     0305 4422   00   0     3.85830142E-07   # C7
     0305 4422   00   2    -6.13805776E-06   # C7
     0305 4322   00   2     1.96085874E-06   # C7'
     0305 6421   00   0     3.30489033E-07   # C8
     0305 6421   00   2    -5.46100628E-05   # C8
     0305 6321   00   2    -1.02601538E-07   # C8'
 03051111 4133   00   2     1.16976816E-07   # C9 e+e-
 03051111 4233   00   2     1.70746421E-05   # C9' e+e-
 03051111 4137   00   2     2.23773910E-06   # C10 e+e-
 03051111 4237   00   2    -1.27043109E-04   # C10' e+e-
 03051313 4133   00   2     1.16972153E-07   # C9 mu+mu-
 03051313 4233   00   2     1.70746331E-05   # C9' mu+mu-
 03051313 4137   00   2     2.23774524E-06   # C10 mu+mu-
 03051313 4237   00   2    -1.27043136E-04   # C10' mu+mu-
 03051212 4137   00   2    -4.62971258E-07   # C11 nu_1 nu_1
 03051212 4237   00   2     2.74952345E-05   # C11' nu_1 nu_1
 03051414 4137   00   2    -4.62971090E-07   # C11 nu_2 nu_2
 03051414 4237   00   2     2.74952345E-05   # C11' nu_2 nu_2
 03051616 4137   00   2    -4.62925200E-07   # C11 nu_3 nu_3
 03051616 4237   00   2     2.74952345E-05   # C11' nu_3 nu_3
