# SUSY Les Houches Accord 2 - MSSM spectrum + Decays
# SPheno v4.0.5be
# W. Porod, Comput. Phys. Commun. 153 (2003) 275-315, hep-ph/0301101;
# W. Porod, F.~Staub, Comput. Phys. Commun. 183 (2012) 2458
#                     arXiv:1104.1573 [hep-ph] 
# in case of problems send email to porod@physik.uni-wuerzburg.de
# Created: 20.12.2022,  16:38
Block SPINFO         # Program information
     1   SPheno      # spectrum calculator
     2   v4.0.5be    # version number
#
Block SPhenoINFO     # SPheno specific information
    1      2         # using 2-loop RGEs
    2      2         # using pole masses for boundary conditions at mZ
Block MODSEL  # Model selection
    1    0    # general MSSM
Block MINPAR  # Input parameters
    3    4.49535965E+01  # tanb at m_Z    
    4   -1.00000000E+00  # Sign(mu)
Block EXTPAR  # non-universal input parameters
    0    3.83956500E+03  # scale for input parameters
    1   -2.73433674E+01  # M_1
    2   -1.76934503E+03  # M_2
    3    3.47065264E+03  # M_3
   11   -4.96081690E+03  # A_t
   12    1.70748520E+03  # A_b
   13   -1.96468101E+03  # A_tau
   23   -5.94264418E+02  # mu
   25    4.41820497E+01  # tan(beta)
   26    4.65823633E+03  # m_A, pole mass
   31    1.00000000E+04  # M_L11
   32    1.00000000E+04  # M_L22
   33    1.00000000E+04  # M_L33
   34    1.00000000E+04  # M_E11
   35    1.00000000E+04  # M_E22
   36    1.00000000E+04  # M_E33
   41    1.00000000E+04  # M_Q11
   42    1.00000000E+04  # M_Q22
   43    4.24261477E+03  # M_Q33
   44    1.00000000E+04  # M_U11
   45    1.00000000E+04  # M_U22
   46    3.38358452E+03  # M_U33
   47    1.00000000E+04  # M_D11
   48    1.00000000E+04  # M_D22
   49    2.41324127E+03  # M_D33
Block SMINPUTS  # SM parameters
         1     1.27908970E+02  # alpha_em^-1(MZ)^MSbar
         2     1.16637870E-05  # G_mu [GeV^-2]
         3     1.18400000E-01  # alpha_s(MZ)^MSbar
         4     9.11876000E+01  # m_Z(pole)
         5     4.18000000E+00  # m_b(m_b), MSbar
         6     1.73200000E+02  # m_t(pole)
         7     1.77700000E+00  # m_tau(pole)
         8     0.00000000E+00  # m_nu_3
        11     5.10998930E-04  # m_e(pole)
        12     0.00000000E+00  # m_nu_1
        13     1.05658372E-01  # m_muon(pole)
        14     0.00000000E+00  # m_nu_2
        21     5.00000000E-03  # m_d(2 GeV), MSbar
        22     2.50000000E-03  # m_u(2 GeV), MSbar
        23     9.50000000E-02  # m_s(2 GeV), MSbar
        24     1.27000000E+00  # m_c(m_c), MSbar
Block gauge Q=  3.83956500E+03  # (SUSY scale)
   1    3.55362975E-01  # g'(Q)^DRbar
   2    6.65198874E-01  # g(Q)^DRbar
   3    1.21977796E+00  # g3(Q)^DRbar
Block Yu Q=  3.83956500E+03  # (SUSY scale)
  1  1     8.38651944E-06   # Y_u(Q)^DRbar
  2  2     4.26035187E-03   # Y_c(Q)^DRbar
  3  3     1.01315891E+00   # Y_t(Q)^DRbar
Block Yd Q=  3.83956500E+03  # (SUSY scale)
  1  1     7.44573997E-04   # Y_d(Q)^DRbar
  2  2     1.41469059E-02   # Y_s(Q)^DRbar
  3  3     7.38384089E-01   # Y_b(Q)^DRbar
Block Ye Q=  3.83956500E+03  # (SUSY scale)
  1  1     1.29933607E-04   # Y_e(Q)^DRbar
  2  2     2.68661490E-02   # Y_mu(Q)^DRbar
  3  3     4.51844430E-01   # Y_tau(Q)^DRbar
Block Au Q=  3.83956500E+03  # (SUSY scale)
  1  1     0.00000000E+00   # A_u(Q)^DRbar
  2  2     0.00000000E+00   # A_c(Q)^DRbar
  3  3    -4.96082181E+03   # A_t(Q)^DRbar
Block Ad Q=  3.83956500E+03  # (SUSY scale)
  1  1     0.00000000E+00   # A_d(Q)^DRbar
  2  2     0.00000000E+00   # A_s(Q)^DRbar
  3  3     1.70748659E+03   # A_b(Q)^DRbar
Block Ae Q=  3.83956500E+03  # (SUSY scale)
  1  1     0.00000000E+00   # A_e(Q)^DRbar
  2  2     0.00000000E+00   # A_mu(Q)^DRbar
  3  3    -1.96468033E+03   # A_tau(Q)^DRbar
Block MSOFT Q=  3.83956500E+03  # soft SUSY breaking masses at Q
   1   -2.73433674E+01  # M_1
   2   -1.76934503E+03  # M_2
   3    3.47065264E+03  # M_3
  21    2.14495582E+07  # M^2_(H,d)
  22   -6.84714441E+04  # M^2_(H,u)
  31    1.00000000E+04  # M_(L,11)
  32    1.00000000E+04  # M_(L,22)
  33    1.00000000E+04  # M_(L,33)
  34    1.00000000E+04  # M_(E,11)
  35    1.00000000E+04  # M_(E,22)
  36    1.00000000E+04  # M_(E,33)
  41    1.00000000E+04  # M_(Q,11)
  42    1.00000000E+04  # M_(Q,22)
  43    4.24261477E+03  # M_(Q,33)
  44    1.00000000E+04  # M_(U,11)
  45    1.00000000E+04  # M_(U,22)
  46    3.38358452E+03  # M_(U,33)
  47    1.00000000E+04  # M_(D,11)
  48    1.00000000E+04  # M_(D,22)
  49    2.41324127E+03  # M_(D,33)
Block MASS  # Mass spectrum
#   PDG code      mass          particle
         6     1.73200000E+02  # m_t(pole)
        23     9.11876000E+01  # m_Z(pole)
        24     8.04299946E+01  # W+
        15     1.77700000E+00  # m_tau(pole)
        25     1.24892761E+02  # h0
        35     4.65651962E+03  # H0
        36     4.65823633E+03  # A0
        37     4.65607509E+03  # H+
   1000001     1.01044090E+04  # ~d_L
   2000001     1.00809970E+04  # ~d_R
   1000002     1.01040473E+04  # ~u_L
   2000002     1.00837685E+04  # ~u_R
   1000003     1.01044130E+04  # ~s_L
   2000003     1.00810038E+04  # ~s_R
   1000004     1.01040512E+04  # ~c_L
   2000004     1.00837693E+04  # ~c_R
   1000005     2.54169127E+03  # ~b_1
   2000005     4.29176118E+03  # ~b_2
   1000006     3.42662859E+03  # ~t_1
   2000006     4.30226358E+03  # ~t_2
   1000011     1.00200012E+04  # ~e_L-
   2000011     1.00092558E+04  # ~e_R-
   1000012     1.00192411E+04  # ~nu_eL
   1000013     1.00200210E+04  # ~mu_L-
   2000013     1.00092891E+04  # ~mu_R-
   1000014     1.00192590E+04  # ~nu_muL
   1000015     1.00189382E+04  # ~tau_1-
   2000015     1.00260910E+04  # ~tau_2-
   1000016     1.00245813E+04  # ~nu_tauL
   1000021     3.94378918E+03  # ~g
   1000022     2.71392774E+01  # ~chi_10
   1000023     5.95470742E+02  # ~chi_20
   1000025     5.98689177E+02  # ~chi_30
   1000035     1.88383107E+03  # ~chi_40
   1000024     5.94745091E+02  # ~chi_1+
   1000037     1.88379954E+03  # ~chi_2+
# Higgs mixing
Block alpha # Effective Higgs mixing angle
          -2.22702694E-02   # alpha
Block Hmix Q=  3.83956500E+03  # Higgs mixing parameters
   1   -5.94264418E+02  # mu
   2    4.41820497E+01  # tan[beta](Q)
   3    2.42978556E+02  # v(Q)
   4    2.16991657E+07  # m^2_A(Q)
Block stopmix # stop mixing matrix
   1  1     1.03263393E-01   # Re[R_st(1,1)]
   1  2     9.94654046E-01   # Re[R_st(1,2)]
   2  1    -9.94654046E-01   # Re[R_st(2,1)]
   2  2     1.03263393E-01   # Re[R_st(2,2)]
Block sbotmix # sbottom mixing matrix
   1  1    -5.34918364E-03   # Re[R_sb(1,1)]
   1  2     9.99985693E-01   # Re[R_sb(1,2)]
   2  1    -9.99985693E-01   # Re[R_sb(2,1)]
   2  2    -5.34918364E-03   # Re[R_sb(2,2)]
Block staumix # stau mixing matrix
   1  1    -3.25941381E-01   # Re[R_sta(1,1)]
   1  2     9.45389981E-01   # Re[R_sta(1,2)]
   2  1    -9.45389981E-01   # Re[R_sta(2,1)]
   2  2    -3.25941381E-01   # Re[R_sta(2,2)]
Block Nmix # neutralino mixing matrix
   1  1     9.97175582E-01   # Re[N(1,1)]
   1  2    -2.52178114E-04   # Re[N(1,2)]
   1  3    -7.49302907E-02   # Re[N(1,3)]
   1  4     5.12310816E-03   # Re[N(1,4)]
   2  1     5.66540666E-02   # Re[N(2,1)]
   2  2     4.49702525E-02   # Re[N(2,2)]
   2  3     7.05608215E-01   # Re[N(2,3)]
   2  4    -7.04900731E-01   # Re[N(2,4)]
   3  1     4.92923564E-02   # Re[N(3,1)]
   3  2    -2.22825888E-02   # Re[N(3,2)]
   3  3     7.04445979E-01   # Re[N(3,3)]
   3  4     7.07693163E-01   # Re[N(3,4)]
   4  1    -1.19943209E-03   # Re[N(4,1)]
   4  2     9.98739755E-01   # Re[N(4,2)]
   4  3    -1.60736520E-02   # Re[N(4,3)]
   4  4     4.75299910E-02   # Re[N(4,4)]
Block Umix # chargino mixing matrix
   1  1    -2.27125331E-02   # Re[U(1,1)]
   1  2    -9.99742037E-01   # Re[U(1,2)]
   2  1    -9.99742037E-01   # Re[U(2,1)]
   2  2     2.27125331E-02   # Re[U(2,2)]
Block Vmix # chargino mixing matrix
   1  1     6.72088959E-02   # Re[V(1,1)]
   1  2     9.97738926E-01   # Re[V(1,2)]
   2  1     9.97738926E-01   # Re[V(2,1)]
   2  2    -6.72088959E-02   # Re[V(2,2)]
DECAY        23     2.49520000E+00   # Z
DECAY        24     2.08500000E+00   # W
DECAY   2000011     5.02901071E+01   # ~e^-_R
#    BR                NDA      ID1      ID2
     9.94398838E-01    2     1000022        11   # BR(~e^-_R -> chi^0_1 e^-)
     3.18721055E-03    2     1000023        11   # BR(~e^-_R -> chi^0_2 e^-)
     2.41254666E-03    2     1000025        11   # BR(~e^-_R -> chi^0_3 e^-)
DECAY   1000011     1.35721177E+02   # ~e^-_L
#    BR                NDA      ID1      ID2
     9.21277114E-02    2     1000022        11   # BR(~e^-_L -> chi^0_1 e^-)
     1.82643775E-03    2     1000023        11   # BR(~e^-_L -> chi^0_2 e^-)
     3.01240317E-01    2     1000035        11   # BR(~e^-_L -> chi^0_4 e^-)
     3.32903928E-04    2    -1000024        12   # BR(~e^-_L -> chi^-_1 nu_e)
     6.04467324E-01    2    -1000037        12   # BR(~e^-_L -> chi^-_2 nu_e)
#    BR                NDA      ID1      ID2       ID3
DECAY   2000013     5.05756897E+01   # ~mu^-_R
#    BR                NDA      ID1      ID2
     9.88803073E-01    2     1000022        13   # BR(~mu^-_R -> chi^0_1 mu^-)
     4.57410098E-03    2     1000023        13   # BR(~mu^-_R -> chi^0_2 mu^-)
     3.79907734E-03    2     1000025        13   # BR(~mu^-_R -> chi^0_3 mu^-)
     2.82037071E-03    2    -1000024        14   # BR(~mu^-_R -> chi^-_1 nu_mu)
DECAY   1000013     1.35864344E+02   # ~mu^-_L
#    BR                NDA      ID1      ID2
     9.20367594E-02    2     1000022        13   # BR(~mu^-_L -> chi^0_1 mu^-)
     2.34805724E-03    2     1000023        13   # BR(~mu^-_L -> chi^0_2 mu^-)
     5.27074546E-04    2     1000025        13   # BR(~mu^-_L -> chi^0_3 mu^-)
     3.00923820E-01    2     1000035        13   # BR(~mu^-_L -> chi^0_4 mu^-)
     3.32553797E-04    2    -1000024        14   # BR(~mu^-_L -> chi^-_1 nu_mu)
     6.03831735E-01    2    -1000037        14   # BR(~mu^-_L -> chi^-_2 nu_mu)
#    BR                NDA      ID1      ID2       ID3
DECAY   1000015     1.36014161E+02   # ~tau^-_1
#    BR                NDA      ID1      ID2
     3.48038287E-01    2     1000022        15   # BR(~tau^-_1 -> chi^0_1 tau^-)
     1.51137376E-01    2     1000023        15   # BR(~tau^-_1 -> chi^0_2 tau^-)
     1.41685796E-01    2     1000025        15   # BR(~tau^-_1 -> chi^0_3 tau^-)
     2.91334431E-02    2     1000035        15   # BR(~tau^-_1 -> chi^0_4 tau^-)
     2.71541193E-01    2    -1000024        16   # BR(~tau^-_1 -> chi^-_1 nu_tau)
     5.84639056E-02    2    -1000037        16   # BR(~tau^-_1 -> chi^-_2 nu_tau)
DECAY   2000015     1.71382692E+02   # ~tau^-_2
#    BR                NDA      ID1      ID2
     9.15446120E-02    2     1000022        15   # BR(~tau^-_2 -> chi^0_1 tau^-)
     1.17292439E-01    2     1000023        15   # BR(~tau^-_2 -> chi^0_2 tau^-)
     1.22336357E-01    2     1000025        15   # BR(~tau^-_2 -> chi^0_3 tau^-)
     2.15698185E-01    2     1000035        15   # BR(~tau^-_2 -> chi^0_4 tau^-)
     2.04283227E-02    2    -1000024        16   # BR(~tau^-_2 -> chi^-_1 nu_tau)
     4.32700084E-01    2    -1000037        16   # BR(~tau^-_2 -> chi^-_2 nu_tau)
#    BR                NDA      ID1      ID2       ID3
DECAY   1000012     1.35724656E+02   # ~nu_e
#    BR                NDA      ID1      ID2
     9.22929564E-02    2     1000022        12   # BR(~nu_e -> chi^0_1 nu_e)
     7.62471062E-04    2     1000025        12   # BR(~nu_e -> chi^0_3 nu_e)
     3.01980368E-01    2     1000035        12   # BR(~nu_e -> chi^0_4 nu_e)
     2.91474400E-03    2     1000024        11   # BR(~nu_e -> chi^+_1 e^-)
     6.01979701E-01    2     1000037        11   # BR(~nu_e -> chi^+_2 e^-)
#    BR                NDA      ID1      ID2       ID3
DECAY   1000014     1.35867783E+02   # ~nu_mu
#    BR                NDA      ID1      ID2
     9.21958973E-02    2     1000022        14   # BR(~nu_mu -> chi^0_1 nu_mu)
     7.61669235E-04    2     1000025        14   # BR(~nu_mu -> chi^0_3 nu_mu)
     3.01662872E-01    2     1000035        14   # BR(~nu_mu -> chi^0_4 nu_mu)
     3.96257069E-03    2     1000024        13   # BR(~nu_mu -> chi^+_1 mu^-)
     6.01347304E-01    2     1000037        13   # BR(~nu_mu -> chi^+_2 mu^-)
#    BR                NDA      ID1      ID2       ID3
DECAY   1000016     1.76235993E+02   # ~nu_tau
#    BR                NDA      ID1      ID2
     7.11154758E-02    2     1000022        16   # BR(~nu_tau -> chi^0_1 nu_tau)
     5.87519433E-04    2     1000025        16   # BR(~nu_tau -> chi^0_3 nu_tau)
     2.32706316E-01    2     1000035        16   # BR(~nu_tau -> chi^0_4 nu_tau)
     2.31539021E-01    2     1000024        15   # BR(~nu_tau -> chi^+_1 tau^-)
     4.63997915E-01    2     1000037        15   # BR(~nu_tau -> chi^+_2 tau^-)
#    BR                NDA      ID1      ID2       ID3
DECAY   2000001     5.76428300E+02   # ~d_R
#    BR                NDA      ID1      ID2
     9.70861323E-03    2     1000022         1   # BR(~d_R -> chi^0_1 d)
     9.90236315E-01    2     1000021         1   # BR(~d_R -> ~g d)
DECAY   1000001     6.98812734E+02   # ~d_L
#    BR                NDA      ID1      ID2
     2.01243544E-03    2     1000022         1   # BR(~d_L -> chi^0_1 d)
     5.91719078E-02    2     1000035         1   # BR(~d_L -> chi^0_4 d)
     1.18531045E-01    2    -1000037         2   # BR(~d_L -> chi^-_2 u)
     8.20081378E-01    2     1000021         1   # BR(~d_L -> ~g d)
DECAY   2000003     5.76508461E+02   # ~s_R
#    BR                NDA      ID1      ID2
     9.70765966E-03    2     1000022         3   # BR(~s_R -> chi^0_1 s)
     9.90099776E-01    2     1000021         3   # BR(~s_R -> ~g s)
DECAY   1000003     6.98856643E+02   # ~s_L
#    BR                NDA      ID1      ID2
     2.01263211E-03    2     1000022         3   # BR(~s_L -> chi^0_1 s)
     1.05358412E-04    2     1000023         3   # BR(~s_L -> chi^0_2 s)
     5.91682300E-02    2     1000035         3   # BR(~s_L -> chi^0_4 s)
     1.18523674E-01    2    -1000037         4   # BR(~s_L -> chi^-_2 c)
     8.20030409E-01    2     1000021         3   # BR(~s_L -> ~g s)
DECAY   1000005     5.04013139E+01   # ~b_1
#    BR                NDA      ID1      ID2
     3.12080931E-02    2     1000022         5   # BR(~b_1 -> chi^0_1 b)
     2.43367918E-01    2     1000023         5   # BR(~b_1 -> chi^0_2 b)
     2.42094897E-01    2     1000025         5   # BR(~b_1 -> chi^0_3 b)
     4.83277720E-01    2    -1000024         6   # BR(~b_1 -> chi^-_1 t)
DECAY   2000005     2.02001703E+02   # ~b_2
#    BR                NDA      ID1      ID2
     4.18815668E-03    2     1000022         5   # BR(~b_2 -> chi^0_1 b)
     1.10456901E-01    2     1000023         5   # BR(~b_2 -> chi^0_2 b)
     1.10087772E-01    2     1000025         5   # BR(~b_2 -> chi^0_3 b)
     6.08742228E-02    2     1000035         5   # BR(~b_2 -> chi^0_4 b)
     4.14012721E-01    2    -1000024         6   # BR(~b_2 -> chi^-_1 t)
     1.23626066E-01    2    -1000037         6   # BR(~b_2 -> chi^-_2 t)
     4.05967724E-02    2     1000021         5   # BR(~b_2 -> ~g b)
     1.33502129E-01    2     1000006       -24   # BR(~b_2 -> ~t_1 W^-)
     1.03809639E-03    2     1000005        23   # BR(~b_2 -> ~b_1 Z)
     1.61716342E-03    2     1000005        25   # BR(~b_2 -> ~b_1 h^0)
DECAY   2000002     5.93588143E+02   # ~u_R
#    BR                NDA      ID1      ID2
     3.77221645E-02    2     1000022         2   # BR(~u_R -> chi^0_1 u)
     1.20917072E-04    2     1000023         2   # BR(~u_R -> chi^0_2 u)
     9.62065340E-01    2     1000021         2   # BR(~u_R -> ~g u)
DECAY   1000002     6.98796458E+02   # ~u_L
#    BR                NDA      ID1      ID2
     2.00101003E-03    2     1000022         2   # BR(~u_L -> chi^0_1 u)
     1.91593155E-04    2     1000023         2   # BR(~u_L -> chi^0_2 u)
     5.91202680E-02    2     1000035         2   # BR(~u_L -> chi^0_4 u)
     5.71132728E-04    2     1000024         1   # BR(~u_L -> chi^+_1 d)
     1.18054452E-01    2     1000037         1   # BR(~u_L -> chi^+_2 d)
     8.20050019E-01    2     1000021         2   # BR(~u_L -> ~g u)
DECAY   2000004     5.93595421E+02   # ~c_R
#    BR                NDA      ID1      ID2
     3.77217037E-02    2     1000022         4   # BR(~c_R -> chi^0_1 c)
     1.23941688E-04    2     1000023         4   # BR(~c_R -> chi^0_2 c)
     9.62053624E-01    2     1000021         4   # BR(~c_R -> ~g c)
DECAY   1000004     6.98840322E+02   # ~c_L
#    BR                NDA      ID1      ID2
     2.00088526E-03    2     1000022         4   # BR(~c_L -> chi^0_1 c)
     1.94158078E-04    2     1000023         4   # BR(~c_L -> chi^0_2 c)
     5.91165891E-02    2     1000035         4   # BR(~c_L -> chi^0_4 c)
     6.28076767E-04    2     1000024         3   # BR(~c_L -> chi^+_1 s)
     1.18047122E-01    2     1000037         3   # BR(~c_L -> chi^+_2 s)
     8.19999047E-01    2     1000021         4   # BR(~c_L -> ~g c)
DECAY   1000006     1.37809485E+02   # ~t_1
#    BR                NDA      ID1      ID2
     5.42615083E-02    2     1000022         6   # BR(~t_1 -> chi^0_1 t)
     2.34604767E-01    2     1000023         6   # BR(~t_1 -> chi^0_2 t)
     2.35594394E-01    2     1000025         6   # BR(~t_1 -> chi^0_3 t)
     2.20166652E-03    2     1000035         6   # BR(~t_1 -> chi^0_4 t)
     4.68840949E-01    2     1000024         5   # BR(~t_1 -> chi^+_1 b)
     4.47301377E-03    2     1000037         5   # BR(~t_1 -> chi^+_2 b)
#    BR                NDA      ID1      ID2       ID3
DECAY   2000006     2.08476731E+02   # ~t_2
#    BR                NDA      ID1      ID2
     3.42216553E-03    2     1000022         6   # BR(~t_2 -> chi^0_1 t)
     2.02070677E-01    2     1000023         6   # BR(~t_2 -> chi^0_2 t)
     2.04144269E-01    2     1000025         6   # BR(~t_2 -> chi^0_3 t)
     5.71061507E-02    2     1000035         6   # BR(~t_2 -> chi^0_4 t)
     2.21685873E-01    2     1000024         5   # BR(~t_2 -> chi^+_1 b)
     1.14491968E-01    2     1000037         5   # BR(~t_2 -> chi^+_2 b)
     3.25331591E-02    2     1000021         6   # BR(~t_2 -> ~g t)
     2.02287761E-03    2     1000005        24   # BR(~t_2 -> ~b_1 W^+)
     6.59101529E-02    2     1000006        23   # BR(~t_2 -> ~t_1 Z)
     9.66127062E-02    2     1000006        25   # BR(~t_2 -> ~t_1 h^0)
DECAY   1000024     4.03451022E-01   # chi^+_1
#    BR                NDA      ID1      ID2
     9.93806864E-01    2     1000022        24   # BR(chi^+_1 -> chi^0_1 W^+)
#    BR                NDA      ID1      ID2       ID3
     6.19308885E-03    3     1000022        -5         6   # BR(chi^+_1 -> chi^0_1 b_bar t)
DECAY   1000037     1.70924882E+01   # chi^+_2
#    BR                NDA      ID1      ID2
     2.40679813E-04    2     1000022        24   # BR(chi^+_2 -> chi^0_1 W^+)
     2.45126903E-01    2     1000023        24   # BR(chi^+_2 -> chi^0_2 W^+)
     2.42646702E-01    2     1000025        24   # BR(chi^+_2 -> chi^0_3 W^+)
     2.42537350E-01    2     1000024        23   # BR(chi^+_2 -> chi^+_1 Z)
     2.42180486E-01    2     1000024        25   # BR(chi^+_2 -> chi^+_1 h^0)
#    BR                NDA      ID1      ID2       ID3
     1.08987851E-02    3     1000024         6        -6   # BR(chi^+_2 -> chi^+_1 t t_bar)
     8.00221830E-03    3     1000023        -5         6   # BR(chi^+_2 -> chi^0_2 b_bar t)
     8.33398867E-03    3     1000025        -5         6   # BR(chi^+_2 -> chi^0_3 b_bar t)
DECAY   1000022     0.00000000E+00   # chi^0_1
DECAY   1000023     3.67966335E-01   # chi^0_2
#    BR                NDA      ID1      ID2
     4.72941302E-01    2     1000022        23   # BR(chi^0_2 -> chi^0_1 Z)
     5.25710147E-01    2     1000022        25   # BR(chi^0_2 -> chi^0_1 h^0)
#    BR                NDA      ID1      ID2       ID3
     1.32007364E-03    3     1000022         6        -6   # BR(chi^0_2 -> chi^0_1 t t_bar)
DECAY   1000025     4.12053239E-01   # chi^0_3
#    BR                NDA      ID1      ID2
     5.62866991E-01    2     1000022        23   # BR(chi^0_3 -> chi^0_1 Z)
     4.36022787E-01    2     1000022        25   # BR(chi^0_3 -> chi^0_1 h^0)
#    BR                NDA      ID1      ID2       ID3
     1.10274892E-03    3     1000022         6        -6   # BR(chi^0_3 -> chi^0_1 t t_bar)
DECAY   1000035     1.93780416E+01   # chi^0_4
#    BR                NDA      ID1      ID2
     2.15810313E-01    2     1000024       -24   # BR(chi^0_4 -> chi^+_1 W^-)
     2.15810313E-01    2    -1000024        24   # BR(chi^0_4 -> chi^-_1 W^+)
     1.08323225E-04    2     1000022        23   # BR(chi^0_4 -> chi^0_1 Z)
     4.22654466E-02    2     1000023        23   # BR(chi^0_4 -> chi^0_2 Z)
     1.73322443E-01    2     1000025        23   # BR(chi^0_4 -> chi^0_3 Z)
     1.71105391E-01    2     1000023        25   # BR(chi^0_4 -> chi^0_2 h^0)
     1.57249046E-01    2     1000025        25   # BR(chi^0_4 -> chi^0_3 h^0)
#    BR                NDA      ID1      ID2       ID3
     4.36500332E-03    3     1000023         6        -6   # BR(chi^0_4 -> chi^0_2 t t_bar)
     4.19756744E-03    3     1000025         6        -6   # BR(chi^0_4 -> chi^0_3 t t_bar)
     7.81619569E-03    3     1000024         5        -6   # BR(chi^0_4 -> chi^+_1 b t_bar)
     7.81619569E-03    3    -1000024        -5         6   # BR(chi^0_4 -> chi^-_1 b_bar t)
DECAY   1000021     4.65210584E+01   # ~g
#    BR                NDA      ID1      ID2
     2.73649662E-04    2     1000006        -4   # BR(~g -> ~t_1 c_bar)
     2.73649662E-04    2    -1000006         4   # BR(~g -> ~t^*_1 c)
     6.63153573E-02    2     1000006        -6   # BR(~g -> ~t_1 t_bar)
     6.63153573E-02    2    -1000006         6   # BR(~g -> ~t^*_1 t)
     4.28872015E-01    2     1000005        -5   # BR(~g -> ~b_1 b_bar)
     4.28872015E-01    2    -1000005         5   # BR(~g -> ~b^*_1 b)
#    BR                NDA      ID1      ID2       ID3
     1.29451081E-03    3     1000023         6        -6   # BR(~g -> chi^0_2 t t_bar)
     6.81946822E-04    3     1000023         5        -5   # BR(~g -> chi^0_2 b b_bar)
     1.29647492E-03    3     1000025         6        -6   # BR(~g -> chi^0_3 t t_bar)
     6.79140006E-04    3     1000025         5        -5   # BR(~g -> chi^0_3 b b_bar)
     2.17145863E-04    3     1000035         6        -6   # BR(~g -> chi^0_4 t t_bar)
     2.51672060E-04    3     1000035         5        -5   # BR(~g -> chi^0_4 b b_bar)
     1.99219503E-03    3     1000024         5        -6   # BR(~g -> chi^+_1 b t_bar)
     1.99219503E-03    3    -1000024        -5         6   # BR(~g -> chi^-_1 b_bar t)
     2.36858785E-04    3     1000037         5        -6   # BR(~g -> chi^+_2 b t_bar)
     2.36858785E-04    3    -1000037        -5         6   # BR(~g -> chi^-_2 b_bar t)
DECAY        25     3.86844001E-03   # Gamma(h0)
     2.34274443E-03   2        22        22   # BR(h0 -> photon photon)
     1.48746463E-03   2        22        23   # BR(h0 -> photon Z)
     2.73666141E-02   2        23        23   # BR(h0 -> Z Z)
     2.26550322E-01   2       -24        24   # BR(h0 -> W W)
     7.25876003E-02   2        21        21   # BR(h0 -> gluon gluon)
     5.13820438E-09   2       -11        11   # BR(h0 -> Electron electron)
     2.28556467E-04   2       -13        13   # BR(h0 -> Muon muon)
     6.59010316E-02   2       -15        15   # BR(h0 -> Tau tau)
     1.46181855E-07   2        -2         2   # BR(h0 -> Up up)
     2.83669603E-02   2        -4         4   # BR(h0 -> Charm charm)
     5.94906490E-07   2        -1         1   # BR(h0 -> Down down)
     2.15163949E-04   2        -3         3   # BR(h0 -> Strange strange)
     5.72602362E-01   2        -5         5   # BR(h0 -> Bottom bottom)
     2.35043326E-03   2   1000022   1000022   # BR(h0 -> neutralino1 neutralino1)
DECAY        35     1.73191451E+02   # Gamma(HH)
     3.67946902E-09   2        22        22   # BR(HH -> photon photon)
     1.32166662E-08   2        22        23   # BR(HH -> photon Z)
     6.25800048E-08   2        23        23   # BR(HH -> Z Z)
     1.11540975E-08   2       -24        24   # BR(HH -> W W)
     3.65413230E-06   2        21        21   # BR(HH -> gluon gluon)
     8.46133832E-09   2       -11        11   # BR(HH -> Electron electron)
     3.76796891E-04   2       -13        13   # BR(HH -> Muon muon)
     1.08831073E-01   2       -15        15   # BR(HH -> Tau tau)
     3.47749345E-14   2        -2         2   # BR(HH -> Up up)
     6.74737368E-09   2        -4         4   # BR(HH -> Charm charm)
     5.81118377E-04   2        -6         6   # BR(HH -> Top top)
     6.07667863E-07   2        -1         1   # BR(HH -> Down down)
     2.19790042E-04   2        -3         3   # BR(HH -> Strange strange)
     6.27343224E-01   2        -5         5   # BR(HH -> Bottom bottom)
     1.03418580E-03   2  -1000024   1000024   # BR(HH -> Chargino1 chargino1)
     7.68667772E-02   2  -1000024   1000037   # BR(HH -> Chargino1 chargino2)
     7.68667772E-02   2  -1000037   1000024   # BR(HH -> Chargino2 chargino1)
     3.47288089E-05   2  -1000037   1000037   # BR(HH -> Chargino2 chargino2)
     3.29163219E-04   2   1000022   1000022   # BR(HH -> neutralino1 neutralino1)
     1.45707706E-02   2   1000022   1000023   # BR(HH -> neutralino1 neutralino2)
     1.54940652E-02   2   1000022   1000025   # BR(HH -> neutralino1 neutralino3)
     3.19411797E-04   2   1000022   1000035   # BR(HH -> neutralino1 neutralino4)
     3.73803073E-05   2   1000023   1000023   # BR(HH -> neutralino2 neutralino2)
     4.06485753E-05   2   1000023   1000025   # BR(HH -> neutralino2 neutralino3)
     3.22824671E-02   2   1000023   1000035   # BR(HH -> neutralino2 neutralino4)
     2.47941065E-04   2   1000025   1000025   # BR(HH -> neutralino3 neutralino3)
     4.45012068E-02   2   1000025   1000035   # BR(HH -> neutralino3 neutralino4)
     1.74230325E-05   2   1000035   1000035   # BR(HH -> neutralino4 neutralino4)
     6.83624208E-07   2        25        25   # BR(HH -> h0 h0)
DECAY        36     1.63576745E+02   # Gamma(A0)
     2.82060271E-08   2        22        22   # BR(A0 -> photon photon)
     4.02718373E-08   2        22        23   # BR(A0 -> photon Z)
     6.52082522E-06   2        21        21   # BR(A0 -> gluon gluon)
     8.28258110E-09   2       -11        11   # BR(A0 -> Electron electron)
     3.68831038E-04   2       -13        13   # BR(A0 -> Muon muon)
     1.06530353E-01   2       -15        15   # BR(A0 -> Tau tau)
     3.30180619E-14   2        -2         2   # BR(A0 -> Up up)
     6.40631738E-09   2        -4         4   # BR(A0 -> Charm charm)
     5.55893306E-04   2        -6         6   # BR(A0 -> Top top)
     5.94796623E-07   2        -1         1   # BR(A0 -> Down down)
     2.15134939E-04   2        -3         3   # BR(A0 -> Strange strange)
     6.14076731E-01   2        -5         5   # BR(A0 -> Bottom bottom)
     1.20880232E-03   2  -1000024   1000024   # BR(A0 -> Chargino1 chargino1)
     8.13405347E-02   2  -1000024   1000037   # BR(A0 -> Chargino1 chargino2)
     8.13405347E-02   2  -1000037   1000024   # BR(A0 -> Chargino2 chargino1)
     1.12801591E-04   2  -1000037   1000037   # BR(A0 -> Chargino2 chargino2)
     3.50795481E-04   2   1000022   1000022   # BR(A0 -> neutralino1 neutralino1)
     1.69134462E-02   2   1000022   1000023   # BR(A0 -> neutralino1 neutralino2)
     1.49475456E-02   2   1000022   1000025   # BR(A0 -> neutralino1 neutralino3)
     3.31138330E-04   2   1000022   1000035   # BR(A0 -> neutralino1 neutralino4)
     4.62766912E-05   2   1000023   1000023   # BR(A0 -> neutralino2 neutralino2)
     4.96487788E-05   2   1000023   1000025   # BR(A0 -> neutralino2 neutralino3)
     4.71540399E-02   2   1000023   1000035   # BR(A0 -> neutralino2 neutralino4)
     2.57039808E-04   2   1000025   1000025   # BR(A0 -> neutralino3 neutralino3)
     3.41365302E-02   2   1000025   1000035   # BR(A0 -> neutralino3 neutralino4)
     5.65561449E-05   2   1000035   1000035   # BR(A0 -> neutralino4 neutralino4)
     1.67365398E-07   2        23        25   # BR(A0 -> Z h0)
     1.00153432E-13   2        23        35   # BR(A0 -> Z HH)
     1.29618471E-38   2        25        25   # BR(A0 -> h0 h0)
DECAY        37     1.71558497E+02   # Gamma(Hp)
     9.06979070E-09   2       -11        12   # BR(Hp -> Electron nu_e)
     3.87761880E-04   2       -13        14   # BR(Hp -> Muon nu_mu)
     1.09681154E-01   2       -15        16   # BR(Hp -> Tau nu_tau)
     5.71516406E-07   2        -1         2   # BR(Hp -> Down up)
     9.69284843E-06   2        -3         2   # BR(Hp -> Strange up)
     6.60858970E-06   2        -5         2   # BR(Hp -> Bottom up)
     2.71209648E-08   2        -1         4   # BR(Hp -> Down charm)
     2.05954520E-04   2        -3         4   # BR(Hp -> Strange charm)
     9.25439205E-04   2        -5         4   # BR(Hp -> Bottom charm)
     3.31359103E-08   2        -1         6   # BR(Hp -> Down top)
     1.03008362E-06   2        -3         6   # BR(Hp -> Strange top)
     6.23859078E-01   2        -5         6   # BR(Hp -> Bottom top)
     3.09189298E-02   2   1000022   1000024   # BR(Hp -> neutralino1 chargino1)
     6.38736584E-04   2   1000022   1000037   # BR(Hp -> neutralino1 chargino2)
     2.89522280E-04   2   1000023   1000024   # BR(Hp -> neutralino2 chargino1)
     7.79825088E-02   2   1000023   1000037   # BR(Hp -> neutralino2 chargino2)
     5.85673839E-05   2   1000024   1000025   # BR(Hp -> chargino1 neutralino3)
     7.73179001E-02   2   1000025   1000037   # BR(Hp -> neutralino3 chargino2)
     7.77163149E-02   2   1000024   1000035   # BR(Hp -> chargino1 neutralino4)
     7.54195713E-11   2   1000035   1000037   # BR(Hp -> neutralino4 chargino2)
     1.59397208E-07   2        24        25   # BR(Hp -> W h0)
DECAY         6     2.43000000E+00   # top
#    BR                NDA      ID1      ID2
     1.00000000E+00    2           5        24   # BR(t -> b W)
Block HiggsBoundsInputHiggsCouplingsFermions
# ScalarNormEffCoupSq PseudoSNormEffCoupSq NP IP1 IP2 IP2
    9.68485862E-01    0.00000000E+00        3  25   5   5  # h0-b-b eff. coupling^2, normalised to SM
    1.95208503E+03    0.00000000E+00        3  35   5   5  # H0-b-b eff. coupling^2, normalised to SM
    0.00000000E+00    1.95205352E+03        3  36   5   5  # A0-b-b eff. coupling^2, normalised to SM
#
    1.00001614E+00    0.00000000E+00        3  25   6   6  # h0-t-t eff. coupling^2, normalised to SM
    4.96136942E-04    0.00000000E+00        3  35   6   6  # H0-t-t eff. coupling^2, normalised to SM
    0.00000000E+00    5.12281037E-04        3  36   6   6  # A0-t-t eff. coupling^2, normalised to SM
#
    9.68485862E-01    0.00000000E+00        3  25  15  15  # h0-tau-tau eff. coupling^2, normalised to SM
    1.95208503E+03    0.00000000E+00        3  35  15  15  # H0-tau-tau eff. coupling^2, normalised to SM
    0.00000000E+00    1.95205352E+03        3  36  15  15  # A0-tau-tau eff. coupling^2, normalised to SM
#
Block HiggsBoundsInputHiggsCouplingsBosons
    9.99999871E-01        3  25  24  24  # h0-W-W eff. coupling^2, normalised to SM
    1.29235294E-07        3  35  24  24  # H0-W-W eff. coupling^2, normalised to SM
    0.00000000E+00        3  36  24  24  # A0-W-W eff. coupling^2, normalised to SM
#
    9.99999871E-01        3  25  23  23  # h0-Z-Z eff. coupling^2, normalised to SM
    1.29235294E-07        3  35  23  23  # H0-Z-Z eff. coupling^2, normalised to SM
    0.00000000E+00        3  36  23  23  # A0-Z-Z eff. coupling^2, normalised to SM
#
    1.26510559E+00        3  25  21  21  # h0-g-g eff. coupling^2, normalised to SM
    7.03970987E-03        3  35  21  21  # H0-g-g eff. coupling^2, normalised to SM
    1.20681536E-01        3  36  21  21  # A0-g-g eff. coupling^2, normalised to SM
#
    0.00000000E+00        3  25  25  23  # h0-h0-Z eff. coupling^2, normalised to SM
    0.00000000E+00        3  35  25  23  # H0-h0-Z eff. coupling^2, normalised to SM
    1.29235294E-07        3  36  25  23  # A0-h0-Z eff. coupling^2, normalised to SM
    0.00000000E+00        3  35  35  23  # H0-H0-Z eff. coupling^2, normalised to SM
    9.99999871E-01        3  36  35  23  # A0-H0-Z eff. coupling^2, normalised to SM
    0.00000000E+00        3  36  36  23  # A0-A0-Z eff. coupling^2, normalised to SM
#
    0.00000000E+00        4  25  21  21  23  # h0-g-g-Z eff. coupling^2, normalised to SM
    0.00000000E+00        4  35  21  21  23  # H0-g-g-Z eff. coupling^2, normalised to SM
    0.00000000E+00        4  36  21  21  23  # A0-g-g-Z eff. coupling^2, normalised to SM
Block SPhenoLowEnergy  # low energy observables
    1    3.35705086E-04   # BR(b -> s gamma)
    2    1.58859716E-06   # BR(b -> s mu+ mu-)
    3    3.52509355E-05   # BR(b -> s nu nu)
    4    1.65510944E-15   # BR(Bd -> e+ e-)
    5    7.07054563E-11   # BR(Bd -> mu+ mu-)
    6    1.48632521E-08   # BR(Bd -> tau+ tau-)
    7    5.67350761E-14   # BR(Bs -> e+ e-)
    8    2.42375704E-09   # BR(Bs -> mu+ mu-)
    9    5.16246814E-07   # BR(Bs -> tau+ tau-)
   10    9.62287594E-05   # BR(B_u -> tau nu)
   11    9.94006244E-01   # BR(B_u -> tau nu)/BR(B_u -> tau nu)_SM
   12    5.42065038E-01   # |Delta(M_Bd)| [ps^-1] 
   13    1.93601110E+01   # |Delta(M_Bs)| [ps^-1] 
   14    0.00000000E+00   # neutron EDM according to the chiral quark model
   15    0.00000000E+00   # neutron EDM according to the relativistic quark-parton model
   16    2.15784955E-03   # epsilon_K
   17    2.28166411E-15   # Delta(M_K)
   18    2.48017123E-11   # BR(K^0 -> pi^0 nu nu)
   19    8.29076176E-11   # BR(K^+ -> pi^+ nu nu)
   20    4.18496161E-16   # Delta(g-2)_electron/2
   21    1.78921452E-11   # Delta(g-2)_muon/2
   22    5.07145034E-09   # Delta(g-2)_tau/2
   23    0.00000000E+00   # electric dipole moment of the electron
   24    0.00000000E+00   # electric dipole moment of the muon
   25    0.00000000E+00   # electric dipole moment of the tau
   26    0.00000000E+00   # Br(mu -> e gamma)
   27    0.00000000E+00   # Br(tau -> e gamma)
   28    0.00000000E+00   # Br(tau -> mu gamma)
   29    0.00000000E+00   # Br(mu -> 3 e)
   30    0.00000000E+00   # Br(tau -> 3 e)
   31    0.00000000E+00   # Br(tau -> 3 mu)
   39    6.61401106E-05   # Delta(rho_parameter)
   40    0.00000000E+00   # BR(Z -> e mu)
   41    0.00000000E+00   # BR(Z -> e tau)
   42    0.00000000E+00   # BR(Z -> mu tau)
Block FWCOEF Q=  1.60000000E+02  # Wilson coefficients at scale Q
#    id        order  M        value         comment
     0305 4422   00   0    -1.88819110E-01   # C7
     0305 4422   00   2    -2.07009773E-01   # C7
     0305 4322   00   2    -1.66385724E-04   # C7'
     0305 6421   00   0    -9.52278348E-02   # C8
     0305 6421   00   2    -1.06110163E-01   # C8
     0305 6321   00   2    -1.13945656E-04   # C8'
 03051111 4133   00   0     1.62582420E+00   # C9 e+e-
 03051111 4133   00   2     1.62606086E+00   # C9 e+e-
 03051111 4233   00   2     4.55962894E-04   # C9' e+e-
 03051111 4137   00   0    -4.44851630E+00   # C10 e+e-
 03051111 4137   00   2    -4.44680958E+00   # C10 e+e-
 03051111 4237   00   2    -3.37809934E-03   # C10' e+e-
 03051313 4133   00   0     1.62582420E+00   # C9 mu+mu-
 03051313 4133   00   2     1.62606065E+00   # C9 mu+mu-
 03051313 4233   00   2     4.55962654E-04   # C9' mu+mu-
 03051313 4137   00   0    -4.44851630E+00   # C10 mu+mu-
 03051313 4137   00   2    -4.44680980E+00   # C10 mu+mu-
 03051313 4237   00   2    -3.37809968E-03   # C10' mu+mu-
 03051212 4137   00   0     1.50535012E+00   # C11 nu_1 nu_1
 03051212 4137   00   2     1.50498202E+00   # C11 nu_1 nu_1
 03051212 4237   00   2     7.30613093E-04   # C11' nu_1 nu_1
 03051414 4137   00   0     1.50535012E+00   # C11 nu_2 nu_2
 03051414 4137   00   2     1.50498202E+00   # C11 nu_2 nu_2
 03051414 4237   00   2     7.30613114E-04   # C11' nu_2 nu_2
 03051616 4137   00   0     1.50535012E+00   # C11 nu_3 nu_3
 03051616 4137   00   2     1.50498202E+00   # C11 nu_3 nu_3
 03051616 4237   00   2     7.30618969E-04   # C11' nu_3 nu_3
Block IMFWCOEF Q=  1.60000000E+02  # Im(Wilson coefficients) at scale Q
#    id        order  M        value         comment
     0305 4422   00   0     3.85789946E-07   # C7
     0305 4422   00   2     3.40704280E-06   # C7
     0305 4322   00   2    -1.82633945E-06   # C7'
     0305 6421   00   0     3.30454602E-07   # C8
     0305 6421   00   2     1.61219179E-05   # C8
     0305 6321   00   2    -5.15731728E-07   # C8'
 03051111 4133   00   2    -2.50064158E-07   # C9 e+e-
 03051111 4233   00   2     8.58680605E-06   # C9' e+e-
 03051111 4137   00   2     3.42175483E-06   # C10 e+e-
 03051111 4237   00   2    -6.36194282E-05   # C10' e+e-
 03051313 4133   00   2    -2.50066717E-07   # C9 mu+mu-
 03051313 4233   00   2     8.58680350E-06   # C9' mu+mu-
 03051313 4137   00   2     3.42175829E-06   # C10 mu+mu-
 03051313 4237   00   2    -6.36194359E-05   # C10' mu+mu-
 03051212 4137   00   2    -7.21659980E-07   # C11 nu_1 nu_1
 03051212 4237   00   2     1.37595690E-05   # C11' nu_1 nu_1
 03051414 4137   00   2    -7.21659862E-07   # C11 nu_2 nu_2
 03051414 4237   00   2     1.37595690E-05   # C11' nu_2 nu_2
 03051616 4137   00   2    -7.21626688E-07   # C11 nu_3 nu_3
 03051616 4237   00   2     1.37595690E-05   # C11' nu_3 nu_3
