# SUSY Les Houches Accord 2 - MSSM spectrum + Decays
# SPheno v4.0.5be
# W. Porod, Comput. Phys. Commun. 153 (2003) 275-315, hep-ph/0301101;
# W. Porod, F.~Staub, Comput. Phys. Commun. 183 (2012) 2458
#                     arXiv:1104.1573 [hep-ph] 
# in case of problems send email to porod@physik.uni-wuerzburg.de
# Created: 07.09.2021,  15:02
Block SPINFO         # Program information
     1   SPheno      # spectrum calculator
     2   v4.0.5be    # version number
#
Block SPhenoINFO     # SPheno specific information
    1      2         # using 2-loop RGEs
    2      2         # using pole masses for boundary conditions at mZ
Block MODSEL  # Model selection
    1    0    # general MSSM
Block MINPAR  # Input parameters
    3    1.32153980E+01  # tanb at m_Z    
    4    1.00000000E+00  # Sign(mu)
Block EXTPAR  # non-universal input parameters
    0    3.72764361E+03  # scale for input parameters
    1    2.00441529E+02  # M_1
    2   -8.58290805E+02  # M_2
    3    1.31170836E+03  # M_3
   11    4.85253315E+03  # A_t
   12   -1.08360889E+03  # A_b
   13    1.75270014E+03  # A_tau
   23    2.04962033E+02  # mu
   25    1.25724442E+01  # tan(beta)
   26    3.96554230E+03  # m_A, pole mass
   31    1.00000000E+04  # M_L11
   32    1.00000000E+04  # M_L22
   33    1.00000000E+04  # M_L33
   34    1.00000000E+04  # M_E11
   35    1.00000000E+04  # M_E22
   36    1.00000000E+04  # M_E33
   41    1.00000000E+04  # M_Q11
   42    1.00000000E+04  # M_Q22
   43    4.24051272E+03  # M_Q33
   44    1.00000000E+04  # M_U11
   45    1.00000000E+04  # M_U22
   46    3.32200674E+03  # M_U33
   47    1.00000000E+04  # M_D11
   48    1.00000000E+04  # M_D22
   49    3.58339969E+03  # M_D33
Block SMINPUTS  # SM parameters
         1     1.27908970E+02  # alpha_em^-1(MZ)^MSbar
         2     1.16637870E-05  # G_mu [GeV^-2]
         3     1.18400000E-01  # alpha_s(MZ)^MSbar
         4     9.11876000E+01  # m_Z(pole)
         5     4.18000000E+00  # m_b(m_b), MSbar
         6     1.73200000E+02  # m_t(pole)
         7     1.77700000E+00  # m_tau(pole)
         8     0.00000000E+00  # m_nu_3
        11     5.10998930E-04  # m_e(pole)
        12     0.00000000E+00  # m_nu_1
        13     1.05658372E-01  # m_muon(pole)
        14     0.00000000E+00  # m_nu_2
        21     5.00000000E-03  # m_d(2 GeV), MSbar
        22     2.50000000E-03  # m_u(2 GeV), MSbar
        23     9.50000000E-02  # m_s(2 GeV), MSbar
        24     1.27000000E+00  # m_c(m_c), MSbar
Block gauge Q=  3.72764361E+03  # (SUSY scale)
   1    3.55362975E-01  # g'(Q)^DRbar
   2    6.65198874E-01  # g(Q)^DRbar
   3    1.21977796E+00  # g3(Q)^DRbar
Block Yu Q=  3.72764361E+03  # (SUSY scale)
  1  1     8.41085200E-06   # Y_u(Q)^DRbar
  2  2     4.27271282E-03   # Y_c(Q)^DRbar
  3  3     1.01609848E+00   # Y_t(Q)^DRbar
Block Yd Q=  3.72764361E+03  # (SUSY scale)
  1  1     2.12490714E-04   # Y_d(Q)^DRbar
  2  2     4.03732356E-03   # Y_s(Q)^DRbar
  3  3     2.10724203E-01   # Y_b(Q)^DRbar
Block Ye Q=  3.72764361E+03  # (SUSY scale)
  1  1     3.70811834E-05   # Y_e(Q)^DRbar
  2  2     7.66721267E-03   # Y_mu(Q)^DRbar
  3  3     1.28949904E-01   # Y_tau(Q)^DRbar
Block Au Q=  3.72764361E+03  # (SUSY scale)
  1  1     0.00000000E+00   # A_u(Q)^DRbar
  2  2     0.00000000E+00   # A_c(Q)^DRbar
  3  3     4.85253318E+03   # A_t(Q)^DRbar
Block Ad Q=  3.72764361E+03  # (SUSY scale)
  1  1     0.00000000E+00   # A_d(Q)^DRbar
  2  2     0.00000000E+00   # A_s(Q)^DRbar
  3  3    -1.08360888E+03   # A_b(Q)^DRbar
Block Ae Q=  3.72764361E+03  # (SUSY scale)
  1  1     0.00000000E+00   # A_e(Q)^DRbar
  2  2     0.00000000E+00   # A_mu(Q)^DRbar
  3  3     1.75270013E+03   # A_tau(Q)^DRbar
Block MSOFT Q=  3.72764361E+03  # soft SUSY breaking masses at Q
   1    2.00441529E+02  # M_1
   2   -8.58290805E+02  # M_2
   3    1.31170836E+03  # M_3
  21    1.55579660E+07  # M^2_(H,d)
  22    3.41035415E+05  # M^2_(H,u)
  31    1.00000000E+04  # M_(L,11)
  32    1.00000000E+04  # M_(L,22)
  33    1.00000000E+04  # M_(L,33)
  34    1.00000000E+04  # M_(E,11)
  35    1.00000000E+04  # M_(E,22)
  36    1.00000000E+04  # M_(E,33)
  41    1.00000000E+04  # M_(Q,11)
  42    1.00000000E+04  # M_(Q,22)
  43    4.24051272E+03  # M_(Q,33)
  44    1.00000000E+04  # M_(U,11)
  45    1.00000000E+04  # M_(U,22)
  46    3.32200674E+03  # M_(U,33)
  47    1.00000000E+04  # M_(D,11)
  48    1.00000000E+04  # M_(D,22)
  49    3.58339969E+03  # M_(D,33)
Block MASS  # Mass spectrum
#   PDG code      mass          particle
         6     1.73200000E+02  # m_t(pole)
        23     9.11876000E+01  # m_Z(pole)
        24     8.04299946E+01  # W+
        15     1.77700000E+00  # m_tau(pole)
        25     1.25737043E+02  # h0
        35     3.96510992E+03  # H0
        36     3.96554230E+03  # A0
        37     3.96579539E+03  # H+
   1000001     1.01220262E+04  # ~d_L
   2000001     1.00970926E+04  # ~d_R
   1000002     1.01216687E+04  # ~u_L
   2000002     1.01000668E+04  # ~u_R
   1000003     1.01220269E+04  # ~s_L
   2000003     1.00970932E+04  # ~s_R
   1000004     1.01216694E+04  # ~c_L
   2000004     1.01000675E+04  # ~c_R
   1000005     3.62883687E+03  # ~b_1
   2000005     4.23972031E+03  # ~b_2
   1000006     3.27061723E+03  # ~t_1
   2000006     4.24853351E+03  # ~t_2
   1000011     1.00210182E+04  # ~e_L-
   2000011     1.00091589E+04  # ~e_R-
   1000012     1.00202549E+04  # ~nu_eL
   1000013     1.00210197E+04  # ~mu_L-
   2000013     1.00091618E+04  # ~mu_R-
   1000014     1.00202564E+04  # ~nu_muL
   1000015     1.00100051E+04  # ~tau_1-
   2000015     1.00214529E+04  # ~tau_2-
   1000016     1.00206882E+04  # ~nu_tauL
   1000021     1.65387391E+03  # ~g
   1000022     1.79065070E+02  # ~chi_10
   1000023     2.21310835E+02  # ~chi_20
   1000025     2.50804407E+02  # ~chi_30
   1000035     9.35987441E+02  # ~chi_40
   1000024     2.22759934E+02  # ~chi_1+
   1000037     9.35731237E+02  # ~chi_2+
# Higgs mixing
Block alpha # Effective Higgs mixing angle
          -7.56340922E-02   # alpha
Block Hmix Q=  3.72764361E+03  # Higgs mixing parameters
   1    2.04962033E+02  # mu
   2    1.25724442E+01  # tan[beta](Q)
   3    2.42988186E+02  # v(Q)
   4    1.57255257E+07  # m^2_A(Q)
Block stopmix # stop mixing matrix
   1  1    -8.98897290E-02   # Re[R_st(1,1)]
   1  2     9.95951724E-01   # Re[R_st(1,2)]
   2  1    -9.95951724E-01   # Re[R_st(2,1)]
   2  2    -8.98897290E-02   # Re[R_st(2,2)]
Block sbotmix # sbottom mixing matrix
   1  1     1.55951793E-03   # Re[R_sb(1,1)]
   1  2     9.99998784E-01   # Re[R_sb(1,2)]
   2  1    -9.99998784E-01   # Re[R_sb(2,1)]
   2  2     1.55951793E-03   # Re[R_sb(2,2)]
Block staumix # stau mixing matrix
   1  1     5.82201877E-03   # Re[R_sta(1,1)]
   1  2     9.99983052E-01   # Re[R_sta(1,2)]
   2  1    -9.99983052E-01   # Re[R_sta(2,1)]
   2  2     5.82201877E-03   # Re[R_sta(2,2)]
Block Nmix # neutralino mixing matrix
   1  1    -8.10350753E-01   # Re[N(1,1)]
   1  2    -2.98056810E-02   # Re[N(1,2)]
   1  3    -4.50599822E-01   # Re[N(1,3)]
   1  4     3.73367217E-01   # Re[N(1,4)]
   2  1     6.78938841E-02   # Re[N(2,1)]
   2  2     7.26780012E-02   # Re[N(2,2)]
   2  3    -7.07043748E-01   # Re[N(2,3)]
   2  4    -7.00141034E-01   # Re[N(2,4)]
   3  1     5.81987995E-01   # Re[N(3,1)]
   3  2    -4.40387490E-02   # Re[N(3,2)]
   3  3    -5.44841637E-01   # Re[N(3,3)]
   3  4     6.02078195E-01   # Re[N(3,4)]
   4  1     3.47153013E-03   # Re[N(4,1)]
   4  2    -9.95936804E-01   # Re[N(4,2)]
   4  3    -1.40189093E-02   # Re[N(4,3)]
   4  4    -8.88892600E-02   # Re[N(4,4)]
Block Umix # chargino mixing matrix
   1  1    -1.99531806E-02   # Re[U(1,1)]
   1  2     9.99800915E-01   # Re[U(1,2)]
   2  1    -9.99800915E-01   # Re[U(2,1)]
   2  2    -1.99531806E-02   # Re[U(2,2)]
Block Vmix # chargino mixing matrix
   1  1     1.25964961E-01   # Re[V(1,1)]
   1  2     9.92034691E-01   # Re[V(1,2)]
   2  1     9.92034691E-01   # Re[V(2,1)]
   2  2    -1.25964961E-01   # Re[V(2,2)]
DECAY        23     2.49520000E+00   # Z
DECAY        24     2.08500000E+00   # W
DECAY   2000011     5.02496096E+01   # ~e^-_R
#    BR                NDA      ID1      ID2
     6.56806475E-01    2     1000022        11   # BR(~e^-_R -> chi^0_1 e^-)
     4.60899466E-03    2     1000023        11   # BR(~e^-_R -> chi^0_2 e^-)
     3.38572673E-01    2     1000025        11   # BR(~e^-_R -> chi^0_3 e^-)
DECAY   1000011     1.42612540E+02   # ~e^-_L
#    BR                NDA      ID1      ID2
     6.61760804E-02    2     1000022        11   # BR(~e^-_L -> chi^0_1 e^-)
     3.66753876E-03    2     1000023        11   # BR(~e^-_L -> chi^0_2 e^-)
     2.19996950E-02    2     1000025        11   # BR(~e^-_L -> chi^0_3 e^-)
     3.00324731E-01    2     1000035        11   # BR(~e^-_L -> chi^0_4 e^-)
     2.46026703E-04    2    -1000024        12   # BR(~e^-_L -> chi^-_1 nu_e)
     6.07585928E-01    2    -1000037        12   # BR(~e^-_L -> chi^-_2 nu_e)
#    BR                NDA      ID1      ID2       ID3
DECAY   2000013     5.02730121E+01   # ~mu^-_R
#    BR                NDA      ID1      ID2
     6.56548158E-01    2     1000022        13   # BR(~mu^-_R -> chi^0_1 mu^-)
     4.72313668E-03    2     1000023        13   # BR(~mu^-_R -> chi^0_2 mu^-)
     3.38484201E-01    2     1000025        13   # BR(~mu^-_R -> chi^0_3 mu^-)
     2.32522347E-04    2    -1000024        14   # BR(~mu^-_R -> chi^-_1 nu_mu)
DECAY   1000013     1.42624270E+02   # ~mu^-_L
#    BR                NDA      ID1      ID2
     6.61873218E-02    2     1000022        13   # BR(~mu^-_L -> chi^0_1 mu^-)
     3.70827495E-03    2     1000023        13   # BR(~mu^-_L -> chi^0_2 mu^-)
     2.20222500E-02    2     1000025        13   # BR(~mu^-_L -> chi^0_3 mu^-)
     3.00300095E-01    2     1000035        13   # BR(~mu^-_L -> chi^0_4 mu^-)
     2.46006506E-04    2    -1000024        14   # BR(~mu^-_L -> chi^-_1 nu_mu)
     6.07536052E-01    2    -1000037        14   # BR(~mu^-_L -> chi^-_2 nu_mu)
#    BR                NDA      ID1      ID2       ID3
DECAY   1000015     5.68731397E+01   # ~tau^-_1
#    BR                NDA      ID1      ID2
     5.92610883E-01    2     1000022        15   # BR(~tau^-_1 -> chi^0_1 tau^-)
     3.32146798E-02    2     1000023        15   # BR(~tau^-_1 -> chi^0_2 tau^-)
     3.15944839E-01    2     1000025        15   # BR(~tau^-_1 -> chi^0_3 tau^-)
     5.82105678E-02    2    -1000024        16   # BR(~tau^-_1 -> chi^-_1 nu_tau)
DECAY   2000015     1.45927645E+02   # ~tau^-_2
#    BR                NDA      ID1      ID2
     6.91157504E-02    2     1000022        15   # BR(~tau^-_2 -> chi^0_1 tau^-)
     1.49051702E-02    2     1000023        15   # BR(~tau^-_2 -> chi^0_2 tau^-)
     2.84256006E-02    2     1000025        15   # BR(~tau^-_2 -> chi^0_3 tau^-)
     2.93523057E-01    2     1000035        15   # BR(~tau^-_2 -> chi^0_4 tau^-)
     2.14013916E-04    2    -1000024        16   # BR(~tau^-_2 -> chi^-_1 nu_tau)
     5.93816408E-01    2    -1000037        16   # BR(~tau^-_2 -> chi^-_2 nu_tau)
#    BR                NDA      ID1      ID2       ID3
DECAY   1000012     1.42616895E+02   # ~nu_e
#    BR                NDA      ID1      ID2
     5.02180724E-02    2     1000022        12   # BR(~nu_e -> chi^0_1 nu_e)
     4.09518292E-04    2     1000023        12   # BR(~nu_e -> chi^0_2 nu_e)
     3.89132885E-02    2     1000025        12   # BR(~nu_e -> chi^0_3 nu_e)
     3.02536963E-01    2     1000035        12   # BR(~nu_e -> chi^0_4 nu_e)
     9.80417759E-03    2     1000024        11   # BR(~nu_e -> chi^+_1 e^-)
     5.98117980E-01    2     1000037        11   # BR(~nu_e -> chi^+_2 e^-)
#    BR                NDA      ID1      ID2       ID3
DECAY   1000014     1.42628624E+02   # ~nu_mu
#    BR                NDA      ID1      ID2
     5.02139503E-02    2     1000022        14   # BR(~nu_mu -> chi^0_1 nu_mu)
     4.09484677E-04    2     1000023        14   # BR(~nu_mu -> chi^0_2 nu_mu)
     3.89100943E-02    2     1000025        14   # BR(~nu_mu -> chi^0_3 nu_mu)
     3.02512131E-01    2     1000035        14   # BR(~nu_mu -> chi^0_4 nu_mu)
     9.88542107E-03    2     1000024        13   # BR(~nu_mu -> chi^+_1 mu^-)
     5.98068919E-01    2     1000037        13   # BR(~nu_mu -> chi^+_2 mu^-)
#    BR                NDA      ID1      ID2       ID3
DECAY   1000016     1.45934862E+02   # ~nu_tau
#    BR                NDA      ID1      ID2
     4.90784420E-02    2     1000022        16   # BR(~nu_tau -> chi^0_1 nu_tau)
     4.00224847E-04    2     1000023        16   # BR(~nu_tau -> chi^0_2 nu_tau)
     3.80302067E-02    2     1000025        16   # BR(~nu_tau -> chi^0_3 nu_tau)
     2.95671734E-01    2     1000035        16   # BR(~nu_tau -> chi^0_4 nu_tau)
     3.22653276E-02    2     1000024        15   # BR(~nu_tau -> chi^+_1 tau^-)
     5.84554065E-01    2     1000037        15   # BR(~nu_tau -> chi^+_2 tau^-)
#    BR                NDA      ID1      ID2       ID3
DECAY   2000001     7.60437287E+02   # ~d_R
#    BR                NDA      ID1      ID2
     4.86483368E-03    2     1000022         1   # BR(~d_R -> chi^0_1 d)
     2.50776889E-03    2     1000025         1   # BR(~d_R -> chi^0_3 d)
     9.92593154E-01    2     1000021         1   # BR(~d_R -> ~g d)
DECAY   1000001     8.89672808E+02   # ~d_L
#    BR                NDA      ID1      ID2
     6.56074435E-04    2     1000022         1   # BR(~d_L -> chi^0_1 d)
     1.83657550E-04    2     1000023         1   # BR(~d_L -> chi^0_2 d)
     1.09074815E-03    2     1000025         1   # BR(~d_L -> chi^0_3 d)
     4.88859207E-02    2     1000035         1   # BR(~d_L -> chi^0_4 d)
     9.84107219E-02    2    -1000037         2   # BR(~d_L -> chi^-_2 u)
     8.50733041E-01    2     1000021         1   # BR(~d_L -> ~g d)
DECAY   2000003     7.60443861E+02   # ~s_R
#    BR                NDA      ID1      ID2
     4.86566307E-03    2     1000022         3   # BR(~s_R -> chi^0_1 s)
     2.50902054E-03    2     1000025         3   # BR(~s_R -> chi^0_3 s)
     9.92584638E-01    2     1000021         3   # BR(~s_R -> ~g s)
DECAY   1000003     8.89679817E+02   # ~s_L
#    BR                NDA      ID1      ID2
     6.56815822E-04    2     1000022         3   # BR(~s_L -> chi^0_1 s)
     1.85493564E-04    2     1000023         3   # BR(~s_L -> chi^0_2 s)
     1.09183053E-03    2     1000025         3   # BR(~s_L -> chi^0_3 s)
     4.88855398E-02    2     1000035         3   # BR(~s_L -> chi^0_4 s)
     9.84100183E-02    2    -1000037         4   # BR(~s_L -> chi^-_2 c)
     8.50726404E-01    2     1000021         3   # BR(~s_L -> ~g s)
DECAY   1000005     1.88161371E+02   # ~b_1
#    BR                NDA      ID1      ID2
     1.04986544E-02    2     1000022         5   # BR(~b_1 -> chi^0_1 b)
     8.50625331E-03    2     1000023         5   # BR(~b_1 -> chi^0_2 b)
     8.60012782E-03    2     1000025         5   # BR(~b_1 -> chi^0_3 b)
     1.68273133E-02    2    -1000024         6   # BR(~b_1 -> chi^-_1 t)
     9.55562527E-01    2     1000021         5   # BR(~b_1 -> ~g b)
DECAY   2000005     4.09367880E+02   # ~b_2
#    BR                NDA      ID1      ID2
     2.43479385E-03    2     1000022         5   # BR(~b_2 -> chi^0_1 b)
     4.71348977E-03    2     1000023         5   # BR(~b_2 -> chi^0_2 b)
     3.69678993E-03    2     1000025         5   # BR(~b_2 -> chi^0_3 b)
     4.09690585E-02    2     1000035         5   # BR(~b_2 -> chi^0_4 b)
     2.07509999E-01    2    -1000024         6   # BR(~b_2 -> chi^-_1 t)
     8.58137162E-02    2    -1000037         6   # BR(~b_2 -> chi^-_2 t)
     5.87622535E-01    2     1000021         5   # BR(~b_2 -> ~g b)
     6.72313245E-02    2     1000006       -24   # BR(~b_2 -> ~t_1 W^-)
DECAY   2000002     7.77588039E+02   # ~u_R
#    BR                NDA      ID1      ID2
     1.90357360E-02    2     1000022         2   # BR(~u_R -> chi^0_1 u)
     1.33579821E-04    2     1000023         2   # BR(~u_R -> chi^0_2 u)
     9.81270956E-03    2     1000025         2   # BR(~u_R -> chi^0_3 u)
     9.71017631E-01    2     1000021         2   # BR(~u_R -> ~g u)
DECAY   1000002     8.89662654E+02   # ~u_L
#    BR                NDA      ID1      ID2
     1.51702963E-03    2     1000022         2   # BR(~u_L -> chi^0_1 u)
     3.59483973E-04    2     1000023         2   # BR(~u_L -> chi^0_2 u)
     1.77647318E-04    2     1000025         2   # BR(~u_L -> chi^0_3 u)
     4.87634702E-02    2     1000035         2   # BR(~u_L -> chi^0_4 u)
     1.58760115E-03    2     1000024         1   # BR(~u_L -> chi^+_1 d)
     9.68853617E-02    2     1000037         1   # BR(~u_L -> chi^+_2 d)
     8.50709406E-01    2     1000021         2   # BR(~u_L -> ~g u)
DECAY   2000004     7.77595395E+02   # ~c_R
#    BR                NDA      ID1      ID2
     1.90362126E-02    2     1000022         4   # BR(~c_R -> chi^0_1 c)
     1.35888603E-04    2     1000023         4   # BR(~c_R -> chi^0_2 c)
     9.81432678E-03    2     1000025         4   # BR(~c_R -> chi^0_3 c)
     9.71008480E-01    2     1000021         4   # BR(~c_R -> ~g c)
DECAY   1000004     8.89669630E+02   # ~c_L
#    BR                NDA      ID1      ID2
     1.51759372E-03    2     1000022         4   # BR(~c_L -> chi^0_1 c)
     3.61505049E-04    2     1000023         4   # BR(~c_L -> chi^0_2 c)
     1.79141705E-04    2     1000025         4   # BR(~c_L -> chi^0_3 c)
     4.87631194E-02    2     1000035         4   # BR(~c_L -> chi^0_4 c)
     1.59126299E-03    2     1000024         3   # BR(~c_L -> chi^+_1 s)
     9.68846103E-02    2     1000037         3   # BR(~c_L -> chi^+_2 s)
     8.50702767E-01    2     1000021         4   # BR(~c_L -> ~g c)
DECAY   1000006     2.79470883E+02   # ~t_1
#    BR                NDA      ID1      ID2
     4.67506092E-02    2     1000022         6   # BR(~t_1 -> chi^0_1 t)
     1.16813666E-01    2     1000023         6   # BR(~t_1 -> chi^0_2 t)
     9.90070923E-02    2     1000025         6   # BR(~t_1 -> chi^0_3 t)
     4.60491354E-04    2     1000035         6   # BR(~t_1 -> chi^0_4 t)
     2.36065484E-01    2     1000024         5   # BR(~t_1 -> chi^+_1 b)
     9.11748297E-04    2     1000037         5   # BR(~t_1 -> chi^+_2 b)
     4.99988151E-01    2     1000021         6   # BR(~t_1 -> ~g t)
#    BR                NDA      ID1      ID2       ID3
DECAY   2000006     4.19396270E+02   # ~t_2
#    BR                NDA      ID1      ID2
     3.28614519E-02    2     1000022         6   # BR(~t_2 -> chi^0_1 t)
     1.00955609E-01    2     1000023         6   # BR(~t_2 -> chi^0_2 t)
     7.11247072E-02    2     1000025         6   # BR(~t_2 -> chi^0_3 t)
     4.20874239E-02    2     1000035         6   # BR(~t_2 -> chi^0_4 t)
     8.83459839E-03    2     1000024         5   # BR(~t_2 -> chi^+_1 b)
     8.15970163E-02    2     1000037         5   # BR(~t_2 -> chi^+_2 b)
     5.76811025E-01    2     1000021         6   # BR(~t_2 -> ~g t)
     3.32597243E-02    2     1000006        23   # BR(~t_2 -> ~t_1 Z)
     5.24626568E-02    2     1000006        25   # BR(~t_2 -> ~t_1 h^0)
DECAY   1000024     7.02941834E-05   # chi^+_1
#    BR                NDA      ID1      ID2       ID3
     3.34045374E-01    3     1000022        -1         2   # BR(chi^+_1 -> chi^0_1 d_bar u)
     3.32810318E-01    3     1000022        -3         4   # BR(chi^+_1 -> chi^0_1 s_bar c)
     1.11347736E-01    3     1000022       -11        12   # BR(chi^+_1 -> chi^0_1 e^+ nu_e)
     1.11347133E-01    3     1000022       -13        14   # BR(chi^+_1 -> chi^0_1 mu^+ nu_mu)
     1.10449228E-01    3     1000022       -15        16   # BR(chi^+_1 -> chi^0_1 tau^+ nu_tau)
DECAY   1000037     7.53200744E+00   # chi^+_2
#    BR                NDA      ID1      ID2
     8.72389331E-02    2     1000022        24   # BR(chi^+_2 -> chi^0_1 W^+)
     2.51464234E-01    2     1000023        24   # BR(chi^+_2 -> chi^0_2 W^+)
     1.63266805E-01    2     1000025        24   # BR(chi^+_2 -> chi^0_3 W^+)
     2.47473533E-01    2     1000024        23   # BR(chi^+_2 -> chi^+_1 Z)
     2.39643157E-01    2     1000024        25   # BR(chi^+_2 -> chi^+_1 h^0)
#    BR                NDA      ID1      ID2       ID3
     2.83973761E-03    3     1000024         6        -6   # BR(chi^+_2 -> chi^+_1 t t_bar)
     1.31190970E-03    3     1000022        -5         6   # BR(chi^+_2 -> chi^0_1 b_bar t)
     4.45277204E-03    3     1000023        -5         6   # BR(chi^+_2 -> chi^0_2 b_bar t)
     2.30862177E-03    3     1000025        -5         6   # BR(chi^+_2 -> chi^0_3 b_bar t)
DECAY   1000022     0.00000000E+00   # chi^0_1
DECAY   1000023     1.44965539E-04   # chi^0_2
#    BR                NDA      ID1      ID2
     1.63346706E-02    2     1000022        22   # BR(chi^0_2 -> chi^0_1 photon)
#    BR                NDA      ID1      ID2       ID3
     1.18694943E-01    3     1000022         2        -2   # BR(chi^0_2 -> chi^0_1 u u_bar)
     1.17393133E-01    3     1000022         4        -4   # BR(chi^0_2 -> chi^0_1 c c_bar)
     1.52189956E-01    3     1000022         1        -1   # BR(chi^0_2 -> chi^0_1 d d_bar)
     1.52181935E-01    3     1000022         3        -3   # BR(chi^0_2 -> chi^0_1 s s_bar)
     1.37458781E-01    3     1000022         5        -5   # BR(chi^0_2 -> chi^0_1 b b_bar)
     3.43441549E-02    3     1000022        11       -11   # BR(chi^0_2 -> chi^0_1 e^- e^+)
     3.43412679E-02    3     1000022        13       -13   # BR(chi^0_2 -> chi^0_1 mu^- mu^+)
     3.35403550E-02    3     1000022        15       -15   # BR(chi^0_2 -> chi^0_1 tau^- tau^+)
     2.03520804E-01    3     1000022        12       -12   # BR(chi^0_2 -> chi^0_1 nu_e nu_bar_e)
DECAY   1000025     8.09319774E-05   # chi^0_3
#    BR                NDA      ID1      ID2
     1.54426787E-03    2     1000022        22   # BR(chi^0_3 -> chi^0_1 photon)
     2.70202676E-02    2     1000023        22   # BR(chi^0_3 -> chi^0_2 photon)
#    BR                NDA      ID1      ID2       ID3
     6.13446645E-03    3     1000022         2        -2   # BR(chi^0_3 -> chi^0_1 u u_bar)
     6.11715308E-03    3     1000022         4        -4   # BR(chi^0_3 -> chi^0_1 c c_bar)
     7.86063351E-03    3     1000022         1        -1   # BR(chi^0_3 -> chi^0_1 d d_bar)
     7.86054124E-03    3     1000022         3        -3   # BR(chi^0_3 -> chi^0_1 s s_bar)
     7.67861265E-03    3     1000022         5        -5   # BR(chi^0_3 -> chi^0_1 b b_bar)
     1.76992353E-03    3     1000022        11       -11   # BR(chi^0_3 -> chi^0_1 e^- e^+)
     1.76989305E-03    3     1000022        13       -13   # BR(chi^0_3 -> chi^0_1 mu^- mu^+)
     1.76056571E-03    3     1000022        15       -15   # BR(chi^0_3 -> chi^0_1 tau^- tau^+)
     1.05190441E-02    3     1000022        12       -12   # BR(chi^0_3 -> chi^0_1 nu_e nu_bar_e)
     6.83501156E-02    3     1000023         2        -2   # BR(chi^0_3 -> chi^0_2 u u_bar)
     6.67356329E-02    3     1000023         4        -4   # BR(chi^0_3 -> chi^0_2 c c_bar)
     8.76386418E-02    3     1000023         1        -1   # BR(chi^0_3 -> chi^0_2 d d_bar)
     8.76285529E-02    3     1000023         3        -3   # BR(chi^0_3 -> chi^0_2 s s_bar)
     7.01055257E-02    3     1000023         5        -5   # BR(chi^0_3 -> chi^0_2 b b_bar)
     1.97777937E-02    3     1000023        11       -11   # BR(chi^0_3 -> chi^0_2 e^- e^+)
     1.97741790E-02    3     1000023        13       -13   # BR(chi^0_3 -> chi^0_2 mu^- mu^+)
     1.87884370E-02    3     1000023        15       -15   # BR(chi^0_3 -> chi^0_2 tau^- tau^+)
     1.17198408E-01    3     1000023        12       -12   # BR(chi^0_3 -> chi^0_2 nu_e nu_bar_e)
     6.09920770E-02    3     1000024         1        -2   # BR(chi^0_3 -> chi^+_1 d u_bar)
     6.09920770E-02    3    -1000024        -1         2   # BR(chi^0_3 -> chi^-_1 d_bar u)
     6.03995258E-02    3     1000024         3        -4   # BR(chi^0_3 -> chi^+_1 s c_bar)
     6.03995258E-02    3    -1000024        -3         4   # BR(chi^0_3 -> chi^-_1 s_bar c)
     2.03307964E-02    3     1000024        11       -12   # BR(chi^0_3 -> chi^+_1 e^- nu_bar_e)
     2.03307964E-02    3    -1000024       -11        12   # BR(chi^0_3 -> chi^-_1 e^+ nu_e)
     2.03306557E-02    3     1000024        13       -14   # BR(chi^0_3 -> chi^+_1 mu^- nu_bar_mu)
     2.03306557E-02    3    -1000024       -13        14   # BR(chi^0_3 -> chi^-_1 mu^+ nu_mu)
     1.99306177E-02    3     1000024        15       -16   # BR(chi^0_3 -> chi^+_1 tau^- nu_bar_tau)
     1.99306177E-02    3    -1000024       -15        16   # BR(chi^0_3 -> chi^-_1 tau^+ nu_tau)
DECAY   1000035     8.64111771E+00   # chi^0_4
#    BR                NDA      ID1      ID2
     2.21952714E-01    2     1000024       -24   # BR(chi^0_4 -> chi^+_1 W^-)
     2.21952714E-01    2    -1000024        24   # BR(chi^0_4 -> chi^-_1 W^+)
     4.55603984E-02    2     1000022        23   # BR(chi^0_4 -> chi^0_1 Z)
     7.54573528E-02    2     1000023        23   # BR(chi^0_4 -> chi^0_2 Z)
     9.82118951E-02    2     1000025        23   # BR(chi^0_4 -> chi^0_3 Z)
     6.12501257E-02    2     1000022        25   # BR(chi^0_4 -> chi^0_1 h^0)
     1.36324237E-01    2     1000023        25   # BR(chi^0_4 -> chi^0_2 h^0)
     1.27526583E-01    2     1000025        25   # BR(chi^0_4 -> chi^0_3 h^0)
#    BR                NDA      ID1      ID2       ID3
     4.96326738E-04    3     1000022         6        -6   # BR(chi^0_4 -> chi^0_1 t t_bar)
     1.12900909E-03    3     1000023         6        -6   # BR(chi^0_4 -> chi^0_2 t t_bar)
     7.75096076E-04    3     1000025         6        -6   # BR(chi^0_4 -> chi^0_3 t t_bar)
     4.65794879E-03    3     1000024         5        -6   # BR(chi^0_4 -> chi^+_1 b t_bar)
     4.65794879E-03    3    -1000024        -5         6   # BR(chi^0_4 -> chi^-_1 b_bar t)
DECAY   1000021     7.29566137E-03   # ~g
#    BR                NDA      ID1      ID2
     2.74520900E-03    2     1000022        21   # BR(~g -> chi^0_1 g)
     1.13805219E-02    2     1000023        21   # BR(~g -> chi^0_2 g)
     8.46700151E-03    2     1000025        21   # BR(~g -> chi^0_3 g)
#    BR                NDA      ID1      ID2       ID3
     2.26585307E-04    3     1000022         2        -2   # BR(~g -> chi^0_1 u u_bar)
     2.26603323E-04    3     1000022         4        -4   # BR(~g -> chi^0_1 c c_bar)
     6.19883822E-02    3     1000022         6        -6   # BR(~g -> chi^0_1 t t_bar)
     7.21600773E-03    3     1000022         5        -5   # BR(~g -> chi^0_1 b b_bar)
     2.16250651E-01    3     1000023         6        -6   # BR(~g -> chi^0_2 t t_bar)
     8.02494428E-03    3     1000023         5        -5   # BR(~g -> chi^0_2 b b_bar)
     1.05314163E-04    3     1000025         2        -2   # BR(~g -> chi^0_3 u u_bar)
     1.05357392E-04    3     1000025         4        -4   # BR(~g -> chi^0_3 c c_bar)
     1.91286835E-01    3     1000025         6        -6   # BR(~g -> chi^0_3 t t_bar)
     6.90854852E-03    3     1000025         5        -5   # BR(~g -> chi^0_3 b b_bar)
     9.87072321E-04    3     1000035         6        -6   # BR(~g -> chi^0_4 t t_bar)
     2.95906188E-03    3     1000035         5        -5   # BR(~g -> chi^0_4 b b_bar)
     2.38480442E-01    3     1000024         5        -6   # BR(~g -> chi^+_1 b t_bar)
     2.38480442E-01    3    -1000024        -5         6   # BR(~g -> chi^-_1 b_bar t)
     1.66672006E-03    3     1000037         5        -6   # BR(~g -> chi^+_2 b t_bar)
     1.66672006E-03    3    -1000037        -5         6   # BR(~g -> chi^-_2 b_bar t)
DECAY        25     3.68423370E-03   # Gamma(h0)
     2.51885032E-03   2        22        22   # BR(h0 -> photon photon)
     1.67882734E-03   2        22        23   # BR(h0 -> photon Z)
     3.19148928E-02   2        23        23   # BR(h0 -> Z Z)
     2.59850772E-01   2       -24        24   # BR(h0 -> W W)
     7.77502534E-02   2        21        21   # BR(h0 -> gluon gluon)
     4.83276594E-09   2       -11        11   # BR(h0 -> Electron electron)
     2.14970461E-04   2       -13        13   # BR(h0 -> Muon muon)
     6.19847112E-02   2       -15        15   # BR(h0 -> Tau tau)
     1.37324463E-07   2        -2         2   # BR(h0 -> Up up)
     2.66517046E-02   2        -4         4   # BR(h0 -> Charm charm)
     5.58798536E-07   2        -1         1   # BR(h0 -> Down down)
     2.02104264E-04   2        -3         3   # BR(h0 -> Strange strange)
     5.37232213E-01   2        -5         5   # BR(h0 -> Bottom bottom)
DECAY        35     5.68048938E+01   # Gamma(HH)
     4.30123889E-09   2        22        22   # BR(HH -> photon photon)
     4.07139051E-08   2        22        23   # BR(HH -> photon Z)
     2.02887355E-06   2        23        23   # BR(HH -> Z Z)
     4.32929120E-07   2       -24        24   # BR(HH -> W W)
     8.62272734E-07   2        21        21   # BR(HH -> gluon gluon)
     1.71627563E-09   2       -11        11   # BR(HH -> Electron electron)
     7.64230267E-05   2       -13        13   # BR(HH -> Muon muon)
     2.20728660E-02   2       -15        15   # BR(HH -> Tau tau)
     8.99026349E-13   2        -2         2   # BR(HH -> Up up)
     1.74414762E-07   2        -4         4   # BR(HH -> Charm charm)
     1.29041471E-02   2        -6         6   # BR(HH -> Top top)
     1.22022999E-07   2        -1         1   # BR(HH -> Down down)
     4.41355052E-05   2        -3         3   # BR(HH -> Strange strange)
     1.12898973E-01   2        -5         5   # BR(HH -> Bottom bottom)
     1.06194863E-02   2  -1000024   1000024   # BR(HH -> Chargino1 chargino1)
     2.51540269E-01   2  -1000024   1000037   # BR(HH -> Chargino1 chargino2)
     2.51540269E-01   2  -1000037   1000024   # BR(HH -> Chargino2 chargino1)
     4.37492408E-04   2  -1000037   1000037   # BR(HH -> Chargino2 chargino2)
     1.63681094E-02   2   1000022   1000022   # BR(HH -> neutralino1 neutralino1)
     2.41275867E-02   2   1000022   1000023   # BR(HH -> neutralino1 neutralino2)
     3.03921134E-04   2   1000022   1000025   # BR(HH -> neutralino1 neutralino3)
     5.72570677E-02   2   1000022   1000035   # BR(HH -> neutralino1 neutralino4)
     5.73357831E-04   2   1000023   1000023   # BR(HH -> neutralino2 neutralino2)
     2.33920718E-02   2   1000023   1000025   # BR(HH -> neutralino2 neutralino3)
     1.43524970E-01   2   1000023   1000035   # BR(HH -> neutralino2 neutralino4)
     1.79630664E-02   2   1000025   1000025   # BR(HH -> neutralino3 neutralino3)
     5.41193429E-02   2   1000025   1000035   # BR(HH -> neutralino3 neutralino4)
     2.18046752E-04   2   1000035   1000035   # BR(HH -> neutralino4 neutralino4)
     1.47299567E-05   2        25        25   # BR(HH -> h0 h0)
DECAY        36     5.64333761E+01   # Gamma(A0)
     2.32337792E-10   2        22        22   # BR(A0 -> photon photon)
     3.54220131E-08   2        22        23   # BR(A0 -> photon Z)
     8.59973142E-06   2        21        21   # BR(A0 -> gluon gluon)
     1.65492310E-09   2       -11        11   # BR(A0 -> Electron electron)
     7.36911612E-05   2       -13        13   # BR(A0 -> Muon muon)
     2.12838549E-02   2       -15        15   # BR(A0 -> Tau tau)
     8.29351650E-13   2        -2         2   # BR(A0 -> Up up)
     1.60892838E-07   2        -4         4   # BR(A0 -> Charm charm)
     1.19925596E-02   2        -6         6   # BR(A0 -> Top top)
     1.17658916E-07   2        -1         1   # BR(A0 -> Down down)
     4.25571244E-05   2        -3         3   # BR(A0 -> Strange strange)
     1.08861310E-01   2        -5         5   # BR(A0 -> Bottom bottom)
     1.02844860E-02   2  -1000024   1000024   # BR(A0 -> Chargino1 chargino1)
     2.53629159E-01   2  -1000024   1000037   # BR(A0 -> Chargino1 chargino2)
     2.53629159E-01   2  -1000037   1000024   # BR(A0 -> Chargino2 chargino1)
     7.29494564E-05   2  -1000037   1000037   # BR(A0 -> Chargino2 chargino2)
     2.15694304E-02   2   1000022   1000022   # BR(A0 -> neutralino1 neutralino1)
     1.86446837E-02   2   1000022   1000023   # BR(A0 -> neutralino1 neutralino2)
     2.52392562E-04   2   1000022   1000025   # BR(A0 -> neutralino1 neutralino3)
     7.36706648E-02   2   1000022   1000035   # BR(A0 -> neutralino1 neutralino4)
     4.32284208E-04   2   1000023   1000023   # BR(A0 -> neutralino2 neutralino2)
     1.63923322E-02   2   1000023   1000025   # BR(A0 -> neutralino2 neutralino3)
     1.12403037E-01   2   1000023   1000035   # BR(A0 -> neutralino2 neutralino4)
     2.59238783E-02   2   1000025   1000025   # BR(A0 -> neutralino3 neutralino3)
     7.07915949E-02   2   1000025   1000035   # BR(A0 -> neutralino3 neutralino4)
     3.67932368E-05   2   1000035   1000035   # BR(A0 -> neutralino4 neutralino4)
     4.26614463E-06   2        23        25   # BR(A0 -> Z h0)
     1.46905533E-38   2        25        25   # BR(A0 -> h0 h0)
DECAY        37     5.77611165E+01   # Gamma(Hp)
     1.98296881E-09   2       -11        12   # BR(Hp -> Electron nu_e)
     8.47781100E-05   2       -13        14   # BR(Hp -> Muon nu_mu)
     2.39800775E-02   2       -15        16   # BR(Hp -> Tau nu_tau)
     1.22301695E-07   2        -1         2   # BR(Hp -> Down up)
     2.07080468E-06   2        -3         2   # BR(Hp -> Strange up)
     1.30492998E-06   2        -5         2   # BR(Hp -> Bottom up)
     1.47002948E-08   2        -1         4   # BR(Hp -> Down charm)
     4.42662402E-05   2        -3         4   # BR(Hp -> Strange charm)
     1.82737210E-04   2        -5         4   # BR(Hp -> Bottom charm)
     9.84270601E-07   2        -1         6   # BR(Hp -> Down top)
     2.15260067E-05   2        -3         6   # BR(Hp -> Strange top)
     1.38240759E-01   2        -5         6   # BR(Hp -> Bottom top)
     5.58408647E-02   2   1000022   1000024   # BR(Hp -> neutralino1 chargino1)
     1.28343537E-01   2   1000022   1000037   # BR(Hp -> neutralino1 chargino2)
     2.40320587E-03   2   1000023   1000024   # BR(Hp -> neutralino2 chargino1)
     2.54022978E-01   2   1000023   1000037   # BR(Hp -> neutralino2 chargino2)
     2.53143198E-02   2   1000024   1000025   # BR(Hp -> chargino1 neutralino3)
     1.22361820E-01   2   1000025   1000037   # BR(Hp -> neutralino3 chargino2)
     2.49150460E-01   2   1000024   1000035   # BR(Hp -> chargino1 neutralino4)
     6.21767723E-10   2   1000035   1000037   # BR(Hp -> neutralino4 chargino2)
     4.17035965E-06   2        24        25   # BR(Hp -> W h0)
DECAY         6     2.43000000E+00   # top
#    BR                NDA      ID1      ID2
     1.00000000E+00    2           5        24   # BR(t -> b W)
Block HiggsBoundsInputHiggsCouplingsFermions
# ScalarNormEffCoupSq PseudoSNormEffCoupSq NP IP1 IP2 IP2
    9.08207814E-01    0.00000000E+00        3  25   5   5  # h0-b-b eff. coupling^2, normalised to SM
    1.58158145E+02    0.00000000E+00        3  35   5   5  # H0-b-b eff. coupling^2, normalised to SM
    0.00000000E+00    1.58066353E+02        3  36   5   5  # A0-b-b eff. coupling^2, normalised to SM
#
    1.00058072E+00    0.00000000E+00        3  25   6   6  # h0-t-t eff. coupling^2, normalised to SM
    5.74573776E-03    0.00000000E+00        3  35   6   6  # H0-t-t eff. coupling^2, normalised to SM
    0.00000000E+00    6.32645709E-03        3  36   6   6  # A0-t-t eff. coupling^2, normalised to SM
#
    9.08207814E-01    0.00000000E+00        3  25  15  15  # h0-tau-tau eff. coupling^2, normalised to SM
    1.58158145E+02    0.00000000E+00        3  35  15  15  # H0-tau-tau eff. coupling^2, normalised to SM
    0.00000000E+00    1.58066353E+02        3  36  15  15  # A0-tau-tau eff. coupling^2, normalised to SM
#
Block HiggsBoundsInputHiggsCouplingsBosons
    9.99986029E-01        3  25  24  24  # h0-W-W eff. coupling^2, normalised to SM
    1.39713597E-05        3  35  24  24  # H0-W-W eff. coupling^2, normalised to SM
    0.00000000E+00        3  36  24  24  # A0-W-W eff. coupling^2, normalised to SM
#
    9.99986029E-01        3  25  23  23  # h0-Z-Z eff. coupling^2, normalised to SM
    1.39713597E-05        3  35  23  23  # H0-Z-Z eff. coupling^2, normalised to SM
    0.00000000E+00        3  36  23  23  # A0-Z-Z eff. coupling^2, normalised to SM
#
    1.26958982E+00        3  25  21  21  # h0-g-g eff. coupling^2, normalised to SM
    2.69021769E-03        3  35  21  21  # H0-g-g eff. coupling^2, normalised to SM
    1.06426467E-01        3  36  21  21  # A0-g-g eff. coupling^2, normalised to SM
#
    0.00000000E+00        3  25  25  23  # h0-h0-Z eff. coupling^2, normalised to SM
    0.00000000E+00        3  35  25  23  # H0-h0-Z eff. coupling^2, normalised to SM
    1.39713597E-05        3  36  25  23  # A0-h0-Z eff. coupling^2, normalised to SM
    0.00000000E+00        3  35  35  23  # H0-H0-Z eff. coupling^2, normalised to SM
    9.99986029E-01        3  36  35  23  # A0-H0-Z eff. coupling^2, normalised to SM
    0.00000000E+00        3  36  36  23  # A0-A0-Z eff. coupling^2, normalised to SM
#
    0.00000000E+00        4  25  21  21  23  # h0-g-g-Z eff. coupling^2, normalised to SM
    0.00000000E+00        4  35  21  21  23  # H0-g-g-Z eff. coupling^2, normalised to SM
    0.00000000E+00        4  36  21  21  23  # A0-g-g-Z eff. coupling^2, normalised to SM
Block SPhenoLowEnergy  # low energy observables
    1    3.28622805E-04   # BR(b -> s gamma)
    2    1.58905759E-06   # BR(b -> s mu+ mu-)
    3    3.52471939E-05   # BR(b -> s nu nu)
    4    2.42828752E-15   # BR(Bd -> e+ e-)
    5    1.03733709E-10   # BR(Bd -> mu+ mu-)
    6    2.17170083E-08   # BR(Bd -> tau+ tau-)
    7    8.16482021E-14   # BR(Bs -> e+ e-)
    8    3.48800941E-09   # BR(Bs -> mu+ mu-)
    9    7.39885949E-07   # BR(Bs -> tau+ tau-)
   10    9.67400483E-05   # BR(B_u -> tau nu)
   11    9.99287662E-01   # BR(B_u -> tau nu)/BR(B_u -> tau nu)_SM
   12    5.42315818E-01   # |Delta(M_Bd)| [ps^-1] 
   13    1.93771095E+01   # |Delta(M_Bs)| [ps^-1] 
   14    0.00000000E+00   # neutron EDM according to the chiral quark model
   15    0.00000000E+00   # neutron EDM according to the relativistic quark-parton model
   16    2.15862518E-03   # epsilon_K
   17    2.28167146E-15   # Delta(M_K)
   18    2.47930615E-11   # BR(K^0 -> pi^0 nu nu)
   19    8.28893433E-11   # BR(K^+ -> pi^+ nu nu)
   20   -1.44301265E-16   # Delta(g-2)_electron/2
   21   -6.16933717E-12   # Delta(g-2)_muon/2
   22   -1.74573667E-09   # Delta(g-2)_tau/2
   23    0.00000000E+00   # electric dipole moment of the electron
   24    0.00000000E+00   # electric dipole moment of the muon
   25    0.00000000E+00   # electric dipole moment of the tau
   26    0.00000000E+00   # Br(mu -> e gamma)
   27    0.00000000E+00   # Br(tau -> e gamma)
   28    0.00000000E+00   # Br(tau -> mu gamma)
   29    0.00000000E+00   # Br(mu -> 3 e)
   30    0.00000000E+00   # Br(tau -> 3 e)
   31    0.00000000E+00   # Br(tau -> 3 mu)
   39    4.27189056E-06   # Delta(rho_parameter)
   40    0.00000000E+00   # BR(Z -> e mu)
   41    0.00000000E+00   # BR(Z -> e tau)
   42    0.00000000E+00   # BR(Z -> mu tau)
Block FWCOEF Q=  1.60000000E+02  # Wilson coefficients at scale Q
#    id        order  M        value         comment
     0305 4422   00   0    -1.88819110E-01   # C7
     0305 4422   00   2    -1.98056895E-01   # C7
     0305 4322   00   2    -1.16861839E-04   # C7'
     0305 6421   00   0    -9.52278348E-02   # C8
     0305 6421   00   2    -1.03861224E-01   # C8
     0305 6321   00   2    -1.34596116E-04   # C8'
 03051111 4133   00   0     1.62379544E+00   # C9 e+e-
 03051111 4133   00   2     1.62418277E+00   # C9 e+e-
 03051111 4233   00   2     4.28531808E-05   # C9' e+e-
 03051111 4137   00   0    -4.44648754E+00   # C10 e+e-
 03051111 4137   00   2    -4.44428886E+00   # C10 e+e-
 03051111 4237   00   2    -3.17400805E-04   # C10' e+e-
 03051313 4133   00   0     1.62379544E+00   # C9 mu+mu-
 03051313 4133   00   2     1.62418274E+00   # C9 mu+mu-
 03051313 4233   00   2     4.28531781E-05   # C9' mu+mu-
 03051313 4137   00   0    -4.44648754E+00   # C10 mu+mu-
 03051313 4137   00   2    -4.44428888E+00   # C10 mu+mu-
 03051313 4237   00   2    -3.17400808E-04   # C10' mu+mu-
 03051212 4137   00   0     1.50535012E+00   # C11 nu_1 nu_1
 03051212 4137   00   2     1.50487585E+00   # C11 nu_1 nu_1
 03051212 4237   00   2     6.86777325E-05   # C11' nu_1 nu_1
 03051414 4137   00   0     1.50535012E+00   # C11 nu_2 nu_2
 03051414 4137   00   2     1.50487585E+00   # C11 nu_2 nu_2
 03051414 4237   00   2     6.86777327E-05   # C11' nu_2 nu_2
 03051616 4137   00   0     1.50535012E+00   # C11 nu_3 nu_3
 03051616 4137   00   2     1.50487585E+00   # C11 nu_3 nu_3
 03051616 4237   00   2     6.86778134E-05   # C11' nu_3 nu_3
Block IMFWCOEF Q=  1.60000000E+02  # Im(Wilson coefficients) at scale Q
#    id        order  M        value         comment
     0305 4422   00   0     3.85819586E-07   # C7
     0305 4422   00   2    -1.43158526E-06   # C7
     0305 4322   00   2    -5.84873297E-07   # C7'
     0305 6421   00   0     3.30479991E-07   # C8
     0305 6421   00   2    -1.01562386E-05   # C8
     0305 6321   00   2    -4.24846171E-07   # C8'
 03051111 4133   00   2     4.89158929E-07   # C9 e+e-
 03051111 4233   00   2     8.16193438E-07   # C9' e+e-
 03051111 4137   00   2     3.43079268E-08   # C10 e+e-
 03051111 4237   00   2    -6.04677655E-06   # C10' e+e-
 03051313 4133   00   2     4.89158531E-07   # C9 mu+mu-
 03051313 4233   00   2     8.16193414E-07   # C9' mu+mu-
 03051313 4137   00   2     3.43082808E-08   # C10 mu+mu-
 03051313 4237   00   2    -6.04677662E-06   # C10' mu+mu-
 03051212 4137   00   2     1.88381348E-08   # C11 nu_1 nu_1
 03051212 4237   00   2     1.30837494E-06   # C11' nu_1 nu_1
 03051414 4137   00   2     1.88381530E-08   # C11 nu_2 nu_2
 03051414 4237   00   2     1.30837494E-06   # C11' nu_2 nu_2
 03051616 4137   00   2     1.88433614E-08   # C11 nu_3 nu_3
 03051616 4237   00   2     1.30837494E-06   # C11' nu_3 nu_3
