# SUSY Les Houches Accord 2 - MSSM spectrum + Decays
# SPheno v4.0.5be
# W. Porod, Comput. Phys. Commun. 153 (2003) 275-315, hep-ph/0301101;
# W. Porod, F.~Staub, Comput. Phys. Commun. 183 (2012) 2458
#                     arXiv:1104.1573 [hep-ph] 
# in case of problems send email to porod@physik.uni-wuerzburg.de
# Created: 20.12.2022,  13:00
Block SPINFO         # Program information
     1   SPheno      # spectrum calculator
     2   v4.0.5be    # version number
#
Block SPhenoINFO     # SPheno specific information
    1      2         # using 2-loop RGEs
    2      2         # using pole masses for boundary conditions at mZ
Block MODSEL  # Model selection
    1    0    # general MSSM
Block MINPAR  # Input parameters
    3    3.97466269E+01  # tanb at m_Z    
    4    1.00000000E+00  # Sign(mu)
Block EXTPAR  # non-universal input parameters
    0    3.08090522E+03  # scale for input parameters
    1    2.26441686E+02  # M_1
    2    6.75025827E+02  # M_2
    3    4.05153075E+03  # M_3
   11   -1.69417745E+03  # A_t
   12   -1.36019819E+03  # A_b
   13    1.50395232E+03  # A_tau
   23    7.13964105E+02  # mu
   25    3.86879599E+01  # tan(beta)
   26    2.83173265E+03  # m_A, pole mass
   31    1.00000000E+04  # M_L11
   32    1.00000000E+04  # M_L22
   33    1.00000000E+04  # M_L33
   34    1.00000000E+04  # M_E11
   35    1.00000000E+04  # M_E22
   36    1.00000000E+04  # M_E33
   41    1.00000000E+04  # M_Q11
   42    1.00000000E+04  # M_Q22
   43    2.81122998E+03  # M_Q33
   44    1.00000000E+04  # M_U11
   45    1.00000000E+04  # M_U22
   46    3.18735843E+03  # M_U33
   47    1.00000000E+04  # M_D11
   48    1.00000000E+04  # M_D22
   49    4.80963836E+03  # M_D33
Block SMINPUTS  # SM parameters
         1     1.27908970E+02  # alpha_em^-1(MZ)^MSbar
         2     1.16637870E-05  # G_mu [GeV^-2]
         3     1.18400000E-01  # alpha_s(MZ)^MSbar
         4     9.11876000E+01  # m_Z(pole)
         5     4.18000000E+00  # m_b(m_b), MSbar
         6     1.73200000E+02  # m_t(pole)
         7     1.77700000E+00  # m_tau(pole)
         8     0.00000000E+00  # m_nu_3
        11     5.10998930E-04  # m_e(pole)
        12     0.00000000E+00  # m_nu_1
        13     1.05658372E-01  # m_muon(pole)
        14     0.00000000E+00  # m_nu_2
        21     5.00000000E-03  # m_d(2 GeV), MSbar
        22     2.50000000E-03  # m_u(2 GeV), MSbar
        23     9.50000000E-02  # m_s(2 GeV), MSbar
        24     1.27000000E+00  # m_c(m_c), MSbar
Block gauge Q=  3.08090522E+03  # (SUSY scale)
   1    3.55362975E-01  # g'(Q)^DRbar
   2    6.65198874E-01  # g(Q)^DRbar
   3    1.21977796E+00  # g3(Q)^DRbar
Block Yu Q=  3.08090522E+03  # (SUSY scale)
  1  1     8.38717251E-06   # Y_u(Q)^DRbar
  2  2     4.26068364E-03   # Y_c(Q)^DRbar
  3  3     1.01323781E+00   # Y_t(Q)^DRbar
Block Yd Q=  3.08090522E+03  # (SUSY scale)
  1  1     6.52036117E-04   # Y_d(Q)^DRbar
  2  2     1.23886862E-02   # Y_s(Q)^DRbar
  3  3     6.46615509E-01   # Y_b(Q)^DRbar
Block Ye Q=  3.08090522E+03  # (SUSY scale)
  1  1     1.13785070E-04   # Y_e(Q)^DRbar
  2  2     2.35271438E-02   # Y_mu(Q)^DRbar
  3  3     3.95687854E-01   # Y_tau(Q)^DRbar
Block Au Q=  3.08090522E+03  # (SUSY scale)
  1  1     0.00000000E+00   # A_u(Q)^DRbar
  2  2     0.00000000E+00   # A_c(Q)^DRbar
  3  3    -1.69417779E+03   # A_t(Q)^DRbar
Block Ad Q=  3.08090522E+03  # (SUSY scale)
  1  1     0.00000000E+00   # A_d(Q)^DRbar
  2  2     0.00000000E+00   # A_s(Q)^DRbar
  3  3    -1.36019803E+03   # A_b(Q)^DRbar
Block Ae Q=  3.08090522E+03  # (SUSY scale)
  1  1     0.00000000E+00   # A_e(Q)^DRbar
  2  2     0.00000000E+00   # A_mu(Q)^DRbar
  3  3     1.50395223E+03   # A_tau(Q)^DRbar
Block MSOFT Q=  3.08090522E+03  # soft SUSY breaking masses at Q
   1    2.26441686E+02  # M_1
   2    6.75025827E+02  # M_2
   3    4.05153075E+03  # M_3
  21    7.31932561E+06  # M^2_(H,d)
  22   -3.14981945E+05  # M^2_(H,u)
  31    1.00000000E+04  # M_(L,11)
  32    1.00000000E+04  # M_(L,22)
  33    1.00000000E+04  # M_(L,33)
  34    1.00000000E+04  # M_(E,11)
  35    1.00000000E+04  # M_(E,22)
  36    1.00000000E+04  # M_(E,33)
  41    1.00000000E+04  # M_(Q,11)
  42    1.00000000E+04  # M_(Q,22)
  43    2.81122998E+03  # M_(Q,33)
  44    1.00000000E+04  # M_(U,11)
  45    1.00000000E+04  # M_(U,22)
  46    3.18735843E+03  # M_(U,33)
  47    1.00000000E+04  # M_(D,11)
  48    1.00000000E+04  # M_(D,22)
  49    4.80963836E+03  # M_(D,33)
Block MASS  # Mass spectrum
#   PDG code      mass          particle
         6     1.73200000E+02  # m_t(pole)
        23     9.11876000E+01  # m_Z(pole)
        24     8.04299946E+01  # W+
        15     1.77700000E+00  # m_tau(pole)
        25     1.21294974E+02  # h0
        35     2.83097633E+03  # H0
        36     2.83173265E+03  # A0
        37     2.83226760E+03  # H+
   1000001     1.00866788E+04  # ~d_L
   2000001     1.00626186E+04  # ~d_R
   1000002     1.00863686E+04  # ~u_L
   2000002     1.00652568E+04  # ~u_R
   1000003     1.00866860E+04  # ~s_L
   2000003     1.00626303E+04  # ~s_R
   1000004     1.00863756E+04  # ~c_L
   2000004     1.00652583E+04  # ~c_R
   1000005     2.91133255E+03  # ~b_1
   2000005     4.87814003E+03  # ~b_2
   1000006     2.90860641E+03  # ~t_1
   2000006     3.26341059E+03  # ~t_2
   1000011     1.00209168E+04  # ~e_L-
   2000011     1.00092294E+04  # ~e_R-
   1000012     1.00201494E+04  # ~nu_eL
   1000013     1.00209503E+04  # ~mu_L-
   2000013     1.00092892E+04  # ~mu_R-
   1000014     1.00201810E+04  # ~nu_muL
   1000015     1.00256831E+04  # ~tau_1-
   2000015     1.00312698E+04  # ~tau_2-
   1000016     1.00292443E+04  # ~nu_tauL
   1000021     4.48067829E+03  # ~g
   1000022     2.27607618E+02  # ~chi_10
   1000023     6.71684414E+02  # ~chi_20
   1000025     7.27216275E+02  # ~chi_30
   1000035     7.88847716E+02  # ~chi_40
   1000024     6.71521206E+02  # ~chi_1+
   1000037     7.88690240E+02  # ~chi_2+
# Higgs mixing
Block alpha # Effective Higgs mixing angle
          -2.52289096E-02   # alpha
Block Hmix Q=  3.08090522E+03  # Higgs mixing parameters
   1    7.13964105E+02  # mu
   2    3.86879599E+01  # tan[beta](Q)
   3    2.43237519E+02  # v(Q)
   4    8.01870980E+06  # m^2_A(Q)
Block stopmix # stop mixing matrix
   1  1     9.93118541E-01   # Re[R_st(1,1)]
   1  2     1.17113466E-01   # Re[R_st(1,2)]
   2  1    -1.17113466E-01   # Re[R_st(2,1)]
   2  2     9.93118541E-01   # Re[R_st(2,2)]
Block sbotmix # sbottom mixing matrix
   1  1     9.99991724E-01   # Re[R_sb(1,1)]
   1  2     4.06850662E-03   # Re[R_sb(1,2)]
   2  1    -4.06850662E-03   # Re[R_sb(2,1)]
   2  2     9.99991724E-01   # Re[R_sb(2,2)]
Block staumix # stau mixing matrix
   1  1     4.80382673E-01   # Re[R_sta(1,1)]
   1  2     8.77058999E-01   # Re[R_sta(1,2)]
   2  1    -8.77058999E-01   # Re[R_sta(2,1)]
   2  2     4.80382673E-01   # Re[R_sta(2,2)]
Block Nmix # neutralino mixing matrix
   1  1    -9.97322035E-01   # Re[N(1,1)]
   1  2     3.96625363E-03   # Re[N(1,2)]
   1  3    -6.91450791E-02   # Re[N(1,3)]
   1  4     2.34943537E-02   # Re[N(1,4)]
   2  1     5.02387968E-02   # Re[N(2,1)]
   2  2     7.02811138E-01   # Re[N(2,2)]
   2  3    -5.20395309E-01   # Re[N(2,3)]
   2  4     4.82411950E-01   # Re[N(2,4)]
   3  1     3.20277915E-02   # Re[N(3,1)]
   3  2    -3.82061640E-02   # Re[N(3,2)]
   3  3    -7.04648002E-01   # Re[N(3,3)]
   3  4    -7.07803435E-01   # Re[N(3,4)]
   4  1    -4.24151112E-02   # Re[N(4,1)]
   4  2     7.10338696E-01   # Re[N(4,2)]
   4  3     4.77366602E-01   # Re[N(4,3)]
   4  4    -5.15500750E-01   # Re[N(4,4)]
Block Umix # chargino mixing matrix
   1  1    -6.70407167E-01   # Re[U(1,1)]
   1  2     7.41993417E-01   # Re[U(1,2)]
   2  1     7.41993417E-01   # Re[U(2,1)]
   2  2     6.70407167E-01   # Re[U(2,2)]
Block Vmix # chargino mixing matrix
   1  1    -7.24990530E-01   # Re[V(1,1)]
   1  2     6.88758834E-01   # Re[V(1,2)]
   2  1     6.88758834E-01   # Re[V(2,1)]
   2  2     7.24990530E-01   # Re[V(2,2)]
DECAY        23     2.49520000E+00   # Z
DECAY        24     2.08500000E+00   # W
DECAY   2000011     5.02382014E+01   # ~e^-_R
#    BR                NDA      ID1      ID2
     9.94701158E-01    2     1000022        11   # BR(~e^-_R -> chi^0_1 e^-)
     2.50398411E-03    2     1000023        11   # BR(~e^-_R -> chi^0_2 e^-)
     1.01610518E-03    2     1000025        11   # BR(~e^-_R -> chi^0_3 e^-)
     1.77870191E-03    2     1000035        11   # BR(~e^-_R -> chi^0_4 e^-)
DECAY   1000011     1.43473532E+02   # ~e^-_L
#    BR                NDA      ID1      ID2
     8.58840573E-02    2     1000022        11   # BR(~e^-_L -> chi^0_1 e^-)
     1.62202121E-01    2     1000023        11   # BR(~e^-_L -> chi^0_2 e^-)
     1.35391550E-04    2     1000025        11   # BR(~e^-_L -> chi^0_3 e^-)
     1.43585948E-01    2     1000035        11   # BR(~e^-_L -> chi^0_4 e^-)
     2.73865198E-01    2    -1000024        12   # BR(~e^-_L -> chi^-_1 nu_e)
     3.34327284E-01    2    -1000037        12   # BR(~e^-_L -> chi^-_2 nu_e)
#    BR                NDA      ID1      ID2       ID3
DECAY   2000013     5.04566288E+01   # ~mu^-_R
#    BR                NDA      ID1      ID2
     9.90411443E-01    2     1000022        13   # BR(~mu^-_R -> chi^0_1 mu^-)
     3.07942239E-03    2     1000023        13   # BR(~mu^-_R -> chi^0_2 mu^-)
     2.08494078E-03    2     1000025        13   # BR(~mu^-_R -> chi^0_3 mu^-)
     2.26264273E-03    2     1000035        13   # BR(~mu^-_R -> chi^0_4 mu^-)
     1.19188757E-03    2    -1000024        14   # BR(~mu^-_R -> chi^-_1 nu_mu)
     9.69663774E-04    2    -1000037        14   # BR(~mu^-_R -> chi^-_2 nu_mu)
DECAY   1000013     1.43583216E+02   # ~mu^-_L
#    BR                NDA      ID1      ID2
     8.58224090E-02    2     1000022        13   # BR(~mu^-_L -> chi^0_1 mu^-)
     1.62285011E-01    2     1000023        13   # BR(~mu^-_L -> chi^0_2 mu^-)
     5.12880344E-04    2     1000025        13   # BR(~mu^-_L -> chi^0_3 mu^-)
     1.43649739E-01    2     1000035        13   # BR(~mu^-_L -> chi^0_4 mu^-)
     2.73656924E-01    2    -1000024        14   # BR(~mu^-_L -> chi^-_1 nu_mu)
     3.34073036E-01    2    -1000037        14   # BR(~mu^-_L -> chi^-_2 nu_mu)
#    BR                NDA      ID1      ID2       ID3
DECAY   1000015     1.26628036E+02   # ~tau^-_1
#    BR                NDA      ID1      ID2
     3.36871282E-01    2     1000022        15   # BR(~tau^-_1 -> chi^0_1 tau^-)
     1.95502540E-01    2     1000023        15   # BR(~tau^-_1 -> chi^0_2 tau^-)
     1.11982308E-01    2     1000025        15   # BR(~tau^-_1 -> chi^0_3 tau^-)
     8.23866573E-03    2     1000035        15   # BR(~tau^-_1 -> chi^0_4 tau^-)
     3.47374468E-01    2    -1000024        16   # BR(~tau^-_1 -> chi^-_1 nu_tau)
DECAY   2000015     1.60032256E+02   # ~tau^-_2
#    BR                NDA      ID1      ID2
     1.25189650E-01    2     1000022        15   # BR(~tau^-_2 -> chi^0_1 tau^-)
     9.63775015E-02    2     1000023        15   # BR(~tau^-_2 -> chi^0_2 tau^-)
     1.03642158E-01    2     1000025        15   # BR(~tau^-_2 -> chi^0_3 tau^-)
     2.10794743E-01    2     1000035        15   # BR(~tau^-_2 -> chi^0_4 tau^-)
     7.72975438E-02    2    -1000024        16   # BR(~tau^-_2 -> chi^-_1 nu_tau)
     3.86698404E-01    2    -1000037        16   # BR(~tau^-_2 -> chi^-_2 nu_tau)
#    BR                NDA      ID1      ID2       ID3
DECAY   1000012     1.43478253E+02   # ~nu_e
#    BR                NDA      ID1      ID2
     8.84702515E-02    2     1000022        12   # BR(~nu_e -> chi^0_1 nu_e)
     1.39199476E-01    2     1000023        12   # BR(~nu_e -> chi^0_2 nu_e)
     9.30693806E-04    2     1000025        12   # BR(~nu_e -> chi^0_3 nu_e)
     1.63115950E-01    2     1000035        12   # BR(~nu_e -> chi^0_4 nu_e)
     3.20240371E-01    2     1000024        11   # BR(~nu_e -> chi^+_1 e^-)
     2.88043257E-01    2     1000037        11   # BR(~nu_e -> chi^+_2 e^-)
#    BR                NDA      ID1      ID2       ID3
DECAY   1000014     1.43587898E+02   # ~nu_mu
#    BR                NDA      ID1      ID2
     8.84029744E-02    2     1000022        14   # BR(~nu_mu -> chi^0_1 nu_mu)
     1.39093629E-01    2     1000023        14   # BR(~nu_mu -> chi^0_2 nu_mu)
     9.29986117E-04    2     1000025        14   # BR(~nu_mu -> chi^0_3 nu_mu)
     1.62991921E-01    2     1000035        14   # BR(~nu_mu -> chi^0_4 nu_mu)
     3.20416110E-01    2     1000024        13   # BR(~nu_mu -> chi^+_1 mu^-)
     2.88165379E-01    2     1000037        13   # BR(~nu_mu -> chi^+_2 mu^-)
#    BR                NDA      ID1      ID2       ID3
DECAY   1000016     1.74523548E+02   # ~nu_tau
#    BR                NDA      ID1      ID2
     7.27987859E-02    2     1000022        16   # BR(~nu_tau -> chi^0_1 nu_tau)
     1.14543585E-01    2     1000023        16   # BR(~nu_tau -> chi^0_2 nu_tau)
     7.65845603E-04    2     1000025        16   # BR(~nu_tau -> chi^0_3 nu_tau)
     1.34224660E-01    2     1000035        16   # BR(~nu_tau -> chi^0_4 nu_tau)
     3.61176523E-01    2     1000024        15   # BR(~nu_tau -> chi^+_1 tau^-)
     3.16490601E-01    2     1000037        15   # BR(~nu_tau -> chi^+_2 tau^-)
#    BR                NDA      ID1      ID2       ID3
DECAY   2000001     5.16144681E+02   # ~d_R
#    BR                NDA      ID1      ID2
     1.08150342E-02    2     1000022         1   # BR(~d_R -> chi^0_1 d)
     9.89127023E-01    2     1000021         1   # BR(~d_R -> ~g d)
DECAY   1000001     6.46138940E+02   # ~d_L
#    BR                NDA      ID1      ID2
     2.26275499E-03    2     1000022         1   # BR(~d_L -> chi^0_1 d)
     3.27880477E-02    2     1000023         1   # BR(~d_L -> chi^0_2 d)
     1.31168643E-04    2     1000025         1   # BR(~d_L -> chi^0_3 d)
     3.49795968E-02    2     1000035         1   # BR(~d_L -> chi^0_4 d)
     6.12173293E-02    2    -1000024         2   # BR(~d_L -> chi^-_1 u)
     7.47358179E-02    2    -1000037         2   # BR(~d_L -> chi^-_2 u)
     7.93885285E-01    2     1000021         1   # BR(~d_L -> ~g d)
DECAY   2000003     5.16206511E+02   # ~s_R
#    BR                NDA      ID1      ID2
     1.08140348E-02    2     1000022         3   # BR(~s_R -> chi^0_1 s)
     9.89010834E-01    2     1000021         3   # BR(~s_R -> ~g s)
DECAY   1000003     6.46173764E+02   # ~s_L
#    BR                NDA      ID1      ID2
     2.26286163E-03    2     1000022         3   # BR(~s_L -> chi^0_1 s)
     3.27990585E-02    2     1000023         3   # BR(~s_L -> chi^0_2 s)
     1.54517734E-04    2     1000025         3   # BR(~s_L -> chi^0_3 s)
     3.49884408E-02    2     1000035         3   # BR(~s_L -> chi^0_4 s)
     6.12167079E-02    2    -1000024         4   # BR(~s_L -> chi^-_1 c)
     7.47347896E-02    2    -1000037         4   # BR(~s_L -> chi^-_2 c)
     7.93843624E-01    2     1000021         3   # BR(~s_L -> ~g s)
DECAY   1000005     1.07214784E+02   # ~b_1
#    BR                NDA      ID1      ID2
     5.00691228E-03    2     1000022         5   # BR(~b_1 -> chi^0_1 b)
     1.06752581E-01    2     1000023         5   # BR(~b_1 -> chi^0_2 b)
     9.87553739E-02    2     1000025         5   # BR(~b_1 -> chi^0_3 b)
     9.67555091E-02    2     1000035         5   # BR(~b_1 -> chi^0_4 b)
     3.21623498E-01    2    -1000024         6   # BR(~b_1 -> chi^-_1 t)
     3.71106126E-01    2    -1000037         6   # BR(~b_1 -> chi^-_2 t)
DECAY   2000005     9.04447014E+01   # ~b_2
#    BR                NDA      ID1      ID2
     3.18559897E-02    2     1000022         5   # BR(~b_2 -> chi^0_1 b)
     1.16109667E-01    2     1000023         5   # BR(~b_2 -> chi^0_2 b)
     2.13099202E-01    2     1000025         5   # BR(~b_2 -> chi^0_3 b)
     9.78933986E-02    2     1000035         5   # BR(~b_2 -> chi^0_4 b)
     2.35344610E-01    2    -1000024         6   # BR(~b_2 -> chi^-_1 t)
     1.92532807E-01    2    -1000037         6   # BR(~b_2 -> chi^-_2 t)
     1.04011787E-01    2     1000021         5   # BR(~b_2 -> ~g b)
     3.80622881E-03    2     1000006       -24   # BR(~b_2 -> ~t_1 W^-)
     1.92208527E-03    2     1000005        23   # BR(~b_2 -> ~b_1 Z)
     3.39092359E-03    2     1000005        25   # BR(~b_2 -> ~b_1 h^0)
DECAY   2000002     5.33252244E+02   # ~u_R
#    BR                NDA      ID1      ID2
     4.18832816E-02    2     1000022         2   # BR(~u_R -> chi^0_1 u)
     1.05442553E-04    2     1000023         2   # BR(~u_R -> chi^0_2 u)
     9.57893584E-01    2     1000021         2   # BR(~u_R -> ~g u)
DECAY   1000002     6.46128363E+02   # ~u_L
#    BR                NDA      ID1      ID2
     2.06932362E-03    2     1000022         2   # BR(~u_L -> chi^0_1 u)
     3.45002807E-02    2     1000023         2   # BR(~u_L -> chi^0_2 u)
     3.35224535E-02    2     1000035         2   # BR(~u_L -> chi^0_4 u)
     7.15905501E-02    2     1000024         1   # BR(~u_L -> chi^+_1 d)
     6.43957007E-02    2     1000037         1   # BR(~u_L -> chi^+_2 d)
     7.93849856E-01    2     1000021         2   # BR(~u_L -> ~g u)
DECAY   2000004     5.33259560E+02   # ~c_R
#    BR                NDA      ID1      ID2
     4.18827152E-02    2     1000022         4   # BR(~c_R -> chi^0_1 c)
     1.07013892E-04    2     1000023         4   # BR(~c_R -> chi^0_2 c)
     9.57880668E-01    2     1000021         4   # BR(~c_R -> ~g c)
DECAY   1000004     6.46163131E+02   # ~c_L
#    BR                NDA      ID1      ID2
     2.06921678E-03    2     1000022         4   # BR(~c_L -> chi^0_1 c)
     3.44997398E-02    2     1000023         4   # BR(~c_L -> chi^0_2 c)
     3.35221620E-02    2     1000035         4   # BR(~c_L -> chi^0_4 c)
     7.16126769E-02    2     1000024         3   # BR(~c_L -> chi^+_1 s)
     6.44133916E-02    2     1000037         3   # BR(~c_L -> chi^+_2 s)
     7.93808187E-01    2     1000021         4   # BR(~c_L -> ~g c)
DECAY   1000006     1.08808110E+02   # ~t_1
#    BR                NDA      ID1      ID2
     9.40775337E-04    2     1000022         4   # BR(~t_1 -> chi^0_1 c)
     5.30264074E-03    2     1000022         6   # BR(~t_1 -> chi^0_1 t)
     1.43427305E-02    2     1000023         4   # BR(~t_1 -> chi^0_2 c)
     1.77133589E-01    2     1000023         6   # BR(~t_1 -> chi^0_2 t)
     2.38486771E-01    2     1000025         6   # BR(~t_1 -> chi^0_3 t)
     1.57707129E-01    2     1000035         6   # BR(~t_1 -> chi^0_4 t)
     2.57854902E-01    2     1000024         5   # BR(~t_1 -> chi^+_1 b)
     1.46876810E-01    2     1000037         5   # BR(~t_1 -> chi^+_2 b)
#    BR                NDA      ID1      ID2       ID3
     1.35465264E-03    3     1000022        24         5   # BR(~t_1 -> chi^0_1 W^+ b)
DECAY   2000006     1.32529974E+02   # ~t_2
#    BR                NDA      ID1      ID2
     5.26820617E-02    2     1000022         6   # BR(~t_2 -> chi^0_1 t)
     9.20216987E-02    2     1000023         6   # BR(~t_2 -> chi^0_2 t)
     2.25427941E-01    2     1000025         6   # BR(~t_2 -> chi^0_3 t)
     1.37535805E-01    2     1000035         6   # BR(~t_2 -> chi^0_4 t)
     1.83504245E-01    2     1000024         5   # BR(~t_2 -> chi^+_1 b)
     2.67550004E-01    2     1000037         5   # BR(~t_2 -> chi^+_2 b)
     1.92039953E-02    2     1000005        24   # BR(~t_2 -> ~b_1 W^+)
     9.46699520E-03    2     1000006        23   # BR(~t_2 -> ~t_1 Z)
     1.26072549E-02    2     1000006        25   # BR(~t_2 -> ~t_1 h^0)
DECAY   1000024     2.41220135E-01   # chi^+_1
#    BR                NDA      ID1      ID2
     9.94279427E-01    2     1000022        24   # BR(chi^+_1 -> chi^0_1 W^+)
#    BR                NDA      ID1      ID2       ID3
     5.72038190E-03    3     1000022        -5         6   # BR(chi^+_1 -> chi^0_1 b_bar t)
DECAY   1000037     8.24247841E-01   # chi^+_2
#    BR                NDA      ID1      ID2
     3.00961765E-01    2     1000022        24   # BR(chi^+_2 -> chi^0_1 W^+)
     4.31227804E-01    2     1000023        24   # BR(chi^+_2 -> chi^0_2 W^+)
     2.60667614E-01    2     1000024        23   # BR(chi^+_2 -> chi^+_1 Z)
#    BR                NDA      ID1      ID2       ID3
     2.78025818E-03    3     1000022        -5         6   # BR(chi^+_2 -> chi^0_1 b_bar t)
     1.45527126E-03    3     1000025        -1         2   # BR(chi^+_2 -> chi^0_3 d_bar u)
     1.45320279E-03    3     1000025        -3         4   # BR(chi^+_2 -> chi^0_3 s_bar c)
     4.85089466E-04    3     1000025       -11        12   # BR(chi^+_2 -> chi^0_3 e^+ nu_e)
     4.85085888E-04    3     1000025       -13        14   # BR(chi^+_2 -> chi^0_3 mu^+ nu_mu)
     4.83777374E-04    3     1000025       -15        16   # BR(chi^+_2 -> chi^0_3 tau^+ nu_tau)
DECAY   1000022     0.00000000E+00   # chi^0_1
DECAY   1000023     2.21216618E-01   # chi^0_2
#    BR                NDA      ID1      ID2
     2.05194882E-01    2     1000022        23   # BR(chi^0_2 -> chi^0_1 Z)
     7.94446168E-01    2     1000022        25   # BR(chi^0_2 -> chi^0_1 h^0)
#    BR                NDA      ID1      ID2       ID3
     3.53830688E-04    3     1000022         6        -6   # BR(chi^0_2 -> chi^0_1 t t_bar)
DECAY   1000025     7.55258922E-01   # chi^0_3
#    BR                NDA      ID1      ID2
     5.61718128E-01    2     1000022        23   # BR(chi^0_3 -> chi^0_1 Z)
     4.30891506E-01    2     1000022        25   # BR(chi^0_3 -> chi^0_1 h^0)
#    BR                NDA      ID1      ID2       ID3
     6.08524859E-04    3     1000022         6        -6   # BR(chi^0_3 -> chi^0_1 t t_bar)
     1.98034250E-04    3     1000023         2        -2   # BR(chi^0_3 -> chi^0_2 u u_bar)
     1.96878244E-04    3     1000023         4        -4   # BR(chi^0_3 -> chi^0_2 c c_bar)
     2.53917325E-04    3     1000023         1        -1   # BR(chi^0_3 -> chi^0_2 d d_bar)
     2.53910314E-04    3     1000023         3        -3   # BR(chi^0_3 -> chi^0_2 s s_bar)
     2.40882111E-04    3     1000023         5        -5   # BR(chi^0_3 -> chi^0_2 b b_bar)
     3.39563898E-04    3     1000023        12       -12   # BR(chi^0_3 -> chi^0_2 nu_e nu_bar_e)
     8.37346518E-04    3     1000024         1        -2   # BR(chi^0_3 -> chi^+_1 d u_bar)
     8.37346518E-04    3    -1000024        -1         2   # BR(chi^0_3 -> chi^-_1 d_bar u)
     8.35777940E-04    3     1000024         3        -4   # BR(chi^0_3 -> chi^+_1 s c_bar)
     8.35777940E-04    3    -1000024        -3         4   # BR(chi^0_3 -> chi^-_1 s_bar c)
     2.79116090E-04    3     1000024        11       -12   # BR(chi^0_3 -> chi^+_1 e^- nu_bar_e)
     2.79116090E-04    3    -1000024       -11        12   # BR(chi^0_3 -> chi^-_1 e^+ nu_e)
     2.79113485E-04    3     1000024        13       -14   # BR(chi^0_3 -> chi^+_1 mu^- nu_bar_mu)
     2.79113485E-04    3    -1000024       -13        14   # BR(chi^0_3 -> chi^-_1 mu^+ nu_mu)
     2.78123460E-04    3     1000024        15       -16   # BR(chi^0_3 -> chi^+_1 tau^- nu_bar_tau)
     2.78123460E-04    3    -1000024       -15        16   # BR(chi^0_3 -> chi^-_1 tau^+ nu_tau)
DECAY   1000035     8.99660263E-01   # chi^0_4
#    BR                NDA      ID1      ID2
     3.68132837E-01    2     1000024       -24   # BR(chi^0_4 -> chi^+_1 W^-)
     3.68132837E-01    2    -1000024        24   # BR(chi^0_4 -> chi^-_1 W^+)
     6.40907536E-02    2     1000022        23   # BR(chi^0_4 -> chi^0_1 Z)
     1.96476711E-01    2     1000022        25   # BR(chi^0_4 -> chi^0_1 h^0)
#    BR                NDA      ID1      ID2       ID3
     4.91853915E-04    3     1000022         6        -6   # BR(chi^0_4 -> chi^0_1 t t_bar)
     3.12659068E-04    3     1000025         2        -2   # BR(chi^0_4 -> chi^0_3 u u_bar)
     3.11244616E-04    3     1000025         4        -4   # BR(chi^0_4 -> chi^0_3 c c_bar)
     4.00895074E-04    3     1000025         1        -1   # BR(chi^0_4 -> chi^0_3 d d_bar)
     4.00886558E-04    3     1000025         3        -3   # BR(chi^0_4 -> chi^0_3 s s_bar)
     3.85006571E-04    3     1000025         5        -5   # BR(chi^0_4 -> chi^0_3 b b_bar)
     5.36106172E-04    3     1000025        12       -12   # BR(chi^0_4 -> chi^0_3 nu_e nu_bar_e)
DECAY   1000021     1.29338324E+02   # ~g
#    BR                NDA      ID1      ID2
     4.60888163E-02    2     1000006        -4   # BR(~g -> ~t_1 c_bar)
     4.60888163E-02    2    -1000006         4   # BR(~g -> ~t^*_1 c)
     1.65701076E-01    2     1000006        -6   # BR(~g -> ~t_1 t_bar)
     1.65701076E-01    2    -1000006         6   # BR(~g -> ~t^*_1 t)
     1.16497911E-01    2     2000006        -6   # BR(~g -> ~t_2 t_bar)
     1.16497911E-01    2    -2000006         6   # BR(~g -> ~t^*_2 t)
     1.71180104E-01    2     1000005        -5   # BR(~g -> ~b_1 b_bar)
     1.71180104E-01    2    -1000005         5   # BR(~g -> ~b^*_1 b)
#    BR                NDA      ID1      ID2       ID3
     1.15136866E-04    3     1000023         5        -5   # BR(~g -> chi^0_2 b b_bar)
     2.08546894E-04    3     1000025         5        -5   # BR(~g -> chi^0_3 b b_bar)
     1.15987530E-04    3     1000024         5        -6   # BR(~g -> chi^+_1 b t_bar)
     1.15987530E-04    3    -1000024        -5         6   # BR(~g -> chi^-_1 b_bar t)
DECAY        25     3.45947770E-03   # Gamma(h0)
     2.32209705E-03   2        22        22   # BR(h0 -> photon photon)
     1.18572813E-03   2        22        23   # BR(h0 -> photon Z)
     1.92003530E-02   2        23        23   # BR(h0 -> Z Z)
     1.70911906E-01   2       -24        24   # BR(h0 -> W W)
     7.46356056E-02   2        21        21   # BR(h0 -> gluon gluon)
     5.60582500E-09   2       -11        11   # BR(h0 -> Electron electron)
     2.49354853E-04   2       -13        13   # BR(h0 -> Muon muon)
     7.18925243E-02   2       -15        15   # BR(h0 -> Tau tau)
     1.59776751E-07   2        -2         2   # BR(h0 -> Up up)
     3.10027880E-02   2        -4         4   # BR(h0 -> Charm charm)
     6.52376111E-07   2        -1         1   # BR(h0 -> Down down)
     2.35949231E-04   2        -3         3   # BR(h0 -> Strange strange)
     6.28362876E-01   2        -5         5   # BR(h0 -> Bottom bottom)
DECAY        35     8.55313557E+01   # Gamma(HH)
     2.34453178E-08   2        22        22   # BR(HH -> photon photon)
     8.40781347E-08   2        22        23   # BR(HH -> photon Z)
     3.09286103E-07   2        23        23   # BR(HH -> Z Z)
     1.00868292E-07   2       -24        24   # BR(HH -> W W)
     6.52664918E-06   2        21        21   # BR(HH -> gluon gluon)
     8.24317708E-09   2       -11        11   # BR(HH -> Electron electron)
     3.67020781E-04   2       -13        13   # BR(HH -> Muon muon)
     1.05999138E-01   2       -15        15   # BR(HH -> Tau tau)
     6.02081437E-14   2        -2         2   # BR(HH -> Up up)
     1.16793883E-08   2        -4         4   # BR(HH -> Charm charm)
     7.57895754E-04   2        -6         6   # BR(HH -> Top top)
     5.92993208E-07   2        -1         1   # BR(HH -> Down down)
     2.14490050E-04   2        -3         3   # BR(HH -> Strange strange)
     5.45718711E-01   2        -5         5   # BR(HH -> Bottom bottom)
     4.88824321E-02   2  -1000024   1000024   # BR(HH -> Chargino1 chargino1)
     6.56202455E-02   2  -1000024   1000037   # BR(HH -> Chargino1 chargino2)
     6.56202455E-02   2  -1000037   1000024   # BR(HH -> Chargino2 chargino1)
     2.89653773E-02   2  -1000037   1000037   # BR(HH -> Chargino2 chargino2)
     3.42113059E-04   2   1000022   1000022   # BR(HH -> neutralino1 neutralino1)
     9.22384459E-03   2   1000022   1000023   # BR(HH -> neutralino1 neutralino2)
     1.80960070E-02   2   1000022   1000025   # BR(HH -> neutralino1 neutralino3)
     6.87939641E-03   2   1000022   1000035   # BR(HH -> neutralino1 neutralino4)
     2.17188520E-02   2   1000023   1000023   # BR(HH -> neutralino2 neutralino2)
     3.52814740E-02   2   1000023   1000025   # BR(HH -> neutralino2 neutralino3)
     2.47813480E-03   2   1000023   1000035   # BR(HH -> neutralino2 neutralino4)
     2.91047786E-04   2   1000025   1000025   # BR(HH -> neutralino3 neutralino3)
     2.57114549E-02   2   1000025   1000035   # BR(HH -> neutralino3 neutralino4)
     1.78233422E-02   2   1000035   1000035   # BR(HH -> neutralino4 neutralino4)
     1.12047033E-06   2        25        25   # BR(HH -> h0 h0)
DECAY        36     8.25780596E+01   # Gamma(A0)
     8.39631617E-08   2        22        22   # BR(A0 -> photon photon)
     1.49308847E-07   2        22        23   # BR(A0 -> photon Z)
     1.28131216E-05   2        21        21   # BR(A0 -> gluon gluon)
     8.08586048E-09   2       -11        11   # BR(A0 -> Electron electron)
     3.60014785E-04   2       -13        13   # BR(A0 -> Muon muon)
     1.03975922E-01   2       -15        15   # BR(A0 -> Tau tau)
     5.50798090E-14   2        -2         2   # BR(A0 -> Up up)
     1.06838625E-08   2        -4         4   # BR(A0 -> Charm charm)
     7.00213997E-04   2        -6         6   # BR(A0 -> Top top)
     5.81651867E-07   2        -1         1   # BR(A0 -> Down down)
     2.10388241E-04   2        -3         3   # BR(A0 -> Strange strange)
     5.35288206E-01   2        -5         5   # BR(A0 -> Bottom bottom)
     6.90642081E-02   2  -1000024   1000024   # BR(A0 -> Chargino1 chargino1)
     5.00746712E-02   2  -1000024   1000037   # BR(A0 -> Chargino1 chargino2)
     5.00746712E-02   2  -1000037   1000024   # BR(A0 -> Chargino2 chargino1)
     4.74161385E-02   2  -1000037   1000037   # BR(A0 -> Chargino2 chargino2)
     3.76274463E-04   2   1000022   1000022   # BR(A0 -> neutralino1 neutralino1)
     1.11655511E-02   2   1000022   1000023   # BR(A0 -> neutralino1 neutralino2)
     1.55135326E-02   2   1000022   1000025   # BR(A0 -> neutralino1 neutralino3)
     8.80137247E-03   2   1000022   1000035   # BR(A0 -> neutralino1 neutralino4)
     3.08402640E-02   2   1000023   1000023   # BR(A0 -> neutralino2 neutralino2)
     2.52949166E-02   2   1000023   1000025   # BR(A0 -> neutralino2 neutralino3)
     3.85970694E-03   2   1000023   1000035   # BR(A0 -> neutralino2 neutralino4)
     3.66617369E-04   2   1000025   1000025   # BR(A0 -> neutralino3 neutralino3)
     1.77976736E-02   2   1000025   1000035   # BR(A0 -> neutralino3 neutralino4)
     2.88055090E-02   2   1000035   1000035   # BR(A0 -> neutralino4 neutralino4)
     5.01177186E-07   2        23        25   # BR(A0 -> Z h0)
     1.01399463E-38   2        25        25   # BR(A0 -> h0 h0)
DECAY        37     8.56250478E+01   # Gamma(Hp)
     8.64160971E-09   2       -11        12   # BR(Hp -> Electron nu_e)
     3.69455805E-04   2       -13        14   # BR(Hp -> Muon nu_mu)
     1.04503102E-01   2       -15        16   # BR(Hp -> Tau nu_tau)
     5.43691218E-07   2        -1         2   # BR(Hp -> Down up)
     9.17230391E-06   2        -3         2   # BR(Hp -> Strange up)
     5.79555729E-06   2        -5         2   # BR(Hp -> Bottom up)
     2.58696692E-08   2        -1         4   # BR(Hp -> Down charm)
     1.95970717E-04   2        -3         4   # BR(Hp -> Strange charm)
     8.11585355E-04   2        -5         4   # BR(Hp -> Bottom charm)
     5.41933431E-08   2        -1         6   # BR(Hp -> Down top)
     1.47131038E-06   2        -3         6   # BR(Hp -> Strange top)
     5.47908394E-01   2        -5         6   # BR(Hp -> Bottom top)
     1.94824479E-02   2   1000022   1000024   # BR(Hp -> neutralino1 chargino1)
     1.47856610E-02   2   1000022   1000037   # BR(Hp -> neutralino1 chargino2)
     8.73509197E-05   2   1000023   1000024   # BR(Hp -> neutralino2 chargino1)
     1.11580770E-01   2   1000023   1000037   # BR(Hp -> neutralino2 chargino2)
     6.76459367E-02   2   1000024   1000025   # BR(Hp -> chargino1 neutralino3)
     3.57238020E-02   2   1000025   1000037   # BR(Hp -> neutralino3 chargino2)
     9.66898718E-02   2   1000024   1000035   # BR(Hp -> chargino1 neutralino4)
     1.98097080E-04   2   1000035   1000037   # BR(Hp -> neutralino4 chargino2)
     4.83955739E-07   2        24        25   # BR(Hp -> W h0)
     5.70722797E-14   2        24        35   # BR(Hp -> W HH)
DECAY         6     2.43000000E+00   # top
#    BR                NDA      ID1      ID2
     1.00000000E+00    2           5        24   # BR(t -> b W)
Block HiggsBoundsInputHiggsCouplingsFermions
# ScalarNormEffCoupSq PseudoSNormEffCoupSq NP IP1 IP2 IP2
    9.53117700E-01    0.00000000E+00        3  25   5   5  # h0-b-b eff. coupling^2, normalised to SM
    1.49680512E+03    0.00000000E+00        3  35   5   5  # H0-b-b eff. coupling^2, normalised to SM
    0.00000000E+00    1.49675824E+03        3  36   5   5  # A0-b-b eff. coupling^2, normalised to SM
#
    1.00003132E+00    0.00000000E+00        3  25   6   6  # h0-t-t eff. coupling^2, normalised to SM
    6.36788009E-04    0.00000000E+00        3  35   6   6  # H0-t-t eff. coupling^2, normalised to SM
    0.00000000E+00    6.68110569E-04        3  36   6   6  # A0-t-t eff. coupling^2, normalised to SM
#
    9.53117700E-01    0.00000000E+00        3  25  15  15  # h0-tau-tau eff. coupling^2, normalised to SM
    1.49680512E+03    0.00000000E+00        3  35  15  15  # H0-tau-tau eff. coupling^2, normalised to SM
    0.00000000E+00    1.49675824E+03        3  36  15  15  # A0-tau-tau eff. coupling^2, normalised to SM
#
Block HiggsBoundsInputHiggsCouplingsBosons
    9.99999624E-01        3  25  24  24  # h0-W-W eff. coupling^2, normalised to SM
    3.75978873E-07        3  35  24  24  # H0-W-W eff. coupling^2, normalised to SM
    0.00000000E+00        3  36  24  24  # A0-W-W eff. coupling^2, normalised to SM
#
    9.99999624E-01        3  25  23  23  # h0-Z-Z eff. coupling^2, normalised to SM
    3.75978873E-07        3  35  23  23  # H0-Z-Z eff. coupling^2, normalised to SM
    0.00000000E+00        3  36  23  23  # A0-Z-Z eff. coupling^2, normalised to SM
#
    1.26524314E+00        3  25  21  21  # h0-g-g eff. coupling^2, normalised to SM
    7.18632202E-03        3  35  21  21  # H0-g-g eff. coupling^2, normalised to SM
    1.21386524E-01        3  36  21  21  # A0-g-g eff. coupling^2, normalised to SM
#
    0.00000000E+00        3  25  25  23  # h0-h0-Z eff. coupling^2, normalised to SM
    0.00000000E+00        3  35  25  23  # H0-h0-Z eff. coupling^2, normalised to SM
    3.75978873E-07        3  36  25  23  # A0-h0-Z eff. coupling^2, normalised to SM
    0.00000000E+00        3  35  35  23  # H0-H0-Z eff. coupling^2, normalised to SM
    9.99999624E-01        3  36  35  23  # A0-H0-Z eff. coupling^2, normalised to SM
    0.00000000E+00        3  36  36  23  # A0-A0-Z eff. coupling^2, normalised to SM
#
    0.00000000E+00        4  25  21  21  23  # h0-g-g-Z eff. coupling^2, normalised to SM
    0.00000000E+00        4  35  21  21  23  # H0-g-g-Z eff. coupling^2, normalised to SM
    0.00000000E+00        4  36  21  21  23  # A0-g-g-Z eff. coupling^2, normalised to SM
Block SPhenoLowEnergy  # low energy observables
    1    3.17791068E-04   # BR(b -> s gamma)
    2    1.59026140E-06   # BR(b -> s mu+ mu-)
    3    3.52442832E-05   # BR(b -> s nu nu)
    4    2.80631009E-15   # BR(Bd -> e+ e-)
    5    1.19881564E-10   # BR(Bd -> mu+ mu-)
    6    2.50485461E-08   # BR(Bd -> tau+ tau-)
    7    9.40888118E-14   # BR(Bs -> e+ e-)
    8    4.01944526E-09   # BR(Bs -> mu+ mu-)
    9    8.51041286E-07   # BR(Bs -> tau+ tau-)
   10    9.57668078E-05   # BR(B_u -> tau nu)
   11    9.89234461E-01   # BR(B_u -> tau nu)/BR(B_u -> tau nu)_SM
   12    5.41983693E-01   # |Delta(M_Bd)| [ps^-1] 
   13    1.93590989E+01   # |Delta(M_Bs)| [ps^-1] 
   14    0.00000000E+00   # neutron EDM according to the chiral quark model
   15    0.00000000E+00   # neutron EDM according to the relativistic quark-parton model
   16    2.15742171E-03   # epsilon_K
   17    2.28166041E-15   # Delta(M_K)
   18    2.47924552E-11   # BR(K^0 -> pi^0 nu nu)
   19    8.28874357E-11   # BR(K^+ -> pi^+ nu nu)
   20    3.55257752E-16   # Delta(g-2)_electron/2
   21    1.51885010E-11   # Delta(g-2)_muon/2
   22    4.30596822E-09   # Delta(g-2)_tau/2
   23    0.00000000E+00   # electric dipole moment of the electron
   24    0.00000000E+00   # electric dipole moment of the muon
   25    0.00000000E+00   # electric dipole moment of the tau
   26    0.00000000E+00   # Br(mu -> e gamma)
   27    0.00000000E+00   # Br(tau -> e gamma)
   28    0.00000000E+00   # Br(tau -> mu gamma)
   29    0.00000000E+00   # Br(mu -> 3 e)
   30    0.00000000E+00   # Br(tau -> 3 e)
   31    0.00000000E+00   # Br(tau -> 3 mu)
   39    7.14851980E-05   # Delta(rho_parameter)
   40    0.00000000E+00   # BR(Z -> e mu)
   41    0.00000000E+00   # BR(Z -> e tau)
   42    0.00000000E+00   # BR(Z -> mu tau)
Block FWCOEF Q=  1.60000000E+02  # Wilson coefficients at scale Q
#    id        order  M        value         comment
     0305 4422   00   0    -1.88819110E-01   # C7
     0305 4422   00   2    -1.84340314E-01   # C7
     0305 4322   00   2    -7.91809800E-05   # C7'
     0305 6421   00   0    -9.52278348E-02   # C8
     0305 6421   00   2    -9.97370675E-02   # C8
     0305 6321   00   2    -1.69180274E-04   # C8'
 03051111 4133   00   0     1.61783250E+00   # C9 e+e-
 03051111 4133   00   2     1.61821688E+00   # C9 e+e-
 03051111 4233   00   2     3.24993014E-04   # C9' e+e-
 03051111 4137   00   0    -4.44052460E+00   # C10 e+e-
 03051111 4137   00   2    -4.43812624E+00   # C10 e+e-
 03051111 4237   00   2    -2.43563766E-03   # C10' e+e-
 03051313 4133   00   0     1.61783250E+00   # C9 mu+mu-
 03051313 4133   00   2     1.61821676E+00   # C9 mu+mu-
 03051313 4233   00   2     3.24992561E-04   # C9' mu+mu-
 03051313 4137   00   0    -4.44052460E+00   # C10 mu+mu-
 03051313 4137   00   2    -4.43812636E+00   # C10 mu+mu-
 03051313 4237   00   2    -2.43563761E-03   # C10' mu+mu-
 03051212 4137   00   0     1.50535012E+00   # C11 nu_1 nu_1
 03051212 4137   00   2     1.50483198E+00   # C11 nu_1 nu_1
 03051212 4237   00   2     5.27726509E-04   # C11' nu_1 nu_1
 03051414 4137   00   0     1.50535012E+00   # C11 nu_2 nu_2
 03051414 4137   00   2     1.50483198E+00   # C11 nu_2 nu_2
 03051414 4237   00   2     5.27726585E-04   # C11' nu_2 nu_2
 03051616 4137   00   0     1.50535012E+00   # C11 nu_3 nu_3
 03051616 4137   00   2     1.50483198E+00   # C11 nu_3 nu_3
 03051616 4237   00   2     5.27748030E-04   # C11' nu_3 nu_3
Block IMFWCOEF Q=  1.60000000E+02  # Im(Wilson coefficients) at scale Q
#    id        order  M        value         comment
     0305 4422   00   0     3.85833894E-07   # C7
     0305 4422   00   2     1.20267267E-05   # C7
     0305 4322   00   2     1.16000988E-06   # C7'
     0305 6421   00   0     3.30492246E-07   # C8
     0305 6421   00   2    -1.74653329E-06   # C8
     0305 6321   00   2     2.84235819E-07   # C8'
 03051111 4133   00   2     5.62213778E-07   # C9 e+e-
 03051111 4233   00   2     6.57776281E-06   # C9' e+e-
 03051111 4137   00   2     1.88421746E-07   # C10 e+e-
 03051111 4237   00   2    -4.93011029E-05   # C10' e+e-
 03051313 4133   00   2     5.62210529E-07   # C9 mu+mu-
 03051313 4233   00   2     6.57776099E-06   # C9' mu+mu-
 03051313 4137   00   2     1.88424983E-07   # C10 mu+mu-
 03051313 4237   00   2    -4.93011083E-05   # C10' mu+mu-
 03051212 4137   00   2    -1.38784830E-08   # C11 nu_1 nu_1
 03051212 4237   00   2     1.06820083E-05   # C11' nu_1 nu_1
 03051414 4137   00   2    -1.38783255E-08   # C11 nu_2 nu_2
 03051414 4237   00   2     1.06820083E-05   # C11' nu_2 nu_2
 03051616 4137   00   2    -1.38339588E-08   # C11 nu_3 nu_3
 03051616 4237   00   2     1.06820083E-05   # C11' nu_3 nu_3
