# SUSY Les Houches Accord 2 - MSSM spectrum + Decays
# SPheno v4.0.5be
# W. Porod, Comput. Phys. Commun. 153 (2003) 275-315, hep-ph/0301101;
# W. Porod, F.~Staub, Comput. Phys. Commun. 183 (2012) 2458
#                     arXiv:1104.1573 [hep-ph] 
# in case of problems send email to porod@physik.uni-wuerzburg.de
# Created: 12.05.2022,  13:49
Block SPINFO         # Program information
     1   SPheno      # spectrum calculator
     2   v4.0.5be    # version number
#
Block SPhenoINFO     # SPheno specific information
    1      2         # using 2-loop RGEs
    2      2         # using pole masses for boundary conditions at mZ
Block MODSEL  # Model selection
    1    0    # general MSSM
Block MINPAR  # Input parameters
    3    1.77565220E+01  # tanb at m_Z    
    4   -1.00000000E+00  # Sign(mu)
Block EXTPAR  # non-universal input parameters
    0    4.27775763E+03  # scale for input parameters
    1    1.73530000E+03  # M_1
    2    4.98799932E+02  # M_2
    3    1.44678939E+03  # M_3
   11   -4.99110245E+03  # A_t
   12    1.14690853E+03  # A_b
   13   -9.49093104E+02  # A_tau
   23   -9.97749127E+01  # mu
   25    1.69275607E+01  # tan(beta)
   26    1.29610344E+03  # m_A, pole mass
   31    1.00000000E+04  # M_L11
   32    1.00000000E+04  # M_L22
   33    1.00000000E+04  # M_L33
   34    1.00000000E+04  # M_E11
   35    1.00000000E+04  # M_E22
   36    1.00000000E+04  # M_E33
   41    1.00000000E+04  # M_Q11
   42    1.00000000E+04  # M_Q22
   43    4.22055788E+03  # M_Q33
   44    1.00000000E+04  # M_U11
   45    1.00000000E+04  # M_U22
   46    4.39115351E+03  # M_U33
   47    1.00000000E+04  # M_D11
   48    1.00000000E+04  # M_D22
   49    2.78679440E+03  # M_D33
Block SMINPUTS  # SM parameters
         1     1.27908970E+02  # alpha_em^-1(MZ)^MSbar
         2     1.16637870E-05  # G_mu [GeV^-2]
         3     1.18400000E-01  # alpha_s(MZ)^MSbar
         4     9.11876000E+01  # m_Z(pole)
         5     4.18000000E+00  # m_b(m_b), MSbar
         6     1.73200000E+02  # m_t(pole)
         7     1.77700000E+00  # m_tau(pole)
         8     0.00000000E+00  # m_nu_3
        11     5.10998930E-04  # m_e(pole)
        12     0.00000000E+00  # m_nu_1
        13     1.05658372E-01  # m_muon(pole)
        14     0.00000000E+00  # m_nu_2
        21     5.00000000E-03  # m_d(2 GeV), MSbar
        22     2.50000000E-03  # m_u(2 GeV), MSbar
        23     9.50000000E-02  # m_s(2 GeV), MSbar
        24     1.27000000E+00  # m_c(m_c), MSbar
Block gauge Q=  4.27775763E+03  # (SUSY scale)
   1    3.55362975E-01  # g'(Q)^DRbar
   2    6.65198874E-01  # g(Q)^DRbar
   3    1.21977796E+00  # g3(Q)^DRbar
Block Yu Q=  4.27775763E+03  # (SUSY scale)
  1  1     8.39898964E-06   # Y_u(Q)^DRbar
  2  2     4.26668674E-03   # Y_c(Q)^DRbar
  3  3     1.01466541E+00   # Y_t(Q)^DRbar
Block Yd Q=  4.27775763E+03  # (SUSY scale)
  1  1     2.85694364E-04   # Y_d(Q)^DRbar
  2  2     5.42819292E-03   # Y_s(Q)^DRbar
  3  3     2.83319285E-01   # Y_b(Q)^DRbar
Block Ye Q=  4.27775763E+03  # (SUSY scale)
  1  1     4.98557557E-05   # Y_e(Q)^DRbar
  2  2     1.03085891E-02   # Y_mu(Q)^DRbar
  3  3     1.73373509E-01   # Y_tau(Q)^DRbar
Block Au Q=  4.27775763E+03  # (SUSY scale)
  1  1     0.00000000E+00   # A_u(Q)^DRbar
  2  2     0.00000000E+00   # A_c(Q)^DRbar
  3  3    -4.99110243E+03   # A_t(Q)^DRbar
Block Ad Q=  4.27775763E+03  # (SUSY scale)
  1  1     0.00000000E+00   # A_d(Q)^DRbar
  2  2     0.00000000E+00   # A_s(Q)^DRbar
  3  3     1.14690852E+03   # A_b(Q)^DRbar
Block Ae Q=  4.27775763E+03  # (SUSY scale)
  1  1     0.00000000E+00   # A_e(Q)^DRbar
  2  2     0.00000000E+00   # A_mu(Q)^DRbar
  3  3    -9.49093098E+02   # A_tau(Q)^DRbar
Block MSOFT Q=  4.27775763E+03  # soft SUSY breaking masses at Q
   1    1.73530000E+03  # M_1
   2    4.98799932E+02  # M_2
   3    1.44678939E+03  # M_3
  21    1.66109018E+06  # M^2_(H,d)
  22    4.12932443E+05  # M^2_(H,u)
  31    1.00000000E+04  # M_(L,11)
  32    1.00000000E+04  # M_(L,22)
  33    1.00000000E+04  # M_(L,33)
  34    1.00000000E+04  # M_(E,11)
  35    1.00000000E+04  # M_(E,22)
  36    1.00000000E+04  # M_(E,33)
  41    1.00000000E+04  # M_(Q,11)
  42    1.00000000E+04  # M_(Q,22)
  43    4.22055788E+03  # M_(Q,33)
  44    1.00000000E+04  # M_(U,11)
  45    1.00000000E+04  # M_(U,22)
  46    4.39115351E+03  # M_(U,33)
  47    1.00000000E+04  # M_(D,11)
  48    1.00000000E+04  # M_(D,22)
  49    2.78679440E+03  # M_(D,33)
Block MASS  # Mass spectrum
#   PDG code      mass          particle
         6     1.73200000E+02  # m_t(pole)
        23     9.11876000E+01  # m_Z(pole)
        24     8.04299946E+01  # W+
        15     1.77700000E+00  # m_tau(pole)
        25     1.26322347E+02  # h0
        35     1.29602233E+03  # H0
        36     1.29610344E+03  # A0
        37     1.29858114E+03  # H+
   1000001     1.01220246E+04  # ~d_L
   2000001     1.00966423E+04  # ~d_R
   1000002     1.01216626E+04  # ~u_L
   2000002     1.00995642E+04  # ~u_R
   1000003     1.01220249E+04  # ~s_L
   2000003     1.00966427E+04  # ~s_R
   1000004     1.01216629E+04  # ~c_L
   2000004     1.00995645E+04  # ~c_R
   1000005     2.84018265E+03  # ~b_1
   2000005     4.22732761E+03  # ~b_2
   1000006     4.18355973E+03  # ~t_1
   2000006     4.37407650E+03  # ~t_2
   1000011     1.00213395E+04  # ~e_L-
   2000011     1.00088281E+04  # ~e_R-
   1000012     1.00205684E+04  # ~nu_eL
   1000013     1.00213405E+04  # ~mu_L-
   2000013     1.00088300E+04  # ~mu_R-
   1000014     1.00205694E+04  # ~nu_muL
   1000015     1.00093629E+04  # ~tau_1-
   2000015     1.00216153E+04  # ~tau_2-
   1000016     1.00208441E+04  # ~nu_tauL
   1000021     1.81247351E+03  # ~g
   1000022     1.17458897E+02  # ~chi_10
   1000023     1.30455932E+02  # ~chi_20
   1000025     5.58522305E+02  # ~chi_30
   1000035     1.74373405E+03  # ~chi_40
   1000024     1.23313056E+02  # ~chi_1+
   1000037     5.58365753E+02  # ~chi_2+
# Higgs mixing
Block alpha # Effective Higgs mixing angle
          -5.70246127E-02   # alpha
Block Hmix Q=  4.27775763E+03  # Higgs mixing parameters
   1   -9.97749127E+01  # mu
   2    1.69275607E+01  # tan[beta](Q)
   3    2.42849466E+02  # v(Q)
   4    1.67988413E+06  # m^2_A(Q)
Block stopmix # stop mixing matrix
   1  1     8.86974428E-01   # Re[R_st(1,1)]
   1  2     4.61818540E-01   # Re[R_st(1,2)]
   2  1    -4.61818540E-01   # Re[R_st(2,1)]
   2  2     8.86974428E-01   # Re[R_st(2,2)]
Block sbotmix # sbottom mixing matrix
   1  1    -5.32878371E-04   # Re[R_sb(1,1)]
   1  2     9.99999858E-01   # Re[R_sb(1,2)]
   2  1    -9.99999858E-01   # Re[R_sb(2,1)]
   2  2    -5.32878371E-04   # Re[R_sb(2,2)]
Block staumix # stau mixing matrix
   1  1    -4.11808476E-03   # Re[R_sta(1,1)]
   1  2     9.99991521E-01   # Re[R_sta(1,2)]
   2  1    -9.99991521E-01   # Re[R_sta(2,1)]
   2  2    -4.11808476E-03   # Re[R_sta(2,2)]
Block Nmix # neutralino mixing matrix
   1  1     1.74127369E-02   # Re[N(1,1)]
   1  2    -1.18868441E-01   # Re[N(1,2)]
   1  3    -7.24250092E-01   # Re[N(1,3)]
   1  4    -6.78991086E-01   # Re[N(1,4)]
   2  1     1.79840726E-02   # Re[N(2,1)]
   2  2    -9.08447696E-02   # Re[N(2,2)]
   2  3     6.89128036E-01   # Re[N(2,3)]
   2  4    -7.18697677E-01   # Re[N(2,4)]
   3  1    -5.45638203E-03   # Re[N(3,1)]
   3  2    -9.88743980E-01   # Re[N(3,2)]
   3  3     2.37535843E-02   # Re[N(3,3)]
   3  4     1.47618888E-01   # Re[N(3,4)]
   4  1     9.99671745E-01   # Re[N(4,1)]
   4  2    -1.69193645E-03   # Re[N(4,2)]
   4  3     3.47570394E-04   # Re[N(4,3)]
   4  4     2.55620603E-02   # Re[N(4,4)]
Block Umix # chargino mixing matrix
   1  1    -3.44076037E-02   # Re[U(1,1)]
   1  2    -9.99407883E-01   # Re[U(1,2)]
   2  1     9.99407883E-01   # Re[U(2,1)]
   2  2    -3.44076037E-02   # Re[U(2,2)]
Block Vmix # chargino mixing matrix
   1  1    -2.11721325E-01   # Re[V(1,1)]
   1  2     9.77330078E-01   # Re[V(1,2)]
   2  1     9.77330078E-01   # Re[V(2,1)]
   2  2     2.11721325E-01   # Re[V(2,2)]
DECAY        23     2.49520000E+00   # Z
DECAY        24     2.08500000E+00   # W
DECAY   2000011     4.72860979E+01   # ~e^-_R
#    BR                NDA      ID1      ID2
     3.22385935E-04    2     1000022        11   # BR(~e^-_R -> chi^0_1 e^-)
     3.43865847E-04    2     1000023        11   # BR(~e^-_R -> chi^0_2 e^-)
     9.99302271E-01    2     1000035        11   # BR(~e^-_R -> chi^0_4 e^-)
DECAY   1000011     1.43354854E+02   # ~e^-_L
#    BR                NDA      ID1      ID2
     3.69275580E-03    2     1000022        11   # BR(~e^-_L -> chi^0_1 e^-)
     2.02992835E-03    2     1000023        11   # BR(~e^-_L -> chi^0_2 e^-)
     3.00703818E-01    2     1000025        11   # BR(~e^-_L -> chi^0_3 e^-)
     8.19996798E-02    2     1000035        11   # BR(~e^-_L -> chi^0_4 e^-)
     7.28322717E-04    2    -1000024        12   # BR(~e^-_L -> chi^-_1 nu_e)
     6.10845495E-01    2    -1000037        12   # BR(~e^-_L -> chi^-_2 nu_e)
#    BR                NDA      ID1      ID2       ID3
DECAY   2000013     4.73284135E+01   # ~mu^-_R
#    BR                NDA      ID1      ID2
     5.56540904E-04    2     1000022        13   # BR(~mu^-_R -> chi^0_1 mu^-)
     5.55800680E-04    2     1000023        13   # BR(~mu^-_R -> chi^0_2 mu^-)
     9.98409023E-01    2     1000035        13   # BR(~mu^-_R -> chi^0_4 mu^-)
     4.46420008E-04    2    -1000024        14   # BR(~mu^-_R -> chi^-_1 nu_mu)
DECAY   1000013     1.43376048E+02   # ~mu^-_L
#    BR                NDA      ID1      ID2
     3.76969697E-03    2     1000022        13   # BR(~mu^-_L -> chi^0_1 mu^-)
     2.09977709E-03    2     1000023        13   # BR(~mu^-_L -> chi^0_2 mu^-)
     3.00659481E-01    2     1000025        13   # BR(~mu^-_L -> chi^0_3 mu^-)
     8.19875678E-02    2     1000035        13   # BR(~mu^-_L -> chi^0_4 mu^-)
     7.28215129E-04    2    -1000024        14   # BR(~mu^-_L -> chi^-_1 nu_mu)
     6.10755262E-01    2    -1000037        14   # BR(~mu^-_L -> chi^-_2 nu_mu)
#    BR                NDA      ID1      ID2       ID3
DECAY   1000015     5.92578418E+01   # ~tau^-_1
#    BR                NDA      ID1      ID2
     5.34349136E-02    2     1000022        15   # BR(~tau^-_1 -> chi^0_1 tau^-)
     4.80704602E-02    2     1000023        15   # BR(~tau^-_1 -> chi^0_2 tau^-)
     7.97452342E-01    2     1000035        15   # BR(~tau^-_1 -> chi^0_4 tau^-)
     1.00965948E-01    2    -1000024        16   # BR(~tau^-_1 -> chi^-_1 nu_tau)
DECAY   2000015     1.49348295E+02   # ~tau^-_2
#    BR                NDA      ID1      ID2
     2.45036489E-02    2     1000022        15   # BR(~tau^-_2 -> chi^0_1 tau^-)
     2.10600696E-02    2     1000023        15   # BR(~tau^-_2 -> chi^0_2 tau^-)
     2.88682781E-01    2     1000025        15   # BR(~tau^-_2 -> chi^0_3 tau^-)
     7.87156980E-02    2     1000035        15   # BR(~tau^-_2 -> chi^0_4 tau^-)
     6.56191321E-04    2    -1000024        16   # BR(~tau^-_2 -> chi^-_1 nu_tau)
     5.86381611E-01    2    -1000037        16   # BR(~tau^-_2 -> chi^-_2 nu_tau)
#    BR                NDA      ID1      ID2       ID3
DECAY   1000012     1.43359829E+02   # ~nu_e
#    BR                NDA      ID1      ID2
     5.05273007E-03    2     1000022        12   # BR(~nu_e -> chi^0_1 nu_e)
     3.10341603E-03    2     1000023        12   # BR(~nu_e -> chi^0_2 nu_e)
     2.97145155E-01    2     1000025        12   # BR(~nu_e -> chi^0_3 nu_e)
     8.30353755E-02    2     1000035        12   # BR(~nu_e -> chi^0_4 nu_e)
     2.75737448E-02    2     1000024        11   # BR(~nu_e -> chi^+_1 e^-)
     5.84089578E-01    2     1000037        11   # BR(~nu_e -> chi^+_2 e^-)
#    BR                NDA      ID1      ID2       ID3
DECAY   1000014     1.43381021E+02   # ~nu_mu
#    BR                NDA      ID1      ID2
     5.05198377E-03    2     1000022        14   # BR(~nu_mu -> chi^0_1 nu_mu)
     3.10295765E-03    2     1000023        14   # BR(~nu_mu -> chi^0_2 nu_mu)
     2.97101266E-01    2     1000025        14   # BR(~nu_mu -> chi^0_3 nu_mu)
     8.30231119E-02    2     1000035        14   # BR(~nu_mu -> chi^0_4 nu_mu)
     2.77172007E-02    2     1000024        13   # BR(~nu_mu -> chi^+_1 mu^-)
     5.84003480E-01    2     1000037        13   # BR(~nu_mu -> chi^+_2 mu^-)
#    BR                NDA      ID1      ID2       ID3
DECAY   1000016     1.49354395E+02   # ~nu_tau
#    BR                NDA      ID1      ID2
     4.85006458E-03    2     1000022        16   # BR(~nu_tau -> chi^0_1 nu_tau)
     2.97893773E-03    2     1000023        16   # BR(~nu_tau -> chi^0_2 nu_tau)
     2.85226728E-01    2     1000025        16   # BR(~nu_tau -> chi^0_3 nu_tau)
     7.97050912E-02    2     1000035        16   # BR(~nu_tau -> chi^0_4 nu_tau)
     6.65303404E-02    2     1000024        15   # BR(~nu_tau -> chi^+_1 tau^-)
     5.60708838E-01    2     1000037        15   # BR(~nu_tau -> chi^+_2 tau^-)
#    BR                NDA      ID1      ID2       ID3
DECAY   2000001     7.51731349E+02   # ~d_R
#    BR                NDA      ID1      ID2
     7.05325657E-03    2     1000035         1   # BR(~d_R -> chi^0_4 d)
     9.92941781E-01    2     1000021         1   # BR(~d_R -> ~g d)
DECAY   1000001     8.82731773E+02   # ~d_L
#    BR                NDA      ID1      ID2
     7.50638334E-04    2     1000022         1   # BR(~d_L -> chi^0_1 d)
     4.46270693E-04    2     1000023         1   # BR(~d_L -> chi^0_2 d)
     4.89448358E-02    2     1000025         1   # BR(~d_L -> chi^0_3 d)
     1.53463196E-03    2     1000035         1   # BR(~d_L -> chi^0_4 d)
     1.19468049E-04    2    -1000024         2   # BR(~d_L -> chi^-_1 u)
     1.00209795E-01    2    -1000037         2   # BR(~d_L -> chi^-_2 u)
     8.47994360E-01    2     1000021         1   # BR(~d_L -> ~g d)
DECAY   2000003     7.51743183E+02   # ~s_R
#    BR                NDA      ID1      ID2
     7.05314585E-03    2     1000035         3   # BR(~s_R -> chi^0_4 s)
     9.92926193E-01    2     1000021         3   # BR(~s_R -> ~g s)
DECAY   1000003     8.82741381E+02   # ~s_L
#    BR                NDA      ID1      ID2
     7.54145278E-04    2     1000022         3   # BR(~s_L -> chi^0_1 s)
     4.49447990E-04    2     1000023         3   # BR(~s_L -> chi^0_2 s)
     4.89443082E-02    2     1000025         3   # BR(~s_L -> chi^0_3 s)
     1.53461531E-03    2     1000035         3   # BR(~s_L -> chi^0_4 s)
     1.23432096E-04    2    -1000024         4   # BR(~s_L -> chi^-_1 c)
     1.00208893E-01    2    -1000037         4   # BR(~s_L -> chi^-_2 c)
     8.47985158E-01    2     1000021         3   # BR(~s_L -> ~g s)
DECAY   1000005     8.83878714E+01   # ~b_1
#    BR                NDA      ID1      ID2
     2.68379657E-02    2     1000022         5   # BR(~b_1 -> chi^0_1 b)
     2.42654843E-02    2     1000023         5   # BR(~b_1 -> chi^0_2 b)
     6.95967509E-03    2     1000035         5   # BR(~b_1 -> chi^0_4 b)
     5.06826312E-02    2    -1000024         6   # BR(~b_1 -> chi^-_1 t)
     8.91177223E-01    2     1000021         5   # BR(~b_1 -> ~g b)
DECAY   2000005     3.69559487E+02   # ~b_2
#    BR                NDA      ID1      ID2
     1.03120136E-02    2     1000022         5   # BR(~b_2 -> chi^0_1 b)
     9.10481423E-03    2     1000023         5   # BR(~b_2 -> chi^0_2 b)
     4.74346357E-02    2     1000025         5   # BR(~b_2 -> chi^0_3 b)
     1.11973351E-03    2     1000035         5   # BR(~b_2 -> chi^0_4 b)
     2.22749511E-01    2    -1000024         6   # BR(~b_2 -> chi^-_1 t)
     1.07556509E-01    2    -1000037         6   # BR(~b_2 -> chi^-_2 t)
     6.01456987E-01    2     1000021         5   # BR(~b_2 -> ~g b)
     1.27417047E-04    2     1000005        36   # BR(~b_2 -> ~b_1 A^0)
     1.27547370E-04    2     1000005        35   # BR(~b_2 -> ~b_1 H^0)
DECAY   2000002     7.67900546E+02   # ~u_R
#    BR                NDA      ID1      ID2
     2.76279379E-02    2     1000035         2   # BR(~u_R -> chi^0_4 u)
     9.72352794E-01    2     1000021         2   # BR(~u_R -> ~g u)
DECAY   1000002     8.82721203E+02   # ~u_L
#    BR                NDA      ID1      ID2
     6.76221915E-04    2     1000022         2   # BR(~u_L -> chi^0_1 u)
     3.87538200E-04    2     1000023         2   # BR(~u_L -> chi^0_2 u)
     4.91364161E-02    2     1000025         2   # BR(~u_L -> chi^0_3 u)
     1.47734042E-03    2     1000035         2   # BR(~u_L -> chi^0_4 u)
     4.52338458E-03    2     1000024         1   # BR(~u_L -> chi^+_1 d)
     9.58289307E-02    2     1000037         1   # BR(~u_L -> chi^+_2 d)
     8.47970168E-01    2     1000021         2   # BR(~u_L -> ~g u)
DECAY   2000004     7.67907853E+02   # ~c_R
#    BR                NDA      ID1      ID2
     2.76276787E-02    2     1000035         4   # BR(~c_R -> chi^0_4 c)
     9.72343535E-01    2     1000021         4   # BR(~c_R -> ~g c)
DECAY   1000004     8.82730780E+02   # ~c_L
#    BR                NDA      ID1      ID2
     6.78128352E-04    2     1000022         4   # BR(~c_L -> chi^0_1 c)
     3.89678066E-04    2     1000023         4   # BR(~c_L -> chi^0_2 c)
     4.91359746E-02    2     1000025         4   # BR(~c_L -> chi^0_3 c)
     1.47732675E-03    2     1000035         4   # BR(~c_L -> chi^0_4 c)
     4.53002876E-03    2     1000024         3   # BR(~c_L -> chi^+_1 s)
     9.58279016E-02    2     1000037         3   # BR(~c_L -> chi^+_2 s)
     8.47960962E-01    2     1000021         4   # BR(~c_L -> ~g c)
DECAY   1000006     3.79139148E+02   # ~t_1
#    BR                NDA      ID1      ID2
     1.11388630E-01    2     1000022         6   # BR(~t_1 -> chi^0_1 t)
     1.22294054E-01    2     1000023         6   # BR(~t_1 -> chi^0_2 t)
     2.89234359E-02    2     1000025         6   # BR(~t_1 -> chi^0_3 t)
     3.81719688E-03    2     1000035         6   # BR(~t_1 -> chi^0_4 t)
     8.82806437E-02    2     1000024         5   # BR(~t_1 -> chi^+_1 b)
     4.82856895E-02    2     1000037         5   # BR(~t_1 -> chi^+_2 b)
     5.92463509E-01    2     1000021         6   # BR(~t_1 -> ~g t)
     1.62515909E-04    2     1000005        37   # BR(~t_1 -> ~b_1 H^+)
#    BR                NDA      ID1      ID2       ID3
     4.31193833E-03    3     1000022        24         5   # BR(~t_1 -> chi^0_1 W^+ b)
DECAY   2000006     4.11238234E+02   # ~t_2
#    BR                NDA      ID1      ID2
     9.31140939E-02    2     1000022         6   # BR(~t_2 -> chi^0_1 t)
     1.06321120E-01    2     1000023         6   # BR(~t_2 -> chi^0_2 t)
     2.57248524E-02    2     1000025         6   # BR(~t_2 -> chi^0_3 t)
     1.42158127E-02    2     1000035         6   # BR(~t_2 -> chi^0_4 t)
     1.43780012E-01    2     1000024         5   # BR(~t_2 -> chi^+_1 b)
     4.93246491E-02    2     1000037         5   # BR(~t_2 -> chi^+_2 b)
     5.54712829E-01    2     1000021         6   # BR(~t_2 -> ~g t)
     4.96153480E-03    2     2000005        24   # BR(~t_2 -> ~b_2 W^+)
     4.86454788E-03    2     1000006        23   # BR(~t_2 -> ~t_1 Z)
     2.94183920E-03    2     1000006        25   # BR(~t_2 -> ~t_1 h^0)
DECAY   1000024     8.28263992E-09   # chi^+_1
#    BR                NDA      ID1      ID2       ID3
     3.73523307E-01    3     1000022        -1         2   # BR(chi^+_1 -> chi^0_1 d_bar u)
     2.97514047E-01    3     1000022        -3         4   # BR(chi^+_1 -> chi^0_1 s_bar c)
     1.24507801E-01    3     1000022       -11        12   # BR(chi^+_1 -> chi^0_1 e^+ nu_e)
     1.24305364E-01    3     1000022       -13        14   # BR(chi^+_1 -> chi^0_1 mu^+ nu_mu)
     8.01494814E-02    3     1000022       -15        16   # BR(chi^+_1 -> chi^0_1 tau^+ nu_tau)
DECAY   1000037     4.37987606E+00   # chi^+_2
#    BR                NDA      ID1      ID2
     2.44348539E-01    2     1000022        24   # BR(chi^+_2 -> chi^0_1 W^+)
     2.74951647E-01    2     1000023        24   # BR(chi^+_2 -> chi^0_2 W^+)
     2.52241712E-01    2     1000024        23   # BR(chi^+_2 -> chi^+_1 Z)
     2.25653497E-01    2     1000024        25   # BR(chi^+_2 -> chi^+_1 h^0)
#    BR                NDA      ID1      ID2       ID3
     1.93305237E-04    3     1000024         6        -6   # BR(chi^+_2 -> chi^+_1 t t_bar)
     1.15241153E-03    3     1000022        -5         6   # BR(chi^+_2 -> chi^0_1 b_bar t)
     1.45624032E-03    3     1000023        -5         6   # BR(chi^+_2 -> chi^0_2 b_bar t)
DECAY   1000022     0.00000000E+00   # chi^0_1
DECAY   1000023     1.26471793E-06   # chi^0_2
#    BR                NDA      ID1      ID2
     1.43410383E-01    2     1000022        22   # BR(chi^0_2 -> chi^0_1 photon)
#    BR                NDA      ID1      ID2       ID3
     1.02905053E-01    3     1000022         2        -2   # BR(chi^0_2 -> chi^0_1 u u_bar)
     9.06256212E-02    3     1000022         4        -4   # BR(chi^0_2 -> chi^0_1 c c_bar)
     1.31944481E-01    3     1000022         1        -1   # BR(chi^0_2 -> chi^0_1 d d_bar)
     1.31862934E-01    3     1000022         3        -3   # BR(chi^0_2 -> chi^0_1 s s_bar)
     3.37913482E-02    3     1000022         5        -5   # BR(chi^0_2 -> chi^0_1 b b_bar)
     2.97761321E-02    3     1000022        11       -11   # BR(chi^0_2 -> chi^0_1 e^- e^+)
     2.97471339E-02    3     1000022        13       -13   # BR(chi^0_2 -> chi^0_1 mu^- mu^+)
     2.26557537E-02    3     1000022        15       -15   # BR(chi^0_2 -> chi^0_1 tau^- tau^+)
     1.76448228E-01    3     1000022        12       -12   # BR(chi^0_2 -> chi^0_1 nu_e nu_bar_e)
     1.92685210E-02    3     1000024         1        -2   # BR(chi^0_2 -> chi^+_1 d u_bar)
     1.92685210E-02    3    -1000024        -1         2   # BR(chi^0_2 -> chi^-_1 d_bar u)
     1.65297103E-02    3     1000024         3        -4   # BR(chi^0_2 -> chi^+_1 s c_bar)
     1.65297103E-02    3    -1000024        -3         4   # BR(chi^0_2 -> chi^-_1 s_bar c)
     6.42284169E-03    3     1000024        11       -12   # BR(chi^0_2 -> chi^+_1 e^- nu_bar_e)
     6.42284169E-03    3    -1000024       -11        12   # BR(chi^0_2 -> chi^-_1 e^+ nu_e)
     6.41585580E-03    3     1000024        13       -14   # BR(chi^0_2 -> chi^+_1 mu^- nu_bar_mu)
     6.41585580E-03    3    -1000024       -13        14   # BR(chi^0_2 -> chi^-_1 mu^+ nu_mu)
     4.77953703E-03    3     1000024        15       -16   # BR(chi^0_2 -> chi^+_1 tau^- nu_bar_tau)
     4.77953703E-03    3    -1000024       -15        16   # BR(chi^0_2 -> chi^-_1 tau^+ nu_tau)
DECAY   1000025     4.98315986E+00   # chi^0_3
#    BR                NDA      ID1      ID2
     2.39319712E-01    2     1000024       -24   # BR(chi^0_3 -> chi^+_1 W^-)
     2.39319712E-01    2    -1000024        24   # BR(chi^0_3 -> chi^-_1 W^+)
     7.39683487E-02    2     1000022        23   # BR(chi^0_3 -> chi^0_1 Z)
     1.56458336E-01    2     1000023        23   # BR(chi^0_3 -> chi^0_2 Z)
     1.16295503E-01    2     1000022        25   # BR(chi^0_3 -> chi^0_1 h^0)
     1.72321192E-01    2     1000023        25   # BR(chi^0_3 -> chi^0_2 h^0)
#    BR                NDA      ID1      ID2       ID3
     1.10130572E-03    3     1000024         5        -6   # BR(chi^0_3 -> chi^+_1 b t_bar)
     1.10130572E-03    3    -1000024        -5         6   # BR(chi^0_3 -> chi^-_1 b_bar t)
DECAY   1000035     5.70221748E+00   # chi^0_4
#    BR                NDA      ID1      ID2
     1.86688786E-01    2     1000024       -24   # BR(chi^0_4 -> chi^+_1 W^-)
     1.86688786E-01    2    -1000024        24   # BR(chi^0_4 -> chi^-_1 W^+)
     1.50129404E-02    2     1000037       -24   # BR(chi^0_4 -> chi^+_2 W^-)
     1.50129404E-02    2    -1000037        24   # BR(chi^0_4 -> chi^-_2 W^+)
     3.79862627E-02    2          37  -1000024   # BR(chi^0_4 -> H^+ chi^-_1)
     3.79862627E-02    2         -37   1000024   # BR(chi^0_4 -> H^- chi^+_1)
     9.13927617E-02    2     1000022        23   # BR(chi^0_4 -> chi^0_1 Z)
     1.07865834E-01    2     1000023        23   # BR(chi^0_4 -> chi^0_2 Z)
     3.26192436E-03    2     1000025        23   # BR(chi^0_4 -> chi^0_3 Z)
     1.23467093E-02    2     1000022        36   # BR(chi^0_4 -> chi^0_1 A^0)
     1.33642726E-02    2     1000023        36   # BR(chi^0_4 -> chi^0_2 A^0)
     8.62225668E-02    2     1000022        25   # BR(chi^0_4 -> chi^0_1 h^0)
     1.24252205E-01    2     1000023        25   # BR(chi^0_4 -> chi^0_2 h^0)
     1.11350778E-02    2     1000025        25   # BR(chi^0_4 -> chi^0_3 h^0)
     2.83569923E-02    2     1000022        35   # BR(chi^0_4 -> chi^0_1 H^0)
     2.08751523E-02    2     1000023        35   # BR(chi^0_4 -> chi^0_2 H^0)
#    BR                NDA      ID1      ID2       ID3
     3.96304984E-03    3     1000022         6        -6   # BR(chi^0_4 -> chi^0_1 t t_bar)
     4.50794390E-03    3     1000023         6        -6   # BR(chi^0_4 -> chi^0_2 t t_bar)
     2.53303116E-04    3     1000025         6        -6   # BR(chi^0_4 -> chi^0_3 t t_bar)
     5.97050630E-03    3     1000024         5        -6   # BR(chi^0_4 -> chi^+_1 b t_bar)
     5.97050630E-03    3    -1000024        -5         6   # BR(chi^0_4 -> chi^-_1 b_bar t)
     4.38127531E-04    3     1000037         5        -6   # BR(chi^0_4 -> chi^+_2 b t_bar)
     4.38127531E-04    3    -1000037        -5         6   # BR(chi^0_4 -> chi^-_2 b_bar t)
DECAY   1000021     8.21176258E-03   # ~g
#    BR                NDA      ID1      ID2
     7.54894713E-03    2     1000022        21   # BR(~g -> chi^0_1 g)
     7.51189758E-03    2     1000023        21   # BR(~g -> chi^0_2 g)
     2.29008749E-04    2     1000025        21   # BR(~g -> chi^0_3 g)
#    BR                NDA      ID1      ID2       ID3
     1.47010245E-01    3     1000022         6        -6   # BR(~g -> chi^0_1 t t_bar)
     5.43037885E-02    3     1000022         5        -5   # BR(~g -> chi^0_1 b b_bar)
     1.64622011E-01    3     1000023         6        -6   # BR(~g -> chi^0_2 t t_bar)
     4.84910109E-02    3     1000023         5        -5   # BR(~g -> chi^0_2 b b_bar)
     5.45604776E-04    3     1000025         2        -2   # BR(~g -> chi^0_3 u u_bar)
     5.45608447E-04    3     1000025         4        -4   # BR(~g -> chi^0_3 c c_bar)
     2.60501355E-02    3     1000025         6        -6   # BR(~g -> chi^0_3 t t_bar)
     5.43379073E-04    3     1000025         1        -1   # BR(~g -> chi^0_3 d d_bar)
     5.43379099E-04    3     1000025         3        -3   # BR(~g -> chi^0_3 s s_bar)
     2.07967736E-02    3     1000025         5        -5   # BR(~g -> chi^0_3 b b_bar)
     2.10586676E-01    3     1000024         5        -6   # BR(~g -> chi^+_1 b t_bar)
     2.10586676E-01    3    -1000024        -5         6   # BR(~g -> chi^-_1 b_bar t)
     1.08857460E-03    3     1000037         1        -2   # BR(~g -> chi^+_2 d u_bar)
     1.08857460E-03    3    -1000037        -1         2   # BR(~g -> chi^-_2 d_bar u)
     1.08857851E-03    3     1000037         3        -4   # BR(~g -> chi^+_2 s c_bar)
     1.08857851E-03    3    -1000037        -3         4   # BR(~g -> chi^-_2 s_bar c)
     4.77510125E-02    3     1000037         5        -6   # BR(~g -> chi^+_2 b t_bar)
     4.77510125E-02    3    -1000037        -5         6   # BR(~g -> chi^-_2 b_bar t)
DECAY        25     3.82130371E-03   # Gamma(h0)
     2.46127834E-03   2        22        22   # BR(h0 -> photon photon)
     1.69653556E-03   2        22        23   # BR(h0 -> photon Z)
     3.30614734E-02   2        23        23   # BR(h0 -> Z Z)
     2.66161426E-01   2       -24        24   # BR(h0 -> W W)
     7.58915256E-02   2        21        21   # BR(h0 -> gluon gluon)
     4.79350408E-09   2       -11        11   # BR(h0 -> Electron electron)
     2.13224319E-04   2       -13        13   # BR(h0 -> Muon muon)
     6.14818732E-02   2       -15        15   # BR(h0 -> Tau tau)
     1.32786737E-07   2        -2         2   # BR(h0 -> Up up)
     2.57713827E-02   2        -4         4   # BR(h0 -> Charm charm)
     5.53817913E-07   2        -1         1   # BR(h0 -> Down down)
     2.00303260E-04   2        -3         3   # BR(h0 -> Strange strange)
     5.33060286E-01   2        -5         5   # BR(h0 -> Bottom bottom)
DECAY        35     1.68609242E+01   # Gamma(HH)
     1.14425280E-07   2        22        22   # BR(HH -> photon photon)
     3.59277848E-07   2        22        23   # BR(HH -> photon Z)
     1.76014593E-05   2        23        23   # BR(HH -> Z Z)
     1.71738136E-05   2       -24        24   # BR(HH -> W W)
     8.04449145E-06   2        21        21   # BR(HH -> gluon gluon)
     3.56851671E-09   2       -11        11   # BR(HH -> Electron electron)
     1.58846177E-04   2       -13        13   # BR(HH -> Muon muon)
     4.58704311E-02   2       -15        15   # BR(HH -> Tau tau)
     6.19614867E-13   2        -2         2   # BR(HH -> Up up)
     1.20171586E-07   2        -4         4   # BR(HH -> Charm charm)
     8.31777826E-03   2        -6         6   # BR(HH -> Top top)
     2.91797606E-07   2        -1         1   # BR(HH -> Down down)
     1.05542921E-04   2        -3         3   # BR(HH -> Strange strange)
     2.78290197E-01   2        -5         5   # BR(HH -> Bottom bottom)
     3.19193852E-02   2  -1000024   1000024   # BR(HH -> Chargino1 chargino1)
     2.06964193E-01   2  -1000024   1000037   # BR(HH -> Chargino1 chargino2)
     2.06964193E-01   2  -1000037   1000024   # BR(HH -> Chargino2 chargino1)
     2.85650294E-04   2  -1000037   1000037   # BR(HH -> Chargino2 chargino2)
     6.38917689E-03   2   1000022   1000022   # BR(HH -> neutralino1 neutralino1)
     1.07951594E-07   2   1000022   1000023   # BR(HH -> neutralino1 neutralino2)
     1.16244129E-01   2   1000022   1000025   # BR(HH -> neutralino1 neutralino3)
     3.02665682E-03   2   1000023   1000023   # BR(HH -> neutralino2 neutralino2)
     9.51629501E-02   2   1000023   1000025   # BR(HH -> neutralino2 neutralino3)
     1.37734820E-04   2   1000025   1000025   # BR(HH -> neutralino3 neutralino3)
     1.19319016E-04   2        25        25   # BR(HH -> h0 h0)
DECAY        36     1.67324671E+01   # Gamma(A0)
     1.17598426E-08   2        22        22   # BR(A0 -> photon photon)
     2.20397850E-07   2        22        23   # BR(A0 -> photon Z)
     4.25041849E-05   2        21        21   # BR(A0 -> gluon gluon)
     3.50729285E-09   2       -11        11   # BR(A0 -> Electron electron)
     1.56120773E-04   2       -13        13   # BR(A0 -> Muon muon)
     4.50837686E-02   2       -15        15   # BR(A0 -> Tau tau)
     5.90485955E-13   2        -2         2   # BR(A0 -> Up up)
     1.14506226E-07   2        -4         4   # BR(A0 -> Charm charm)
     8.57661969E-03   2        -6         6   # BR(A0 -> Top top)
     2.86788692E-07   2        -1         1   # BR(A0 -> Down down)
     1.03731204E-04   2        -3         3   # BR(A0 -> Strange strange)
     2.73520421E-01   2        -5         5   # BR(A0 -> Bottom bottom)
     3.19182721E-02   2  -1000024   1000024   # BR(A0 -> Chargino1 chargino1)
     2.08862544E-01   2  -1000024   1000037   # BR(A0 -> Chargino1 chargino2)
     2.08862544E-01   2  -1000037   1000024   # BR(A0 -> Chargino2 chargino1)
     1.34058930E-04   2  -1000037   1000037   # BR(A0 -> Chargino2 chargino2)
     5.33535747E-03   2   1000022   1000022   # BR(A0 -> neutralino1 neutralino1)
     1.21333086E-04   2   1000022   1000023   # BR(A0 -> neutralino1 neutralino2)
     1.09435152E-01   2   1000022   1000025   # BR(A0 -> neutralino1 neutralino3)
     3.98800423E-03   2   1000023   1000023   # BR(A0 -> neutralino2 neutralino2)
     1.03768243E-01   2   1000023   1000025   # BR(A0 -> neutralino2 neutralino3)
     6.66678648E-05   2   1000025   1000025   # BR(A0 -> neutralino3 neutralino3)
     2.40220700E-05   2        23        25   # BR(A0 -> Z h0)
     6.75059492E-37   2        25        25   # BR(A0 -> h0 h0)
DECAY        37     1.69084278E+01   # Gamma(Hp)
     4.00444504E-09   2       -11        12   # BR(Hp -> Electron nu_e)
     1.71202531E-04   2       -13        14   # BR(Hp -> Muon nu_mu)
     4.84256641E-02   2       -15        16   # BR(Hp -> Tau nu_tau)
     2.84281315E-07   2        -1         2   # BR(Hp -> Down up)
     4.74945992E-06   2        -3         2   # BR(Hp -> Strange up)
     3.04060337E-06   2        -5         2   # BR(Hp -> Bottom up)
     1.94386792E-08   2        -1         4   # BR(Hp -> Down charm)
     1.02586478E-04   2        -3         4   # BR(Hp -> Strange charm)
     4.25792803E-04   2        -5         4   # BR(Hp -> Bottom charm)
     6.69236329E-07   2        -1         6   # BR(Hp -> Down top)
     1.47373293E-05   2        -3         6   # BR(Hp -> Strange top)
     2.91979698E-01   2        -5         6   # BR(Hp -> Bottom top)
     2.09044763E-03   2   1000022   1000024   # BR(Hp -> neutralino1 chargino1)
     2.35482530E-01   2   1000022   1000037   # BR(Hp -> neutralino1 chargino2)
     4.60576883E-03   2   1000023   1000024   # BR(Hp -> neutralino2 chargino1)
     2.01894078E-01   2   1000023   1000037   # BR(Hp -> neutralino2 chargino2)
     2.14774703E-01   2   1000024   1000025   # BR(Hp -> chargino1 neutralino3)
     2.97284764E-08   2   1000025   1000037   # BR(Hp -> neutralino3 chargino2)
     2.39943774E-05   2        24        25   # BR(Hp -> W h0)
     8.81526872E-12   2        24        35   # BR(Hp -> W HH)
     7.50444302E-12   2        24        36   # BR(Hp -> W A0)
DECAY         6     2.43000000E+00   # top
#    BR                NDA      ID1      ID2
     1.00000000E+00    2           5        24   # BR(t -> b W)
Block HiggsBoundsInputHiggsCouplingsFermions
# ScalarNormEffCoupSq PseudoSNormEffCoupSq NP IP1 IP2 IP2
    9.34018868E-01    0.00000000E+00        3  25   5   5  # h0-b-b eff. coupling^2, normalised to SM
    2.86608292E+02    0.00000000E+00        3  35   5   5  # H0-b-b eff. coupling^2, normalised to SM
    0.00000000E+00    2.86542311E+02        3  36   5   5  # A0-b-b eff. coupling^2, normalised to SM
#
    1.00023027E+00    0.00000000E+00        3  25   6   6  # h0-t-t eff. coupling^2, normalised to SM
    3.25961937E-03    0.00000000E+00        3  35   6   6  # H0-t-t eff. coupling^2, normalised to SM
    0.00000000E+00    3.48988600E-03        3  36   6   6  # A0-t-t eff. coupling^2, normalised to SM
#
    9.34018868E-01    0.00000000E+00        3  25  15  15  # h0-tau-tau eff. coupling^2, normalised to SM
    2.86608292E+02    0.00000000E+00        3  35  15  15  # H0-tau-tau eff. coupling^2, normalised to SM
    0.00000000E+00    2.86542311E+02        3  36  15  15  # A0-tau-tau eff. coupling^2, normalised to SM
#
Block HiggsBoundsInputHiggsCouplingsBosons
    9.99996071E-01        3  25  24  24  # h0-W-W eff. coupling^2, normalised to SM
    3.92858027E-06        3  35  24  24  # H0-W-W eff. coupling^2, normalised to SM
    0.00000000E+00        3  36  24  24  # A0-W-W eff. coupling^2, normalised to SM
#
    9.99996071E-01        3  25  23  23  # h0-Z-Z eff. coupling^2, normalised to SM
    3.92858027E-06        3  35  23  23  # H0-Z-Z eff. coupling^2, normalised to SM
    0.00000000E+00        3  36  23  23  # A0-Z-Z eff. coupling^2, normalised to SM
#
    1.26934688E+00        3  25  21  21  # h0-g-g eff. coupling^2, normalised to SM
    2.79648726E-03        3  35  21  21  # H0-g-g eff. coupling^2, normalised to SM
    1.04106685E-01        3  36  21  21  # A0-g-g eff. coupling^2, normalised to SM
#
    0.00000000E+00        3  25  25  23  # h0-h0-Z eff. coupling^2, normalised to SM
    0.00000000E+00        3  35  25  23  # H0-h0-Z eff. coupling^2, normalised to SM
    3.92858027E-06        3  36  25  23  # A0-h0-Z eff. coupling^2, normalised to SM
    0.00000000E+00        3  35  35  23  # H0-H0-Z eff. coupling^2, normalised to SM
    9.99996071E-01        3  36  35  23  # A0-H0-Z eff. coupling^2, normalised to SM
    0.00000000E+00        3  36  36  23  # A0-A0-Z eff. coupling^2, normalised to SM
#
    0.00000000E+00        4  25  21  21  23  # h0-g-g-Z eff. coupling^2, normalised to SM
    0.00000000E+00        4  35  21  21  23  # H0-g-g-Z eff. coupling^2, normalised to SM
    0.00000000E+00        4  36  21  21  23  # A0-g-g-Z eff. coupling^2, normalised to SM
Block SPhenoLowEnergy  # low energy observables
    1    3.50273156E-04   # BR(b -> s gamma)
    2    1.58788651E-06   # BR(b -> s mu+ mu-)
    3    3.52577393E-05   # BR(b -> s nu nu)
    4    2.28115032E-15   # BR(Bd -> e+ e-)
    5    9.74482198E-11   # BR(Bd -> mu+ mu-)
    6    2.04038101E-08   # BR(Bd -> tau+ tau-)
    7    7.71158909E-14   # BR(Bs -> e+ e-)
    8    3.29439061E-09   # BR(Bs -> mu+ mu-)
    9    6.98900842E-07   # BR(Bs -> tau+ tau-)
   10    9.56536889E-05   # BR(B_u -> tau nu)
   11    9.88065985E-01   # BR(B_u -> tau nu)/BR(B_u -> tau nu)_SM
   12    5.42114362E-01   # |Delta(M_Bd)| [ps^-1] 
   13    1.93643618E+01   # |Delta(M_Bs)| [ps^-1] 
   14    0.00000000E+00   # neutron EDM according to the chiral quark model
   15    0.00000000E+00   # neutron EDM according to the relativistic quark-parton model
   16    2.15788038E-03   # epsilon_K
   17    2.28166525E-15   # Delta(M_K)
   18    2.48017307E-11   # BR(K^0 -> pi^0 nu nu)
   19    8.29094437E-11   # BR(K^+ -> pi^+ nu nu)
   20   -1.45403571E-16   # Delta(g-2)_electron/2
   21   -6.21646651E-12   # Delta(g-2)_muon/2
   22   -1.75891375E-09   # Delta(g-2)_tau/2
   23    0.00000000E+00   # electric dipole moment of the electron
   24    0.00000000E+00   # electric dipole moment of the muon
   25    0.00000000E+00   # electric dipole moment of the tau
   26    0.00000000E+00   # Br(mu -> e gamma)
   27    0.00000000E+00   # Br(tau -> e gamma)
   28    0.00000000E+00   # Br(tau -> mu gamma)
   29    0.00000000E+00   # Br(mu -> 3 e)
   30    0.00000000E+00   # Br(tau -> 3 e)
   31    0.00000000E+00   # Br(tau -> 3 mu)
   39    4.12083306E-05   # Delta(rho_parameter)
   40    0.00000000E+00   # BR(Z -> e mu)
   41    0.00000000E+00   # BR(Z -> e tau)
   42    0.00000000E+00   # BR(Z -> mu tau)
Block FWCOEF Q=  1.60000000E+02  # Wilson coefficients at scale Q
#    id        order  M        value         comment
     0305 4422   00   0    -1.88819110E-01   # C7
     0305 4422   00   2    -2.19991494E-01   # C7
     0305 4322   00   2    -5.40634156E-04   # C7'
     0305 6421   00   0    -9.52278348E-02   # C8
     0305 6421   00   2    -1.27101948E-01   # C8
     0305 6321   00   2    -5.92965692E-04   # C8'
 03051111 4133   00   0     1.62866677E+00   # C9 e+e-
 03051111 4133   00   2     1.62897489E+00   # C9 e+e-
 03051111 4233   00   2     6.44099158E-05   # C9' e+e-
 03051111 4137   00   0    -4.45135887E+00   # C10 e+e-
 03051111 4137   00   2    -4.45020352E+00   # C10 e+e-
 03051111 4237   00   2    -4.73411415E-04   # C10' e+e-
 03051313 4133   00   0     1.62866677E+00   # C9 mu+mu-
 03051313 4133   00   2     1.62897485E+00   # C9 mu+mu-
 03051313 4233   00   2     6.44096826E-05   # C9' mu+mu-
 03051313 4137   00   0    -4.45135887E+00   # C10 mu+mu-
 03051313 4137   00   2    -4.45020355E+00   # C10 mu+mu-
 03051313 4237   00   2    -4.73411199E-04   # C10' mu+mu-
 03051212 4137   00   0     1.50535012E+00   # C11 nu_1 nu_1
 03051212 4137   00   2     1.50510229E+00   # C11 nu_1 nu_1
 03051212 4237   00   2     1.02323402E-04   # C11' nu_1 nu_1
 03051414 4137   00   0     1.50535012E+00   # C11 nu_2 nu_2
 03051414 4137   00   2     1.50510229E+00   # C11 nu_2 nu_2
 03051414 4237   00   2     1.02323452E-04   # C11' nu_2 nu_2
 03051616 4137   00   0     1.50535012E+00   # C11 nu_3 nu_3
 03051616 4137   00   2     1.50510229E+00   # C11 nu_3 nu_3
 03051616 4237   00   2     1.02337385E-04   # C11' nu_3 nu_3
Block IMFWCOEF Q=  1.60000000E+02  # Im(Wilson coefficients) at scale Q
#    id        order  M        value         comment
     0305 4422   00   0     3.85820584E-07   # C7
     0305 4422   00   2    -7.97411696E-06   # C7
     0305 4322   00   2    -8.05034104E-07   # C7'
     0305 6421   00   0     3.30480846E-07   # C8
     0305 6421   00   2     2.22549646E-05   # C8
     0305 6321   00   2     9.16698661E-08   # C8'
 03051111 4133   00   2     7.26831126E-07   # C9 e+e-
 03051111 4233   00   2     1.67841183E-06   # C9' e+e-
 03051111 4137   00   2     8.66843126E-07   # C10 e+e-
 03051111 4237   00   2    -1.23540948E-05   # C10' e+e-
 03051313 4133   00   2     7.26830219E-07   # C9 mu+mu-
 03051313 4233   00   2     1.67841175E-06   # C9' mu+mu-
 03051313 4137   00   2     8.66843994E-07   # C10 mu+mu-
 03051313 4237   00   2    -1.23540950E-05   # C10' mu+mu-
 03051212 4137   00   2    -1.53571774E-07   # C11 nu_1 nu_1
 03051212 4237   00   2     2.67022480E-06   # C11' nu_1 nu_1
 03051414 4137   00   2    -1.53571732E-07   # C11 nu_2 nu_2
 03051414 4237   00   2     2.67022480E-06   # C11' nu_2 nu_2
 03051616 4137   00   2    -1.53559998E-07   # C11 nu_3 nu_3
 03051616 4237   00   2     2.67022480E-06   # C11' nu_3 nu_3
