# SUSY Les Houches Accord 2 - MSSM spectrum + Decays
# SPheno v4.0.5be
# W. Porod, Comput. Phys. Commun. 153 (2003) 275-315, hep-ph/0301101;
# W. Porod, F.~Staub, Comput. Phys. Commun. 183 (2012) 2458
#                     arXiv:1104.1573 [hep-ph] 
# in case of problems send email to porod@physik.uni-wuerzburg.de
# Created: 12.05.2022,  14:39
Block SPINFO         # Program information
     1   SPheno      # spectrum calculator
     2   v4.0.5be    # version number
#
Block SPhenoINFO     # SPheno specific information
    1      2         # using 2-loop RGEs
    2      2         # using pole masses for boundary conditions at mZ
Block MODSEL  # Model selection
    1    0    # general MSSM
Block MINPAR  # Input parameters
    3    1.33879283E+01  # tanb at m_Z    
    4    1.00000000E+00  # Sign(mu)
Block EXTPAR  # non-universal input parameters
    0    4.21913341E+03  # scale for input parameters
    1    1.33242393E+02  # M_1
    2   -5.48915189E+02  # M_2
    3    2.91625834E+03  # M_3
   11    7.99731152E+02  # A_t
   12   -9.86205529E+02  # A_b
   13   -1.91607328E+03  # A_tau
   23    1.09927322E+03  # mu
   25    1.27293173E+01  # tan(beta)
   26    1.39374085E+03  # m_A, pole mass
   31    1.00000000E+04  # M_L11
   32    1.00000000E+04  # M_L22
   33    1.00000000E+04  # M_L33
   34    1.00000000E+04  # M_E11
   35    1.00000000E+04  # M_E22
   36    1.00000000E+04  # M_E33
   41    1.00000000E+04  # M_Q11
   42    1.00000000E+04  # M_Q22
   43    3.47335115E+03  # M_Q33
   44    1.00000000E+04  # M_U11
   45    1.00000000E+04  # M_U22
   46    4.95555431E+03  # M_U33
   47    1.00000000E+04  # M_D11
   48    1.00000000E+04  # M_D22
   49    2.76908717E+03  # M_D33
Block SMINPUTS  # SM parameters
         1     1.27908970E+02  # alpha_em^-1(MZ)^MSbar
         2     1.16637870E-05  # G_mu [GeV^-2]
         3     1.18400000E-01  # alpha_s(MZ)^MSbar
         4     9.11876000E+01  # m_Z(pole)
         5     4.18000000E+00  # m_b(m_b), MSbar
         6     1.73200000E+02  # m_t(pole)
         7     1.77700000E+00  # m_tau(pole)
         8     0.00000000E+00  # m_nu_3
        11     5.10998930E-04  # m_e(pole)
        12     0.00000000E+00  # m_nu_1
        13     1.05658372E-01  # m_muon(pole)
        14     0.00000000E+00  # m_nu_2
        21     5.00000000E-03  # m_d(2 GeV), MSbar
        22     2.50000000E-03  # m_u(2 GeV), MSbar
        23     9.50000000E-02  # m_s(2 GeV), MSbar
        24     1.27000000E+00  # m_c(m_c), MSbar
Block gauge Q=  4.21913341E+03  # (SUSY scale)
   1    3.55362975E-01  # g'(Q)^DRbar
   2    6.65198874E-01  # g(Q)^DRbar
   3    1.21977796E+00  # g3(Q)^DRbar
Block Yu Q=  4.21913341E+03  # (SUSY scale)
  1  1     8.41020436E-06   # Y_u(Q)^DRbar
  2  2     4.27238381E-03   # Y_c(Q)^DRbar
  3  3     1.01602024E+00   # Y_t(Q)^DRbar
Block Yd Q=  4.21913341E+03  # (SUSY scale)
  1  1     2.15125508E-04   # Y_d(Q)^DRbar
  2  2     4.08738465E-03   # Y_s(Q)^DRbar
  3  3     2.13337093E-01   # Y_b(Q)^DRbar
Block Ye Q=  4.21913341E+03  # (SUSY scale)
  1  1     3.75409742E-05   # Y_e(Q)^DRbar
  2  2     7.76228283E-03   # Y_mu(Q)^DRbar
  3  3     1.30548828E-01   # Y_tau(Q)^DRbar
Block Au Q=  4.21913341E+03  # (SUSY scale)
  1  1     0.00000000E+00   # A_u(Q)^DRbar
  2  2     0.00000000E+00   # A_c(Q)^DRbar
  3  3     7.99731159E+02   # A_t(Q)^DRbar
Block Ad Q=  4.21913341E+03  # (SUSY scale)
  1  1     0.00000000E+00   # A_d(Q)^DRbar
  2  2     0.00000000E+00   # A_s(Q)^DRbar
  3  3    -9.86205516E+02   # A_b(Q)^DRbar
Block Ae Q=  4.21913341E+03  # (SUSY scale)
  1  1     0.00000000E+00   # A_e(Q)^DRbar
  2  2     0.00000000E+00   # A_mu(Q)^DRbar
  3  3    -1.91607327E+03   # A_tau(Q)^DRbar
Block MSOFT Q=  4.21913341E+03  # soft SUSY breaking masses at Q
   1    1.33242393E+02  # M_1
   2   -5.48915189E+02  # M_2
   3    2.91625834E+03  # M_3
  21    6.79694684E+05  # M^2_(H,d)
  22   -8.22821753E+05  # M^2_(H,u)
  31    1.00000000E+04  # M_(L,11)
  32    1.00000000E+04  # M_(L,22)
  33    1.00000000E+04  # M_(L,33)
  34    1.00000000E+04  # M_(E,11)
  35    1.00000000E+04  # M_(E,22)
  36    1.00000000E+04  # M_(E,33)
  41    1.00000000E+04  # M_(Q,11)
  42    1.00000000E+04  # M_(Q,22)
  43    3.47335115E+03  # M_(Q,33)
  44    1.00000000E+04  # M_(U,11)
  45    1.00000000E+04  # M_(U,22)
  46    4.95555431E+03  # M_(U,33)
  47    1.00000000E+04  # M_(D,11)
  48    1.00000000E+04  # M_(D,22)
  49    2.76908717E+03  # M_(D,33)
Block MASS  # Mass spectrum
#   PDG code      mass          particle
         6     1.73200000E+02  # m_t(pole)
        23     9.11876000E+01  # m_Z(pole)
        24     8.04299946E+01  # W+
        15     1.77700000E+00  # m_tau(pole)
        25     1.22033054E+02  # h0
        35     1.39382683E+03  # H0
        36     1.39374085E+03  # A0
        37     1.40079277E+03  # H+
   1000001     1.01127796E+04  # ~d_L
   2000001     1.00878628E+04  # ~d_R
   1000002     1.01124174E+04  # ~u_L
   2000002     1.00911298E+04  # ~u_R
   1000003     1.01127800E+04  # ~s_L
   2000003     1.00878631E+04  # ~s_R
   1000004     1.01124178E+04  # ~c_L
   2000004     1.00911302E+04  # ~c_R
   1000005     2.91138832E+03  # ~b_1
   2000005     3.56935371E+03  # ~b_2
   1000006     3.57126491E+03  # ~t_1
   2000006     4.98453271E+03  # ~t_2
   1000011     1.00213471E+04  # ~e_L-
   2000011     1.00088653E+04  # ~e_R-
   1000012     1.00205810E+04  # ~nu_eL
   1000013     1.00213484E+04  # ~mu_L-
   2000013     1.00088666E+04  # ~mu_R-
   1000014     1.00205818E+04  # ~nu_muL
   1000015     1.00091966E+04  # ~tau_1-
   2000015     1.00217590E+04  # ~tau_2-
   1000016     1.00208319E+04  # ~nu_tauL
   1000021     3.39029008E+03  # ~g
   1000022     1.33266604E+02  # ~chi_10
   1000023     5.95355735E+02  # ~chi_20
   1000025     1.11637674E+03  # ~chi_30
   1000035     1.11889084E+03  # ~chi_40
   1000024     5.95414203E+02  # ~chi_1+
   1000037     1.12030251E+03  # ~chi_2+
# Higgs mixing
Block alpha # Effective Higgs mixing angle
          -7.53780107E-02   # alpha
Block Hmix Q=  4.21913341E+03  # Higgs mixing parameters
   1    1.09927322E+03  # mu
   2    1.27293173E+01  # tan[beta](Q)
   3    2.42898046E+02  # v(Q)
   4    1.94251356E+06  # m^2_A(Q)
Block stopmix # stop mixing matrix
   1  1    -9.99989392E-01   # Re[R_st(1,1)]
   1  2     4.60603926E-03   # Re[R_st(1,2)]
   2  1    -4.60603926E-03   # Re[R_st(2,1)]
   2  2    -9.99989392E-01   # Re[R_st(2,2)]
Block sbotmix # sbottom mixing matrix
   1  1     7.60421015E-03   # Re[R_sb(1,1)]
   1  2     9.99971088E-01   # Re[R_sb(1,2)]
   2  1    -9.99971088E-01   # Re[R_sb(2,1)]
   2  2     7.60421015E-03   # Re[R_sb(2,2)]
Block staumix # stau mixing matrix
   1  1     1.13988633E-01   # Re[R_sta(1,1)]
   1  2     9.93482054E-01   # Re[R_sta(1,2)]
   2  1    -9.93482054E-01   # Re[R_sta(2,1)]
   2  2     1.13988633E-01   # Re[R_sta(2,2)]
Block Nmix # neutralino mixing matrix
   1  1    -9.99147353E-01   # Re[N(1,1)]
   1  2    -1.24778503E-03   # Re[N(1,2)]
   1  3    -4.04970132E-02   # Re[N(1,3)]
   1  4     7.93742327E-03   # Re[N(1,4)]
   2  1    -2.24252347E-03   # Re[N(2,1)]
   2  2    -9.94521948E-01   # Re[N(2,2)]
   2  3     9.46524765E-02   # Re[N(2,3)]
   2  4     4.42941737E-02   # Re[N(2,4)]
   3  1     3.42509645E-02   # Re[N(3,1)]
   3  2    -3.57131508E-02   # Re[N(3,2)]
   3  3    -7.05345087E-01   # Re[N(3,3)]
   3  4     7.07134888E-01   # Re[N(3,4)]
   4  1    -2.29436320E-02   # Re[N(4,1)]
   4  2     9.82298730E-02   # Re[N(4,2)]
   4  3     7.01348136E-01   # Re[N(4,3)]
   4  4     7.05645289E-01   # Re[N(4,4)]
Block Umix # chargino mixing matrix
   1  1    -9.90995490E-01   # Re[U(1,1)]
   1  2     1.33895254E-01   # Re[U(1,2)]
   2  1    -1.33895254E-01   # Re[U(2,1)]
   2  2    -9.90995490E-01   # Re[U(2,2)]
Block Vmix # chargino mixing matrix
   1  1     9.98013199E-01   # Re[V(1,1)]
   1  2     6.30051953E-02   # Re[V(1,2)]
   2  1     6.30051953E-02   # Re[V(2,1)]
   2  2    -9.98013199E-01   # Re[V(2,2)]
DECAY        23     2.49520000E+00   # Z
DECAY        24     2.08500000E+00   # W
DECAY   2000011     5.02709748E+01   # ~e^-_R
#    BR                NDA      ID1      ID2
     9.98336881E-01    2     1000022        11   # BR(~e^-_R -> chi^0_1 e^-)
     1.14457659E-03    2     1000025        11   # BR(~e^-_R -> chi^0_3 e^-)
     5.13541425E-04    2     1000035        11   # BR(~e^-_R -> chi^0_4 e^-)
DECAY   1000011     1.43945125E+02   # ~e^-_L
#    BR                NDA      ID1      ID2
     8.76813542E-02    2     1000022        11   # BR(~e^-_L -> chi^0_1 e^-)
     3.01672486E-01    2     1000023        11   # BR(~e^-_L -> chi^0_2 e^-)
     2.20881816E-03    2     1000035        11   # BR(~e^-_L -> chi^0_4 e^-)
     5.97632259E-01    2    -1000024        12   # BR(~e^-_L -> chi^-_1 nu_e)
     1.07144330E-02    2    -1000037        12   # BR(~e^-_L -> chi^-_2 nu_e)
#    BR                NDA      ID1      ID2       ID3
DECAY   2000013     5.02943862E+01   # ~mu^-_R
#    BR                NDA      ID1      ID2
     9.97872687E-01    2     1000022        13   # BR(~mu^-_R -> chi^0_1 mu^-)
     1.25978844E-03    2     1000025        13   # BR(~mu^-_R -> chi^0_3 mu^-)
     6.27725319E-04    2     1000035        13   # BR(~mu^-_R -> chi^0_4 mu^-)
     2.28437243E-04    2    -1000037        14   # BR(~mu^-_R -> chi^-_2 nu_mu)
DECAY   1000013     1.43956861E+02   # ~mu^-_L
#    BR                NDA      ID1      ID2
     8.76743539E-02    2     1000022        13   # BR(~mu^-_L -> chi^0_1 mu^-)
     3.01648671E-01    2     1000023        13   # BR(~mu^-_L -> chi^0_2 mu^-)
     1.31132701E-04    2     1000025        13   # BR(~mu^-_L -> chi^0_3 mu^-)
     2.24866783E-03    2     1000035        13   # BR(~mu^-_L -> chi^0_4 mu^-)
     5.97583613E-01    2    -1000024        14   # BR(~mu^-_L -> chi^-_1 nu_mu)
     1.07135610E-02    2    -1000037        14   # BR(~mu^-_L -> chi^-_2 nu_mu)
#    BR                NDA      ID1      ID2       ID3
DECAY   1000015     5.80804219E+01   # ~tau^-_1
#    BR                NDA      ID1      ID2
     8.56846118E-01    2     1000022        15   # BR(~tau^-_1 -> chi^0_1 tau^-)
     1.46782223E-02    2     1000023        15   # BR(~tau^-_1 -> chi^0_2 tau^-)
     2.75607782E-02    2     1000025        15   # BR(~tau^-_1 -> chi^0_3 tau^-)
     2.49345302E-02    2     1000035        15   # BR(~tau^-_1 -> chi^0_4 tau^-)
     2.91327643E-02    2    -1000024        16   # BR(~tau^-_1 -> chi^-_1 nu_tau)
     4.68475873E-02    2    -1000037        16   # BR(~tau^-_1 -> chi^-_2 nu_tau)
DECAY   2000015     1.46077157E+02   # ~tau^-_2
#    BR                NDA      ID1      ID2
     8.93810902E-02    2     1000022        15   # BR(~tau^-_2 -> chi^0_1 tau^-)
     2.91853626E-01    2     1000023        15   # BR(~tau^-_2 -> chi^0_2 tau^-)
     1.20862402E-02    2     1000025        15   # BR(~tau^-_2 -> chi^0_3 tau^-)
     1.47443041E-02    2     1000035        15   # BR(~tau^-_2 -> chi^0_4 tau^-)
     5.77750347E-01    2    -1000024        16   # BR(~tau^-_2 -> chi^-_1 nu_tau)
     1.41843921E-02    2    -1000037        16   # BR(~tau^-_2 -> chi^-_2 nu_tau)
#    BR                NDA      ID1      ID2       ID3
DECAY   1000012     1.43949296E+02   # ~nu_e
#    BR                NDA      ID1      ID2
     8.68561194E-02    2     1000022        12   # BR(~nu_e -> chi^0_1 nu_e)
     3.00190425E-01    2     1000023        12   # BR(~nu_e -> chi^0_2 nu_e)
     8.71762661E-04    2     1000025        12   # BR(~nu_e -> chi^0_3 nu_e)
     3.64762445E-03    2     1000035        12   # BR(~nu_e -> chi^0_4 nu_e)
     6.06061906E-01    2     1000024        11   # BR(~nu_e -> chi^+_1 e^-)
     2.37216244E-03    2     1000037        11   # BR(~nu_e -> chi^+_2 e^-)
#    BR                NDA      ID1      ID2       ID3
DECAY   1000014     1.43961025E+02   # ~nu_mu
#    BR                NDA      ID1      ID2
     8.68490502E-02    2     1000022        14   # BR(~nu_mu -> chi^0_1 nu_mu)
     3.00165993E-01    2     1000023        14   # BR(~nu_mu -> chi^0_2 nu_mu)
     8.71691712E-04    2     1000025        14   # BR(~nu_mu -> chi^0_3 nu_mu)
     3.64732759E-03    2     1000035        14   # BR(~nu_mu -> chi^0_4 nu_mu)
     6.06014067E-01    2     1000024        13   # BR(~nu_mu -> chi^+_1 mu^-)
     2.45187068E-03    2     1000037        13   # BR(~nu_mu -> chi^+_2 mu^-)
#    BR                NDA      ID1      ID2       ID3
DECAY   1000016     1.47267297E+02   # ~nu_tau
#    BR                NDA      ID1      ID2
     8.49013380E-02    2     1000022        16   # BR(~nu_tau -> chi^0_1 nu_tau)
     2.93434447E-01    2     1000023        16   # BR(~nu_tau -> chi^0_2 nu_tau)
     8.52143853E-04    2     1000025        16   # BR(~nu_tau -> chi^0_3 nu_tau)
     3.56553557E-03    2     1000035        16   # BR(~nu_tau -> chi^0_4 nu_tau)
     5.92833423E-01    2     1000024        15   # BR(~nu_tau -> chi^+_1 tau^-)
     2.44131131E-02    2     1000037        15   # BR(~nu_tau -> chi^+_2 tau^-)
#    BR                NDA      ID1      ID2       ID3
DECAY   2000001     6.32183900E+02   # ~d_R
#    BR                NDA      ID1      ID2
     8.89047997E-03    2     1000022         1   # BR(~d_R -> chi^0_1 d)
     9.91094675E-01    2     1000021         1   # BR(~d_R -> ~g d)
DECAY   1000001     7.62873455E+02   # ~d_L
#    BR                NDA      ID1      ID2
     1.82060318E-03    2     1000022         1   # BR(~d_L -> chi^0_1 d)
     5.72644986E-02    2     1000023         1   # BR(~d_L -> chi^0_2 d)
     5.95950413E-04    2     1000035         1   # BR(~d_L -> chi^0_4 d)
     1.13809447E-01    2    -1000024         2   # BR(~d_L -> chi^-_1 u)
     2.04106081E-03    2    -1000037         2   # BR(~d_L -> chi^-_2 u)
     8.24368898E-01    2     1000021         1   # BR(~d_L -> ~g d)
DECAY   2000003     6.32190453E+02   # ~s_R
#    BR                NDA      ID1      ID2
     8.89039673E-03    2     1000022         3   # BR(~s_R -> chi^0_1 s)
     9.91084445E-01    2     1000021         3   # BR(~s_R -> ~g s)
DECAY   1000003     7.62880352E+02   # ~s_L
#    BR                NDA      ID1      ID2
     1.82059399E-03    2     1000022         3   # BR(~s_L -> chi^0_1 s)
     5.72640220E-02    2     1000023         3   # BR(~s_L -> chi^0_2 s)
     1.01674117E-04    2     1000025         3   # BR(~s_L -> chi^0_3 s)
     5.98054033E-04    2     1000035         3   # BR(~s_L -> chi^0_4 s)
     1.13808436E-01    2    -1000024         4   # BR(~s_L -> chi^-_1 c)
     2.04572615E-03    2    -1000037         4   # BR(~s_L -> chi^-_2 c)
     8.24361494E-01    2     1000021         3   # BR(~s_L -> ~g s)
DECAY   1000005     5.44597662E+00   # ~b_1
#    BR                NDA      ID1      ID2
     2.97824471E-01    2     1000022         5   # BR(~b_1 -> chi^0_1 b)
     5.50742019E-03    2     1000023         5   # BR(~b_1 -> chi^0_2 b)
     1.75025770E-01    2     1000025         5   # BR(~b_1 -> chi^0_3 b)
     1.72167141E-01    2     1000035         5   # BR(~b_1 -> chi^0_4 b)
     1.09176932E-02    2    -1000024         6   # BR(~b_1 -> chi^-_1 t)
     3.38557504E-01    2    -1000037         6   # BR(~b_1 -> chi^-_2 t)
DECAY   2000005     1.09730584E+02   # ~b_2
#    BR                NDA      ID1      ID2
     4.48417872E-03    2     1000022         5   # BR(~b_2 -> chi^0_1 b)
     1.33881315E-01    2     1000023         5   # BR(~b_2 -> chi^0_2 b)
     1.21635197E-02    2     1000025         5   # BR(~b_2 -> chi^0_3 b)
     1.30675057E-02    2     1000035         5   # BR(~b_2 -> chi^0_4 b)
     2.65903761E-01    2    -1000024         6   # BR(~b_2 -> chi^-_1 t)
     5.45132713E-01    2    -1000037         6   # BR(~b_2 -> chi^-_2 t)
     2.45507351E-02    2     1000021         5   # BR(~b_2 -> ~g b)
     2.96786384E-04    2     1000005        23   # BR(~b_2 -> ~b_1 Z)
     5.19485396E-04    2     1000005        25   # BR(~b_2 -> ~b_1 h^0)
DECAY   2000002     6.49386781E+02   # ~u_R
#    BR                NDA      ID1      ID2
     3.46310699E-02    2     1000022         2   # BR(~u_R -> chi^0_1 u)
     9.65311216E-01    2     1000021         2   # BR(~u_R -> ~g u)
DECAY   1000002     7.62858543E+02   # ~u_L
#    BR                NDA      ID1      ID2
     1.87236899E-03    2     1000022         2   # BR(~u_L -> chi^0_1 u)
     5.73555852E-02    2     1000023         2   # BR(~u_L -> chi^0_2 u)
     5.04547713E-04    2     1000035         2   # BR(~u_L -> chi^0_4 u)
     1.15425097E-01    2     1000024         1   # BR(~u_L -> chi^+_1 d)
     4.51940936E-04    2     1000037         1   # BR(~u_L -> chi^+_2 d)
     8.24340531E-01    2     1000021         2   # BR(~u_L -> ~g u)
DECAY   2000004     6.49393938E+02   # ~c_R
#    BR                NDA      ID1      ID2
     3.46306886E-02    2     1000022         4   # BR(~c_R -> chi^0_1 c)
     9.65300587E-01    2     1000021         4   # BR(~c_R -> ~g c)
DECAY   1000004     7.62865407E+02   # ~c_L
#    BR                NDA      ID1      ID2
     1.87235245E-03    2     1000022         4   # BR(~c_L -> chi^0_1 c)
     5.73550793E-02    2     1000023         4   # BR(~c_L -> chi^0_2 c)
     5.06879595E-04    2     1000035         4   # BR(~c_L -> chi^0_4 c)
     1.15424141E-01    2     1000024         3   # BR(~c_L -> chi^+_1 s)
     4.56146044E-04    2     1000037         3   # BR(~c_L -> chi^+_2 s)
     8.24333123E-01    2     1000021         4   # BR(~c_L -> ~g c)
DECAY   1000006     1.07982859E+02   # ~t_1
#    BR                NDA      ID1      ID2
     4.67241776E-03    2     1000022         6   # BR(~t_1 -> chi^0_1 t)
     1.37323971E-01    2     1000023         6   # BR(~t_1 -> chi^0_2 t)
     2.75536423E-01    2     1000025         6   # BR(~t_1 -> chi^0_3 t)
     2.73276544E-01    2     1000035         6   # BR(~t_1 -> chi^0_4 t)
     2.74840210E-01    2     1000024         5   # BR(~t_1 -> chi^+_1 b)
     2.46393452E-02    2     1000037         5   # BR(~t_1 -> chi^+_2 b)
     7.08119071E-03    2     1000021         6   # BR(~t_1 -> ~g t)
     6.12125816E-04    2     1000005        24   # BR(~t_1 -> ~b_1 W^+)
#    BR                NDA      ID1      ID2       ID3
     2.01696365E-03    3     1000022        24         5   # BR(~t_1 -> chi^0_1 W^+ b)
DECAY   2000006     3.09885152E+02   # ~t_2
#    BR                NDA      ID1      ID2
     3.57445160E-02    2     1000022         6   # BR(~t_2 -> chi^0_1 t)
     5.69510156E-04    2     1000023         6   # BR(~t_2 -> chi^0_2 t)
     1.48671811E-01    2     1000025         6   # BR(~t_2 -> chi^0_3 t)
     1.47971778E-01    2     1000035         6   # BR(~t_2 -> chi^0_4 t)
     1.15532741E-03    2     1000024         5   # BR(~t_2 -> chi^+_1 b)
     2.96730818E-01    2     1000037         5   # BR(~t_2 -> chi^+_2 b)
     3.63869248E-01    2     1000021         6   # BR(~t_2 -> ~g t)
     6.63869126E-04    2     2000005        24   # BR(~t_2 -> ~b_2 W^+)
     1.21931184E-03    2     2000005        37   # BR(~t_2 -> ~b_2 H^+)
     3.30348400E-04    2     1000006        23   # BR(~t_2 -> ~t_1 Z)
     7.09748587E-04    2     1000006        36   # BR(~t_2 -> ~t_1 A^0)
     1.64559129E-03    2     1000006        25   # BR(~t_2 -> ~t_1 h^0)
     7.05487642E-04    2     1000006        35   # BR(~t_2 -> ~t_1 H^0)
DECAY   1000024     1.12356563E-03   # chi^+_1
#    BR                NDA      ID1      ID2
     9.93978331E-01    2     1000022        24   # BR(chi^+_1 -> chi^0_1 W^+)
#    BR                NDA      ID1      ID2       ID3
     6.01393843E-03    3     1000022        -5         6   # BR(chi^+_1 -> chi^0_1 b_bar t)
DECAY   1000037     6.48746365E+00   # chi^+_2
#    BR                NDA      ID1      ID2
     1.19261879E-01    2     1000022        24   # BR(chi^+_2 -> chi^0_1 W^+)
     3.04247321E-01    2     1000023        24   # BR(chi^+_2 -> chi^0_2 W^+)
     2.84315080E-01    2     1000024        23   # BR(chi^+_2 -> chi^+_1 Z)
     2.83660585E-01    2     1000024        25   # BR(chi^+_2 -> chi^+_1 h^0)
#    BR                NDA      ID1      ID2       ID3
     1.55649325E-03    3     1000024         6        -6   # BR(chi^+_2 -> chi^+_1 t t_bar)
     2.46156626E-03    3     1000022        -5         6   # BR(chi^+_2 -> chi^0_1 b_bar t)
     4.49148365E-03    3     1000023        -5         6   # BR(chi^+_2 -> chi^0_2 b_bar t)
DECAY   1000022     0.00000000E+00   # chi^0_1
DECAY   1000023     1.24691907E-03   # chi^0_2
#    BR                NDA      ID1      ID2
     8.91764983E-01    2     1000022        23   # BR(chi^0_2 -> chi^0_1 Z)
     1.07807910E-01    2     1000022        25   # BR(chi^0_2 -> chi^0_1 h^0)
     1.32454464E-04    2     1000022        22   # BR(chi^0_2 -> chi^0_1 photon)
#    BR                NDA      ID1      ID2       ID3
     2.29380037E-04    3     1000022         6        -6   # BR(chi^0_2 -> chi^0_1 t t_bar)
DECAY   1000025     8.49994998E+00   # chi^0_3
#    BR                NDA      ID1      ID2
     2.18583973E-01    2     1000024       -24   # BR(chi^0_3 -> chi^+_1 W^-)
     2.18583973E-01    2    -1000024        24   # BR(chi^0_3 -> chi^-_1 W^+)
     2.82313544E-02    2     1000022        23   # BR(chi^0_3 -> chi^0_1 Z)
     2.04258122E-01    2     1000023        23   # BR(chi^0_3 -> chi^0_2 Z)
     5.67651198E-02    2     1000022        25   # BR(chi^0_3 -> chi^0_1 h^0)
     2.67559436E-01    2     1000023        25   # BR(chi^0_3 -> chi^0_2 h^0)
#    BR                NDA      ID1      ID2       ID3
     8.58458724E-04    3     1000022         6        -6   # BR(chi^0_3 -> chi^0_1 t t_bar)
     4.83589400E-04    3     1000023         6        -6   # BR(chi^0_3 -> chi^0_2 t t_bar)
     2.32783431E-03    3     1000024         5        -6   # BR(chi^0_3 -> chi^+_1 b t_bar)
     2.32783431E-03    3    -1000024        -5         6   # BR(chi^0_3 -> chi^-_1 b_bar t)
DECAY   1000035     6.71911831E+00   # chi^0_4
#    BR                NDA      ID1      ID2
     2.88473210E-01    2     1000024       -24   # BR(chi^0_4 -> chi^+_1 W^-)
     2.88473210E-01    2    -1000024        24   # BR(chi^0_4 -> chi^-_1 W^+)
     7.89334599E-02    2     1000022        23   # BR(chi^0_4 -> chi^0_1 Z)
     3.35336995E-02    2     1000023        23   # BR(chi^0_4 -> chi^0_2 Z)
     5.35354719E-02    2     1000022        25   # BR(chi^0_4 -> chi^0_1 h^0)
     2.45593921E-01    2     1000023        25   # BR(chi^0_4 -> chi^0_2 h^0)
#    BR                NDA      ID1      ID2       ID3
     1.11937490E-03    3     1000022         6        -6   # BR(chi^0_4 -> chi^0_1 t t_bar)
     4.76221916E-04    3     1000023         6        -6   # BR(chi^0_4 -> chi^0_2 t t_bar)
     4.92365934E-03    3     1000024         5        -6   # BR(chi^0_4 -> chi^+_1 b t_bar)
     4.92365934E-03    3    -1000024        -5         6   # BR(chi^0_4 -> chi^-_1 b_bar t)
DECAY   1000021     7.32955099E+00   # ~g
#    BR                NDA      ID1      ID2
     4.71848901E-01    2     1000005        -5   # BR(~g -> ~b_1 b_bar)
     4.71848901E-01    2    -1000005         5   # BR(~g -> ~b^*_1 b)
     1.10037175E-04    2     1000035        21   # BR(~g -> chi^0_4 g)
#    BR                NDA      ID1      ID2       ID3
     4.01819079E-04    3     1000022         6        -6   # BR(~g -> chi^0_1 t t_bar)
     1.48704202E-04    3     1000022         5        -5   # BR(~g -> chi^0_1 b b_bar)
     4.24672236E-03    3     1000023         6        -6   # BR(~g -> chi^0_2 t t_bar)
     4.52322951E-03    3     1000023         5        -5   # BR(~g -> chi^0_2 b b_bar)
     7.96538420E-03    3     1000025         6        -6   # BR(~g -> chi^0_3 t t_bar)
     2.86306243E-04    3     1000025         5        -5   # BR(~g -> chi^0_3 b b_bar)
     7.64054895E-03    3     1000035         6        -6   # BR(~g -> chi^0_4 t t_bar)
     3.13734028E-04    3     1000035         5        -5   # BR(~g -> chi^0_4 b b_bar)
     6.30658795E-03    3     1000024         5        -6   # BR(~g -> chi^+_1 b t_bar)
     6.30658795E-03    3    -1000024        -5         6   # BR(~g -> chi^-_1 b_bar t)
     8.85049233E-03    3     1000037         5        -6   # BR(~g -> chi^+_2 b t_bar)
     8.85049233E-03    3    -1000037        -5         6   # BR(~g -> chi^-_2 b_bar t)
DECAY        25     3.21711518E-03   # Gamma(h0)
     2.55543292E-03   2        22        22   # BR(h0 -> photon photon)
     1.36873435E-03   2        22        23   # BR(h0 -> photon Z)
     2.27773420E-02   2        23        23   # BR(h0 -> Z Z)
     1.99752816E-01   2       -24        24   # BR(h0 -> W W)
     8.15470678E-02   2        21        21   # BR(h0 -> gluon gluon)
     5.32182760E-09   2       -11        11   # BR(h0 -> Electron electron)
     2.36722693E-04   2       -13        13   # BR(h0 -> Muon muon)
     6.82515400E-02   2       -15        15   # BR(h0 -> Tau tau)
     1.49106042E-07   2        -2         2   # BR(h0 -> Up up)
     2.89366475E-02   2        -4         4   # BR(h0 -> Charm charm)
     6.18556733E-07   2        -1         1   # BR(h0 -> Down down)
     2.23717203E-04   2        -3         3   # BR(h0 -> Strange strange)
     5.94349207E-01   2        -5         5   # BR(h0 -> Bottom bottom)
DECAY        35     3.47638568E+00   # Gamma(HH)
     2.12041997E-07   2        22        22   # BR(HH -> photon photon)
     1.18634786E-06   2        22        23   # BR(HH -> photon Z)
     1.24429336E-04   2        23        23   # BR(HH -> Z Z)
     1.10061092E-04   2       -24        24   # BR(HH -> W W)
     3.30368782E-05   2        21        21   # BR(HH -> gluon gluon)
     1.01330780E-08   2       -11        11   # BR(HH -> Electron electron)
     4.51066194E-04   2       -13        13   # BR(HH -> Muon muon)
     1.30257192E-01   2       -15        15   # BR(HH -> Tau tau)
     5.57202630E-12   2        -2         2   # BR(HH -> Up up)
     1.08067783E-06   2        -4         4   # BR(HH -> Charm charm)
     7.11359061E-02   2        -6         6   # BR(HH -> Top top)
     8.09436000E-07   2        -1         1   # BR(HH -> Down down)
     2.92769781E-04   2        -3         3   # BR(HH -> Strange strange)
     7.06226936E-01   2        -5         5   # BR(HH -> Bottom bottom)
     1.41956056E-02   2  -1000024   1000024   # BR(HH -> Chargino1 chargino1)
     1.35749941E-03   2   1000022   1000022   # BR(HH -> neutralino1 neutralino1)
     1.00819744E-02   2   1000022   1000023   # BR(HH -> neutralino1 neutralino2)
     1.39156599E-02   2   1000022   1000025   # BR(HH -> neutralino1 neutralino3)
     4.39450452E-02   2   1000022   1000035   # BR(HH -> neutralino1 neutralino4)
     7.07264710E-03   2   1000023   1000023   # BR(HH -> neutralino2 neutralino2)
     7.96872307E-04   2        25        25   # BR(HH -> h0 h0)
DECAY        36     3.52802663E+00   # Gamma(A0)
     6.61582805E-07   2        22        22   # BR(A0 -> photon photon)
     3.34730178E-06   2        22        23   # BR(A0 -> photon Z)
     1.91166351E-04   2        21        21   # BR(A0 -> gluon gluon)
     9.83462655E-09   2       -11        11   # BR(A0 -> Electron electron)
     4.37779951E-04   2       -13        13   # BR(A0 -> Muon muon)
     1.26421312E-01   2       -15        15   # BR(A0 -> Tau tau)
     5.28851459E-12   2        -2         2   # BR(A0 -> Up up)
     1.02545912E-06   2        -4         4   # BR(A0 -> Charm charm)
     7.22135209E-02   2        -6         6   # BR(A0 -> Top top)
     7.85600831E-07   2        -1         1   # BR(A0 -> Down down)
     2.84148500E-04   2        -3         3   # BR(A0 -> Strange strange)
     6.85450916E-01   2        -5         5   # BR(A0 -> Bottom bottom)
     3.18191159E-02   2  -1000024   1000024   # BR(A0 -> Chargino1 chargino1)
     1.47130321E-03   2   1000022   1000022   # BR(A0 -> neutralino1 neutralino1)
     7.92434425E-03   2   1000022   1000023   # BR(A0 -> neutralino1 neutralino2)
     4.46671703E-02   2   1000022   1000025   # BR(A0 -> neutralino1 neutralino3)
     1.31134149E-02   2   1000022   1000035   # BR(A0 -> neutralino1 neutralino4)
     1.58357614E-02   2   1000023   1000023   # BR(A0 -> neutralino2 neutralino2)
     1.64216315E-04   2        23        25   # BR(A0 -> Z h0)
     4.31214431E-37   2        25        25   # BR(A0 -> h0 h0)
DECAY        37     3.75717944E+00   # Gamma(Hp)
     1.10509439E-08   2       -11        12   # BR(Hp -> Electron nu_e)
     4.72462363E-04   2       -13        14   # BR(Hp -> Muon nu_mu)
     1.33638887E-01   2       -15        16   # BR(Hp -> Tau nu_tau)
     7.65217444E-07   2        -1         2   # BR(Hp -> Down up)
     1.27970142E-05   2        -3         2   # BR(Hp -> Strange up)
     7.57423449E-06   2        -5         2   # BR(Hp -> Bottom up)
     8.87122674E-08   2        -1         4   # BR(Hp -> Down charm)
     2.76919368E-04   2        -3         4   # BR(Hp -> Strange charm)
     1.06066421E-03   2        -5         4   # BR(Hp -> Bottom charm)
     5.69291337E-06   2        -1         6   # BR(Hp -> Down top)
     1.24519037E-04   2        -3         6   # BR(Hp -> Strange top)
     7.92484626E-01   2        -5         6   # BR(Hp -> Bottom top)
     1.69240096E-02   2   1000022   1000024   # BR(Hp -> neutralino1 chargino1)
     5.48338524E-02   2   1000022   1000037   # BR(Hp -> neutralino1 chargino2)
     5.05183234E-08   2   1000023   1000024   # BR(Hp -> neutralino2 chargino1)
     1.57067318E-04   2        24        25   # BR(Hp -> W h0)
     5.92711733E-09   2        24        35   # BR(Hp -> W HH)
     6.30214268E-09   2        24        36   # BR(Hp -> W A0)
DECAY         6     2.43000000E+00   # top
#    BR                NDA      ID1      ID2
     1.00000000E+00    2           5        24   # BR(t -> b W)
Block HiggsBoundsInputHiggsCouplingsFermions
# ScalarNormEffCoupSq PseudoSNormEffCoupSq NP IP1 IP2 IP2
    9.24589350E-01    0.00000000E+00        3  25   5   5  # h0-b-b eff. coupling^2, normalised to SM
    1.62110930E+02    0.00000000E+00        3  35   5   5  # H0-b-b eff. coupling^2, normalised to SM
    0.00000000E+00    1.62035519E+02        3  36   5   5  # A0-b-b eff. coupling^2, normalised to SM
#
    1.00046540E+00    0.00000000E+00        3  25   6   6  # h0-t-t eff. coupling^2, normalised to SM
    5.70609059E-03    0.00000000E+00        3  35   6   6  # H0-t-t eff. coupling^2, normalised to SM
    0.00000000E+00    6.17148639E-03        3  36   6   6  # A0-t-t eff. coupling^2, normalised to SM
#
    9.24589350E-01    0.00000000E+00        3  25  15  15  # h0-tau-tau eff. coupling^2, normalised to SM
    1.62110930E+02    0.00000000E+00        3  35  15  15  # H0-tau-tau eff. coupling^2, normalised to SM
    0.00000000E+00    1.62035519E+02        3  36  15  15  # A0-tau-tau eff. coupling^2, normalised to SM
#
Block HiggsBoundsInputHiggsCouplingsBosons
    9.99990881E-01        3  25  24  24  # h0-W-W eff. coupling^2, normalised to SM
    9.11907601E-06        3  35  24  24  # H0-W-W eff. coupling^2, normalised to SM
    0.00000000E+00        3  36  24  24  # A0-W-W eff. coupling^2, normalised to SM
#
    9.99990881E-01        3  25  23  23  # h0-Z-Z eff. coupling^2, normalised to SM
    9.11907601E-06        3  35  23  23  # H0-Z-Z eff. coupling^2, normalised to SM
    0.00000000E+00        3  36  23  23  # A0-Z-Z eff. coupling^2, normalised to SM
#
    1.27208529E+00        3  25  21  21  # h0-g-g eff. coupling^2, normalised to SM
    3.57878093E-03        3  35  21  21  # H0-g-g eff. coupling^2, normalised to SM
    1.10420356E-01        3  36  21  21  # A0-g-g eff. coupling^2, normalised to SM
#
    0.00000000E+00        3  25  25  23  # h0-h0-Z eff. coupling^2, normalised to SM
    0.00000000E+00        3  35  25  23  # H0-h0-Z eff. coupling^2, normalised to SM
    9.11907601E-06        3  36  25  23  # A0-h0-Z eff. coupling^2, normalised to SM
    0.00000000E+00        3  35  35  23  # H0-H0-Z eff. coupling^2, normalised to SM
    9.99990881E-01        3  36  35  23  # A0-H0-Z eff. coupling^2, normalised to SM
    0.00000000E+00        3  36  36  23  # A0-A0-Z eff. coupling^2, normalised to SM
#
    0.00000000E+00        4  25  21  21  23  # h0-g-g-Z eff. coupling^2, normalised to SM
    0.00000000E+00        4  35  21  21  23  # H0-g-g-Z eff. coupling^2, normalised to SM
    0.00000000E+00        4  36  21  21  23  # A0-g-g-Z eff. coupling^2, normalised to SM
Block SPhenoLowEnergy  # low energy observables
    1    3.42477986E-04   # BR(b -> s gamma)
    2    1.58820135E-06   # BR(b -> s mu+ mu-)
    3    3.52559135E-05   # BR(b -> s nu nu)
    4    2.56846282E-15   # BR(Bd -> e+ e-)
    5    1.09721817E-10   # BR(Bd -> mu+ mu-)
    6    2.29692380E-08   # BR(Bd -> tau+ tau-)
    7    8.63091481E-14   # BR(Bs -> e+ e-)
    8    3.68712414E-09   # BR(Bs -> mu+ mu-)
    9    7.82075817E-07   # BR(Bs -> tau+ tau-)
   10    9.62397777E-05   # BR(B_u -> tau nu)
   11    9.94120059E-01   # BR(B_u -> tau nu)/BR(B_u -> tau nu)_SM
   12    5.42116923E-01   # |Delta(M_Bd)| [ps^-1] 
   13    1.93674124E+01   # |Delta(M_Bs)| [ps^-1] 
   14    0.00000000E+00   # neutron EDM according to the chiral quark model
   15    0.00000000E+00   # neutron EDM according to the relativistic quark-parton model
   16    2.15785706E-03   # epsilon_K
   17    2.28166439E-15   # Delta(M_K)
   18    2.48013857E-11   # BR(K^0 -> pi^0 nu nu)
   19    8.29083585E-11   # BR(K^+ -> pi^+ nu nu)
   20   -1.26733901E-16   # Delta(g-2)_electron/2
   21   -5.41827564E-12   # Delta(g-2)_muon/2
   22   -1.53302775E-09   # Delta(g-2)_tau/2
   23    0.00000000E+00   # electric dipole moment of the electron
   24    0.00000000E+00   # electric dipole moment of the muon
   25    0.00000000E+00   # electric dipole moment of the tau
   26    0.00000000E+00   # Br(mu -> e gamma)
   27    0.00000000E+00   # Br(tau -> e gamma)
   28    0.00000000E+00   # Br(tau -> mu gamma)
   29    0.00000000E+00   # Br(mu -> 3 e)
   30    0.00000000E+00   # Br(tau -> 3 e)
   31    0.00000000E+00   # Br(tau -> 3 mu)
   39    2.37042151E-05   # Delta(rho_parameter)
   40    0.00000000E+00   # BR(Z -> e mu)
   41    0.00000000E+00   # BR(Z -> e tau)
   42    0.00000000E+00   # BR(Z -> mu tau)
Block FWCOEF Q=  1.60000000E+02  # Wilson coefficients at scale Q
#    id        order  M        value         comment
     0305 4422   00   0    -1.88819110E-01   # C7
     0305 4422   00   2    -2.10968317E-01   # C7
     0305 4322   00   2    -4.43522684E-04   # C7'
     0305 6421   00   0    -9.52278348E-02   # C8
     0305 6421   00   2    -1.22751450E-01   # C8
     0305 6321   00   2    -5.44810960E-04   # C8'
 03051111 4133   00   0     1.62811291E+00   # C9 e+e-
 03051111 4133   00   2     1.62835625E+00   # C9 e+e-
 03051111 4233   00   2     3.64696018E-05   # C9' e+e-
 03051111 4137   00   0    -4.45080502E+00   # C10 e+e-
 03051111 4137   00   2    -4.44946186E+00   # C10 e+e-
 03051111 4237   00   2    -2.68272014E-04   # C10' e+e-
 03051313 4133   00   0     1.62811291E+00   # C9 mu+mu-
 03051313 4133   00   2     1.62835624E+00   # C9 mu+mu-
 03051313 4233   00   2     3.64695433E-05   # C9' mu+mu-
 03051313 4137   00   0    -4.45080502E+00   # C10 mu+mu-
 03051313 4137   00   2    -4.44946187E+00   # C10 mu+mu-
 03051313 4237   00   2    -2.68271961E-04   # C10' mu+mu-
 03051212 4137   00   0     1.50535012E+00   # C11 nu_1 nu_1
 03051212 4137   00   2     1.50506155E+00   # C11 nu_1 nu_1
 03051212 4237   00   2     5.79908470E-05   # C11' nu_1 nu_1
 03051414 4137   00   0     1.50535012E+00   # C11 nu_2 nu_2
 03051414 4137   00   2     1.50506155E+00   # C11 nu_2 nu_2
 03051414 4237   00   2     5.79908593E-05   # C11' nu_2 nu_2
 03051616 4137   00   0     1.50535012E+00   # C11 nu_3 nu_3
 03051616 4137   00   2     1.50506155E+00   # C11 nu_3 nu_3
 03051616 4237   00   2     5.79943310E-05   # C11' nu_3 nu_3
Block IMFWCOEF Q=  1.60000000E+02  # Im(Wilson coefficients) at scale Q
#    id        order  M        value         comment
     0305 4422   00   0     3.85820744E-07   # C7
     0305 4422   00   2    -1.47651201E-06   # C7
     0305 4322   00   2    -5.41795083E-09   # C7'
     0305 6421   00   0     3.30480983E-07   # C8
     0305 6421   00   2    -5.78637312E-06   # C8
     0305 6321   00   2    -1.08984792E-07   # C8'
 03051111 4133   00   2     7.07795920E-07   # C9 e+e-
 03051111 4233   00   2     9.20192458E-07   # C9' e+e-
 03051111 4137   00   2     3.03484193E-07   # C10 e+e-
 03051111 4237   00   2    -6.77798640E-06   # C10' e+e-
 03051313 4133   00   2     7.07795465E-07   # C9 mu+mu-
 03051313 4233   00   2     9.20192432E-07   # C9' mu+mu-
 03051313 4137   00   2     3.03484668E-07   # C10 mu+mu-
 03051313 4237   00   2    -6.77798648E-06   # C10' mu+mu-
 03051212 4137   00   2    -3.37576155E-08   # C11 nu_1 nu_1
 03051212 4237   00   2     1.46516724E-06   # C11' nu_1 nu_1
 03051414 4137   00   2    -3.37575920E-08   # C11 nu_2 nu_2
 03051414 4237   00   2     1.46516724E-06   # C11' nu_2 nu_2
 03051616 4137   00   2    -3.37508485E-08   # C11 nu_3 nu_3
 03051616 4237   00   2     1.46516724E-06   # C11' nu_3 nu_3
