#  ISAJET SUSY parameters in SUSY Les Houches Accord 2 format
#  Created by ISALHA 2.0 Last revision: C. Balazs 21 Apr 2009
Block SPINFO   # Program information
     1   ISASUGRA from ISAJET          # Spectrum Calculator
     2   7.80   29-OCT-2009 12:50:36   # Version number
Block MODSEL   # Model selection
     1     3   # Minimal anomaly mediated (AMSB) model             
Block SMINPUTS   # Standard Model inputs
     1     1.27836258E+02   # alpha_em^(-1)
     2     1.16570000E-05   # G_Fermi
     3     1.17200002E-01   # alpha_s(M_Z)
     4     9.11699982E+01   # m_{Z}(pole)
     5     4.19999981E+00   # m_{b}(m_{b})
     6     1.72500000E+02   # m_{top}(pole)
     7     1.77699995E+00   # m_{tau}(pole)
Block MINPAR   # SUSY breaking input parameters
     1     5.00000000E+03   # m_0
     2     1.02400000E+05   # m_{3/2}
     3     5.00000000E+00   # tan(beta)
     4     1.00000000E+00   # sign(mu)
Block EXTPAR   # Non-universal SUSY breaking parameters
     0     8.56622691E+15   # Input scale
Block MASS   # Scalar and gaugino mass spectrum
#  PDG code   mass                 particle
         5     4.80000000E+00   # b-quark pole mass calculated from mb(mb)_Msbar
         6     1.72500000E+02   # t-quark pole mass (not read by ME)
        15     1.77682000E+00   # tau pole mass (not read by ME)
        23     9.11876000E+01   # Z pole mass (not read by ME)
        24     8.04229965E+01   #  W^+
        25     1.15403641E+02   #  h^0            
        35     5.40724072E+03   #  H^0            
        36     5.37176270E+03   #  A^0            
        37     5.40768994E+03   #  H^+            
   1000001     5.30597070E+03   #  dnl            
   1000002     5.30540186E+03   #  upl            
   1000003     5.30597070E+03   #  stl            
   1000004     5.30540186E+03   #  chl            
   1000005     4.39961328E+03   #  b1             
   1000006     3.23236694E+03   #  t1             
   1000011     4.97587061E+03   #  el-            
   1000012     4.97702881E+03   #  nuel           
   1000013     4.97587061E+03   #  mul-           
   1000014     4.97702881E+03   #  numl           
   1000015     4.96209326E+03   #  tau1           
   1000016     4.97115430E+03   #  nutl           
   1000021     2.29987646E+03   #  glss           
   1000022     2.99650177E+02   #  z1ss           
   1000023     9.52574829E+02   #  z2ss           
   1000024     2.99822083E+02   #  w1ss           
   1000025    -1.80962634E+03   #  z3ss           
   1000035     1.81269885E+03   #  z4ss           
   1000037     1.81439246E+03   #  w2ss           
   2000001     5.33717578E+03   #  dnr            
   2000002     5.32771680E+03   #  upr            
   2000003     5.33717578E+03   #  str            
   2000004     5.32771680E+03   #  chr            
   2000005     5.31374512E+03   #  b2             
   2000006     4.41855566E+03   #  t2             
   2000011     4.97506641E+03   #  er-            
   2000013     4.97506641E+03   #  mur-           
   2000015     4.96981592E+03   #  tau2           
Block ALPHA   # Effective Higgs mixing parameter
         -1.97541401E-01   # alpha
Block STOPMIX   # stop mixing matrix
  1  1     1.48443058E-02   # O_{11}
  1  2    -9.99889791E-01   # O_{12}
  2  1     9.99889791E-01   # O_{21}
  2  2     1.48443058E-02   # O_{22}
Block SBOTMIX   # sbottom mixing matrix
  1  1     9.99996245E-01   # O_{11}
  1  2     2.74172192E-03   # O_{12}
  2  1    -2.74172192E-03   # O_{21}
  2  2     9.99996245E-01   # O_{22}
Block STAUMIX   # stau mixing matrix
  1  1     2.84742326E-01   # O_{11}
  1  2     9.58604097E-01   # O_{12}
  2  1    -9.58604097E-01   # O_{21}
  2  2     2.84742326E-01   # O_{22}
Block NMIX   # neutralino mixing matrix
  1  1     6.56427117E-04   #
  1  2    -9.98905718E-01   #
  1  3     4.42847759E-02   #
  1  4    -1.50253093E-02   #
  2  1    -9.99172509E-01   #
  2  2    -2.50192638E-03   #
  2  3    -3.42105106E-02   #
  2  4     2.18498856E-02   #
  3  1     8.77703726E-03   #
  3  2    -2.06800830E-02   #
  3  3    -7.06572711E-01   #
  3  4    -7.07283854E-01   #
  4  1     3.97060402E-02   #
  4  2    -4.18736637E-02   #
  4  3    -7.05424666E-01   #
  4  4     7.06432104E-01   #
Block UMIX   # chargino U mixing matrix
  1  1    -9.98059630E-01   # U_{11}
  1  2     6.22657873E-02   # U_{12}
  2  1    -6.22657873E-02   # U_{21}
  2  2    -9.98059630E-01   # U_{22}
Block VMIX   # chargino V mixing matrix
  1  1    -9.99731362E-01   # V_{11}
  1  2     2.31778566E-02   # V_{12}
  2  1    -2.31778566E-02   # V_{21}
  2  2    -9.99731362E-01   # V_{22}
Block GAUGE Q=  3.72448828E+03   #
     1     3.57524991E-01   # g`
     2     6.52378619E-01   # g_2
     3     1.21928000E+00   # g_3
Block YU Q=  3.72448828E+03   #
  3  3     8.39638114E-01   # y_t
Block YD Q=  3.72448828E+03   #
  3  3     6.43743128E-02   # y_b
Block YE Q=  3.72448828E+03   #
  3  3     5.15010357E-02   # y_tau
Block HMIX Q=  3.72448828E+03   # Higgs mixing parameters
     1     1.78726123E+03   # mu(Q)
     2     5.00000000E+00   # tan(beta)(M_GUT)
     3     2.52222519E+02   # Higgs vev at Q
     4     2.88558340E+07   # m_A^2(Q)
Block MSOFT Q=  3.72448828E+03   # DRbar SUSY breaking parameters
     1     9.55570923E+02   # M_1(Q)          
     2     2.77748688E+02   # M_2(Q)          
     3    -2.00299976E+03   # M_3(Q)          
    21     3.23374943E+04   # mH1^2(Q)            
    22    -1.28800134E+05   # mH2^2(Q)            
    31     4.95902539E+03   # MeL(Q)          
    32     4.95902539E+03   # MmuL(Q)         
    33     4.95332910E+03   # MtauL(Q)        
    34     4.96977148E+03   # MeR(Q)          
    35     4.96977148E+03   # MmuR(Q)         
    36     4.95867432E+03   # MtauR(Q)        
    41     5.20673389E+03   # MqL1(Q)         
    42     5.20673389E+03   # MqL2(Q)         
    43     4.32078418E+03   # MqL3(Q)         
    44     5.22878955E+03   # MuR(Q)          
    45     5.22878955E+03   # McR(Q)          
    46     3.21048462E+03   # MtR(Q)          
    47     5.23802832E+03   # MdR(Q)          
    48     5.23802832E+03   # MsR(Q)          
    49     5.23277783E+03   # MbR(Q)          
Block AU Q=  3.72448828E+03   #
  1  1     1.63018018E+03   # A_u
  2  2     1.63018018E+03   # A_c
  3  3     1.63018018E+03   # A_t
Block AD Q=  3.72448828E+03   #
  1  1     3.87674463E+03   # A_d
  2  2     3.87674463E+03   # A_s
  3  3     3.87674463E+03   # A_b
Block AE Q=  3.72448828E+03   #
  1  1     1.07264185E+03   # A_e
  2  2     1.07264185E+03   # A_mu
  3  3     1.07264185E+03   # A_tau
#
#  ISAJET decay tables in SUSY Les Houches accord format
#  Created by ISALHD. Last revision: C. Balazs, 2005 May 25
Block DCINFO                           # Program information
     1   ISASUGRA from ISAJET          # Spectrum Calculator
     2   7.80   29-OCT-2009 12:50:36   # Version number
#         PDG         Width
DECAY        23     2.49520000E+00   # Z width (SM calculation)
DECAY        24     2.08500000E+00   # W width (SM calculation)
#
#         PDG            Width  
DECAY         6  1.14680779E+00   # TP    decays
#          BR          NDA       ID1       ID2       ID3       ID4
      3.33333343E-01    3            2        -1         5             # TP     -->  UP     DB     BT          
      3.33333343E-01    3            4        -3         5             # TP     -->  CH     SB     BT          
      1.11111112E-01    3          -11        12         5             # TP     -->  E+     NUE    BT          
      1.11111112E-01    3          -13        14         5             # TP     -->  MU+    NUM    BT          
      1.11111112E-01    3          -15        16         5             # TP     -->  TAU+   NUT    BT          
#         PDG         Width
DECAY   1000021  4.36777389E-03   # GLSS  decays
#          BR          NDA       ID1       ID2       ID3       ID4
      7.25521147E-02    3      1000024         1        -2             # GLSS   -->  W1SS+  DN     UB          
      7.25521147E-02    3     -1000024         2        -1             # GLSS   -->  W1SS-  UP     DB          
      7.25521147E-02    3      1000024         3        -4             # GLSS   -->  W1SS+  ST     CB          
      7.25521147E-02    3     -1000024         4        -3             # GLSS   -->  W1SS-  CH     SB          
      1.61119163E-01    3      1000024         5        -6             # GLSS   -->  W1SS+  BT     TB          
      1.61119163E-01    3     -1000024         6        -5             # GLSS   -->  W1SS-  TP     BB          
      6.98523195E-07    3      1000037         1        -2             # GLSS   -->  W2SS+  DN     UB          
      6.98523195E-07    3     -1000037         2        -1             # GLSS   -->  W2SS-  UP     DB          
      6.98523195E-07    3      1000037         3        -4             # GLSS   -->  W2SS+  ST     CB          
      6.98523195E-07    3     -1000037         4        -3             # GLSS   -->  W2SS-  CH     SB          
      4.51799994E-03    3      1000037         5        -6             # GLSS   -->  W2SS+  BT     TB          
      4.51799994E-03    3     -1000037         6        -5             # GLSS   -->  W2SS-  TP     BB          
      2.91256015E-06    2      1000022        21                       # GLSS   -->  Z1SS   GL                 
      3.62857319E-02    3      1000022         2        -2             # GLSS   -->  Z1SS   UP     UB          
      3.62861045E-02    3      1000022         1        -1             # GLSS   -->  Z1SS   DN     DB          
      3.62861045E-02    3      1000022         3        -3             # GLSS   -->  Z1SS   ST     SB          
      3.62857319E-02    3      1000022         4        -4             # GLSS   -->  Z1SS   CH     CB          
      8.41991603E-02    3      1000022         5        -5             # GLSS   -->  Z1SS   BT     BB          
      7.66445398E-02    3      1000022         6        -6             # GLSS   -->  Z1SS   TP     TB          
      7.14094553E-04    2      1000023        21                       # GLSS   -->  Z2SS   GL                 
      5.20454533E-03    3      1000023         2        -2             # GLSS   -->  Z2SS   UP     UB          
      1.51404133E-03    3      1000023         1        -1             # GLSS   -->  Z2SS   DN     DB          
      1.51404133E-03    3      1000023         3        -3             # GLSS   -->  Z2SS   ST     SB          
      5.20454533E-03    3      1000023         4        -4             # GLSS   -->  Z2SS   CH     CB          
      1.95990480E-03    3      1000023         5        -5             # GLSS   -->  Z2SS   BT     BB          
      4.99261282E-02    3      1000023         6        -6             # GLSS   -->  Z2SS   TP     TB          
      1.40635087E-03    2      1000025        21                       # GLSS   -->  Z3SS   GL                 
      1.47283089E-07    3      1000025         2        -2             # GLSS   -->  Z3SS   UP     UB          
      1.84534699E-07    3      1000025         1        -1             # GLSS   -->  Z3SS   DN     DB          
      1.84534699E-07    3      1000025         3        -3             # GLSS   -->  Z3SS   ST     SB          
      1.47283089E-07    3      1000025         4        -4             # GLSS   -->  Z3SS   CH     CB          
      1.30522894E-05    3      1000025         5        -5             # GLSS   -->  Z3SS   BT     BB          
      2.73849256E-03    3      1000025         6        -6             # GLSS   -->  Z3SS   TP     TB          
      1.32405222E-03    2      1000035        21                       # GLSS   -->  Z4SS   GL                 
      2.44155615E-07    3      1000035         2        -2             # GLSS   -->  Z4SS   UP     UB          
      3.15568627E-07    3      1000035         1        -1             # GLSS   -->  Z4SS   DN     DB          
      3.15568627E-07    3      1000035         3        -3             # GLSS   -->  Z4SS   ST     SB          
      2.44155615E-07    3      1000035         4        -4             # GLSS   -->  Z4SS   CH     CB          
      1.31046781E-05    3      1000035         5        -5             # GLSS   -->  Z4SS   BT     BB          
      9.90483561E-04    3      1000035         6        -6             # GLSS   -->  Z4SS   TP     TB          
#         PDG         Width
DECAY   1000002  2.50691254E+02   # UPL   decays
#          BR          NDA       ID1       ID2       ID3       ID4
      8.82999375E-02    2      1000022         2                       # UPL    -->  Z1SS   UP                 
      2.87266471E-03    2      1000023         2                       # UPL    -->  Z2SS   UP                 
      2.53019498E-05    2      1000025         2                       # UPL    -->  Z3SS   UP                 
      8.31960497E-05    2      1000035         2                       # UPL    -->  Z4SS   UP                 
      7.31711090E-01    2      1000021         2                       # UPL    -->  GLSS   UP                 
      1.76933214E-01    2      1000024         1                       # UPL    -->  W1SS+  DN                 
      7.46331061E-05    2      1000037         1                       # UPL    -->  W2SS+  DN                 
#         PDG         Width
DECAY   1000001  2.50698746E+02   # DNL   decays
#          BR          NDA       ID1       ID2       ID3       ID4
      8.83494243E-02    2      1000022         1                       # DNL    -->  Z1SS   DN                 
      2.72007100E-03    2      1000023         1                       # DNL    -->  Z2SS   DN                 
      3.45591070E-05    2      1000025         1                       # DNL    -->  Z3SS   DN                 
      1.67896273E-04    2      1000035         1                       # DNL    -->  Z4SS   DN                 
      7.31833518E-01    2      1000021         1                       # DNL    -->  GLSS   DN                 
      1.76355869E-01    2     -1000024         2                       # DNL    -->  W1SS-  UP                 
      5.38694090E-04    2     -1000037         2                       # DNL    -->  W2SS-  UP                 
#         PDG         Width
DECAY   1000003  2.50698746E+02   # STL   decays
#          BR          NDA       ID1       ID2       ID3       ID4
      8.83494243E-02    2      1000022         3                       # STL    -->  Z1SS   ST                 
      2.72007100E-03    2      1000023         3                       # STL    -->  Z2SS   ST                 
      3.45591070E-05    2      1000025         3                       # STL    -->  Z3SS   ST                 
      1.67896273E-04    2      1000035         3                       # STL    -->  Z4SS   ST                 
      7.31833518E-01    2      1000021         3                       # STL    -->  GLSS   ST                 
      1.76355854E-01    2     -1000024         4                       # STL    -->  W1SS-  CH                 
      5.38693974E-04    2     -1000037         4                       # STL    -->  W2SS-  CH                 
#         PDG         Width
DECAY   1000004  2.50691223E+02   # CHL   decays
#          BR          NDA       ID1       ID2       ID3       ID4
      8.82999375E-02    2      1000022         4                       # CHL    -->  Z1SS   CH                 
      2.87266471E-03    2      1000023         4                       # CHL    -->  Z2SS   CH                 
      2.53019480E-05    2      1000025         4                       # CHL    -->  Z3SS   CH                 
      8.31960424E-05    2      1000035         4                       # CHL    -->  Z4SS   CH                 
      7.31711030E-01    2      1000021         4                       # CHL    -->  GLSS   CH                 
      1.76933244E-01    2      1000024         3                       # CHL    -->  W1SS+  ST                 
      7.46331134E-05    2      1000037         3                       # CHL    -->  W2SS+  ST                 
#         PDG         Width
DECAY   1000005  2.21047729E+02   # BT1   decays
#          BR          NDA       ID1       ID2       ID3       ID4
      8.28482136E-02    2      1000022         5                       # BT1    -->  Z1SS   BT                 
      2.48406152E-03    2      1000023         5                       # BT1    -->  Z2SS   BT                 
      6.25083514E-04    2      1000025         5                       # BT1    -->  Z3SS   BT                 
      7.32800283E-04    2      1000035         5                       # BT1    -->  Z4SS   BT                 
      5.60302615E-01    2      1000021         5                       # BT1    -->  GLSS   BT                 
      1.64944291E-01    2     -1000024         6                       # BT1    -->  W1SS-  TP                 
      1.82716534E-01    2     -1000037         6                       # BT1    -->  W2SS-  TP                 
      5.34645328E-03    2          -24   1000006                       # BT1    -->  W-     TP1                
#         PDG         Width
DECAY   1000006  8.86418457E+01   # TP1   decays
#          BR          NDA       ID1       ID2       ID3       ID4
      4.78007078E-01    2      1000021         6                       # TP1    -->  GLSS   TP                 
      2.12047835E-05    2      1000022         6                       # TP1    -->  Z1SS   TP                 
      6.79846108E-02    2      1000023         6                       # TP1    -->  Z2SS   TP                 
      1.12825006E-01    2      1000025         6                       # TP1    -->  Z3SS   TP                 
      1.13435388E-01    2      1000035         6                       # TP1    -->  Z4SS   TP                 
      6.17172045E-05    2      1000024         5                       # TP1    -->  W1SS+  BT                 
      2.27665052E-01    2      1000037         5                       # TP1    -->  W2SS+  BT                 
#         PDG         Width
DECAY   2000002  1.96133316E+02   # UPR   decays
#          BR          NDA       ID1       ID2       ID3       ID4
      2.62922111E-08    2      1000022         2                       # UPR    -->  Z1SS   UP                 
      5.74468747E-02    2      1000023         2                       # UPR    -->  Z2SS   UP                 
      3.70189923E-06    2      1000025         2                       # UPR    -->  Z3SS   UP                 
      7.56931768E-05    2      1000035         2                       # UPR    -->  Z4SS   UP                 
      9.42473710E-01    2      1000021         2                       # UPR    -->  GLSS   UP                 
#         PDG         Width
DECAY   2000001  1.88276764E+02   # DNR   decays
#          BR          NDA       ID1       ID2       ID3       ID4
      6.85964885E-09    2      1000022         1                       # DNR    -->  Z1SS   DN                 
      1.49910813E-02    2      1000023         1                       # DNR    -->  Z2SS   DN                 
      9.66697712E-07    2      1000025         1                       # DNR    -->  Z3SS   DN                 
      1.97662539E-05    2      1000035         1                       # DNR    -->  Z4SS   DN                 
      9.84988213E-01    2      1000021         1                       # DNR    -->  GLSS   DN                 
#         PDG         Width
DECAY   2000003  1.88276764E+02   # STR   decays
#          BR          NDA       ID1       ID2       ID3       ID4
      6.85964885E-09    2      1000022         3                       # STR    -->  Z1SS   ST                 
      1.49910813E-02    2      1000023         3                       # STR    -->  Z2SS   ST                 
      9.66697712E-07    2      1000025         3                       # STR    -->  Z3SS   ST                 
      1.97662539E-05    2      1000035         3                       # STR    -->  Z4SS   ST                 
      9.84988213E-01    2      1000021         3                       # STR    -->  GLSS   ST                 
#         PDG         Width
DECAY   2000004  1.96133270E+02   # CHR   decays
#          BR          NDA       ID1       ID2       ID3       ID4
      2.62922146E-08    2      1000022         4                       # CHR    -->  Z1SS   CH                 
      5.74468747E-02    2      1000023         4                       # CHR    -->  Z2SS   CH                 
      3.70189923E-06    2      1000025         4                       # CHR    -->  Z3SS   CH                 
      7.56931840E-05    2      1000035         4                       # CHR    -->  Z4SS   CH                 
      9.42473710E-01    2      1000021         4                       # CHR    -->  GLSS   CH                 
#         PDG         Width
DECAY   2000005  1.87544861E+02   # BT2   decays
#          BR          NDA       ID1       ID2       ID3       ID4
      1.56871226E-06    2      1000022         5                       # BT2    -->  Z1SS   BT                 
      1.49756214E-02    2      1000023         5                       # BT2    -->  Z2SS   BT                 
      9.65172541E-04    2      1000025         5                       # BT2    -->  Z3SS   BT                 
      9.82165802E-04    2      1000035         5                       # BT2    -->  Z4SS   BT                 
      9.80907321E-01    2      1000021         5                       # BT2    -->  GLSS   BT                 
      3.06255424E-06    2     -1000024         6                       # BT2    -->  W1SS-  TP                 
      1.92536588E-03    2     -1000037         6                       # BT2    -->  W2SS-  TP                 
      2.15099121E-07    2          -24   1000006                       # BT2    -->  W-     TP1                
      1.13543763E-04    2          -24   2000006                       # BT2    -->  W-     TP2                
      6.07320944E-05    2           23   1000005                       # BT2    -->  Z0     BT1                
      6.51780720E-05    2           25   1000005                       # BT2    -->  HL0    BT1                
#         PDG         Width
DECAY   2000006  2.23153564E+02   # TP2   decays
#          BR          NDA       ID1       ID2       ID3       ID4
      5.56651413E-01    2      1000021         6                       # TP2    -->  GLSS   TP                 
      1.65185645E-01    2      1000024         5                       # TP2    -->  W1SS+  BT                 
      1.18975190E-03    2      1000037         5                       # TP2    -->  W2SS+  BT                 
      2.79477448E-03    2           23   1000006                       # TP2    -->  Z0     TP1                
      7.35123130E-03    2           25   1000006                       # TP2    -->  HL0    TP1                
      8.22106674E-02    2      1000022         6                       # TP2    -->  Z1SS   TP                 
      2.79501872E-03    2      1000023         6                       # TP2    -->  Z2SS   TP                 
      9.12148952E-02    2      1000025         6                       # TP2    -->  Z3SS   TP                 
      9.06066298E-02    2      1000035         6                       # TP2    -->  Z4SS   TP                 
#         PDG         Width
DECAY   1000011  6.82062454E+01   # EL-   decays
#          BR          NDA       ID1       ID2       ID3       ID4
      3.03974092E-01    2      1000022        11                       # EL-    -->  Z1SS   E-                 
      8.67325589E-02    2      1000023        11                       # EL-    -->  Z2SS   E-                 
      5.81329332E-05    2      1000025        11                       # EL-    -->  Z3SS   E-                 
      9.28599402E-05    2      1000035        11                       # EL-    -->  Z4SS   E-                 
      6.07352257E-01    2     -1000024        12                       # EL-    -->  W1SS-  NUE                
      1.79004215E-03    2     -1000037        12                       # EL-    -->  W2SS-  NUE                
#         PDG         Width
DECAY   1000013  6.82062454E+01   # MUL-  decays
#          BR          NDA       ID1       ID2       ID3       ID4
      3.03974092E-01    2      1000022        13                       # MUL-   -->  Z1SS   MU-                
      8.67325589E-02    2      1000023        13                       # MUL-   -->  Z2SS   MU-                
      5.81329332E-05    2      1000025        13                       # MUL-   -->  Z3SS   MU-                
      9.28599402E-05    2      1000035        13                       # MUL-   -->  Z4SS   MU-                
      6.07352257E-01    2     -1000024        14                       # MUL-   -->  W1SS-  NUM                
      1.79004215E-03    2     -1000037        14                       # MUL-   -->  W2SS-  NUM                
#         PDG         Width
DECAY   1000015  2.74681168E+01   # TAU1- decays
#          BR          NDA       ID1       ID2       ID3       ID4
      6.31445348E-02    2      1000022        15                       # TAU1-  -->  Z1SS   TAU-               
      8.00229430E-01    2      1000023        15                       # TAU1-  -->  Z2SS   TAU-               
      3.19344318E-03    2      1000025        15                       # TAU1-  -->  Z3SS   TAU-               
      3.17018735E-03    2      1000035        15                       # TAU1-  -->  Z4SS   TAU-               
      1.26135916E-01    2     -1000024        16                       # TAU1-  -->  W1SS-  NUT                
      4.12654132E-03    2     -1000037        16                       # TAU1-  -->  W2SS-  NUT                
#         PDG         Width
DECAY   1000012  6.82432861E+01   # NUEL  decays
#          BR          NDA       ID1       ID2       ID3       ID4
      3.04320186E-01    2      1000022        12                       # NUEL   -->  Z1SS   NUE                
      8.51428732E-02    2      1000023        12                       # NUEL   -->  Z2SS   NUE                
      1.50376742E-04    2      1000025        12                       # NUEL   -->  Z3SS   NUE                
      9.37016157E-04    2      1000035        12                       # NUEL   -->  Z4SS   NUE                
      6.09201550E-01    2      1000024        11                       # NUEL   -->  W1SS+  E-                 
      2.47992226E-04    2      1000037        11                       # NUEL   -->  W2SS+  E-                 
#         PDG         Width
DECAY   1000014  6.82432861E+01   # NUML  decays
#          BR          NDA       ID1       ID2       ID3       ID4
      3.04320186E-01    2      1000022        14                       # NUML   -->  Z1SS   NUM                
      8.51428732E-02    2      1000023        14                       # NUML   -->  Z2SS   NUM                
      1.50376742E-04    2      1000025        14                       # NUML   -->  Z3SS   NUM                
      9.37016157E-04    2      1000035        14                       # NUML   -->  Z4SS   NUM                
      6.09201550E-01    2      1000024        13                       # NUML   -->  W1SS+  MU-                
      2.47992226E-04    2      1000037        13                       # NUML   -->  W2SS+  MU-                
#         PDG         Width
DECAY   1000016  6.83690491E+01   # NUTL  decays
#          BR          NDA       ID1       ID2       ID3       ID4
      3.03396612E-01    2      1000022        16                       # NUTL   -->  Z1SS   NUT                
      8.48706886E-02    2      1000023        16                       # NUTL   -->  Z2SS   NUT                
      1.49814980E-04    2      1000025        16                       # NUTL   -->  Z3SS   NUT                
      9.33512987E-04    2      1000035        16                       # NUTL   -->  Z4SS   NUT                
      6.07367933E-01    2      1000024        15                       # NUTL   -->  W1SS+  TAU-               
      3.28149647E-03    2      1000037        15                       # NUTL   -->  W2SS+  TAU-               
      2.12628231E-11    3      1000015        16       -15             # NUTL   -->  TAU1-  NUT    TAU+        
      2.12628231E-11    3      1000015        12       -11             # NUTL   -->  TAU1-  NUE    E+          
      2.12628231E-11    3      1000015        14       -13             # NUTL   -->  TAU1-  NUM    MU+         
      6.37884745E-11    3      1000015         2        -1             # NUTL   -->  TAU1-  UP     DB          
      6.37884745E-11    3      1000015         4        -3             # NUTL   -->  TAU1-  CH     SB          
#         PDG         Width
DECAY   2000011  2.34757786E+01   # ER-   decays
#          BR          NDA       ID1       ID2       ID3       ID4
      4.61098779E-07    2      1000022        11                       # ER-    -->  Z1SS   E-                 
      9.98658955E-01    2      1000023        11                       # ER-    -->  Z2SS   E-                 
      6.25182074E-05    2      1000025        11                       # ER-    -->  Z3SS   E-                 
      1.27812568E-03    2      1000035        11                       # ER-    -->  Z4SS   E-                 
#         PDG         Width
DECAY   2000013  2.34757786E+01   # MUR-  decays
#          BR          NDA       ID1       ID2       ID3       ID4
      4.61098779E-07    2      1000022        13                       # MUR-   -->  Z1SS   MU-                
      9.98658955E-01    2      1000023        13                       # MUR-   -->  Z2SS   MU-                
      6.25182074E-05    2      1000025        13                       # MUR-   -->  Z3SS   MU-                
      1.27812568E-03    2      1000035        13                       # MUR-   -->  Z4SS   MU-                
#         PDG         Width
DECAY   2000015  6.46771851E+01   # TAU2- decays
#          BR          NDA       ID1       ID2       ID3       ID4
      2.93321490E-01    2      1000022        15                       # TAU2-  -->  Z1SS   TAU-               
      1.12923004E-01    2      1000023        15                       # TAU2-  -->  Z2SS   TAU-               
      1.94238988E-03    2      1000025        15                       # TAU2-  -->  Z3SS   TAU-               
      2.41658976E-03    2      1000035        15                       # TAU2-  -->  Z4SS   TAU-               
      5.86063802E-01    2     -1000024        16                       # TAU2-  -->  W1SS-  NUT                
      3.33277113E-03    2     -1000037        16                       # TAU2-  -->  W2SS-  NUT                
#         PDG         Width
DECAY   1000023  9.90912318E-03   # Z2SS  decays
#          BR          NDA       ID1       ID2       ID3       ID4
      2.75596477E-07    2      1000022        22                       # Z2SS   -->  Z1SS   GM                 
      2.28482828E-01    2      1000024       -24                       # Z2SS   -->  W1SS+  W-                 
      2.28482828E-01    2     -1000024        24                       # Z2SS   -->  W1SS-  W+                 
      3.02399229E-02    2      1000022        23                       # Z2SS   -->  Z1SS   Z0                 
      3.35049981E-06    3      1000022         2        -2             # Z2SS   -->  Z1SS   UP     UB          
      3.17236936E-06    3      1000022         1        -1             # Z2SS   -->  Z1SS   DN     DB          
      3.17236936E-06    3      1000022         3        -3             # Z2SS   -->  Z1SS   ST     SB          
      3.35049981E-06    3      1000022         4        -4             # Z2SS   -->  Z1SS   CH     CB          
      6.81920392E-06    3      1000022         5        -5             # Z2SS   -->  Z1SS   BT     BB          
      1.28058427E-05    3      1000022        11       -11             # Z2SS   -->  Z1SS   E-     E+          
      1.28058427E-05    3      1000022        13       -13             # Z2SS   -->  Z1SS   MU-    MU+         
      1.28805550E-05    3      1000022        15       -15             # Z2SS   -->  Z1SS   TAU-   TAU+        
      1.25808201E-05    3      1000022        12       -12             # Z2SS   -->  Z1SS   NUE    ANUE        
      1.25808201E-05    3      1000022        14       -14             # Z2SS   -->  Z1SS   NUM    ANUM        
      1.26414461E-05    3      1000022        16       -16             # Z2SS   -->  Z1SS   NUT    ANUT        
      5.12697875E-01    2      1000022        25                       # Z2SS   -->  Z1SS   HL0                
#         PDG         Width
DECAY   1000025  1.32880020E+01   # Z3SS  decays
#          BR          NDA       ID1       ID2       ID3       ID4
      3.54977828E-07    2      1000022        22                       # Z3SS   -->  Z1SS   GM                 
      1.36351739E-08    2      1000023        22                       # Z3SS   -->  Z2SS   GM                 
      3.06854039E-01    2      1000024       -24                       # Z3SS   -->  W1SS+  W-                 
      3.06854039E-01    2     -1000024        24                       # Z3SS   -->  W1SS-  W+                 
      2.37043560E-01    2      1000022        23                       # Z3SS   -->  Z1SS   Z0                 
      8.58892575E-02    2      1000023        23                       # Z3SS   -->  Z2SS   Z0                 
      6.37691622E-10    3      1000022         2        -2             # Z3SS   -->  Z1SS   UP     UB          
      8.70909567E-10    3      1000022         1        -1             # Z3SS   -->  Z1SS   DN     DB          
      8.70909567E-10    3      1000022         3        -3             # Z3SS   -->  Z1SS   ST     SB          
      6.37691622E-10    3      1000022         4        -4             # Z3SS   -->  Z1SS   CH     CB          
      1.02468270E-07    3      1000022         5        -5             # Z3SS   -->  Z1SS   BT     BB          
      1.92900071E-10    3      1000022        11       -11             # Z3SS   -->  Z1SS   E-     E+          
      1.92900071E-10    3      1000022        13       -13             # Z3SS   -->  Z1SS   MU-    MU+         
      1.55013531E-08    3      1000022        15       -15             # Z3SS   -->  Z1SS   TAU-   TAU+        
      4.99297825E-10    3      1000022        12       -12             # Z3SS   -->  Z1SS   NUE    ANUE        
      4.99297825E-10    3      1000022        14       -14             # Z3SS   -->  Z1SS   NUM    ANUM        
      5.01823361E-10    3      1000022        16       -16             # Z3SS   -->  Z1SS   NUT    ANUT        
      7.33801041E-12    3      1000023         2        -2             # Z3SS   -->  Z2SS   UP     UB          
      3.75121245E-12    3      1000023         1        -1             # Z3SS   -->  Z2SS   DN     DB          
      3.75121245E-12    3      1000023         3        -3             # Z3SS   -->  Z2SS   ST     SB          
      7.33801041E-12    3      1000023         4        -4             # Z3SS   -->  Z2SS   CH     CB          
      2.08117568E-09    3      1000023         5        -5             # Z3SS   -->  Z2SS   BT     BB          
      1.77986480E-11    3      1000023        11       -11             # Z3SS   -->  Z2SS   E-     E+          
      1.77986480E-11    3      1000023        13       -13             # Z3SS   -->  Z2SS   MU-    MU+         
      2.80056978E-09    3      1000023        15       -15             # Z3SS   -->  Z2SS   TAU-   TAU+        
      1.82981113E-11    3      1000023        12       -12             # Z3SS   -->  Z2SS   NUE    ANUE        
      1.82981113E-11    3      1000023        14       -14             # Z3SS   -->  Z2SS   NUM    ANUM        
      1.83928844E-11    3      1000023        16       -16             # Z3SS   -->  Z2SS   NUT    ANUT        
      5.91824427E-02    2      1000022        25                       # Z3SS   -->  Z1SS   HL0                
      4.17627767E-03    2      1000023        25                       # Z3SS   -->  Z2SS   HL0                
#         PDG         Width
DECAY   1000035  1.29217587E+01   # Z4SS  decays
#          BR          NDA       ID1       ID2       ID3       ID4
      4.85574780E-08    2      1000022        22                       # Z4SS   -->  Z1SS   GM                 
      2.00432615E-10    2      1000023        22                       # Z4SS   -->  Z2SS   GM                 
      6.78066652E-13    2      1000025        22                       # Z4SS   -->  Z3SS   GM                 
      2.84596652E-01    2      1000024       -24                       # Z4SS   -->  W1SS+  W-                 
      2.84596652E-01    2     -1000024        24                       # Z4SS   -->  W1SS-  W+                 
      5.96497543E-02    2      1000022        23                       # Z4SS   -->  Z1SS   Z0                 
      4.42579482E-03    2      1000023        23                       # Z4SS   -->  Z2SS   Z0                 
      3.63486707E-09    3      1000022         2        -2             # Z4SS   -->  Z1SS   UP     UB          
      7.33469285E-09    3      1000022         1        -1             # Z4SS   -->  Z1SS   DN     DB          
      7.33469285E-09    3      1000022         3        -3             # Z4SS   -->  Z1SS   ST     SB          
      3.63486707E-09    3      1000022         4        -4             # Z4SS   -->  Z1SS   CH     CB          
      1.19619742E-07    3      1000022         5        -5             # Z4SS   -->  Z1SS   BT     BB          
      5.33111222E-10    3      1000022        11       -11             # Z4SS   -->  Z1SS   E-     E+          
      5.33111222E-10    3      1000022        13       -13             # Z4SS   -->  Z1SS   MU-    MU+         
      1.62421347E-08    3      1000022        15       -15             # Z4SS   -->  Z1SS   TAU-   TAU+        
      5.38279155E-09    3      1000022        12       -12             # Z4SS   -->  Z1SS   NUE    ANUE        
      5.38279155E-09    3      1000022        14       -14             # Z4SS   -->  Z1SS   NUM    ANUM        
      5.40979350E-09    3      1000022        16       -16             # Z4SS   -->  Z1SS   NUT    ANUT        
      2.89890056E-10    3      1000023         2        -2             # Z4SS   -->  Z2SS   UP     UB          
      6.33069569E-11    3      1000023         1        -1             # Z4SS   -->  Z2SS   DN     DB          
      6.33069569E-11    3      1000023         3        -3             # Z4SS   -->  Z2SS   ST     SB          
      2.89890056E-10    3      1000023         4        -4             # Z4SS   -->  Z2SS   CH     CB          
      2.22866703E-09    3      1000023         5        -5             # Z4SS   -->  Z2SS   BT     BB          
      6.34119091E-10    3      1000023        11       -11             # Z4SS   -->  Z2SS   E-     E+          
      6.34119091E-10    3      1000023        13       -13             # Z4SS   -->  Z2SS   MU-    MU+         
      3.52690943E-09    3      1000023        15       -15             # Z4SS   -->  Z2SS   TAU-   TAU+        
      3.17121301E-10    3      1000023        12       -12             # Z4SS   -->  Z2SS   NUE    ANUE        
      3.17121301E-10    3      1000023        14       -14             # Z4SS   -->  Z2SS   NUM    ANUM        
      3.18754051E-10    3      1000023        16       -16             # Z4SS   -->  Z2SS   NUT    ANUT        
      3.22479717E-12    3      1000025         2        -2             # Z4SS   -->  Z3SS   UP     UB          
      4.15840062E-12    3      1000025         1        -1             # Z4SS   -->  Z3SS   DN     DB          
      4.15840062E-12    3      1000025         3        -3             # Z4SS   -->  Z3SS   ST     SB          
      9.43330917E-13    3      1000025        11       -11             # Z4SS   -->  Z3SS   E-     E+          
      9.43330917E-13    3      1000025        13       -13             # Z4SS   -->  Z3SS   MU-    MU+         
      1.87692982E-12    3      1000025        12       -12             # Z4SS   -->  Z3SS   NUE    ANUE        
      1.87692982E-12    3      1000025        14       -14             # Z4SS   -->  Z3SS   NUM    ANUM        
      1.87692982E-12    3      1000025        16       -16             # Z4SS   -->  Z3SS   NUT    ANUT        
      2.66052842E-01    2      1000022        25                       # Z4SS   -->  Z1SS   HL0                
      1.00678056E-01    2      1000023        25                       # Z4SS   -->  Z2SS   HL0                
#         PDG         Width
DECAY   1000024  4.45803477E-15   # W1SS+ decays
#          BR          NDA       ID1       ID2       ID3       ID4
      9.70872760E-01    2      1000022         0                       # W1SS+  -->  Z1SS   PI+                
      1.45636192E-02    3      1000022       -11        12             # W1SS+  -->  Z1SS   E+     NUE         
      1.45636192E-02    3      1000022       -13        14             # W1SS+  -->  Z1SS   MU+    NUM         
#         PDG         Width
DECAY   1000037  1.34035969E+01   # W2SS+ decays
#          BR          NDA       ID1       ID2       ID3       ID4
      8.69071215E-09    3      1000022         2        -1             # W2SS+  -->  Z1SS   UP     DB          
      8.69071215E-09    3      1000022         4        -3             # W2SS+  -->  Z1SS   CH     SB          
      3.80168164E-09    3      1000022       -11        12             # W2SS+  -->  Z1SS   E+     NUE         
      3.80168164E-09    3      1000022       -13        14             # W2SS+  -->  Z1SS   MU+    NUM         
      1.91074836E-08    3      1000022       -15        16             # W2SS+  -->  Z1SS   TAU+   NUT         
      2.97082245E-01    2      1000022        24                       # W2SS+  -->  Z1SS   W+                 
      7.51466528E-11    3      1000023         2        -1             # W2SS+  -->  Z2SS   UP     DB          
      7.51466528E-11    3      1000023         4        -3             # W2SS+  -->  Z2SS   CH     SB          
      3.03982728E-10    3      1000023       -11        12             # W2SS+  -->  Z2SS   E+     NUE         
      3.03982728E-10    3      1000023       -13        14             # W2SS+  -->  Z2SS   MU+    NUM         
      3.10670289E-09    3      1000023       -15        16             # W2SS+  -->  Z2SS   TAU+   NUT         
      9.06025618E-02    2      1000023        24                       # W2SS+  -->  Z2SS   W+                 
      7.61330998E-11    3      1000025         2        -1             # W2SS+  -->  Z3SS   UP     DB          
      7.61330998E-11    3      1000025         4        -3             # W2SS+  -->  Z3SS   CH     SB          
      2.53776965E-11    3      1000025       -11        12             # W2SS+  -->  Z3SS   E+     NUE         
      2.53776965E-11    3      1000025       -13        14             # W2SS+  -->  Z3SS   MU+    NUM         
      2.53777485E-11    3      1000025       -15        16             # W2SS+  -->  Z3SS   TAU+   NUT         
      4.31899281E-13    3      1000035         2        -1             # W2SS+  -->  Z4SS   UP     DB          
      1.43966395E-13    3      1000035       -11        12             # W2SS+  -->  Z4SS   E+     NUE         
      1.43966395E-13    3      1000035       -13        14             # W2SS+  -->  Z4SS   MU+    NUM         
      2.96874970E-01    2      1000024        23                       # W2SS+  -->  W1SS+  Z0                 
      2.53298693E-09    3      1000024         1        -1             # W2SS+  -->  W1SS+  DN     DB          
      2.53298693E-09    3      1000024         3        -3             # W2SS+  -->  W1SS+  ST     SB          
      1.82110647E-08    3      1000024         2        -2             # W2SS+  -->  W1SS+  UP     UB          
      1.82110647E-08    3      1000024         4        -4             # W2SS+  -->  W1SS+  CH     CB          
      7.96748445E-09    3      1000024        12       -12             # W2SS+  -->  W1SS+  NUE    ANUE        
      7.96748445E-09    3      1000024        14       -14             # W2SS+  -->  W1SS+  NUM    ANUM        
      8.06196176E-09    3      1000024        16       -16             # W2SS+  -->  W1SS+  NUT    ANUT        
      1.10660503E-09    3      1000024        11       -11             # W2SS+  -->  W1SS+  E-     E+          
      1.10660503E-09    3      1000024        13       -13             # W2SS+  -->  W1SS+  MU-    MU+         
      1.11217491E-09    3      1000024        15       -15             # W2SS+  -->  W1SS+  TAU-   TAU+        
      3.15440178E-01    2      1000024        25                       # W2SS+  -->  W1SS+  HL0                
#         PDG         Width
DECAY        25  4.07893816E-03   # HL0   decays
#          BR          NDA       ID1       ID2       ID3       ID4
      4.81503060E-09    2           11       -11                       # HL0    -->  E-     E+                 
      2.03298274E-04    2           13       -13                       # HL0    -->  MU-    MU+                
      5.81452139E-02    2           15       -15                       # HL0    -->  TAU-   TAU+               
      6.04305023E-06    2            1        -1                       # HL0    -->  DN     DB                 
      2.44169519E-03    2            3        -3                       # HL0    -->  ST     SB                 
      8.00040543E-01    2            5        -5                       # HL0    -->  BT     BB                 
      1.93064852E-06    2            2        -2                       # HL0    -->  UP     UB                 
      3.63248065E-02    2            4        -4                       # HL0    -->  CH     CB                 
      1.85906398E-03    2           22        22                       # HL0    -->  GM     GM                 
      3.98807488E-02    2           21        21                       # HL0    -->  GL     GL                 
      3.15511529E-03    3           24        11       -12             # HL0    -->  W+     E-     ANUE        
      3.15511529E-03    3           24        13       -14             # HL0    -->  W+     MU-    ANUM        
      3.15511529E-03    3           24        15       -16             # HL0    -->  W+     TAU-   ANUT        
      9.46534518E-03    3           24        -2         1             # HL0    -->  W+     UB     DN          
      9.46534518E-03    3           24        -4         3             # HL0    -->  W+     CB     ST          
      3.15511529E-03    3          -24       -11        12             # HL0    -->  W-     E+     NUE         
      3.15511529E-03    3          -24       -13        14             # HL0    -->  W-     MU+    NUM         
      3.15511529E-03    3          -24       -15        16             # HL0    -->  W-     TAU+   NUT         
      9.46534518E-03    3          -24         2        -1             # HL0    -->  W-     UP     DB          
      9.46534518E-03    3          -24         4        -3             # HL0    -->  W-     CH     SB          
      2.94394529E-04    3           23        12       -12             # HL0    -->  Z0     NUE    ANUE        
      2.94394529E-04    3           23        14       -14             # HL0    -->  Z0     NUM    ANUM        
      2.94394529E-04    3           23        16       -16             # HL0    -->  Z0     NUT    ANUT        
      1.48165811E-04    3           23        11       -11             # HL0    -->  Z0     E-     E+          
      1.48165811E-04    3           23        13       -13             # HL0    -->  Z0     MU-    MU+         
      1.48165811E-04    3           23        15       -15             # HL0    -->  Z0     TAU-   TAU+        
      5.07603516E-04    3           23         2        -2             # HL0    -->  Z0     UP     UB          
      5.07603516E-04    3           23         4        -4             # HL0    -->  Z0     CH     CB          
      6.53918367E-04    3           23         1        -1             # HL0    -->  Z0     DN     DB          
      6.53918367E-04    3           23         3        -3             # HL0    -->  Z0     ST     SB          
      6.53918367E-04    3           23         5        -5             # HL0    -->  Z0     BT     BB          
#         PDG         Width
DECAY        35  6.99908371E+01   # HH0   decays
#          BR          NDA       ID1       ID2       ID3       ID4
      3.28203131E-10    2           11       -11                       # HH0    -->  E-     E+                 
      1.38573287E-05    2           13       -13                       # HH0    -->  MU-    MU+                
      3.96894850E-03    2           15       -15                       # HH0    -->  TAU-   TAU+               
      3.97274022E-07    2            1        -1                       # HH0    -->  DN     DB                 
      1.60518728E-04    2            3        -3                       # HH0    -->  ST     SB                 
      1.99290644E-02    2            5        -5                       # HH0    -->  BT     BB                 
      2.03692119E-10    2            2        -2                       # HH0    -->  UP     UB                 
      2.38909229E-06    2            4        -4                       # HH0    -->  CH     CB                 
      1.25342727E-01    2            6        -6                       # HH0    -->  TP     TB                 
      1.86143808E-07    2           22        22                       # HH0    -->  GM     GM                 
      1.42439667E-05    2           21        21                       # HH0    -->  GL     GL                 
      1.56217902E-05    2           24       -24                       # HH0    -->  W+     W-                 
      8.01543683E-06    2           23        23                       # HH0    -->  Z0     Z0                 
      1.04436942E-03    2      1000022   1000022                       # HH0    -->  Z1SS   Z1SS               
      7.84014934E-04    2      1000022   1000023                       # HH0    -->  Z1SS   Z2SS               
      1.82628334E-01    2      1000022   1000025                       # HH0    -->  Z1SS   Z3SS               
      7.36912936E-02    2      1000022   1000035                       # HH0    -->  Z1SS   Z4SS               
      1.36373244E-04    2      1000023   1000023                       # HH0    -->  Z2SS   Z2SS               
      5.54365329E-02    2      1000023   1000025                       # HH0    -->  Z2SS   Z3SS               
      1.83948986E-02    2      1000023   1000035                       # HH0    -->  Z2SS   Z4SS               
      1.19996621E-04    2      1000025   1000025                       # HH0    -->  Z3SS   Z3SS               
      1.08637230E-03    2      1000025   1000035                       # HH0    -->  Z3SS   Z4SS               
      3.29655333E-04    2      1000035   1000035                       # HH0    -->  Z4SS   Z4SS               
      2.03792285E-03    2      1000024  -1000024                       # HH0    -->  W1SS+  W1SS-              
      2.90299213E-05    2      1000037  -1000037                       # HH0    -->  W2SS+  W2SS-              
      2.57382035E-01    2      1000024  -1000037                       # HH0    -->  W1SS+  W2SS-              
      2.57382035E-01    2     -1000024   1000037                       # HH0    -->  W1SS-  W2SS+              
      6.12389485E-05    2           25        25                       # HH0    -->  HL0    HL0                
#         PDG         Width
DECAY        36  6.93519135E+01   # HA0   decays
#          BR          NDA       ID1       ID2       ID3       ID4
      3.29072741E-10    2           11       -11                       # HA0    -->  E-     E+                 
      1.38940450E-05    2           13       -13                       # HA0    -->  MU-    MU+                
      3.97946686E-03    2           15       -15                       # HA0    -->  TAU-   TAU+               
      3.98342564E-07    2            1        -1                       # HA0    -->  DN     DB                 
      1.60950513E-04    2            3        -3                       # HA0    -->  ST     SB                 
      1.99826974E-02    2            5        -5                       # HA0    -->  BT     BB                 
      2.03930484E-10    2            2        -2                       # HA0    -->  UP     UB                 
      2.39347287E-06    2            4        -4                       # HA0    -->  CH     CB                 
      1.25931516E-01    2            6        -6                       # HA0    -->  TP     TB                 
      1.21576491E-07    2           22        22                       # HA0    -->  GM     GM                 
      1.63559343E-05    2           21        21                       # HA0    -->  GL     GL                 
      1.39137974E-03    2      1000022   1000022                       # HA0    -->  Z1SS   Z1SS               
      1.23660767E-03    2      1000022   1000023                       # HA0    -->  Z1SS   Z2SS               
      7.43121207E-02    2      1000022   1000025                       # HA0    -->  Z1SS   Z3SS               
      1.80986822E-01    2      1000022   1000035                       # HA0    -->  Z1SS   Z4SS               
      2.60767469E-04    2      1000023   1000023                       # HA0    -->  Z2SS   Z2SS               
      1.85156036E-02    2      1000023   1000025                       # HA0    -->  Z2SS   Z3SS               
      5.47961220E-02    2      1000023   1000035                       # HA0    -->  Z2SS   Z4SS               
      9.62456324E-05    2      1000025   1000025                       # HA0    -->  Z3SS   Z3SS               
      4.18673939E-04    2      1000025   1000035                       # HA0    -->  Z3SS   Z4SS               
      1.34579255E-03    2      1000035   1000035                       # HA0    -->  Z4SS   Z4SS               
      2.78663449E-03    2      1000024  -1000024                       # HA0    -->  W1SS+  W1SS-              
      5.85340080E-04    2      1000037  -1000037                       # HA0    -->  W2SS+  W2SS-              
      2.56582171E-01    2      1000024  -1000037                       # HA0    -->  W1SS+  W2SS-              
      2.56582171E-01    2     -1000024   1000037                       # HA0    -->  W1SS-  W2SS+              
      1.56470087E-05    2           25        23                       # HA0    -->  HL0    Z0                 
#         PDG         Width
DECAY        37  6.92725296E+01   # H+    decays
#          BR          NDA       ID1       ID2       ID3       ID4
      3.31653288E-10    2           12       -11                       # H+     -->  NUE    E+                 
      1.40029988E-05    2           14       -13                       # H+     -->  NUM    MU+                
      4.01067268E-03    2           16       -15                       # H+     -->  NUT    TAU+               
      3.73642621E-07    2            2        -1                       # H+     -->  UP     DB                 
      1.53135683E-04    2            4        -3                       # H+     -->  CH     SB                 
      1.36549383E-01    2            6        -5                       # H+     -->  TP     BB                 
      7.88984522E-08    2      1000024   1000022                       # H+     -->  W1SS+  Z1SS               
      2.04367191E-03    2      1000024   1000023                       # H+     -->  W1SS+  Z2SS               
      2.60392070E-01    2      1000024   1000025                       # H+     -->  W1SS+  Z3SS               
      2.59491533E-01    2      1000024   1000035                       # H+     -->  W1SS+  Z4SS               
      2.61138171E-01    2      1000037   1000022                       # H+     -->  W2SS+  Z1SS               
      7.54256174E-02    2      1000037   1000023                       # H+     -->  W2SS+  Z2SS               
      4.40633128E-04    2      1000037   1000025                       # H+     -->  W2SS+  Z3SS               
      3.24855471E-04    2      1000037   1000035                       # H+     -->  W2SS+  Z4SS               
      1.57766026E-05    2           25        24                       # H+     -->  HL0    W+                 
