# SUSY Les Houches Accord 2 - MSSM spectrum + Decays
# SPheno v4.0.5be
# W. Porod, Comput. Phys. Commun. 153 (2003) 275-315, hep-ph/0301101;
# W. Porod, F.~Staub, Comput. Phys. Commun. 183 (2012) 2458
#                     arXiv:1104.1573 [hep-ph] 
# in case of problems send email to porod@physik.uni-wuerzburg.de
# Created: 07.09.2021,  16:52
Block SPINFO         # Program information
     1   SPheno      # spectrum calculator
     2   v4.0.5be    # version number
#
Block SPhenoINFO     # SPheno specific information
    1      2         # using 2-loop RGEs
    2      2         # using pole masses for boundary conditions at mZ
Block MODSEL  # Model selection
    1    0    # general MSSM
Block MINPAR  # Input parameters
    3    4.14731097E+01  # tanb at m_Z    
    4    1.00000000E+00  # Sign(mu)
Block EXTPAR  # non-universal input parameters
    0    3.08358506E+03  # scale for input parameters
    1    5.95120399E+01  # M_1
    2    8.34133724E+02  # M_2
    3    3.02588399E+03  # M_3
   11    7.38346324E+02  # A_t
   12    2.22715822E+02  # A_b
   13    8.95159725E+02  # A_tau
   23    4.15860480E+02  # mu
   25    4.04232107E+01  # tan(beta)
   26    3.37392993E+03  # m_A, pole mass
   31    1.00000000E+04  # M_L11
   32    1.00000000E+04  # M_L22
   33    1.00000000E+04  # M_L33
   34    1.00000000E+04  # M_E11
   35    1.00000000E+04  # M_E22
   36    1.00000000E+04  # M_E33
   41    1.00000000E+04  # M_Q11
   42    1.00000000E+04  # M_Q22
   43    4.16326402E+03  # M_Q33
   44    1.00000000E+04  # M_U11
   45    1.00000000E+04  # M_U22
   46    2.15345621E+03  # M_U33
   47    1.00000000E+04  # M_D11
   48    1.00000000E+04  # M_D22
   49    3.90729365E+03  # M_D33
Block SMINPUTS  # SM parameters
         1     1.27908970E+02  # alpha_em^-1(MZ)^MSbar
         2     1.16637870E-05  # G_mu [GeV^-2]
         3     1.18400000E-01  # alpha_s(MZ)^MSbar
         4     9.11876000E+01  # m_Z(pole)
         5     4.18000000E+00  # m_b(m_b), MSbar
         6     1.73200000E+02  # m_t(pole)
         7     1.77700000E+00  # m_tau(pole)
         8     0.00000000E+00  # m_nu_3
        11     5.10998930E-04  # m_e(pole)
        12     0.00000000E+00  # m_nu_1
        13     1.05658372E-01  # m_muon(pole)
        14     0.00000000E+00  # m_nu_2
        21     5.00000000E-03  # m_d(2 GeV), MSbar
        22     2.50000000E-03  # m_u(2 GeV), MSbar
        23     9.50000000E-02  # m_s(2 GeV), MSbar
        24     1.27000000E+00  # m_c(m_c), MSbar
Block gauge Q=  3.08358506E+03  # (SUSY scale)
   1    3.55362975E-01  # g'(Q)^DRbar
   2    6.65198874E-01  # g(Q)^DRbar
   3    1.21977796E+00  # g3(Q)^DRbar
Block Yu Q=  3.08358506E+03  # (SUSY scale)
  1  1     8.38693728E-06   # Y_u(Q)^DRbar
  2  2     4.26056414E-03   # Y_c(Q)^DRbar
  3  3     1.01320939E+00   # Y_t(Q)^DRbar
Block Yd Q=  3.08358506E+03  # (SUSY scale)
  1  1     6.81262444E-04   # Y_d(Q)^DRbar
  2  2     1.29439864E-02   # Y_s(Q)^DRbar
  3  3     6.75598868E-01   # Y_b(Q)^DRbar
Block Ye Q=  3.08358506E+03  # (SUSY scale)
  1  1     1.18885278E-04   # Y_e(Q)^DRbar
  2  2     2.45817050E-02   # Y_mu(Q)^DRbar
  3  3     4.13423839E-01   # Y_tau(Q)^DRbar
Block Au Q=  3.08358506E+03  # (SUSY scale)
  1  1     0.00000000E+00   # A_u(Q)^DRbar
  2  2     0.00000000E+00   # A_c(Q)^DRbar
  3  3     7.38346333E+02   # A_t(Q)^DRbar
Block Ad Q=  3.08358506E+03  # (SUSY scale)
  1  1     0.00000000E+00   # A_d(Q)^DRbar
  2  2     0.00000000E+00   # A_s(Q)^DRbar
  3  3     2.22715824E+02   # A_b(Q)^DRbar
Block Ae Q=  3.08358506E+03  # (SUSY scale)
  1  1     0.00000000E+00   # A_e(Q)^DRbar
  2  2     0.00000000E+00   # A_mu(Q)^DRbar
  3  3     8.95159720E+02   # A_tau(Q)^DRbar
Block MSOFT Q=  3.08358506E+03  # soft SUSY breaking masses at Q
   1    5.95120399E+01  # M_1
   2    8.34133724E+02  # M_2
   3    3.02588399E+03  # M_3
  21    1.10395138E+07  # M^2_(H,d)
  22   -1.04822909E+04  # M^2_(H,u)
  31    1.00000000E+04  # M_(L,11)
  32    1.00000000E+04  # M_(L,22)
  33    1.00000000E+04  # M_(L,33)
  34    1.00000000E+04  # M_(E,11)
  35    1.00000000E+04  # M_(E,22)
  36    1.00000000E+04  # M_(E,33)
  41    1.00000000E+04  # M_(Q,11)
  42    1.00000000E+04  # M_(Q,22)
  43    4.16326402E+03  # M_(Q,33)
  44    1.00000000E+04  # M_(U,11)
  45    1.00000000E+04  # M_(U,22)
  46    2.15345621E+03  # M_(U,33)
  47    1.00000000E+04  # M_(D,11)
  48    1.00000000E+04  # M_(D,22)
  49    3.90729365E+03  # M_(D,33)
Block MASS  # Mass spectrum
#   PDG code      mass          particle
         6     1.73200000E+02  # m_t(pole)
        23     9.11876000E+01  # m_Z(pole)
        24     8.04299946E+01  # W+
        15     1.77700000E+00  # m_tau(pole)
        25     1.20786068E+02  # h0
        35     3.37285778E+03  # H0
        36     3.37392993E+03  # A0
        37     3.37438275E+03  # H+
   1000001     1.01017634E+04  # ~d_L
   2000001     1.00773661E+04  # ~d_R
   1000002     1.01013957E+04  # ~u_L
   2000002     1.00803445E+04  # ~u_R
   1000003     1.01017708E+04  # ~s_L
   2000003     1.00773791E+04  # ~s_R
   1000004     1.01014032E+04  # ~c_L
   2000004     1.00803461E+04  # ~c_R
   1000005     3.97078460E+03  # ~b_1
   2000005     4.22152638E+03  # ~b_2
   1000006     2.25137739E+03  # ~t_1
   2000006     4.22341313E+03  # ~t_2
   1000011     1.00208940E+04  # ~e_L-
   2000011     1.00090157E+04  # ~e_R-
   1000012     1.00201282E+04  # ~nu_eL
   1000013     1.00209293E+04  # ~mu_L-
   2000013     1.00090826E+04  # ~mu_R-
   1000014     1.00201628E+04  # ~nu_muL
   1000015     1.00275772E+04  # ~tau_1-
   2000015     1.00313966E+04  # ~tau_2-
   1000016     1.00299827E+04  # ~nu_tauL
   1000021     3.47209046E+03  # ~g
   1000022     5.90522473E+01  # ~chi_10
   1000023     4.10756982E+02  # ~chi_20
   1000025     4.18695442E+02  # ~chi_30
   1000035     9.12888504E+02  # ~chi_40
   1000024     4.09995632E+02  # ~chi_1+
   1000037     9.12495857E+02  # ~chi_2+
# Higgs mixing
Block alpha # Effective Higgs mixing angle
          -2.41609340E-02   # alpha
Block Hmix Q=  3.08358506E+03  # Higgs mixing parameters
   1    4.15860480E+02  # mu
   2    4.04232107E+01  # tan[beta](Q)
   3    2.43239276E+02  # v(Q)
   4    1.13834032E+07  # m^2_A(Q)
Block stopmix # stop mixing matrix
   1  1    -6.30061149E-03   # Re[R_st(1,1)]
   1  2     9.99980151E-01   # Re[R_st(1,2)]
   2  1    -9.99980151E-01   # Re[R_st(2,1)]
   2  2    -6.30061149E-03   # Re[R_st(2,2)]
Block sbotmix # sbottom mixing matrix
   1  1     1.91064833E-02   # Re[R_sb(1,1)]
   1  2     9.99817454E-01   # Re[R_sb(1,2)]
   2  1    -9.99817454E-01   # Re[R_sb(2,1)]
   2  2     1.91064833E-02   # Re[R_sb(2,2)]
Block staumix # stau mixing matrix
   1  1     4.16548342E-01   # Re[R_sta(1,1)]
   1  2     9.09113567E-01   # Re[R_sta(1,2)]
   2  1    -9.09113567E-01   # Re[R_sta(2,1)]
   2  2     4.16548342E-01   # Re[R_sta(2,2)]
Block Nmix # neutralino mixing matrix
   1  1     9.93665066E-01   # Re[N(1,1)]
   1  2    -1.93305840E-03   # Re[N(1,2)]
   1  3     1.10825482E-01   # Re[N(1,3)]
   1  4    -1.85395019E-02   # Re[N(1,4)]
   2  1    -9.15359332E-02   # Re[N(2,1)]
   2  2    -1.17838140E-01   # Re[N(2,2)]
   2  3     7.02200013E-01   # Re[N(2,3)]
   2  4    -6.96168433E-01   # Re[N(2,4)]
   3  1     6.49044947E-02   # Re[N(3,1)]
   3  2    -4.19721530E-02   # Re[N(3,2)]
   3  3    -7.01228950E-01   # Re[N(3,3)]
   3  4    -7.08733875E-01   # Re[N(3,4)]
   4  1     6.19006222E-03   # Re[N(4,1)]
   4  2    -9.92143525E-01   # Re[N(4,2)]
   4  3    -5.39519591E-02   # Re[N(4,3)]
   4  4     1.12703571E-01   # Re[N(4,4)]
Block Umix # chargino mixing matrix
   1  1    -7.61042757E-02   # Re[U(1,1)]
   1  2     9.97099864E-01   # Re[U(1,2)]
   2  1     9.97099864E-01   # Re[U(2,1)]
   2  2     7.61042757E-02   # Re[U(2,2)]
Block Vmix # chargino mixing matrix
   1  1    -1.59254291E-01   # Re[V(1,1)]
   1  2     9.87237596E-01   # Re[V(1,2)]
   2  1     9.87237596E-01   # Re[V(2,1)]
   2  2     1.59254291E-01   # Re[V(2,2)]
DECAY        23     2.49520000E+00   # Z
DECAY        24     2.08500000E+00   # W
DECAY   2000011     5.02860056E+01   # ~e^-_R
#    BR                NDA      ID1      ID2
     9.87412304E-01    2     1000022        11   # BR(~e^-_R -> chi^0_1 e^-)
     8.35159247E-03    2     1000023        11   # BR(~e^-_R -> chi^0_2 e^-)
     4.19836151E-03    2     1000025        11   # BR(~e^-_R -> chi^0_3 e^-)
DECAY   1000011     1.42741515E+02   # ~e^-_L
#    BR                NDA      ID1      ID2
     8.64334370E-02    2     1000022        11   # BR(~e^-_L -> chi^0_1 e^-)
     8.56191904E-03    2     1000023        11   # BR(~e^-_L -> chi^0_2 e^-)
     2.97146081E-01    2     1000035        11   # BR(~e^-_L -> chi^0_4 e^-)
     3.56740350E-03    2    -1000024        12   # BR(~e^-_L -> chi^-_1 nu_e)
     6.04274746E-01    2    -1000037        12   # BR(~e^-_L -> chi^-_2 nu_e)
#    BR                NDA      ID1      ID2       ID3
DECAY   2000013     5.05261574E+01   # ~mu^-_R
#    BR                NDA      ID1      ID2
     9.82754929E-01    2     1000022        13   # BR(~mu^-_R -> chi^0_1 mu^-)
     9.48221108E-03    2     1000023        13   # BR(~mu^-_R -> chi^0_2 mu^-)
     5.34530312E-03    2     1000025        13   # BR(~mu^-_R -> chi^0_3 mu^-)
     2.35966757E-03    2    -1000024        14   # BR(~mu^-_R -> chi^-_1 nu_mu)
DECAY   1000013     1.42862083E+02   # ~mu^-_L
#    BR                NDA      ID1      ID2
     8.63711517E-02    2     1000022        13   # BR(~mu^-_L -> chi^0_1 mu^-)
     8.96909768E-03    2     1000023        13   # BR(~mu^-_L -> chi^0_2 mu^-)
     4.29577815E-04    2     1000025        13   # BR(~mu^-_L -> chi^0_3 mu^-)
     2.96898802E-01    2     1000035        13   # BR(~mu^-_L -> chi^0_4 mu^-)
     3.56440542E-03    2    -1000024        14   # BR(~mu^-_L -> chi^-_1 nu_mu)
     6.03766965E-01    2    -1000037        14   # BR(~mu^-_L -> chi^-_2 nu_mu)
#    BR                NDA      ID1      ID2       ID3
DECAY   1000015     1.28555332E+02   # ~tau^-_1
#    BR                NDA      ID1      ID2
     3.53228009E-01    2     1000022        15   # BR(~tau^-_1 -> chi^0_1 tau^-)
     1.45724900E-01    2     1000023        15   # BR(~tau^-_1 -> chi^0_2 tau^-)
     1.19087417E-01    2     1000025        15   # BR(~tau^-_1 -> chi^0_3 tau^-)
     4.59871530E-02    2     1000035        15   # BR(~tau^-_1 -> chi^0_4 tau^-)
     2.42346621E-01    2    -1000024        16   # BR(~tau^-_1 -> chi^-_1 nu_tau)
     9.36258995E-02    2    -1000037        16   # BR(~tau^-_1 -> chi^-_2 nu_tau)
DECAY   2000015     1.66670455E+02   # ~tau^-_2
#    BR                NDA      ID1      ID2
     1.05152539E-01    2     1000022        15   # BR(~tau^-_2 -> chi^0_1 tau^-)
     9.85717472E-02    2     1000023        15   # BR(~tau^-_2 -> chi^0_2 tau^-)
     1.09961712E-01    2     1000025        15   # BR(~tau^-_2 -> chi^0_3 tau^-)
     2.20459786E-01    2     1000035        15   # BR(~tau^-_2 -> chi^0_4 tau^-)
     1.88525299E-02    2    -1000024        16   # BR(~tau^-_2 -> chi^-_1 nu_tau)
     4.47001686E-01    2    -1000037        16   # BR(~tau^-_2 -> chi^-_2 nu_tau)
#    BR                NDA      ID1      ID2       ID3
DECAY   1000012     1.42745951E+02   # ~nu_e
#    BR                NDA      ID1      ID2
     8.76922291E-02    2     1000022        12   # BR(~nu_e -> chi^0_1 nu_e)
     1.46341015E-03    2     1000023        12   # BR(~nu_e -> chi^0_2 nu_e)
     1.80870513E-03    2     1000025        12   # BR(~nu_e -> chi^0_3 nu_e)
     3.01101086E-01    2     1000035        12   # BR(~nu_e -> chi^0_4 nu_e)
     1.56196047E-02    2     1000024        11   # BR(~nu_e -> chi^+_1 e^-)
     5.92314965E-01    2     1000037        11   # BR(~nu_e -> chi^+_2 e^-)
#    BR                NDA      ID1      ID2       ID3
DECAY   1000014     1.42866500E+02   # ~nu_mu
#    BR                NDA      ID1      ID2
     8.76185381E-02    2     1000022        14   # BR(~nu_mu -> chi^0_1 nu_mu)
     1.46218042E-03    2     1000023        14   # BR(~nu_mu -> chi^0_2 nu_mu)
     1.80718526E-03    2     1000025        14   # BR(~nu_mu -> chi^0_3 nu_mu)
     3.00848095E-01    2     1000035        14   # BR(~nu_mu -> chi^0_4 nu_mu)
     1.64419035E-02    2     1000024        13   # BR(~nu_mu -> chi^+_1 mu^-)
     5.91822098E-01    2     1000037        13   # BR(~nu_mu -> chi^+_2 mu^-)
#    BR                NDA      ID1      ID2       ID3
DECAY   1000016     1.76879336E+02   # ~nu_tau
#    BR                NDA      ID1      ID2
     7.08393837E-02    2     1000022        16   # BR(~nu_tau -> chi^0_1 nu_tau)
     1.18217709E-03    2     1000023        16   # BR(~nu_tau -> chi^0_2 nu_tau)
     1.46111487E-03    2     1000025        16   # BR(~nu_tau -> chi^0_3 nu_tau)
     2.43242919E-01    2     1000035        16   # BR(~nu_tau -> chi^0_4 nu_tau)
     2.03676094E-01    2     1000024        15   # BR(~nu_tau -> chi^+_1 tau^-)
     4.79598311E-01    2     1000037        15   # BR(~nu_tau -> chi^+_2 tau^-)
#    BR                NDA      ID1      ID2       ID3
DECAY   2000001     6.23421522E+02   # ~d_R
#    BR                NDA      ID1      ID2
     8.90999657E-03    2     1000022         1   # BR(~d_R -> chi^0_1 d)
     9.90976117E-01    2     1000021         1   # BR(~d_R -> ~g d)
DECAY   1000001     7.52742027E+02   # ~d_L
#    BR                NDA      ID1      ID2
     1.88991061E-03    2     1000022         1   # BR(~d_L -> chi^0_1 d)
     6.07040614E-04    2     1000023         1   # BR(~d_L -> chi^0_2 d)
     1.68737018E-04    2     1000025         1   # BR(~d_L -> chi^0_3 d)
     5.73251416E-02    2     1000035         1   # BR(~d_L -> chi^0_4 d)
     6.81977947E-04    2    -1000024         2   # BR(~d_L -> chi^-_1 u)
     1.15543391E-01    2    -1000037         2   # BR(~d_L -> chi^-_2 u)
     8.23783801E-01    2     1000021         1   # BR(~d_L -> ~g d)
DECAY   2000003     6.23489523E+02   # ~s_R
#    BR                NDA      ID1      ID2
     8.90969607E-03    2     1000022         3   # BR(~s_R -> chi^0_1 s)
     1.01833028E-04    2     1000023         3   # BR(~s_R -> chi^0_2 s)
     9.90870002E-01    2     1000021         3   # BR(~s_R -> ~g s)
DECAY   1000003     7.52779926E+02   # ~s_L
#    BR                NDA      ID1      ID2
     1.89036465E-03    2     1000022         3   # BR(~s_L -> chi^0_1 s)
     6.28931836E-04    2     1000023         3   # BR(~s_L -> chi^0_2 s)
     1.90587219E-04    2     1000025         3   # BR(~s_L -> chi^0_3 s)
     5.73224274E-02    2     1000035         3   # BR(~s_L -> chi^0_4 s)
     6.86650447E-04    2    -1000024         4   # BR(~s_L -> chi^-_1 c)
     1.15537784E-01    2    -1000037         4   # BR(~s_L -> chi^-_2 c)
     8.23743254E-01    2     1000021         3   # BR(~s_L -> ~g s)
DECAY   1000005     9.00297354E+01   # ~b_1
#    BR                NDA      ID1      ID2
     2.98400603E-02    2     1000022         5   # BR(~b_1 -> chi^0_1 b)
     1.93982805E-01    2     1000023         5   # BR(~b_1 -> chi^0_2 b)
     1.92119522E-01    2     1000025         5   # BR(~b_1 -> chi^0_3 b)
     5.96105377E-04    2     1000035         5   # BR(~b_1 -> chi^0_4 b)
     3.89300414E-01    2    -1000024         6   # BR(~b_1 -> chi^-_1 t)
     1.17953608E-03    2    -1000037         6   # BR(~b_1 -> chi^-_2 t)
     1.92979423E-01    2     1000021         5   # BR(~b_1 -> ~g b)
DECAY   2000005     2.08752304E+02   # ~b_2
#    BR                NDA      ID1      ID2
     4.81611840E-03    2     1000022         5   # BR(~b_2 -> chi^0_1 b)
     8.95043628E-02    2     1000023         5   # BR(~b_2 -> chi^0_2 b)
     8.90375445E-02    2     1000025         5   # BR(~b_2 -> chi^0_3 b)
     8.04921536E-02    2     1000035         5   # BR(~b_2 -> chi^0_4 b)
     3.93804030E-01    2    -1000024         6   # BR(~b_2 -> chi^-_1 t)
     1.71593940E-01    2    -1000037         6   # BR(~b_2 -> chi^-_2 t)
     1.67053559E-01    2     1000021         5   # BR(~b_2 -> ~g b)
     3.55583475E-03    2     1000006       -24   # BR(~b_2 -> ~t_1 W^-)
DECAY   2000002     6.40585442E+02   # ~u_R
#    BR                NDA      ID1      ID2
     3.46952900E-02    2     1000022         2   # BR(~u_R -> chi^0_1 u)
     2.93467562E-04    2     1000023         2   # BR(~u_R -> chi^0_2 u)
     1.47526507E-04    2     1000025         2   # BR(~u_R -> chi^0_3 u)
     9.64862391E-01    2     1000021         2   # BR(~u_R -> ~g u)
DECAY   1000002     7.52727269E+02   # ~u_L
#    BR                NDA      ID1      ID2
     1.80906799E-03    2     1000022         2   # BR(~u_L -> chi^0_1 u)
     1.05929002E-03    2     1000023         2   # BR(~u_L -> chi^0_2 u)
     5.70699232E-02    2     1000035         2   # BR(~u_L -> chi^0_4 u)
     2.98637914E-03    2     1000024         1   # BR(~u_L -> chi^+_1 d)
     1.13266989E-01    2     1000037         1   # BR(~u_L -> chi^+_2 d)
     8.23753899E-01    2     1000021         2   # BR(~u_L -> ~g u)
DECAY   2000004     6.40592819E+02   # ~c_R
#    BR                NDA      ID1      ID2
     3.46948965E-02    2     1000022         4   # BR(~c_R -> chi^0_1 c)
     2.96209859E-04    2     1000023         4   # BR(~c_R -> chi^0_2 c)
     1.50368958E-04    2     1000025         4   # BR(~c_R -> chi^0_3 c)
     9.64851467E-01    2     1000021         4   # BR(~c_R -> ~g c)
DECAY   1000004     7.52765145E+02   # ~c_L
#    BR                NDA      ID1      ID2
     1.80897991E-03    2     1000022         4   # BR(~c_L -> chi^0_1 c)
     1.06157720E-03    2     1000023         4   # BR(~c_L -> chi^0_2 c)
     5.70671567E-02    2     1000035         4   # BR(~c_L -> chi^0_4 c)
     3.03043046E-03    2     1000024         3   # BR(~c_L -> chi^+_1 s)
     1.13261632E-01    2     1000037         3   # BR(~c_L -> chi^+_2 s)
     8.23713349E-01    2     1000021         4   # BR(~c_L -> ~g c)
DECAY   1000006     8.99022180E+01   # ~t_1
#    BR                NDA      ID1      ID2
     5.46058397E-02    2     1000022         6   # BR(~t_1 -> chi^0_1 t)
     2.29684223E-01    2     1000023         6   # BR(~t_1 -> chi^0_2 t)
     2.36133896E-01    2     1000025         6   # BR(~t_1 -> chi^0_3 t)
     4.71074882E-03    2     1000035         6   # BR(~t_1 -> chi^0_4 t)
     4.65335124E-01    2     1000024         5   # BR(~t_1 -> chi^+_1 b)
     9.53001767E-03    2     1000037         5   # BR(~t_1 -> chi^+_2 b)
#    BR                NDA      ID1      ID2       ID3
DECAY   2000006     2.08524823E+02   # ~t_2
#    BR                NDA      ID1      ID2
     2.88896618E-03    2     1000022         6   # BR(~t_2 -> chi^0_1 t)
     1.97405773E-01    2     1000023         6   # BR(~t_2 -> chi^0_2 t)
     2.03136428E-01    2     1000025         6   # BR(~t_2 -> chi^0_3 t)
     8.45032815E-02    2     1000035         6   # BR(~t_2 -> chi^0_4 t)
     1.84379349E-01    2     1000024         5   # BR(~t_2 -> chi^+_1 b)
     1.58412344E-01    2     1000037         5   # BR(~t_2 -> chi^+_2 b)
     1.62979275E-01    2     1000021         6   # BR(~t_2 -> ~g t)
     1.19466039E-04    2     1000005        24   # BR(~t_2 -> ~b_1 W^+)
     1.78334223E-03    2     1000006        23   # BR(~t_2 -> ~t_1 Z)
     4.39177559E-03    2     1000006        25   # BR(~t_2 -> ~t_1 h^0)
DECAY   1000024     2.73711458E-01   # chi^+_1
#    BR                NDA      ID1      ID2
     9.98324958E-01    2     1000022        24   # BR(chi^+_1 -> chi^0_1 W^+)
#    BR                NDA      ID1      ID2       ID3
     1.67502088E-03    3     1000022        -5         6   # BR(chi^+_1 -> chi^0_1 b_bar t)
DECAY   1000037     7.82247809E+00   # chi^+_2
#    BR                NDA      ID1      ID2
     1.06491899E-03    2     1000022        24   # BR(chi^+_2 -> chi^0_1 W^+)
     2.54375655E-01    2     1000023        24   # BR(chi^+_2 -> chi^0_2 W^+)
     2.60431655E-01    2     1000025        24   # BR(chi^+_2 -> chi^0_3 W^+)
     2.47487875E-01    2     1000024        23   # BR(chi^+_2 -> chi^+_1 Z)
     2.31143545E-01    2     1000024        25   # BR(chi^+_2 -> chi^+_1 h^0)
#    BR                NDA      ID1      ID2       ID3
     9.72460323E-04    3     1000024         6        -6   # BR(chi^+_2 -> chi^+_1 t t_bar)
     2.32073132E-03    3     1000023        -5         6   # BR(chi^+_2 -> chi^0_2 b_bar t)
     2.18824676E-03    3     1000025        -5         6   # BR(chi^+_2 -> chi^0_3 b_bar t)
DECAY   1000022     0.00000000E+00   # chi^0_1
DECAY   1000023     2.39238565E-01   # chi^0_2
#    BR                NDA      ID1      ID2
     4.03457300E-01    2     1000022        23   # BR(chi^0_2 -> chi^0_1 Z)
     5.96539025E-01    2     1000022        25   # BR(chi^0_2 -> chi^0_1 h^0)
#    BR                NDA      ID1      ID2       ID3
DECAY   1000025     3.37775832E-01   # chi^0_3
#    BR                NDA      ID1      ID2
     5.93246660E-01    2     1000022        23   # BR(chi^0_3 -> chi^0_1 Z)
     4.06719055E-01    2     1000022        25   # BR(chi^0_3 -> chi^0_1 h^0)
#    BR                NDA      ID1      ID2       ID3
DECAY   1000035     9.14763440E+00   # chi^0_4
#    BR                NDA      ID1      ID2
     2.15923426E-01    2     1000024       -24   # BR(chi^0_4 -> chi^+_1 W^-)
     2.15923426E-01    2    -1000024        24   # BR(chi^0_4 -> chi^-_1 W^+)
     4.24242579E-04    2     1000022        23   # BR(chi^0_4 -> chi^0_1 Z)
     2.45941277E-02    2     1000023        23   # BR(chi^0_4 -> chi^0_2 Z)
     2.01195870E-01    2     1000025        23   # BR(chi^0_4 -> chi^0_3 Z)
     3.76113396E-04    2     1000022        25   # BR(chi^0_4 -> chi^0_1 h^0)
     1.73866449E-01    2     1000023        25   # BR(chi^0_4 -> chi^0_2 h^0)
     1.63266076E-01    2     1000025        25   # BR(chi^0_4 -> chi^0_3 h^0)
#    BR                NDA      ID1      ID2       ID3
     2.37466131E-04    3     1000023         6        -6   # BR(chi^0_4 -> chi^0_2 t t_bar)
     2.00282560E-04    3     1000025         6        -6   # BR(chi^0_4 -> chi^0_3 t t_bar)
     1.98564065E-03    3     1000024         5        -6   # BR(chi^0_4 -> chi^+_1 b t_bar)
     1.98564065E-03    3    -1000024        -5         6   # BR(chi^0_4 -> chi^-_1 b_bar t)
DECAY   1000021     3.46999030E+01   # ~g
#    BR                NDA      ID1      ID2
     4.95323361E-01    2     1000006        -6   # BR(~g -> ~t_1 t_bar)
     4.95323361E-01    2    -1000006         6   # BR(~g -> ~t^*_1 t)
#    BR                NDA      ID1      ID2       ID3
     1.06330923E-04    3     1000022         5        -5   # BR(~g -> chi^0_1 b b_bar)
     6.44894779E-04    3     1000023         6        -6   # BR(~g -> chi^0_2 t t_bar)
     1.14781438E-03    3     1000023         5        -5   # BR(~g -> chi^0_2 b b_bar)
     6.71512302E-04    3     1000025         6        -6   # BR(~g -> chi^0_3 t t_bar)
     1.13820276E-03    3     1000025         5        -5   # BR(~g -> chi^0_3 b b_bar)
     2.91777428E-04    3     1000035         6        -6   # BR(~g -> chi^0_4 t t_bar)
     2.89533661E-04    3     1000035         5        -5   # BR(~g -> chi^0_4 b b_bar)
     1.80634678E-03    3     1000024         5        -6   # BR(~g -> chi^+_1 b t_bar)
     1.80634678E-03    3    -1000024        -5         6   # BR(~g -> chi^-_1 b_bar t)
     5.82350531E-04    3     1000037         5        -6   # BR(~g -> chi^+_2 b t_bar)
     5.82350531E-04    3    -1000037        -5         6   # BR(~g -> chi^-_2 b_bar t)
DECAY        25     3.11736121E-03   # Gamma(h0)
     2.53328080E-03   2        22        22   # BR(h0 -> photon photon)
     1.25070196E-03   2        22        23   # BR(h0 -> photon Z)
     1.98964414E-02   2        23        23   # BR(h0 -> Z Z)
     1.78925339E-01   2       -24        24   # BR(h0 -> W W)
     8.18934022E-02   2        21        21   # BR(h0 -> gluon gluon)
     5.48427237E-09   2       -11        11   # BR(h0 -> Electron electron)
     2.43947713E-04   2       -13        13   # BR(h0 -> Muon muon)
     7.03327403E-02   2       -15        15   # BR(h0 -> Tau tau)
     1.56709079E-07   2        -2         2   # BR(h0 -> Up up)
     3.04106871E-02   2        -4         4   # BR(h0 -> Charm charm)
     6.38688417E-07   2        -1         1   # BR(h0 -> Down down)
     2.30998042E-04   2        -3         3   # BR(h0 -> Strange strange)
     6.13791334E-01   2        -5         5   # BR(h0 -> Bottom bottom)
     4.90326999E-04   2   1000022   1000022   # BR(h0 -> neutralino1 neutralino1)
DECAY        35     1.01029273E+02   # Gamma(HH)
     1.16185688E-08   2        22        22   # BR(HH -> photon photon)
     4.38531747E-08   2        22        23   # BR(HH -> photon Z)
     1.99412866E-07   2        23        23   # BR(HH -> Z Z)
     5.17807231E-08   2       -24        24   # BR(HH -> W W)
     5.26322998E-06   2        21        21   # BR(HH -> gluon gluon)
     7.95268267E-09   2       -11        11   # BR(HH -> Electron electron)
     3.54101808E-04   2       -13        13   # BR(HH -> Muon muon)
     1.02270779E-01   2       -15        15   # BR(HH -> Tau tau)
     4.66751290E-14   2        -2         2   # BR(HH -> Up up)
     9.05477383E-09   2        -4         4   # BR(HH -> Charm charm)
     6.15565964E-04   2        -6         6   # BR(HH -> Top top)
     5.67665433E-07   2        -1         1   # BR(HH -> Down down)
     2.05327513E-04   2        -3         3   # BR(HH -> Strange strange)
     5.08761734E-01   2        -5         5   # BR(HH -> Bottom bottom)
     7.72393228E-03   2  -1000024   1000024   # BR(HH -> Chargino1 chargino1)
     1.12171337E-01   2  -1000024   1000037   # BR(HH -> Chargino1 chargino2)
     1.12171337E-01   2  -1000037   1000024   # BR(HH -> Chargino2 chargino1)
     1.29585256E-03   2  -1000037   1000037   # BR(HH -> Chargino2 chargino2)
     8.64163213E-04   2   1000022   1000022   # BR(HH -> neutralino1 neutralino1)
     1.86078882E-02   2   1000022   1000023   # BR(HH -> neutralino1 neutralino2)
     1.87619275E-02   2   1000022   1000025   # BR(HH -> neutralino1 neutralino3)
     6.12712810E-04   2   1000022   1000035   # BR(HH -> neutralino1 neutralino4)
     9.10630048E-04   2   1000023   1000023   # BR(HH -> neutralino2 neutralino2)
     1.37581191E-05   2   1000023   1000025   # BR(HH -> neutralino2 neutralino3)
     4.94149657E-02   2   1000023   1000035   # BR(HH -> neutralino2 neutralino4)
     7.70437796E-04   2   1000025   1000025   # BR(HH -> neutralino3 neutralino3)
     6.38066461E-02   2   1000025   1000035   # BR(HH -> neutralino3 neutralino4)
     6.59615040E-04   2   1000035   1000035   # BR(HH -> neutralino4 neutralino4)
     1.13299904E-06   2        25        25   # BR(HH -> h0 h0)
DECAY        36     9.72298625E+01   # Gamma(A0)
     6.13330174E-08   2        22        22   # BR(A0 -> photon photon)
     9.69648170E-08   2        22        23   # BR(A0 -> photon Z)
     1.03040735E-05   2        21        21   # BR(A0 -> gluon gluon)
     7.75415494E-09   2       -11        11   # BR(A0 -> Electron electron)
     3.45266283E-04   2       -13        13   # BR(A0 -> Muon muon)
     9.97190537E-02   2       -15        15   # BR(A0 -> Tau tau)
     4.32915480E-14   2        -2         2   # BR(A0 -> Up up)
     8.39794640E-09   2        -4         4   # BR(A0 -> Charm charm)
     5.75682896E-04   2        -6         6   # BR(A0 -> Top top)
     5.53476633E-07   2        -1         1   # BR(A0 -> Down down)
     2.00195762E-04   2        -3         3   # BR(A0 -> Strange strange)
     4.96050784E-01   2        -5         5   # BR(A0 -> Bottom bottom)
     8.95948773E-03   2  -1000024   1000024   # BR(A0 -> Chargino1 chargino1)
     1.15720648E-01   2  -1000024   1000037   # BR(A0 -> Chargino1 chargino2)
     1.15720648E-01   2  -1000037   1000024   # BR(A0 -> Chargino2 chargino1)
     2.17786502E-03   2  -1000037   1000037   # BR(A0 -> Chargino2 chargino2)
     9.13712826E-04   2   1000022   1000022   # BR(A0 -> neutralino1 neutralino1)
     2.14205122E-02   2   1000022   1000023   # BR(A0 -> neutralino1 neutralino2)
     1.74883850E-02   2   1000022   1000025   # BR(A0 -> neutralino1 neutralino3)
     6.05794825E-04   2   1000022   1000035   # BR(A0 -> neutralino1 neutralino4)
     1.10694752E-03   2   1000023   1000023   # BR(A0 -> neutralino2 neutralino2)
     2.70947162E-06   2   1000023   1000025   # BR(A0 -> neutralino2 neutralino3)
     6.44576691E-02   2   1000023   1000035   # BR(A0 -> neutralino2 neutralino4)
     7.74405548E-04   2   1000025   1000025   # BR(A0 -> neutralino3 neutralino3)
     5.26429197E-02   2   1000025   1000035   # BR(A0 -> neutralino3 neutralino4)
     1.10591042E-03   2   1000035   1000035   # BR(A0 -> neutralino4 neutralino4)
     3.70111406E-07   2        23        25   # BR(A0 -> Z h0)
     1.60086526E-14   2        23        35   # BR(A0 -> Z HH)
     1.36245408E-39   2        25        25   # BR(A0 -> h0 h0)
DECAY        37     1.09525481E+02   # Gamma(Hp)
     8.76340812E-09   2       -11        12   # BR(Hp -> Electron nu_e)
     3.74663068E-04   2       -13        14   # BR(Hp -> Muon nu_mu)
     1.05976036E-01   2       -15        16   # BR(Hp -> Tau nu_tau)
     5.46966688E-07   2        -1         2   # BR(Hp -> Down up)
     9.24497108E-06   2        -3         2   # BR(Hp -> Strange up)
     5.66019460E-06   2        -5         2   # BR(Hp -> Bottom up)
     2.59937208E-08   2        -1         4   # BR(Hp -> Down charm)
     1.97129603E-04   2        -3         4   # BR(Hp -> Strange charm)
     7.92629829E-04   2        -5         4   # BR(Hp -> Bottom charm)
     4.55964242E-08   2        -1         6   # BR(Hp -> Down top)
     1.28681414E-06   2        -3         6   # BR(Hp -> Strange top)
     5.35123237E-01   2        -5         6   # BR(Hp -> Bottom top)
     3.59148788E-02   2   1000022   1000024   # BR(Hp -> neutralino1 chargino1)
     1.11728271E-03   2   1000022   1000037   # BR(Hp -> neutralino1 chargino2)
     9.62362215E-04   2   1000023   1000024   # BR(Hp -> neutralino2 chargino1)
     1.08564170E-01   2   1000023   1000037   # BR(Hp -> neutralino2 chargino2)
     1.22745923E-03   2   1000024   1000025   # BR(Hp -> chargino1 neutralino3)
     1.04376978E-01   2   1000025   1000037   # BR(Hp -> neutralino3 chargino2)
     1.05355973E-01   2   1000024   1000035   # BR(Hp -> chargino1 neutralino4)
     5.22748259E-08   2   1000035   1000037   # BR(Hp -> neutralino4 chargino2)
     3.28855840E-07   2        24        25   # BR(Hp -> W h0)
     1.02509274E-13   2        24        35   # BR(Hp -> W HH)
DECAY         6     2.43000000E+00   # top
#    BR                NDA      ID1      ID2
     1.00000000E+00    2           5        24   # BR(t -> b W)
Block HiggsBoundsInputHiggsCouplingsFermions
# ScalarNormEffCoupSq PseudoSNormEffCoupSq NP IP1 IP2 IP2
    9.54267734E-01    0.00000000E+00        3  25   5   5  # h0-b-b eff. coupling^2, normalised to SM
    1.63408170E+03    0.00000000E+00        3  35   5   5  # H0-b-b eff. coupling^2, normalised to SM
    0.00000000E+00    1.63403596E+03        3  36   5   5  # A0-b-b eff. coupling^2, normalised to SM
#
    1.00002799E+00    0.00000000E+00        3  25   6   6  # h0-t-t eff. coupling^2, normalised to SM
    5.83994328E-04    0.00000000E+00        3  35   6   6  # H0-t-t eff. coupling^2, normalised to SM
    0.00000000E+00    6.11981635E-04        3  36   6   6  # A0-t-t eff. coupling^2, normalised to SM
#
    9.54267734E-01    0.00000000E+00        3  25  15  15  # h0-tau-tau eff. coupling^2, normalised to SM
    1.63408170E+03    0.00000000E+00        3  35  15  15  # H0-tau-tau eff. coupling^2, normalised to SM
    0.00000000E+00    1.63403596E+03        3  36  15  15  # A0-tau-tau eff. coupling^2, normalised to SM
#
Block HiggsBoundsInputHiggsCouplingsBosons
    9.99999672E-01        3  25  24  24  # h0-W-W eff. coupling^2, normalised to SM
    3.27508898E-07        3  35  24  24  # H0-W-W eff. coupling^2, normalised to SM
    0.00000000E+00        3  36  24  24  # A0-W-W eff. coupling^2, normalised to SM
#
    9.99999672E-01        3  25  23  23  # h0-Z-Z eff. coupling^2, normalised to SM
    3.27508898E-07        3  35  23  23  # H0-Z-Z eff. coupling^2, normalised to SM
    0.00000000E+00        3  36  23  23  # A0-Z-Z eff. coupling^2, normalised to SM
#
    1.26708945E+00        3  25  21  21  # h0-g-g eff. coupling^2, normalised to SM
    7.01038067E-03        3  35  21  21  # H0-g-g eff. coupling^2, normalised to SM
    1.20765690E-01        3  36  21  21  # A0-g-g eff. coupling^2, normalised to SM
#
    0.00000000E+00        3  25  25  23  # h0-h0-Z eff. coupling^2, normalised to SM
    0.00000000E+00        3  35  25  23  # H0-h0-Z eff. coupling^2, normalised to SM
    3.27508898E-07        3  36  25  23  # A0-h0-Z eff. coupling^2, normalised to SM
    0.00000000E+00        3  35  35  23  # H0-H0-Z eff. coupling^2, normalised to SM
    9.99999672E-01        3  36  35  23  # A0-H0-Z eff. coupling^2, normalised to SM
    0.00000000E+00        3  36  36  23  # A0-A0-Z eff. coupling^2, normalised to SM
#
    0.00000000E+00        4  25  21  21  23  # h0-g-g-Z eff. coupling^2, normalised to SM
    0.00000000E+00        4  35  21  21  23  # H0-g-g-Z eff. coupling^2, normalised to SM
    0.00000000E+00        4  36  21  21  23  # A0-g-g-Z eff. coupling^2, normalised to SM
Block SPhenoLowEnergy  # low energy observables
    1    3.22922633E-04   # BR(b -> s gamma)
    2    1.58861528E-06   # BR(b -> s mu+ mu-)
    3    3.52225151E-05   # BR(b -> s nu nu)
    4    2.61129524E-15   # BR(Bd -> e+ e-)
    5    1.11551515E-10   # BR(Bd -> mu+ mu-)
    6    2.33490971E-08   # BR(Bd -> tau+ tau-)
    7    8.75375831E-14   # BR(Bs -> e+ e-)
    8    3.73960169E-09   # BR(Bs -> mu+ mu-)
    9    7.93139166E-07   # BR(Bs -> tau+ tau-)
   10    9.59545367E-05   # BR(B_u -> tau nu)
   11    9.91173628E-01   # BR(B_u -> tau nu)/BR(B_u -> tau nu)_SM
   12    5.42507096E-01   # |Delta(M_Bd)| [ps^-1] 
   13    1.93796526E+01   # |Delta(M_Bs)| [ps^-1] 
   14    0.00000000E+00   # neutron EDM according to the chiral quark model
   15    0.00000000E+00   # neutron EDM according to the relativistic quark-parton model
   16    2.15957033E-03   # epsilon_K
   17    2.28168195E-15   # Delta(M_K)
   18    2.47778864E-11   # BR(K^0 -> pi^0 nu nu)
   19    8.28526125E-11   # BR(K^+ -> pi^+ nu nu)
   20    4.16887672E-16   # Delta(g-2)_electron/2
   21    1.78234267E-11   # Delta(g-2)_muon/2
   22    5.05506142E-09   # Delta(g-2)_tau/2
   23    0.00000000E+00   # electric dipole moment of the electron
   24    0.00000000E+00   # electric dipole moment of the muon
   25    0.00000000E+00   # electric dipole moment of the tau
   26    0.00000000E+00   # Br(mu -> e gamma)
   27    0.00000000E+00   # Br(tau -> e gamma)
   28    0.00000000E+00   # Br(tau -> mu gamma)
   29    0.00000000E+00   # Br(mu -> 3 e)
   30    0.00000000E+00   # Br(tau -> 3 e)
   31    0.00000000E+00   # Br(tau -> 3 mu)
   39    7.18122835E-05   # Delta(rho_parameter)
   40    0.00000000E+00   # BR(Z -> e mu)
   41    0.00000000E+00   # BR(Z -> e tau)
   42    0.00000000E+00   # BR(Z -> mu tau)
Block FWCOEF Q=  1.60000000E+02  # Wilson coefficients at scale Q
#    id        order  M        value         comment
     0305 4422   00   0    -1.88819110E-01   # C7
     0305 4422   00   2    -1.91011887E-01   # C7
     0305 4322   00   2    -8.50283766E-05   # C7'
     0305 6421   00   0    -9.52278348E-02   # C8
     0305 6421   00   2    -1.01249190E-01   # C8
     0305 6321   00   2    -1.40981813E-04   # C8'
 03051111 4133   00   0     1.61793177E+00   # C9 e+e-
 03051111 4133   00   2     1.61841593E+00   # C9 e+e-
 03051111 4233   00   2     2.85512153E-04   # C9' e+e-
 03051111 4137   00   0    -4.44062387E+00   # C10 e+e-
 03051111 4137   00   2    -4.43607041E+00   # C10 e+e-
 03051111 4237   00   2    -2.13899736E-03   # C10' e+e-
 03051313 4133   00   0     1.61793177E+00   # C9 mu+mu-
 03051313 4133   00   2     1.61841575E+00   # C9 mu+mu-
 03051313 4233   00   2     2.85511831E-04   # C9' mu+mu-
 03051313 4137   00   0    -4.44062387E+00   # C10 mu+mu-
 03051313 4137   00   2    -4.43607060E+00   # C10 mu+mu-
 03051313 4237   00   2    -2.13899744E-03   # C10' mu+mu-
 03051212 4137   00   0     1.50535012E+00   # C11 nu_1 nu_1
 03051212 4137   00   2     1.50436465E+00   # C11 nu_1 nu_1
 03051212 4237   00   2     4.63443175E-04   # C11' nu_1 nu_1
 03051414 4137   00   0     1.50535012E+00   # C11 nu_2 nu_2
 03051414 4137   00   2     1.50436465E+00   # C11 nu_2 nu_2
 03051414 4237   00   2     4.63443223E-04   # C11' nu_2 nu_2
 03051616 4137   00   0     1.50535012E+00   # C11 nu_3 nu_3
 03051616 4137   00   2     1.50436465E+00   # C11 nu_3 nu_3
 03051616 4237   00   2     4.63456678E-04   # C11' nu_3 nu_3
Block IMFWCOEF Q=  1.60000000E+02  # Im(Wilson coefficients) at scale Q
#    id        order  M        value         comment
     0305 4422   00   0     3.85815726E-07   # C7
     0305 4422   00   2     9.26212792E-06   # C7
     0305 4322   00   2     4.09728560E-07   # C7'
     0305 6421   00   0     3.30476685E-07   # C8
     0305 6421   00   2    -4.00131981E-06   # C8
     0305 6321   00   2    -7.81763437E-09   # C8'
 03051111 4133   00   2     3.46643784E-07   # C9 e+e-
 03051111 4233   00   2     5.73255974E-06   # C9' e+e-
 03051111 4137   00   2    -9.86737858E-08   # C10 e+e-
 03051111 4237   00   2    -4.29517728E-05   # C10' e+e-
 03051313 4133   00   2     3.46641315E-07   # C9 mu+mu-
 03051313 4233   00   2     5.73255794E-06   # C9' mu+mu-
 03051313 4137   00   2    -9.86712233E-08   # C10 mu+mu-
 03051313 4237   00   2    -4.29517782E-05   # C10' mu+mu-
 03051212 4137   00   2     4.08872055E-08   # C11 nu_1 nu_1
 03051212 4237   00   2     9.30609348E-06   # C11' nu_1 nu_1
 03051414 4137   00   2     4.08873266E-08   # C11 nu_2 nu_2
 03051414 4237   00   2     9.30609348E-06   # C11' nu_2 nu_2
 03051616 4137   00   2     4.09211469E-08   # C11 nu_3 nu_3
 03051616 4237   00   2     9.30609346E-06   # C11' nu_3 nu_3
