######################################################################
## PARAM_CARD AUTOMATICALY GENERATED BY MG5 FOLLOWING UFO MODEL   ####
######################################################################
##                                                                  ##
##  Width set on Auto will be computed following the information    ##
##        present in the decay.py files of the model.               ##
##        See  arXiv:1402.1178 for more details.                    ##
##                                                                  ##
######################################################################

###################################
## INFORMATION FOR CKMBLOCK
###################################
Block ckmblock 
    1 2.277360e-01 # cabi 

###################################
## INFORMATION FOR DEPENDENT
###################################
Block dependent 
    1 -8.760300e+04 # Rb1 
    2 -3.048614e+04 # Ib1 
    3 -2.562110e+00 # Rd1 
    4 2.257860e+00 # Id1 
    5 2.720507e+02 # Rdelta1 
    6 8.530538e+02 # Idelta1 
    7 7.197117e+00 # d2 

###################################
## INFORMATION FOR FRBLOCK
###################################
Block frblock 
    1 -1.633341e+04 # msq 
    2 1.385008e-01 # lam 

###################################
## INFORMATION FOR LOOP
###################################
Block loop 
    1 9.118800e+01 # MU_R 

###################################
## INFORMATION FOR MASS
###################################
Block mass 
    1 5.040000e-03 # MD 
    2 2.550000e-03 # MU 
    3 1.010000e-01 # MS 
    4 1.270000e+00 # MC 
    5 4.700000e+00 # MB 
    6 1.720000e+02 # MT 
   11 5.110000e-04 # Me 
   13 1.056600e-01 # MMU 
   15 1.777000e+00 # MTA 
   23 9.118760e+01 # MZ 
   25 1.250000e+02 # mh1 
   35 2.800000e+02 # mh2 
   36 4.200000e+02 # mh3 
## Dependent parameters, given by model restrictions.
## Those values should be edited following the 
## analytical expression. MG5 ignores those values 
## but they are important for interfacing the output of MG5
## to external program such as Pythia.
  12 0.000000e+00 # ve : 0.0 
  14 0.000000e+00 # vm : 0.0 
  16 0.000000e+00 # vt : 0.0 
  21 0.000000e+00 # g : 0.0 
  22 0.000000e+00 # a : 0.0 
  24 7.982436e+01 # w+ : cmath.sqrt(MZ__exp__2/2. + cmath.sqrt(MZ__exp__4/4. - (aEW*cmath.pi*MZ__exp__2)/(Gf*sqrt__2))) 
  111 2.799987e+02 # ~x : (lamX*vs)/sqrt__2 
  9000002 9.118760e+01 # ghz : MZ 
  9000003 7.982436e+01 # ghwp : MW 
  9000004 7.982436e+01 # ghwm : MW 

###################################
## INFORMATION FOR NP
###################################
Block np 
    1 7.300000e-01 # theta12 
    2 -7.300000e-01 # theta23 
    3 1.670796e+00 # theta13 
    4 -1.130000e+00 # delta2 
    5 0.000000e+00 # b2 
    6 0.000000e+00 # Rc1 
    7 0.000000e+00 # Ic1 
    8 0.000000e+00 # Rc2 
    9 0.000000e+00 # Ic2 
   10 0.000000e+00 # Rdelta3 
   11 -3.500000e+00 # Idelta3 
   12 0.000000e+00 # Rd3 
   13 0.000000e+00 # Id3 
   14 1.979890e+00 # lamX 
   15 2.000000e+02 # vs 

###################################
## INFORMATION FOR SMINPUTS
###################################
Block sminputs 
    1 1.279000e+02 # aEWM1 
    2 1.166370e-05 # Gf 
    3 1.184000e-01 # aS (Note that Parameter not used if you use a PDF set) 

###################################
## INFORMATION FOR YUKAWA
###################################
Block yukawa 
    1 5.040000e-03 # ymdo 
    2 2.550000e-03 # ymup 
    3 1.010000e-01 # yms 
    4 1.270000e+00 # ymc 
    5 4.700000e+00 # ymb 
    6 1.720000e+02 # ymt 
   11 5.110000e-04 # yme 
   13 1.056600e-01 # ymm 
   15 1.777000e+00 # ymtau 

###################################
## INFORMATION FOR DECAY
###################################

Block QNUMBERS 9000001  # gha 
        1 0  # 3 times electric charge
        2 1  # number of spin states (2S+1)
        3 1  # colour rep (1: singlet, 3: triplet, 8: octet)
        4 1  # Particle/Antiparticle distinction (0=own anti)
Block QNUMBERS 9000002  # ghz 
        1 0  # 3 times electric charge
        2 1  # number of spin states (2S+1)
        3 1  # colour rep (1: singlet, 3: triplet, 8: octet)
        4 1  # Particle/Antiparticle distinction (0=own anti)
Block QNUMBERS 9000003  # ghwp 
        1 3  # 3 times electric charge
        2 1  # number of spin states (2S+1)
        3 1  # colour rep (1: singlet, 3: triplet, 8: octet)
        4 1  # Particle/Antiparticle distinction (0=own anti)
Block QNUMBERS 9000004  # ghwm 
        1 -3  # 3 times electric charge
        2 1  # number of spin states (2S+1)
        3 1  # colour rep (1: singlet, 3: triplet, 8: octet)
        4 1  # Particle/Antiparticle distinction (0=own anti)
Block QNUMBERS 82  # ghg 
        1 0  # 3 times electric charge
        2 1  # number of spin states (2S+1)
        3 8  # colour rep (1: singlet, 3: triplet, 8: octet)
        4 1  # Particle/Antiparticle distinction (0=own anti)
Block QNUMBERS 111  # ~x 
        1 0  # 3 times electric charge
        2 2  # number of spin states (2S+1)
        3 1  # colour rep (1: singlet, 3: triplet, 8: octet)
        4 1  # Particle/Antiparticle distinction (0=own anti)
Block QNUMBERS 35  # h2 
        1 0  # 3 times electric charge
        2 1  # number of spin states (2S+1)
        3 1  # colour rep (1: singlet, 3: triplet, 8: octet)
        4 0  # Particle/Antiparticle distinction (0=own anti)
Block QNUMBERS 36  # h3 
        1 0  # 3 times electric charge
        2 1  # number of spin states (2S+1)
        3 1  # colour rep (1: singlet, 3: triplet, 8: octet)
        4 0  # Particle/Antiparticle distinction (0=own anti)
#
#*************************
#      Decay widths      *
#*************************
#
#      PDG        Width
DECAY  1   0.000000e+00
#
#      PDG        Width
DECAY  2   0.000000e+00
#
#      PDG        Width
DECAY  3   0.000000e+00
#
#      PDG        Width
DECAY  4   0.000000e+00
#
#      PDG        Width
DECAY  5   0.000000e+00
#
#      PDG        Width
DECAY  6   1.508336e+00
#
#      PDG        Width
DECAY  11   0.000000e+00
#
#      PDG        Width
DECAY  12   0.000000e+00
#
#      PDG        Width
DECAY  13   0.000000e+00
#
#      PDG        Width
DECAY  14   0.000000e+00
#
#      PDG        Width
DECAY  15   0.000000e+00
#
#      PDG        Width
DECAY  16   0.000000e+00
#
#      PDG        Width
DECAY  21   0.000000e+00
#
#      PDG        Width
DECAY  22   0.000000e+00
#
#      PDG        Width
DECAY  23   2.495200e+00
#
#      PDG        Width
DECAY  24   2.085000e+00
#
#      PDG        Width
DECAY  25   4.070000e-03
#
#      PDG        Width
DECAY  35   1.574475e-01
#  BR             NDA  ID1    ID2   ...
   8.192834e-01   2    25  25 # 0.128994129959
   1.256433e-01   2    -24  24 # 0.0197822200433
   5.468306e-02   2    23  23 # 0.00860971145214
   3.422528e-04   2    5  -5 # 5.38868492039e-05
   2.502878e-05   2    4  -4 # 3.94071949614e-06
   1.633182e-05   2    15  -15 # 2.57140408812e-06
   6.480890e-06   3    -24  23  24 # 1.0204e-06
   1.583173e-07   2    3  -3 # 2.49266605189e-08
   5.775445e-08   2    13  -13 # 9.09329493553e-09
   3.942275e-10   2    1  -1 # 6.20701453701e-11
   1.009174e-10   2    2  -2 # 1.58892007138e-11
   1.350848e-12   2    11  -11 # 2.12687632018e-13
#
#      PDG        Width
DECAY  36   1.272478e+00
#  BR             NDA  ID1    ID2   ...
   6.208229e-01   2    25  35 # 0.789983791326
   2.338743e-01   2    25  25 # 0.297599969071
   8.520390e-02   2    -24  24 # 0.108420123361
   3.991588e-02   2    23  23 # 0.0507920912806
   2.009398e-02   2    6  -6 # 0.0255691545707
   7.939000e-05   2    5  -5 # 0.000101022065076
   5.800696e-06   2    4  -4 # 7.38126054683e-06
   3.785327e-06   2    15  -15 # 4.81674741698e-06
   3.668927e-08   2    3  -3 # 4.6686306462e-08
   1.338432e-08   2    13  -13 # 1.70312574029e-08
   9.136031e-11   2    1  -1 # 1.16254023398e-10
   2.338713e-11   2    2  -2 # 2.97596130806e-11
   3.130524e-13   2    11  -11 # 3.98352424907e-13
#
#      PDG        Width
DECAY  111   0.000000e+00
#
#      PDG        Width
DECAY  9000002   2.495200e+00
#
#      PDG        Width
DECAY  9000003   2.085000e+00
#
#      PDG        Width
DECAY  9000004   2.085000e+00
