# SUSY Les Houches Accord 2 - MSSM spectrum + Decays
# SPheno v4.0.5be
# W. Porod, Comput. Phys. Commun. 153 (2003) 275-315, hep-ph/0301101;
# W. Porod, F.~Staub, Comput. Phys. Commun. 183 (2012) 2458
#                     arXiv:1104.1573 [hep-ph] 
# in case of problems send email to porod@physik.uni-wuerzburg.de
# Created: 08.09.2021,  15:23
Block SPINFO         # Program information
     1   SPheno      # spectrum calculator
     2   v4.0.5be    # version number
#
Block SPhenoINFO     # SPheno specific information
    1      2         # using 2-loop RGEs
    2      2         # using pole masses for boundary conditions at mZ
Block MODSEL  # Model selection
    1    0    # general MSSM
Block MINPAR  # Input parameters
    3    2.99677213E+01  # tanb at m_Z    
    4    1.00000000E+00  # Sign(mu)
Block EXTPAR  # non-universal input parameters
    0    2.64675105E+03  # scale for input parameters
    1    1.37839877E+02  # M_1
    2   -7.41871864E+02  # M_2
    3    3.56781676E+03  # M_3
   11   -1.94024824E+03  # A_t
   12   -1.37405900E+03  # A_b
   13    1.98337466E+03  # A_tau
   23    1.28118349E+02  # mu
   25    2.89455120E+01  # tan(beta)
   26    4.43247869E+03  # m_A, pole mass
   31    1.00000000E+04  # M_L11
   32    1.00000000E+04  # M_L22
   33    1.00000000E+04  # M_L33
   34    1.00000000E+04  # M_E11
   35    1.00000000E+04  # M_E22
   36    1.00000000E+04  # M_E33
   41    1.00000000E+04  # M_Q11
   42    1.00000000E+04  # M_Q22
   43    2.02369128E+03  # M_Q33
   44    1.00000000E+04  # M_U11
   45    1.00000000E+04  # M_U22
   46    3.25235142E+03  # M_U33
   47    1.00000000E+04  # M_D11
   48    1.00000000E+04  # M_D22
   49    3.11842883E+03  # M_D33
Block SMINPUTS  # SM parameters
         1     1.27908970E+02  # alpha_em^-1(MZ)^MSbar
         2     1.16637870E-05  # G_mu [GeV^-2]
         3     1.18400000E-01  # alpha_s(MZ)^MSbar
         4     9.11876000E+01  # m_Z(pole)
         5     4.18000000E+00  # m_b(m_b), MSbar
         6     1.73200000E+02  # m_t(pole)
         7     1.77700000E+00  # m_tau(pole)
         8     0.00000000E+00  # m_nu_3
        11     5.10998930E-04  # m_e(pole)
        12     0.00000000E+00  # m_nu_1
        13     1.05658372E-01  # m_muon(pole)
        14     0.00000000E+00  # m_nu_2
        21     5.00000000E-03  # m_d(2 GeV), MSbar
        22     2.50000000E-03  # m_u(2 GeV), MSbar
        23     9.50000000E-02  # m_s(2 GeV), MSbar
        24     1.27000000E+00  # m_c(m_c), MSbar
Block gauge Q=  2.64675105E+03  # (SUSY scale)
   1    3.55362975E-01  # g'(Q)^DRbar
   2    6.65198874E-01  # g(Q)^DRbar
   3    1.21977796E+00  # g3(Q)^DRbar
Block Yu Q=  2.64675105E+03  # (SUSY scale)
  1  1     8.38937419E-06   # Y_u(Q)^DRbar
  2  2     4.26180209E-03   # Y_c(Q)^DRbar
  3  3     1.01350379E+00   # Y_t(Q)^DRbar
Block Yd Q=  2.64675105E+03  # (SUSY scale)
  1  1     4.87967670E-04   # Y_d(Q)^DRbar
  2  2     9.27138573E-03   # Y_s(Q)^DRbar
  3  3     4.83911022E-01   # Y_b(Q)^DRbar
Block Ye Q=  2.64675105E+03  # (SUSY scale)
  1  1     8.51539267E-05   # Y_e(Q)^DRbar
  2  2     1.76071313E-02   # Y_mu(Q)^DRbar
  3  3     2.96122984E-01   # Y_tau(Q)^DRbar
Block Au Q=  2.64675105E+03  # (SUSY scale)
  1  1     0.00000000E+00   # A_u(Q)^DRbar
  2  2     0.00000000E+00   # A_c(Q)^DRbar
  3  3    -1.94024897E+03   # A_t(Q)^DRbar
Block Ad Q=  2.64675105E+03  # (SUSY scale)
  1  1     0.00000000E+00   # A_d(Q)^DRbar
  2  2     0.00000000E+00   # A_s(Q)^DRbar
  3  3    -1.37405876E+03   # A_b(Q)^DRbar
Block Ae Q=  2.64675105E+03  # (SUSY scale)
  1  1     0.00000000E+00   # A_e(Q)^DRbar
  2  2     0.00000000E+00   # A_mu(Q)^DRbar
  3  3     1.98337441E+03   # A_tau(Q)^DRbar
Block MSOFT Q=  2.64675105E+03  # soft SUSY breaking masses at Q
   1    1.37839877E+02  # M_1
   2   -7.41871864E+02  # M_2
   3    3.56781676E+03  # M_3
  21    1.94406059E+07  # M^2_(H,d)
  22    1.28306349E+05  # M^2_(H,u)
  31    1.00000000E+04  # M_(L,11)
  32    1.00000000E+04  # M_(L,22)
  33    1.00000000E+04  # M_(L,33)
  34    1.00000000E+04  # M_(E,11)
  35    1.00000000E+04  # M_(E,22)
  36    1.00000000E+04  # M_(E,33)
  41    1.00000000E+04  # M_(Q,11)
  42    1.00000000E+04  # M_(Q,22)
  43    2.02369128E+03  # M_(Q,33)
  44    1.00000000E+04  # M_(U,11)
  45    1.00000000E+04  # M_(U,22)
  46    3.25235142E+03  # M_(U,33)
  47    1.00000000E+04  # M_(D,11)
  48    1.00000000E+04  # M_(D,22)
  49    3.11842883E+03  # M_(D,33)
Block MASS  # Mass spectrum
#   PDG code      mass          particle
         6     1.73200000E+02  # m_t(pole)
        23     9.11876000E+01  # m_Z(pole)
        24     8.04299946E+01  # W+
        15     1.77700000E+00  # m_tau(pole)
        25     1.21970660E+02  # h0
        35     4.43136445E+03  # H0
        36     4.43247869E+03  # A0
        37     4.43258567E+03  # H+
   1000001     1.00870631E+04  # ~d_L
   2000001     1.00627678E+04  # ~d_R
   1000002     1.00867472E+04  # ~u_L
   2000002     1.00663344E+04  # ~u_R
   1000003     1.00870692E+04  # ~s_L
   2000003     1.00627774E+04  # ~s_R
   1000004     1.00867533E+04  # ~c_L
   2000004     1.00663365E+04  # ~c_R
   1000005     2.11492231E+03  # ~b_1
   2000005     3.20944063E+03  # ~b_2
   1000006     2.11532911E+03  # ~t_1
   2000006     3.31167905E+03  # ~t_2
   1000011     1.00213089E+04  # ~e_L-
   2000011     1.00084070E+04  # ~e_R-
   1000012     1.00205371E+04  # ~nu_eL
   1000013     1.00213335E+04  # ~mu_L-
   2000013     1.00084549E+04  # ~mu_R-
   1000014     1.00205616E+04  # ~nu_muL
   1000015     1.00223201E+04  # ~tau_1-
   2000015     1.00284493E+04  # ~tau_2-
   1000016     1.00276701E+04  # ~nu_tauL
   1000021     3.95999345E+03  # ~g
   1000022     1.10970107E+02  # ~chi_10
   1000023     1.39041531E+02  # ~chi_20
   1000025     1.75672827E+02  # ~chi_30
   1000035     8.10503027E+02  # ~chi_40
   1000024     1.39623070E+02  # ~chi_1+
   1000037     8.10471363E+02  # ~chi_2+
# Higgs mixing
Block alpha # Effective Higgs mixing angle
          -3.33933815E-02   # alpha
Block Hmix Q=  2.64675105E+03  # Higgs mixing parameters
   1    1.28118349E+02  # mu
   2    2.89455120E+01  # tan[beta](Q)
   3    2.43406056E+02  # v(Q)
   4    1.96468673E+07  # m^2_A(Q)
Block stopmix # stop mixing matrix
   1  1     9.99058831E-01   # Re[R_st(1,1)]
   1  2     4.33757012E-02   # Re[R_st(1,2)]
   2  1    -4.33757012E-02   # Re[R_st(2,1)]
   2  2     9.99058831E-01   # Re[R_st(2,2)]
Block sbotmix # sbottom mixing matrix
   1  1     9.99998209E-01   # Re[R_sb(1,1)]
   1  2     1.89238560E-03   # Re[R_sb(1,2)]
   2  1    -1.89238560E-03   # Re[R_sb(2,1)]
   2  2     9.99998209E-01   # Re[R_sb(2,2)]
Block staumix # stau mixing matrix
   1  1     2.29443093E-02   # Re[R_sta(1,1)]
   1  2     9.99736745E-01   # Re[R_sta(1,2)]
   2  1    -9.99736745E-01   # Re[R_sta(2,1)]
   2  2     2.29443093E-02   # Re[R_sta(2,2)]
Block Nmix # neutralino mixing matrix
   1  1    -7.08857586E-01   # Re[N(1,1)]
   1  2    -4.12876042E-02   # Re[N(1,2)]
   1  3    -5.48858725E-01   # Re[N(1,3)]
   1  4     4.41101299E-01   # Re[N(1,4)]
   2  1     1.06444971E-01   # Re[N(2,1)]
   2  2     8.21726659E-02   # Re[N(2,2)]
   2  3    -7.04054096E-01   # Re[N(2,3)]
   2  4    -6.97298323E-01   # Re[N(2,4)]
   3  1     6.97256906E-01   # Re[N(3,1)]
   3  2    -4.76487138E-02   # Re[N(3,2)]
   3  3    -4.50412405E-01   # Re[N(3,3)]
   3  4     5.55599741E-01   # Re[N(3,4)]
   4  1     4.81640713E-03   # Re[N(4,1)]
   4  2    -9.94621831E-01   # Re[N(4,2)]
   4  3    -1.38056174E-02   # Re[N(4,3)]
   4  4    -1.02535947E-01   # Re[N(4,4)]
Block Umix # chargino mixing matrix
   1  1    -1.96427280E-02   # Re[U(1,1)]
   1  2     9.99807063E-01   # Re[U(1,2)]
   2  1    -9.99807063E-01   # Re[U(2,1)]
   2  2    -1.96427280E-02   # Re[U(2,2)]
Block Vmix # chargino mixing matrix
   1  1     1.45352359E-01   # Re[V(1,1)]
   1  2     9.89379953E-01   # Re[V(1,2)]
   2  1     9.89379953E-01   # Re[V(2,1)]
   2  2    -1.45352359E-01   # Re[V(2,2)]
DECAY        23     2.49520000E+00   # Z
DECAY        24     2.08500000E+00   # W
DECAY   2000011     5.02670819E+01   # ~e^-_R
#    BR                NDA      ID1      ID2
     5.02570486E-01    2     1000022        11   # BR(~e^-_R -> chi^0_1 e^-)
     1.13310189E-02    2     1000023        11   # BR(~e^-_R -> chi^0_2 e^-)
     4.86075562E-01    2     1000025        11   # BR(~e^-_R -> chi^0_3 e^-)
DECAY   1000011     1.43194505E+02   # ~e^-_L
#    BR                NDA      ID1      ID2
     5.43174665E-02    2     1000022        11   # BR(~e^-_L -> chi^0_1 e^-)
     5.95250778E-03    2     1000023        11   # BR(~e^-_L -> chi^0_2 e^-)
     3.24843513E-02    2     1000025        11   # BR(~e^-_L -> chi^0_3 e^-)
     2.99203741E-01    2     1000035        11   # BR(~e^-_L -> chi^0_4 e^-)
     2.37610832E-04    2    -1000024        12   # BR(~e^-_L -> chi^-_1 nu_e)
     6.07804323E-01    2    -1000037        12   # BR(~e^-_L -> chi^-_2 nu_e)
#    BR                NDA      ID1      ID2       ID3
DECAY   2000013     5.03907252E+01   # ~mu^-_R
#    BR                NDA      ID1      ID2
     5.01708644E-01    2     1000022        13   # BR(~mu^-_R -> chi^0_1 mu^-)
     1.19102289E-02    2     1000023        13   # BR(~mu^-_R -> chi^0_2 mu^-)
     4.85133566E-01    2     1000025        13   # BR(~mu^-_R -> chi^0_3 mu^-)
     1.22401608E-03    2    -1000024        14   # BR(~mu^-_R -> chi^-_1 nu_mu)
DECAY   1000013     1.43256645E+02   # ~mu^-_L
#    BR                NDA      ID1      ID2
     5.44239737E-02    2     1000022        13   # BR(~mu^-_L -> chi^0_1 mu^-)
     6.16371267E-03    2     1000023        13   # BR(~mu^-_L -> chi^0_2 mu^-)
     3.25578096E-02    2     1000025        13   # BR(~mu^-_L -> chi^0_3 mu^-)
     2.99074790E-01    2     1000035        13   # BR(~mu^-_L -> chi^0_4 mu^-)
     2.37508346E-04    2    -1000024        14   # BR(~mu^-_L -> chi^-_1 nu_mu)
     6.07542205E-01    2    -1000037        14   # BR(~mu^-_L -> chi^-_2 nu_mu)
#    BR                NDA      ID1      ID2       ID3
DECAY   1000015     8.53319383E+01   # ~tau^-_1
#    BR                NDA      ID1      ID2
     3.60828208E-01    2     1000022        15   # BR(~tau^-_1 -> chi^0_1 tau^-)
     1.08477703E-01    2     1000023        15   # BR(~tau^-_1 -> chi^0_2 tau^-)
     3.25331613E-01    2     1000025        15   # BR(~tau^-_1 -> chi^0_3 tau^-)
     1.13521413E-04    2     1000035        15   # BR(~tau^-_1 -> chi^0_4 tau^-)
     2.05043251E-01    2    -1000024        16   # BR(~tau^-_1 -> chi^-_1 nu_tau)
     2.05703471E-04    2    -1000037        16   # BR(~tau^-_1 -> chi^-_2 nu_tau)
DECAY   2000015     1.60746412E+02   # ~tau^-_2
#    BR                NDA      ID1      ID2
     7.97883617E-02    2     1000022        15   # BR(~tau^-_2 -> chi^0_1 tau^-)
     5.90916954E-02    2     1000023        15   # BR(~tau^-_2 -> chi^0_2 tau^-)
     5.25883808E-02    2     1000025        15   # BR(~tau^-_2 -> chi^0_3 tau^-)
     2.66716525E-01    2     1000035        15   # BR(~tau^-_2 -> chi^0_4 tau^-)
     5.41766266E-01    2    -1000037        16   # BR(~tau^-_2 -> chi^-_2 nu_tau)
#    BR                NDA      ID1      ID2       ID3
DECAY   1000012     1.43199543E+02   # ~nu_e
#    BR                NDA      ID1      ID2
     3.50536265E-02    2     1000022        12   # BR(~nu_e -> chi^0_1 nu_e)
     1.97190495E-04    2     1000023        12   # BR(~nu_e -> chi^0_2 nu_e)
     5.43336581E-02    2     1000025        12   # BR(~nu_e -> chi^0_3 nu_e)
     3.02281376E-01    2     1000035        12   # BR(~nu_e -> chi^0_4 nu_e)
     1.30094333E-02    2     1000024        11   # BR(~nu_e -> chi^+_1 e^-)
     5.95124716E-01    2     1000037        11   # BR(~nu_e -> chi^+_2 e^-)
#    BR                NDA      ID1      ID2       ID3
DECAY   1000014     1.43261677E+02   # ~nu_mu
#    BR                NDA      ID1      ID2
     3.50385091E-02    2     1000022        14   # BR(~nu_mu -> chi^0_1 nu_mu)
     1.97105453E-04    2     1000023        14   # BR(~nu_mu -> chi^0_2 nu_mu)
     5.43102259E-02    2     1000025        14   # BR(~nu_mu -> chi^0_3 nu_mu)
     3.02151031E-01    2     1000035        14   # BR(~nu_mu -> chi^0_4 nu_mu)
     1.34348696E-02    2     1000024        13   # BR(~nu_mu -> chi^+_1 mu^-)
     5.94868259E-01    2     1000037        13   # BR(~nu_mu -> chi^+_2 mu^-)
#    BR                NDA      ID1      ID2       ID3
DECAY   1000016     1.60790441E+02   # ~nu_tau
#    BR                NDA      ID1      ID2
     3.12409009E-02    2     1000022        16   # BR(~nu_tau -> chi^0_1 nu_tau)
     1.75742442E-04    2     1000023        16   # BR(~nu_tau -> chi^0_2 nu_tau)
     4.84239005E-02    2     1000025        16   # BR(~nu_tau -> chi^0_3 nu_tau)
     2.69407677E-01    2     1000035        16   # BR(~nu_tau -> chi^0_4 nu_tau)
     1.20306929E-01    2     1000024        15   # BR(~nu_tau -> chi^+_1 tau^-)
     5.30444850E-01    2     1000037        15   # BR(~nu_tau -> chi^+_2 tau^-)
#    BR                NDA      ID1      ID2       ID3
DECAY   2000001     5.72937908E+02   # ~d_R
#    BR                NDA      ID1      ID2
     4.92590955E-03    2     1000022         1   # BR(~d_R -> chi^0_1 d)
     1.11100884E-04    2     1000023         1   # BR(~d_R -> chi^0_2 d)
     4.76424739E-03    2     1000025         1   # BR(~d_R -> chi^0_3 d)
     9.90198434E-01    2     1000021         1   # BR(~d_R -> ~g d)
DECAY   1000001     7.02588865E+02   # ~d_L
#    BR                NDA      ID1      ID2
     4.55845452E-04    2     1000022         1   # BR(~d_L -> chi^0_1 d)
     2.52485243E-04    2     1000023         1   # BR(~d_L -> chi^0_2 d)
     1.86428354E-03    2     1000025         1   # BR(~d_L -> chi^0_3 d)
     6.18166236E-02    2     1000035         1   # BR(~d_L -> chi^0_4 d)
     1.24710629E-01    2    -1000037         2   # BR(~d_L -> chi^-_2 u)
     8.10851387E-01    2     1000021         1   # BR(~d_L -> ~g d)
DECAY   2000003     5.72973158E+02   # ~s_R
#    BR                NDA      ID1      ID2
     4.93463114E-03    2     1000022         3   # BR(~s_R -> chi^0_1 s)
     1.25934569E-04    2     1000023         3   # BR(~s_R -> chi^0_2 s)
     4.77003142E-03    2     1000025         3   # BR(~s_R -> chi^0_3 s)
     9.90139151E-01    2     1000021         3   # BR(~s_R -> ~g s)
DECAY   1000003     7.02610380E+02   # ~s_L
#    BR                NDA      ID1      ID2
     4.63205339E-04    2     1000022         3   # BR(~s_L -> chi^0_1 s)
     2.64609030E-04    2     1000023         3   # BR(~s_L -> chi^0_2 s)
     1.86919162E-03    2     1000025         3   # BR(~s_L -> chi^0_3 s)
     6.18147737E-02    2     1000035         3   # BR(~s_L -> chi^0_4 s)
     1.24706996E-01    2    -1000037         4   # BR(~s_L -> chi^-_2 c)
     8.10827404E-01    2     1000021         3   # BR(~s_L -> ~g s)
DECAY   1000005     7.26077718E+01   # ~b_1
#    BR                NDA      ID1      ID2
     4.16624827E-02    2     1000022         5   # BR(~b_1 -> chi^0_1 b)
     6.71970926E-02    2     1000023         5   # BR(~b_1 -> chi^0_2 b)
     3.07965857E-02    2     1000025         5   # BR(~b_1 -> chi^0_3 b)
     9.24900486E-02    2     1000035         5   # BR(~b_1 -> chi^0_4 b)
     5.69729465E-01    2    -1000024         6   # BR(~b_1 -> chi^-_1 t)
     1.98124325E-01    2    -1000037         6   # BR(~b_1 -> chi^-_2 t)
DECAY   2000005     3.15210599E+01   # ~b_2
#    BR                NDA      ID1      ID2
     1.70711650E-01    2     1000022         5   # BR(~b_2 -> chi^0_1 b)
     2.34857641E-01    2     1000023         5   # BR(~b_2 -> chi^0_2 b)
     1.23467892E-01    2     1000025         5   # BR(~b_2 -> chi^0_3 b)
     1.02865578E-04    2     1000035         5   # BR(~b_2 -> chi^0_4 b)
     4.69576592E-01    2    -1000024         6   # BR(~b_2 -> chi^-_1 t)
     2.04792283E-04    2    -1000037         6   # BR(~b_2 -> chi^-_2 t)
     4.57602438E-04    2     1000006       -24   # BR(~b_2 -> ~t_1 W^-)
     2.28880843E-04    2     1000005        23   # BR(~b_2 -> ~b_1 Z)
     3.92084279E-04    2     1000005        25   # BR(~b_2 -> ~b_1 h^0)
DECAY   2000002     5.90141008E+02   # ~u_R
#    BR                NDA      ID1      ID2
     1.91359469E-02    2     1000022         2   # BR(~u_R -> chi^0_1 u)
     4.31441695E-04    2     1000023         2   # BR(~u_R -> chi^0_2 u)
     1.85079625E-02    2     1000025         2   # BR(~u_R -> chi^0_3 u)
     9.61923777E-01    2     1000021         2   # BR(~u_R -> ~g u)
DECAY   1000002     7.02579008E+02   # ~u_L
#    BR                NDA      ID1      ID2
     1.77283619E-03    2     1000022         2   # BR(~u_L -> chi^0_1 u)
     6.46002697E-04    2     1000023         2   # BR(~u_L -> chi^0_2 u)
     3.69726718E-04    2     1000025         2   # BR(~u_L -> chi^0_3 u)
     6.16026547E-02    2     1000035         2   # BR(~u_L -> chi^0_4 u)
     2.66918027E-03    2     1000024         1   # BR(~u_L -> chi^+_1 d)
     1.22120738E-01    2     1000037         1   # BR(~u_L -> chi^+_2 d)
     8.10818861E-01    2     1000021         2   # BR(~u_L -> ~g u)
DECAY   2000004     5.90148457E+02   # ~c_R
#    BR                NDA      ID1      ID2
     1.91369066E-02    2     1000022         4   # BR(~c_R -> chi^0_1 c)
     4.34431733E-04    2     1000023         4   # BR(~c_R -> chi^0_2 c)
     1.85096353E-02    2     1000025         4   # BR(~c_R -> chi^0_3 c)
     9.61911931E-01    2     1000021         4   # BR(~c_R -> ~g c)
DECAY   1000004     7.02600489E+02   # ~c_L
#    BR                NDA      ID1      ID2
     1.77379234E-03    2     1000022         4   # BR(~c_L -> chi^0_1 c)
     6.48504956E-04    2     1000023         4   # BR(~c_L -> chi^0_2 c)
     3.71315749E-04    2     1000025         4   # BR(~c_L -> chi^0_3 c)
     6.16008583E-02    2     1000035         4   # BR(~c_L -> chi^0_4 c)
     2.69356438E-03    2     1000024         3   # BR(~c_L -> chi^+_1 s)
     1.22117089E-01    2     1000037         3   # BR(~c_L -> chi^+_2 s)
     8.10794875E-01    2     1000021         4   # BR(~c_L -> ~g c)
DECAY   1000006     7.26950510E+01   # ~t_1
#    BR                NDA      ID1      ID2
     7.24397802E-04    2     1000022         4   # BR(~t_1 -> chi^0_1 c)
     1.20854404E-01    2     1000022         6   # BR(~t_1 -> chi^0_1 t)
     2.63169525E-04    2     1000023         4   # BR(~t_1 -> chi^0_2 c)
     2.83780212E-01    2     1000023         6   # BR(~t_1 -> chi^0_2 t)
     1.73415574E-01    2     1000025         6   # BR(~t_1 -> chi^0_3 t)
     9.34185791E-02    2     1000035         6   # BR(~t_1 -> chi^0_4 t)
     1.35702713E-01    2     1000024         5   # BR(~t_1 -> chi^+_1 b)
     1.85771917E-01    2     1000037         5   # BR(~t_1 -> chi^+_2 b)
#    BR                NDA      ID1      ID2       ID3
     6.06903412E-03    3     1000022        24         5   # BR(~t_1 -> chi^0_1 W^+ b)
DECAY   2000006     1.62831666E+02   # ~t_2
#    BR                NDA      ID1      ID2
     1.00103874E-01    2     1000022         6   # BR(~t_2 -> chi^0_1 t)
     2.01054979E-01    2     1000023         6   # BR(~t_2 -> chi^0_2 t)
     1.53174581E-01    2     1000025         6   # BR(~t_2 -> chi^0_3 t)
     2.48829267E-03    2     1000035         6   # BR(~t_2 -> chi^0_4 t)
     4.08198520E-01    2     1000024         5   # BR(~t_2 -> chi^+_1 b)
     5.03250921E-03    2     1000037         5   # BR(~t_2 -> chi^+_2 b)
     5.88686647E-02    2     1000005        24   # BR(~t_2 -> ~b_1 W^+)
     2.92957814E-02    2     1000006        23   # BR(~t_2 -> ~t_1 Z)
     4.17827980E-02    2     1000006        25   # BR(~t_2 -> ~t_1 h^0)
DECAY   1000024     1.08519511E-05   # chi^+_1
#    BR                NDA      ID1      ID2       ID3
     3.35082777E-01    3     1000022        -1         2   # BR(chi^+_1 -> chi^0_1 d_bar u)
     3.31951718E-01    3     1000022        -3         4   # BR(chi^+_1 -> chi^0_1 s_bar c)
     1.11693656E-01    3     1000022       -11        12   # BR(chi^+_1 -> chi^0_1 e^+ nu_e)
     1.11692736E-01    3     1000022       -13        14   # BR(chi^+_1 -> chi^0_1 mu^+ nu_mu)
     1.09579098E-01    3     1000022       -15        16   # BR(chi^+_1 -> chi^0_1 tau^+ nu_tau)
DECAY   1000037     6.94592967E+00   # chi^+_2
#    BR                NDA      ID1      ID2
     1.18607287E-01    2     1000022        24   # BR(chi^+_2 -> chi^0_1 W^+)
     2.54817729E-01    2     1000023        24   # BR(chi^+_2 -> chi^0_2 W^+)
     1.34872714E-01    2     1000025        24   # BR(chi^+_2 -> chi^0_3 W^+)
     2.49861038E-01    2     1000024        23   # BR(chi^+_2 -> chi^+_1 Z)
     2.33589924E-01    2     1000024        25   # BR(chi^+_2 -> chi^+_1 h^0)
#    BR                NDA      ID1      ID2       ID3
     2.02144978E-03    3     1000024         6        -6   # BR(chi^+_2 -> chi^+_1 t t_bar)
     1.43593529E-03    3     1000022        -5         6   # BR(chi^+_2 -> chi^0_1 b_bar t)
     3.24620097E-03    3     1000023        -5         6   # BR(chi^+_2 -> chi^0_2 b_bar t)
     1.54297406E-03    3     1000025        -5         6   # BR(chi^+_2 -> chi^0_3 b_bar t)
DECAY   1000022     0.00000000E+00   # chi^0_1
DECAY   1000023     2.29733162E-05   # chi^0_2
#    BR                NDA      ID1      ID2
     3.30305584E-02    2     1000022        22   # BR(chi^0_2 -> chi^0_1 photon)
#    BR                NDA      ID1      ID2       ID3
     1.19288211E-01    3     1000022         2        -2   # BR(chi^0_2 -> chi^0_1 u u_bar)
     1.16170271E-01    3     1000022         4        -4   # BR(chi^0_2 -> chi^0_1 c c_bar)
     1.52950442E-01    3     1000022         1        -1   # BR(chi^0_2 -> chi^0_1 d d_bar)
     1.52930909E-01    3     1000022         3        -3   # BR(chi^0_2 -> chi^0_1 s s_bar)
     1.19453161E-01    3     1000022         5        -5   # BR(chi^0_2 -> chi^0_1 b b_bar)
     3.45156897E-02    3     1000022        11       -11   # BR(chi^0_2 -> chi^0_1 e^- e^+)
     3.45087206E-02    3     1000022        13       -13   # BR(chi^0_2 -> chi^0_1 mu^- mu^+)
     3.26138569E-02    3     1000022        15       -15   # BR(chi^0_2 -> chi^0_1 tau^- tau^+)
     2.04538181E-01    3     1000022        12       -12   # BR(chi^0_2 -> chi^0_1 nu_e nu_bar_e)
DECAY   1000025     1.70223093E-04   # chi^0_3
#    BR                NDA      ID1      ID2
     1.02044101E-03    2     1000022        22   # BR(chi^0_3 -> chi^0_1 photon)
     1.09863471E-02    2     1000023        22   # BR(chi^0_3 -> chi^0_2 photon)
#    BR                NDA      ID1      ID2       ID3
     6.66557538E-02    3     1000023         2        -2   # BR(chi^0_3 -> chi^0_2 u u_bar)
     6.56534831E-02    3     1000023         4        -4   # BR(chi^0_3 -> chi^0_2 c c_bar)
     8.54662934E-02    3     1000023         1        -1   # BR(chi^0_3 -> chi^0_2 d d_bar)
     8.54600847E-02    3     1000023         3        -3   # BR(chi^0_3 -> chi^0_2 s s_bar)
     7.43207855E-02    3     1000023         5        -5   # BR(chi^0_3 -> chi^0_2 b b_bar)
     1.92877510E-02    3     1000023        11       -11   # BR(chi^0_3 -> chi^0_2 e^- e^+)
     1.92855163E-02    3     1000023        13       -13   # BR(chi^0_3 -> chi^0_2 mu^- mu^+)
     1.86692495E-02    3     1000023        15       -15   # BR(chi^0_3 -> chi^0_2 tau^- tau^+)
     1.14293368E-01    3     1000023        12       -12   # BR(chi^0_3 -> chi^0_2 nu_e nu_bar_e)
     7.33702760E-02    3     1000024         1        -2   # BR(chi^0_3 -> chi^+_1 d u_bar)
     7.33702760E-02    3    -1000024        -1         2   # BR(chi^0_3 -> chi^-_1 d_bar u)
     7.29498211E-02    3     1000024         3        -4   # BR(chi^0_3 -> chi^+_1 s c_bar)
     7.29498211E-02    3    -1000024        -3         4   # BR(chi^0_3 -> chi^-_1 s_bar c)
     2.44569640E-02    3     1000024        11       -12   # BR(chi^0_3 -> chi^+_1 e^- nu_bar_e)
     2.44569640E-02    3    -1000024       -11        12   # BR(chi^0_3 -> chi^-_1 e^+ nu_e)
     2.44567987E-02    3     1000024        13       -14   # BR(chi^0_3 -> chi^+_1 mu^- nu_bar_mu)
     2.44567987E-02    3    -1000024       -13        14   # BR(chi^0_3 -> chi^-_1 mu^+ nu_mu)
     2.41632266E-02    3     1000024        15       -16   # BR(chi^0_3 -> chi^+_1 tau^- nu_bar_tau)
     2.41632266E-02    3    -1000024       -15        16   # BR(chi^0_3 -> chi^-_1 tau^+ nu_tau)
DECAY   1000035     7.62393743E+00   # chi^0_4
#    BR                NDA      ID1      ID2
     2.35039219E-01    2     1000024       -24   # BR(chi^0_4 -> chi^+_1 W^-)
     2.35039219E-01    2    -1000024        24   # BR(chi^0_4 -> chi^-_1 W^+)
     6.32289284E-02    2     1000022        23   # BR(chi^0_4 -> chi^0_1 Z)
     8.39899555E-02    2     1000023        23   # BR(chi^0_4 -> chi^0_2 Z)
     8.35272056E-02    2     1000025        23   # BR(chi^0_4 -> chi^0_3 Z)
     6.89683299E-02    2     1000022        25   # BR(chi^0_4 -> chi^0_1 h^0)
     1.33763361E-01    2     1000023        25   # BR(chi^0_4 -> chi^0_2 h^0)
     8.75371052E-02    2     1000025        25   # BR(chi^0_4 -> chi^0_3 h^0)
#    BR                NDA      ID1      ID2       ID3
     4.29296891E-04    3     1000022         6        -6   # BR(chi^0_4 -> chi^0_1 t t_bar)
     8.00343746E-04    3     1000023         6        -6   # BR(chi^0_4 -> chi^0_2 t t_bar)
     3.87114317E-04    3     1000025         6        -6   # BR(chi^0_4 -> chi^0_3 t t_bar)
     3.61519350E-03    3     1000024         5        -6   # BR(chi^0_4 -> chi^+_1 b t_bar)
     3.61519350E-03    3    -1000024        -5         6   # BR(chi^0_4 -> chi^-_1 b_bar t)
DECAY   1000021     1.55470731E+02   # ~g
#    BR                NDA      ID1      ID2
     3.90196472E-02    2     1000006        -4   # BR(~g -> ~t_1 c_bar)
     3.90196472E-02    2    -1000006         4   # BR(~g -> ~t^*_1 c)
     1.90083863E-01    2     1000006        -6   # BR(~g -> ~t_1 t_bar)
     1.90083863E-01    2    -1000006         6   # BR(~g -> ~t^*_1 t)
     3.38587616E-02    2     2000006        -6   # BR(~g -> ~t_2 t_bar)
     3.38587616E-02    2    -2000006         6   # BR(~g -> ~t^*_2 t)
     1.92588800E-01    2     1000005        -5   # BR(~g -> ~b_1 b_bar)
     1.92588800E-01    2    -1000005         5   # BR(~g -> ~b^*_1 b)
     4.43881105E-02    2     2000005        -5   # BR(~g -> ~b_2 b_bar)
     4.43881105E-02    2    -2000005         5   # BR(~g -> ~b^*_2 b)
#    BR                NDA      ID1      ID2       ID3
DECAY        25     3.02070349E-03   # Gamma(h0)
     2.70872155E-03   2        22        22   # BR(h0 -> photon photon)
     1.44634937E-03   2        22        23   # BR(h0 -> photon Z)
     2.40591008E-02   2        23        23   # BR(h0 -> Z Z)
     2.11260280E-01   2       -24        24   # BR(h0 -> W W)
     8.69857682E-02   2        21        21   # BR(h0 -> gluon gluon)
     5.17872864E-09   2       -11        11   # BR(h0 -> Electron electron)
     2.30357404E-04   2       -13        13   # BR(h0 -> Muon muon)
     6.64162124E-02   2       -15        15   # BR(h0 -> Tau tau)
     1.48076640E-07   2        -2         2   # BR(h0 -> Up up)
     2.87385541E-02   2        -4         4   # BR(h0 -> Charm charm)
     6.02027551E-07   2        -1         1   # BR(h0 -> Down down)
     2.17738444E-04   2        -3         3   # BR(h0 -> Strange strange)
     5.77936162E-01   2        -5         5   # BR(h0 -> Bottom bottom)
DECAY        35     9.41583919E+01   # Gamma(HH)
     1.51889510E-08   2        22        22   # BR(HH -> photon photon)
     3.79825962E-08   2        22        23   # BR(HH -> photon Z)
     1.69905364E-07   2        23        23   # BR(HH -> Z Z)
     3.19585413E-08   2       -24        24   # BR(HH -> W W)
     1.86385220E-06   2        21        21   # BR(HH -> gluon gluon)
     5.25158616E-09   2       -11        11   # BR(HH -> Electron electron)
     2.33855185E-04   2       -13        13   # BR(HH -> Muon muon)
     6.75443155E-02   2       -15        15   # BR(HH -> Tau tau)
     1.08911079E-13   2        -2         2   # BR(HH -> Up up)
     2.11296497E-08   2        -4         4   # BR(HH -> Charm charm)
     1.52452596E-03   2        -6         6   # BR(HH -> Top top)
     3.67058292E-07   2        -1         1   # BR(HH -> Down down)
     1.32765219E-04   2        -3         3   # BR(HH -> Strange strange)
     3.31177358E-01   2        -5         5   # BR(HH -> Bottom bottom)
     9.27588194E-03   2  -1000024   1000024   # BR(HH -> Chargino1 chargino1)
     1.76762071E-01   2  -1000024   1000037   # BR(HH -> Chargino1 chargino2)
     1.76762071E-01   2  -1000037   1000024   # BR(HH -> Chargino2 chargino1)
     2.22957922E-04   2  -1000037   1000037   # BR(HH -> Chargino2 chargino2)
     1.11925376E-02   2   1000022   1000022   # BR(HH -> neutralino1 neutralino1)
     1.06852805E-02   2   1000022   1000023   # BR(HH -> neutralino1 neutralino2)
     3.67210363E-03   2   1000022   1000025   # BR(HH -> neutralino1 neutralino3)
     5.72527052E-02   2   1000022   1000035   # BR(HH -> neutralino1 neutralino4)
     1.72407445E-04   2   1000023   1000023   # BR(HH -> neutralino2 neutralino2)
     1.91470379E-02   2   1000023   1000025   # BR(HH -> neutralino2 neutralino3)
     9.43244332E-02   2   1000023   1000035   # BR(HH -> neutralino2 neutralino4)
     1.14671394E-02   2   1000025   1000025   # BR(HH -> neutralino3 neutralino3)
     2.83308871E-02   2   1000025   1000035   # BR(HH -> neutralino3 neutralino4)
     1.11749411E-04   2   1000035   1000035   # BR(HH -> neutralino4 neutralino4)
     9.13742758E-07   2        25        25   # BR(HH -> h0 h0)
     4.30376959E-06   2  -1000006   1000006   # BR(HH -> Stop1 stop1)
     1.87653769E-07   2  -1000005   1000005   # BR(HH -> Sbottom1 sbottom1)
DECAY        36     9.19103411E+01   # Gamma(A0)
     1.59704450E-10   2        22        22   # BR(A0 -> photon photon)
     1.31400417E-08   2        22        23   # BR(A0 -> photon Z)
     6.30261465E-06   2        21        21   # BR(A0 -> gluon gluon)
     5.05828895E-09   2       -11        11   # BR(A0 -> Electron electron)
     2.25244378E-04   2       -13        13   # BR(A0 -> Muon muon)
     6.50573091E-02   2       -15        15   # BR(A0 -> Tau tau)
     9.91890479E-14   2        -2         2   # BR(A0 -> Up up)
     1.92430829E-08   2        -4         4   # BR(A0 -> Charm charm)
     1.39464396E-03   2        -6         6   # BR(A0 -> Top top)
     3.53529756E-07   2        -1         1   # BR(A0 -> Down down)
     1.27872416E-04   2        -3         3   # BR(A0 -> Strange strange)
     3.18973776E-01   2        -5         5   # BR(A0 -> Bottom bottom)
     9.36391838E-03   2  -1000024   1000024   # BR(A0 -> Chargino1 chargino1)
     1.81275243E-01   2  -1000024   1000037   # BR(A0 -> Chargino1 chargino2)
     1.81275243E-01   2  -1000037   1000024   # BR(A0 -> Chargino2 chargino1)
     9.53346088E-05   2  -1000037   1000037   # BR(A0 -> Chargino2 chargino2)
     1.28388198E-02   2   1000022   1000022   # BR(A0 -> neutralino1 neutralino1)
     9.74516865E-03   2   1000022   1000023   # BR(A0 -> neutralino1 neutralino2)
     3.99794583E-03   2   1000022   1000025   # BR(A0 -> neutralino1 neutralino3)
     6.50080649E-02   2   1000022   1000035   # BR(A0 -> neutralino1 neutralino4)
     1.55360813E-04   2   1000023   1000023   # BR(A0 -> neutralino2 neutralino2)
     1.69231186E-02   2   1000023   1000025   # BR(A0 -> neutralino2 neutralino3)
     8.64741273E-02   2   1000023   1000035   # BR(A0 -> neutralino2 neutralino4)
     1.40456678E-02   2   1000025   1000025   # BR(A0 -> neutralino3 neutralino3)
     3.29677975E-02   2   1000025   1000035   # BR(A0 -> neutralino3 neutralino4)
     4.82365183E-05   2   1000035   1000035   # BR(A0 -> neutralino4 neutralino4)
     4.13258602E-07   2        23        25   # BR(A0 -> Z h0)
     2.05337556E-14   2        23        35   # BR(A0 -> Z HH)
     4.07516799E-39   2        25        25   # BR(A0 -> h0 h0)
DECAY        37     1.04630111E+02   # Gamma(Hp)
     6.29170802E-09   2       -11        12   # BR(Hp -> Electron nu_e)
     2.68990169E-04   2       -13        14   # BR(Hp -> Muon nu_mu)
     7.60857445E-02   2       -15        16   # BR(Hp -> Tau nu_tau)
     3.81970584E-07   2        -1         2   # BR(Hp -> Down up)
     6.47544103E-06   2        -3         2   # BR(Hp -> Strange up)
     4.04785375E-06   2        -5         2   # BR(Hp -> Bottom up)
     1.89793213E-08   2        -1         4   # BR(Hp -> Down charm)
     1.37681056E-04   2        -3         4   # BR(Hp -> Strange charm)
     5.66844495E-04   2        -5         4   # BR(Hp -> Bottom charm)
     1.16843891E-07   2        -1         6   # BR(Hp -> Down top)
     2.75302756E-06   2        -3         6   # BR(Hp -> Strange top)
     3.83687639E-01   2        -5         6   # BR(Hp -> Bottom top)
     2.96405045E-02   2   1000022   1000024   # BR(Hp -> neutralino1 chargino1)
     1.08767843E-01   2   1000022   1000037   # BR(Hp -> neutralino1 chargino2)
     2.69074184E-03   2   1000023   1000024   # BR(Hp -> neutralino2 chargino1)
     1.63086716E-01   2   1000023   1000037   # BR(Hp -> neutralino2 chargino2)
     2.02797813E-02   2   1000024   1000025   # BR(Hp -> chargino1 neutralino3)
     5.44256695E-02   2   1000025   1000037   # BR(Hp -> neutralino3 chargino2)
     1.60347388E-01   2   1000024   1000035   # BR(Hp -> chargino1 neutralino4)
     7.74049581E-10   2   1000035   1000037   # BR(Hp -> neutralino4 chargino2)
     3.63148574E-07   2        24        25   # BR(Hp -> W h0)
     3.53489150E-14   2        24        35   # BR(Hp -> W HH)
     2.92016789E-07   2  -1000005   1000006   # BR(Hp -> Sbottom1 stop1)
DECAY         6     2.43000000E+00   # top
#    BR                NDA      ID1      ID2
     1.00000000E+00    2           5        24   # BR(t -> b W)
Block HiggsBoundsInputHiggsCouplingsFermions
# ScalarNormEffCoupSq PseudoSNormEffCoupSq NP IP1 IP2 IP2
    9.35060849E-01    0.00000000E+00        3  25   5   5  # h0-b-b eff. coupling^2, normalised to SM
    8.37907604E+02    0.00000000E+00        3  35   5   5  # H0-b-b eff. coupling^2, normalised to SM
    0.00000000E+00    8.37842665E+02        3  36   5   5  # A0-b-b eff. coupling^2, normalised to SM
#
    1.00007751E+00    0.00000000E+00        3  25   6   6  # h0-t-t eff. coupling^2, normalised to SM
    1.11603394E-03    0.00000000E+00        3  35   6   6  # H0-t-t eff. coupling^2, normalised to SM
    0.00000000E+00    1.19354151E-03        3  36   6   6  # A0-t-t eff. coupling^2, normalised to SM
#
    9.35060849E-01    0.00000000E+00        3  25  15  15  # h0-tau-tau eff. coupling^2, normalised to SM
    8.37907604E+02    0.00000000E+00        3  35  15  15  # H0-tau-tau eff. coupling^2, normalised to SM
    0.00000000E+00    8.37842665E+02        3  36  15  15  # A0-tau-tau eff. coupling^2, normalised to SM
#
Block HiggsBoundsInputHiggsCouplingsBosons
    9.99998699E-01        3  25  24  24  # h0-W-W eff. coupling^2, normalised to SM
    1.30086232E-06        3  35  24  24  # H0-W-W eff. coupling^2, normalised to SM
    0.00000000E+00        3  36  24  24  # A0-W-W eff. coupling^2, normalised to SM
#
    9.99998699E-01        3  25  23  23  # h0-Z-Z eff. coupling^2, normalised to SM
    1.30086232E-06        3  35  23  23  # H0-Z-Z eff. coupling^2, normalised to SM
    0.00000000E+00        3  36  23  23  # A0-Z-Z eff. coupling^2, normalised to SM
#
    1.26505389E+00        3  25  21  21  # h0-g-g eff. coupling^2, normalised to SM
    2.03818784E-03        3  35  21  21  # H0-g-g eff. coupling^2, normalised to SM
    9.83183608E-02        3  36  21  21  # A0-g-g eff. coupling^2, normalised to SM
#
    0.00000000E+00        3  25  25  23  # h0-h0-Z eff. coupling^2, normalised to SM
    0.00000000E+00        3  35  25  23  # H0-h0-Z eff. coupling^2, normalised to SM
    1.30086232E-06        3  36  25  23  # A0-h0-Z eff. coupling^2, normalised to SM
    0.00000000E+00        3  35  35  23  # H0-H0-Z eff. coupling^2, normalised to SM
    9.99998699E-01        3  36  35  23  # A0-H0-Z eff. coupling^2, normalised to SM
    0.00000000E+00        3  36  36  23  # A0-A0-Z eff. coupling^2, normalised to SM
#
    0.00000000E+00        4  25  21  21  23  # h0-g-g-Z eff. coupling^2, normalised to SM
    0.00000000E+00        4  35  21  21  23  # H0-g-g-Z eff. coupling^2, normalised to SM
    0.00000000E+00        4  36  21  21  23  # A0-g-g-Z eff. coupling^2, normalised to SM
Block SPhenoLowEnergy  # low energy observables
    1    3.13280631E-04   # BR(b -> s gamma)
    2    1.59040542E-06   # BR(b -> s mu+ mu-)
    3    3.52331095E-05   # BR(b -> s nu nu)
    4    2.70114988E-15   # BR(Bd -> e+ e-)
    5    1.15389904E-10   # BR(Bd -> mu+ mu-)
    6    2.41468072E-08   # BR(Bd -> tau+ tau-)
    7    9.07031844E-14   # BR(Bs -> e+ e-)
    8    3.87483232E-09   # BR(Bs -> mu+ mu-)
    9    8.21599504E-07   # BR(Bs -> tau+ tau-)
   10    9.65477932E-05   # BR(B_u -> tau nu)
   11    9.97301741E-01   # BR(B_u -> tau nu)/BR(B_u -> tau nu)_SM
   12    5.42114136E-01   # |Delta(M_Bd)| [ps^-1] 
   13    1.93686785E+01   # |Delta(M_Bs)| [ps^-1] 
   14    0.00000000E+00   # neutron EDM according to the chiral quark model
   15    0.00000000E+00   # neutron EDM according to the relativistic quark-parton model
   16    2.15790162E-03   # epsilon_K
   17    2.28166425E-15   # Delta(M_K)
   18    2.47890752E-11   # BR(K^0 -> pi^0 nu nu)
   19    8.28782452E-11   # BR(K^+ -> pi^+ nu nu)
   20   -3.39057629E-16   # Delta(g-2)_electron/2
   21   -1.44958635E-11   # Delta(g-2)_muon/2
   22   -4.10800786E-09   # Delta(g-2)_tau/2
   23    0.00000000E+00   # electric dipole moment of the electron
   24    0.00000000E+00   # electric dipole moment of the muon
   25    0.00000000E+00   # electric dipole moment of the tau
   26    0.00000000E+00   # Br(mu -> e gamma)
   27    0.00000000E+00   # Br(tau -> e gamma)
   28    0.00000000E+00   # Br(tau -> mu gamma)
   29    0.00000000E+00   # Br(mu -> 3 e)
   30    0.00000000E+00   # Br(tau -> 3 e)
   31    0.00000000E+00   # Br(tau -> 3 mu)
   39    6.70691553E-05   # Delta(rho_parameter)
   40    0.00000000E+00   # BR(Z -> e mu)
   41    0.00000000E+00   # BR(Z -> e tau)
   42    0.00000000E+00   # BR(Z -> mu tau)
Block FWCOEF Q=  1.60000000E+02  # Wilson coefficients at scale Q
#    id        order  M        value         comment
     0305 4422   00   0    -1.88819110E-01   # C7
     0305 4422   00   2    -1.79638047E-01   # C7
     0305 4322   00   2    -3.60472281E-05   # C7'
     0305 6421   00   0    -9.52278348E-02   # C8
     0305 6421   00   2    -9.44834692E-02   # C8
     0305 6321   00   2    -8.45204155E-05   # C8'
 03051111 4133   00   0     1.61214858E+00   # C9 e+e-
 03051111 4133   00   2     1.61258891E+00   # C9 e+e-
 03051111 4233   00   2     2.28205568E-04   # C9' e+e-
 03051111 4137   00   0    -4.43484068E+00   # C10 e+e-
 03051111 4137   00   2    -4.43131680E+00   # C10 e+e-
 03051111 4237   00   2    -1.72383652E-03   # C10' e+e-
 03051313 4133   00   0     1.61214858E+00   # C9 mu+mu-
 03051313 4133   00   2     1.61258885E+00   # C9 mu+mu-
 03051313 4233   00   2     2.28205503E-04   # C9' mu+mu-
 03051313 4137   00   0    -4.43484068E+00   # C10 mu+mu-
 03051313 4137   00   2    -4.43131686E+00   # C10 mu+mu-
 03051313 4237   00   2    -1.72383662E-03   # C10' mu+mu-
 03051212 4137   00   0     1.50535012E+00   # C11 nu_1 nu_1
 03051212 4137   00   2     1.50458732E+00   # C11 nu_1 nu_1
 03051212 4237   00   2     3.73979696E-04   # C11' nu_1 nu_1
 03051414 4137   00   0     1.50535012E+00   # C11 nu_2 nu_2
 03051414 4137   00   2     1.50458732E+00   # C11 nu_2 nu_2
 03051414 4237   00   2     3.73979701E-04   # C11' nu_2 nu_2
 03051616 4137   00   0     1.50535012E+00   # C11 nu_3 nu_3
 03051616 4137   00   2     1.50458732E+00   # C11 nu_3 nu_3
 03051616 4237   00   2     3.73981088E-04   # C11' nu_3 nu_3
Block IMFWCOEF Q=  1.60000000E+02  # Im(Wilson coefficients) at scale Q
#    id        order  M        value         comment
     0305 4422   00   0     3.85824379E-07   # C7
     0305 4422   00   2    -1.10076650E-05   # C7
     0305 4322   00   2     5.75404933E-07   # C7'
     0305 6421   00   0     3.30484096E-07   # C8
     0305 6421   00   2    -8.10234665E-06   # C8
     0305 6321   00   2     1.02444064E-07   # C8'
 03051111 4133   00   2     4.75251077E-07   # C9 e+e-
 03051111 4233   00   2     4.28583541E-06   # C9' e+e-
 03051111 4137   00   2     2.09675800E-06   # C10 e+e-
 03051111 4237   00   2    -3.23765252E-05   # C10' e+e-
 03051313 4133   00   2     4.75249041E-07   # C9 mu+mu-
 03051313 4233   00   2     4.28583467E-06   # C9' mu+mu-
 03051313 4137   00   2     2.09676026E-06   # C10 mu+mu-
 03051313 4237   00   2    -3.23765274E-05   # C10' mu+mu-
 03051212 4137   00   2    -4.24474612E-07   # C11 nu_1 nu_1
 03051212 4237   00   2     7.02396324E-06   # C11' nu_1 nu_1
 03051414 4137   00   2    -4.24474508E-07   # C11 nu_2 nu_2
 03051414 4237   00   2     7.02396324E-06   # C11' nu_2 nu_2
 03051616 4137   00   2    -4.24444943E-07   # C11 nu_3 nu_3
 03051616 4237   00   2     7.02396322E-06   # C11' nu_3 nu_3
