#
#                              ======================
#                              | THE SUSYHIT OUTPUT |
#                              ======================
#
#
#              ------------------------------------------------------
#              |     This is the output of the SUSY-HIT package     |
#              |  created by A.Djouadi, M.Muehlleitner and M.Spira. |
#              |  In case of problems with SUSY-HIT email to        |
#              |           margarete.muehlleitner@cern.ch           |
#              |           michael.spira@psi.ch                     |
#              |           abdelhak.djouadi@cern.ch                 |
#              ------------------------------------------------------
#
#              ------------------------------------------------------
#              |  SUSY Les Houches Accord - MSSM Spectrum + Decays  |
#              |              based on the decay programs           |
#              |                                                    |
#              |                     SDECAY 1.3b                    |
#              |                                                    |
#              |  Authors: M.Muhlleitner, A.Djouadi and Y.Mambrini  |
#              |  Ref.:    Comput.Phys.Commun.168(2005)46           |
#              |           [hep-ph/0311167]                         |
#              |                                                    |
#              |                     HDECAY 3.4                     |
#              |                                                    |
#              |  By: A.Djouadi,J.Kalinowski,M.Muhlleitner,M.Spira  |
#              |  Ref.:    Comput.Phys.Commun.108(1998)56           |
#              |           [hep-ph/9704448]                         |
#              |                                                    |
#              |                                                    |
#              |  If not stated otherwise all DRbar couplings and   |
#              |  soft SUSY breaking masses are given at the scale  |
#              |  Q=  0.34462610E+04
#              |                                                    |
#              ------------------------------------------------------
#
#
BLOCK DCINFO  # Decay Program information
     1   SDECAY/HDECAY # decay calculator
     2   1.3b  /3.4    # version number
#
BLOCK SPINFO  # Spectrum calculator information
     1     SOFTSUSY    # spectrum calculator               
     2     3.4.0       # version number                    
#
BLOCK MODSEL  # Model selection
     1     0   #  nonUniversal                                     
#
BLOCK SMINPUTS  # Standard Model inputs
         1     1.27908970E+02   # alpha_em^-1(M_Z)^MSbar
         2     1.16637870E-05   # G_F [GeV^-2]
         3     1.18400000E-01   # alpha_S(M_Z)^MSbar
         4     9.11876000E+01   # M_Z pole mass
         5     4.18000000E+00   # mb(mb)^MSbar
         6     1.73200000E+02   # mt pole mass
         7     1.77700000E+00   # mtau pole mass
#
BLOCK MINPAR  # Input parameters - minimal models
         3     4.02300000E+01   # tanb                
#
BLOCK EXTPAR  # Input parameters - non-minimal models
         0    -1.00000000E+00   # Set                 
         1    -2.55150000E+02   # M_1(MX)             
         2     2.60109000E+03   # M_2(MX)             
         3     3.22953000E+03   # M_3(MX)             
        11    -4.71211000E+03   # At(MX)              
        12    -2.02522000E+03   # Ab(MX)              
        13     1.65879000E+03   # Atau(MX)            
        23     2.75680000E+02   # mu(MX)              
        26     2.21359000E+03   # mA(pole)            
        31     3.53200000E+02   # meL(MX)             
        32     3.53200000E+02   # mmuL(MX)            
        33     3.35107000E+03   # mtauL(MX)           
        34     3.30992000E+03   # meR(MX)             
        35     3.30992000E+03   # mmuR(MX)            
        36     3.47754000E+03   # mtauR(MX)           
        41     2.32421000E+03   # mqL1(MX)            
        42     2.32421000E+03   # mqL2(MX)            
        43     3.59677000E+03   # mqL3(MX)            
        44     3.39424000E+03   # muR(MX)             
        45     3.39424000E+03   # mcR(MX)             
        46     3.30223000E+03   # mtR(MX)             
        47     6.79620000E+02   # mdR(MX)             
        48     6.79620000E+02   # msR(MX)             
        49     2.33015000E+03   # mbR(MX)             
#
BLOCK MASS  # Mass Spectrum
# PDG code           mass       particle
        24     8.03758228E+01   # W+
        25     1.27290575E+02   # h
        35     2.21359595E+03   # H
        36     2.21359000E+03   # A
        37     2.21523291E+03   # H+
         5     4.81876030E+00   # b-quark pole mass calculated from mb(mb)_Msbar
   1000001     2.49229445E+03   # ~d_L
   2000001     9.56247511E+02   # ~d_R
   1000002     2.49115118E+03   # ~u_L
   2000002     3.50372495E+03   # ~u_R
   1000003     2.49229445E+03   # ~s_L
   2000003     9.56247511E+02   # ~s_R
   1000004     2.49115118E+03   # ~c_L
   2000004     3.50372495E+03   # ~c_R
   1000005     2.44615381E+03   # ~b_1
   2000005     3.65398517E+03   # ~b_2
   1000006     3.30635909E+03   # ~t_1
   2000006     3.68127362E+03   # ~t_2
   1000011     4.53510148E+02   # ~e_L
   2000011     3.31466263E+03   # ~e_R
   1000012     4.46467357E+02   # ~nu_eL
   1000013     4.53510148E+02   # ~mu_L
   2000013     3.31466263E+03   # ~mu_R
   1000014     4.46467357E+02   # ~nu_muL
   1000015     3.36211119E+03   # ~tau_1
   2000015     3.46815227E+03   # ~tau_2
   1000016     3.36092129E+03   # ~nu_tauL
   1000021     3.35037891E+03   # ~g
   1000022    -2.36590927E+02   # ~chi_10
   1000023     2.90792204E+02   # ~chi_20
   1000025    -3.08296315E+02   # ~chi_30
   1000035     2.60663373E+03   # ~chi_40
   1000024     2.90265351E+02   # ~chi_1+
   1000037     2.60680029E+03   # ~chi_2+
#
BLOCK NMIX  # Neutralino Mixing Matrix
  1  1     8.72373212E-01   # N_11
  1  2     8.22091250E-03   # N_12
  1  3     3.80389621E-01   # N_13
  1  4     3.06922030E-01   # N_14
  2  1     5.88074054E-02   # N_21
  2  2     2.44664862E-02   # N_22
  2  3    -7.05174978E-01   # N_23
  2  4     7.06166645E-01   # N_24
  3  1    -4.85290060E-01   # N_31
  3  2     1.67626416E-02   # N_32
  3  3     5.98343708E-01   # N_33
  3  4     6.37336159E-01   # N_34
  4  1    -4.75996574E-04   # N_41
  4  2     9.99526299E-01   # N_42
  4  3     4.09812428E-03   # N_43
  4  4    -3.04984804E-02   # N_44
#
BLOCK UMIX  # Chargino Mixing Matrix U
  1  1    -5.79376294E-03   # U_11
  1  2     9.99983216E-01   # U_12
  2  1    -9.99983216E-01   # U_21
  2  2    -5.79376294E-03   # U_22
#
BLOCK VMIX  # Chargino Mixing Matrix V
  1  1    -4.31276185E-02   # V_11
  1  2     9.99069571E-01   # V_12
  2  1    -9.99069571E-01   # V_21
  2  2    -4.31276185E-02   # V_22
#
BLOCK STOPMIX  # Stop Mixing Matrix
  1  1     2.63006542E-01   # cos(theta_t)
  1  2     9.64794050E-01   # sin(theta_t)
  2  1    -9.64794050E-01   # -sin(theta_t)
  2  2     2.63006542E-01   # cos(theta_t)
#
BLOCK SBOTMIX  # Sbottom Mixing Matrix
  1  1     4.01453670E-03   # cos(theta_b)
  1  2     9.99991942E-01   # sin(theta_b)
  2  1    -9.99991942E-01   # -sin(theta_b)
  2  2     4.01453670E-03   # cos(theta_b)
#
BLOCK STAUMIX  # Stau Mixing Matrix
  1  1     9.99724985E-01   # cos(theta_tau)
  1  2     2.34511059E-02   # sin(theta_tau)
  2  1    -2.34511059E-02   # -sin(theta_tau)
  2  2     9.99724985E-01   # cos(theta_tau)
#
BLOCK ALPHA  # Higgs mixing
          -2.55878374E-02   # Mixing angle in the neutral Higgs boson sector
#
BLOCK HMIX Q=  3.44626100E+03  # DRbar Higgs Parameters
         1     2.82003397E+02   # mu(Q)MSSM           
         2     3.92607670E+01   # tan                 
         3     2.42289338E+02   # higgs               
         4     5.22514867E+06   # mA^2(Q)MSSM         
#
BLOCK GAUGE Q=  3.44626100E+03  # The gauge couplings
     1     3.65634252E-01   # gprime(Q) DRbar
     2     6.38300065E-01   # g(Q) DRbar
     3     1.00690225E+00   # g3(Q) DRbar
#
BLOCK AU Q=  3.44626100E+03  # The trilinear couplings
  1  1     0.00000000E+00   # A_u(Q) DRbar
  2  2     0.00000000E+00   # A_c(Q) DRbar
  3  3    -4.71210998E+03   # A_t(Q) DRbar
#
BLOCK AD Q=  3.44626100E+03  # The trilinear couplings
  1  1     0.00000000E+00   # A_d(Q) DRbar
  2  2     0.00000000E+00   # A_s(Q) DRbar
  3  3    -2.02521999E+03   # A_b(Q) DRbar
#
BLOCK AE Q=  3.44626100E+03  # The trilinear couplings
  1  1     0.00000000E+00   # A_e(Q) DRbar
  2  2     0.00000000E+00   # A_mu(Q) DRbar
  3  3     1.65879000E+03   # A_tau(Q) DRbar
#
BLOCK Yu Q=  3.44626100E+03  # The Yukawa couplings
  1  1     0.00000000E+00   # y_u(Q) DRbar
  2  2     0.00000000E+00   # y_c(Q) DRbar
  3  3     8.09829956E-01   # y_t(Q) DRbar
#
BLOCK Yd Q=  3.44626100E+03  # The Yukawa couplings
  1  1     0.00000000E+00   # y_d(Q) DRbar
  2  2     0.00000000E+00   # y_s(Q) DRbar
  3  3     5.18489234E-01   # y_b(Q) DRbar
#
BLOCK Ye Q=  3.44626100E+03  # The Yukawa couplings
  1  1     0.00000000E+00   # y_e(Q) DRbar
  2  2     0.00000000E+00   # y_mu(Q) DRbar
  3  3     4.06615661E-01   # y_tau(Q) DRbar
#
BLOCK MSOFT Q=  3.44626100E+03  # The soft SUSY breaking masses at the scale Q
         1    -2.55150000E+02   # M_1(Q)              
         2     2.60109000E+03   # M_2(Q)              
         3     3.22953000E+03   # M_3(Q)              
        21     4.94455679E+06   # mH1^2(Q)            
        22     1.31620848E+05   # mH2^2(Q)            
        31     3.53199999E+02   # meL(Q)              
        32     3.53199999E+02   # mmuL(Q)             
        33     3.35107000E+03   # mtauL(Q)            
        34     3.30992000E+03   # meR(Q)              
        35     3.30992000E+03   # mmuR(Q)             
        36     3.47754000E+03   # mtauR(Q)            
        41     2.32420998E+03   # mqL1(Q)             
        42     2.32420998E+03   # mqL2(Q)             
        43     3.59676997E+03   # mqL3(Q)             
        44     3.39423999E+03   # muR(Q)              
        45     3.39423999E+03   # mcR(Q)              
        46     3.30222996E+03   # mtR(Q)              
        47     6.79619942E+02   # mdR(Q)              
        48     6.79619942E+02   # msR(Q)              
        49     2.33014997E+03   # mbR(Q)              
#
Block HiggsBoundsInputHiggsCouplingsFermions
# ScalarNormEffCoupSq PseudoSNormEffCoupSq NP   IP1 IP2 IP2
    1.00965174E+00    0.00000000E+00        3  25   5   5  # h0-b-b eff. coupling^2, normalised to SM
    1.54139817E+03    0.00000000E+00        3  35   5   5  # H0-b-b eff. coupling^2, normalised to SM
    0.00000000E+00    1.54140783E+03        3  36   5   5  # A0-b-b eff. coupling^2, normalised to SM
#
    9.99993738E-01    0.00000000E+00        3  25   6   6  # h0-t-t eff. coupling^2, normalised to SM
    6.55019215E-04    0.00000000E+00        3  35   6   6  # H0-t-t eff. coupling^2, normalised to SM
    0.00000000E+00    6.48757573E-04        3  36   6   6  # A0-t-t eff. coupling^2, normalised to SM
#
    1.00965174E+00    0.00000000E+00        3  25  15  15  # h0-tau-tau eff. coupling^2, normalised to SM
    1.54139817E+03    0.00000000E+00        3  35  15  15  # H0-tau-tau eff. coupling^2, normalised to SM
    0.00000000E+00    1.54140783E+03        3  36  15  15  # A0-tau-tau eff. coupling^2, normalised to SM
#
Block HiggsBoundsInputHiggsCouplingsBosons
    9.99999985E-01        3  25  24  24  # h0-W-W eff. coupling^2, normalised to SM
    1.50365097E-08        3  35  24  24  # H0-W-W eff. coupling^2, normalised to SM
    0.00000000E+00        3  36  24  24  # A0-W-W eff. coupling^2, normalised to SM
#
    9.99999985E-01        3  25  23  23  # h0-Z-Z eff. coupling^2, normalised to SM
    1.50365097E-08        3  35  23  23  # H0-Z-Z eff. coupling^2, normalised to SM
    0.00000000E+00        3  36  23  23  # A0-Z-Z eff. coupling^2, normalised to SM
#
    8.87516701E-01        3  25  21  21  # h0-g-g eff. coupling^2, normalised to SM
    3.03345167E-11        3  35  21  21  # H0-g-g eff. coupling^2, normalised to SM
    1.07292048E-10        3  36  21  21  # A0-g-g eff. coupling^2, normalised to SM
#
    0.00000000E+00        3  25  25  23  # h0-h0-Z eff. coupling^2, normalised to SM
    0.00000000E+00        3  35  25  23  # H0-h0-Z eff. coupling^2, normalised to SM
    1.50365097E-08        3  36  25  23  # A0-h0-Z eff. coupling^2, normalised to SM
    0.00000000E+00        3  35  35  23  # H0-H0-Z eff. coupling^2, normalised to SM
    9.99999985E-01        3  36  35  23  # A0-H0-Z eff. coupling^2, normalised to SM
    0.00000000E+00        3  36  36  23  # A0-A0-Z eff. coupling^2, normalised to SM
#
    0.00000000E+00        4  25  21  21  23  # h0-g-g-Z eff. coupling^2, normalised to SM
    0.00000000E+00        4  35  21  21  23  # H0-g-g-Z eff. coupling^2, normalised to SM
    0.00000000E+00        4  36  21  21  23  # A0-g-g-Z eff. coupling^2, normalised to SM
#
#
#
#                             =================
#                             |The decay table|
#                             =================
#
# - The QCD corrections to the decays gluino -> squark  + quark
#                                     squark -> gaugino + quark_prime
#                                     squark -> squark_prime + Higgs
#                                     squark -> gluino  + quark
#   are included.
#
# - The multi-body decays for the inos, stops and sbottoms are included.
#
# - The loop induced decays for the gluino, neutralinos and stops
#   are included.
#
# - The SUSY decays of the top quark are included.
#
#
#         PDG            Width
DECAY         6     1.43552491E+00   # top decays
#          BR         NDA      ID1       ID2
     1.00000000E+00    2           5        24   # BR(t ->  b    W+)
#
#         PDG            Width
DECAY   1000021     1.76627847E+02   # gluino decays
#          BR         NDA      ID1       ID2
     3.68795458E-02    2     1000001        -1   # BR(~g -> ~d_L  db)
     3.68795458E-02    2    -1000001         1   # BR(~g -> ~d_L* d )
     1.55981338E-01    2     2000001        -1   # BR(~g -> ~d_R  db)
     1.55981338E-01    2    -2000001         1   # BR(~g -> ~d_R* d )
     3.69634143E-02    2     1000002        -2   # BR(~g -> ~u_L  ub)
     3.69634143E-02    2    -1000002         2   # BR(~g -> ~u_L* u )
     3.68795458E-02    2     1000003        -3   # BR(~g -> ~s_L  sb)
     3.68795458E-02    2    -1000003         3   # BR(~g -> ~s_L* s )
     1.55981338E-01    2     2000003        -3   # BR(~g -> ~s_R  sb)
     1.55981338E-01    2    -2000003         3   # BR(~g -> ~s_R* s )
     3.69633661E-02    2     1000004        -4   # BR(~g -> ~c_L  cb)
     3.69633661E-02    2    -1000004         4   # BR(~g -> ~c_L* c )
     4.03514523E-02    2     1000005        -5   # BR(~g -> ~b_1  bb)
     4.03514523E-02    2    -1000005         5   # BR(~g -> ~b_1* b )
#
#         PDG            Width
DECAY   1000006     9.14165689E+01   # stop1 decays
#          BR         NDA      ID1       ID2
     8.32359202E-02    2     1000022         6   # BR(~t_1 -> ~chi_10 t )
     2.28879927E-01    2     1000023         6   # BR(~t_1 -> ~chi_20 t )
     2.32207230E-01    2     1000025         6   # BR(~t_1 -> ~chi_30 t )
     9.20929759E-04    2     1000035         6   # BR(~t_1 -> ~chi_40 t )
     4.52879955E-01    2     1000024         5   # BR(~t_1 -> ~chi_1+ b )
     1.85073499E-03    2     1000037         5   # BR(~t_1 -> ~chi_2+ b )
     2.53027368E-05    2     1000005        24   # BR(~t_1 -> ~b_1    W+)
#
#         PDG            Width
DECAY   2000006     9.50538460E+01   # stop2 decays
#          BR         NDA      ID1       ID2
     7.74809173E-02    2     1000022         6   # BR(~t_2 -> ~chi_10 t )
     2.49700363E-01    2     1000023         6   # BR(~t_2 -> ~chi_20 t )
     1.76487635E-01    2     1000025         6   # BR(~t_2 -> ~chi_30 t )
     3.73476514E-02    2     1000035         6   # BR(~t_2 -> ~chi_40 t )
     2.16823507E-01    2     1000024         5   # BR(~t_2 -> ~chi_1+ b )
     7.46781836E-02    2     1000037         5   # BR(~t_2 -> ~chi_2+ b )
     3.83906397E-02    2     1000021         6   # BR(~t_2 -> ~g      t )
     5.61459262E-02    2     1000006        25   # BR(~t_2 -> ~t_1    h )
     7.20905822E-02    2     1000006        23   # BR(~t_2 -> ~t_1    Z )
     8.54594867E-04    2     1000005        24   # BR(~t_2 -> ~b_1    W+)
#
#         PDG            Width
DECAY   1000005     2.67155854E+01   # sbottom1 decays
#          BR         NDA      ID1       ID2
     1.10623383E-01    2     1000022         5   # BR(~b_1 -> ~chi_10 b )
     2.36842961E-01    2     1000023         5   # BR(~b_1 -> ~chi_20 b )
     1.81505515E-01    2     1000025         5   # BR(~b_1 -> ~chi_30 b )
     4.71028141E-01    2    -1000024         6   # BR(~b_1 -> ~chi_1- t )
#
#         PDG            Width
DECAY   2000005     9.39887208E+01   # sbottom2 decays
#          BR         NDA      ID1       ID2
     3.34858977E-02    2     1000022         5   # BR(~b_2 -> ~chi_10 b )
     1.02123985E-01    2     1000023         5   # BR(~b_2 -> ~chi_20 b )
     7.54900919E-02    2     1000025         5   # BR(~b_2 -> ~chi_30 b )
     3.79742450E-02    2     1000035         5   # BR(~b_2 -> ~chi_40 b )
     4.97627857E-01    2    -1000024         6   # BR(~b_2 -> ~chi_1- t )
     7.59150384E-02    2    -1000037         6   # BR(~b_2 -> ~chi_2- t )
     5.30327057E-02    2     1000021         5   # BR(~b_2 -> ~g      b )
     4.75069487E-04    2     1000005        25   # BR(~b_2 -> ~b_1    h )
     4.50967297E-04    2     1000005        23   # BR(~b_2 -> ~b_1    Z )
     1.23424143E-01    2     1000006       -24   # BR(~b_2 -> ~t_1    W-)
#
#         PDG            Width
DECAY   1000002     4.04840632E-01   # sup_L decays
#          BR         NDA      ID1       ID2
     7.41705313E-01    2     1000022         2   # BR(~u_L -> ~chi_10 u)
     3.06543351E-02    2     1000023         2   # BR(~u_L -> ~chi_20 u)
     1.38134042E-01    2     1000025         2   # BR(~u_L -> ~chi_30 u)
     8.95063091E-02    2     1000024         1   # BR(~u_L -> ~chi_1+ d)
#
#         PDG            Width
DECAY   2000002     9.74279117E+00   # sup_R decays
#          BR         NDA      ID1       ID2
     6.12035868E-01    2     1000022         2   # BR(~u_R -> ~chi_10 u)
     2.76911098E-03    2     1000023         2   # BR(~u_R -> ~chi_20 u)
     1.88267505E-01    2     1000025         2   # BR(~u_R -> ~chi_30 u)
     3.74831024E-08    2     1000035         2   # BR(~u_R -> ~chi_40 u)
     1.96927479E-01    2     1000021         2   # BR(~u_R -> ~g      u)
#
#         PDG            Width
DECAY   1000001     3.65199662E-01   # sdown_L decays
#          BR         NDA      ID1       ID2
     6.75108068E-01    2     1000022         1   # BR(~d_L -> ~chi_10 d)
     4.67570067E-03    2     1000023         1   # BR(~d_L -> ~chi_20 d)
     3.18424739E-01    2     1000025         1   # BR(~d_L -> ~chi_30 d)
     1.79149284E-03    2    -1000024         2   # BR(~d_L -> ~chi_1- u)
#
#         PDG            Width
DECAY   2000001     5.07933668E-01   # sdown_R decays
#          BR         NDA      ID1       ID2
     7.77433965E-01    2     1000022         1   # BR(~d_R -> ~chi_10 d)
     3.30241904E-03    2     1000023         1   # BR(~d_R -> ~chi_20 d)
     2.19263616E-01    2     1000025         1   # BR(~d_R -> ~chi_30 d)
#
#         PDG            Width
DECAY   1000004     4.08373179E-01   # scharm_L decays
#          BR         NDA      ID1       ID2
     7.41774749E-01    2     1000022         4   # BR(~c_L -> ~chi_10 c)
     3.06476449E-02    2     1000023         4   # BR(~c_L -> ~chi_20 c)
     1.38090496E-01    2     1000025         4   # BR(~c_L -> ~chi_30 c)
     8.94871095E-02    2     1000024         3   # BR(~c_L -> ~chi_1+ s)
#
#         PDG            Width
DECAY   2000004     9.57677670E+00   # scharm_R decays
#          BR         NDA      ID1       ID2
     6.52254377E-01    2     1000022         4   # BR(~c_R -> ~chi_10 c)
     2.95013741E-03    2     1000023         4   # BR(~c_R -> ~chi_20 c)
     2.00555032E-01    2     1000025         4   # BR(~c_R -> ~chi_30 c)
     3.90728921E-08    2     1000035         4   # BR(~c_R -> ~chi_40 c)
     1.44240414E-01    2     1000021         4   # BR(~c_R -> ~g      c)
#
#         PDG            Width
DECAY   1000003     3.68383444E-01   # sstrange_L decays
#          BR         NDA      ID1       ID2
     6.75197315E-01    2     1000022         3   # BR(~s_L -> ~chi_10 s)
     4.67486069E-03    2     1000023         3   # BR(~s_L -> ~chi_20 s)
     3.18336649E-01    2     1000025         3   # BR(~s_L -> ~chi_30 s)
     1.79117552E-03    2    -1000024         4   # BR(~s_L -> ~chi_1- c)
#
#         PDG            Width
DECAY   2000003     4.87549279E-01   # sstrange_R decays
#          BR         NDA      ID1       ID2
     7.77500011E-01    2     1000022         3   # BR(~s_R -> ~chi_10 s)
     3.30175084E-03    2     1000023         3   # BR(~s_R -> ~chi_20 s)
     2.19198238E-01    2     1000025         3   # BR(~s_R -> ~chi_30 s)
#
#         PDG            Width
DECAY   1000011     2.89689751E-01   # selectron_L decays
#          BR         NDA      ID1       ID2
     8.67159255E-01    2     1000022        11   # BR(~e_L -> ~chi_10 e-)
     7.43990348E-03    2     1000023        11   # BR(~e_L -> ~chi_20 e-)
     1.25252395E-01    2     1000025        11   # BR(~e_L -> ~chi_30 e-)
     1.48446389E-04    2    -1000024        12   # BR(~e_L -> ~chi_1- nu_e)
#
#         PDG            Width
DECAY   2000011     1.74228142E+01   # selectron_R decays
#          BR         NDA      ID1       ID2
     7.62330079E-01    2     1000022        11   # BR(~e_R -> ~chi_10 e-)
     3.44610175E-03    2     1000023        11   # BR(~e_R -> ~chi_20 e-)
     2.34223786E-01    2     1000025        11   # BR(~e_R -> ~chi_30 e-)
     3.33857245E-08    2     1000035        11   # BR(~e_R -> ~chi_40 e-)
#
#         PDG            Width
DECAY   1000013     2.89689685E-01   # smuon_L decays
#          BR         NDA      ID1       ID2
     8.67159275E-01    2     1000022        13   # BR(~mu_L -> ~chi_10 mu-)
     7.43990284E-03    2     1000023        13   # BR(~mu_L -> ~chi_20 mu-)
     1.25252376E-01    2     1000025        13   # BR(~mu_L -> ~chi_30 mu-)
     1.48446423E-04    2    -1000024        14   # BR(~mu_L -> ~chi_1- nu_mu)
#
#         PDG            Width
DECAY   2000013     1.74228141E+01   # smuon_R decays
#          BR         NDA      ID1       ID2
     7.62330079E-01    2     1000022        13   # BR(~mu_R -> ~chi_10 mu-)
     3.44610175E-03    2     1000023        13   # BR(~mu_R -> ~chi_20 mu-)
     2.34223786E-01    2     1000025        13   # BR(~mu_R -> ~chi_30 mu-)
     3.33857241E-08    2     1000035        13   # BR(~mu_R -> ~chi_40 mu-)
#
#         PDG            Width
DECAY   1000015     2.18519632E+01   # stau_1 decays
#          BR         NDA      ID1       ID2
     2.36902386E-01    2     1000022        15   # BR(~tau_1 -> ~chi_10  tau-)
     2.49812224E-01    2     1000023        15   # BR(~tau_1 -> ~chi_20  tau-)
     2.15518437E-01    2     1000025        15   # BR(~tau_1 -> ~chi_30  tau-)
     9.90103346E-02    2     1000035        15   # BR(~tau_1 -> ~chi_40  tau-)
     5.28009492E-04    2    -1000024        16   # BR(~tau_1 -> ~chi_1-  nu_tau)
     1.98228609E-01    2    -1000037        16   # BR(~tau_1 -> ~chi_2-  nu_tau)
#
#         PDG            Width
DECAY   2000015     4.07303106E+01   # stau_2 decays
#          BR         NDA      ID1       ID2
     3.78824572E-01    2     1000022        15   # BR(~tau_2 -> ~chi_10  tau-)
     1.38964091E-01    2     1000023        15   # BR(~tau_2 -> ~chi_20  tau-)
     2.06149675E-01    2     1000025        15   # BR(~tau_2 -> ~chi_30  tau-)
     4.80977443E-05    2     1000035        15   # BR(~tau_2 -> ~chi_40  tau-)
     2.75888937E-01    2    -1000024        16   # BR(~tau_2 -> ~chi_1-  nu_tau)
     9.62166577E-05    2    -1000037        16   # BR(~tau_2 -> ~chi_2-  nu_tau)
     2.31218762E-05    2     1000016       -24   # BR(~tau_2 -> ~nu_tauL W-)
     5.28880660E-06    2     1000015        23   # BR(~tau_2 -> ~tau_1   Z)
#
#         PDG            Width
DECAY   1000012     2.71402506E-01   # snu_eL decays
#          BR         NDA      ID1       ID2
     8.33010164E-01    2     1000022        12   # BR(~nu_eL -> ~chi_10 nu_e)
     1.87886561E-04    2     1000023        12   # BR(~nu_eL -> ~chi_20 nu_e)
     1.58535843E-01    2     1000025        12   # BR(~nu_eL -> ~chi_30 nu_e)
     8.26610668E-03    2     1000024        11   # BR(~nu_eL -> ~chi_1+ e-)
#
#         PDG            Width
DECAY   1000014     2.71402505E-01   # snu_muL decays
#          BR         NDA      ID1       ID2
     8.33010166E-01    2     1000022        14   # BR(~nu_muL -> ~chi_10 nu_mu)
     1.87886562E-04    2     1000023        14   # BR(~nu_muL -> ~chi_20 nu_mu)
     1.58535844E-01    2     1000025        14   # BR(~nu_muL -> ~chi_30 nu_mu)
     8.26610392E-03    2     1000024        13   # BR(~nu_muL -> ~chi_1+ mu-)
#
#         PDG            Width
DECAY   1000016     2.18408924E+01   # snu_tauL decays
#          BR         NDA      ID1       ID2
     1.49163812E-01    2     1000022        16   # BR(~nu_tauL -> ~chi_10 nu_tau)
     5.22228459E-05    2     1000023        16   # BR(~nu_tauL -> ~chi_20 nu_tau)
     5.32724719E-02    2     1000025        16   # BR(~nu_tauL -> ~chi_30 nu_tau)
     9.89912112E-02    2     1000035        16   # BR(~nu_tauL -> ~chi_40 nu_tau)
     5.00897887E-01    2     1000024        15   # BR(~nu_tauL -> ~chi_1+ tau-)
     1.97622395E-01    2     1000037        15   # BR(~nu_tauL -> ~chi_2+ tau-)
#
#         PDG            Width
DECAY   1000024     1.35561392E-04   # chargino1+ decays
#           BR         NDA      ID1       ID2       ID3
     3.33626541E-01    3     1000022         2        -1   # BR(~chi_1+ -> ~chi_10 u    db)
     3.33626541E-01    3     1000022         4        -3   # BR(~chi_1+ -> ~chi_10 c    sb)
     1.11044412E-01    3     1000022       -11        12   # BR(~chi_1+ -> ~chi_10 e+   nu_e)
     1.11044412E-01    3     1000022       -13        14   # BR(~chi_1+ -> ~chi_10 mu+  nu_mu)
     1.10658095E-01    3     1000022       -15        16   # BR(~chi_1+ -> ~chi_10 tau+ nu_tau)
#
#         PDG            Width
DECAY   1000037     6.25022856E+01   # chargino2+ decays
#          BR         NDA      ID1       ID2
     4.05887503E-03    2     1000002        -1   # BR(~chi_2+ -> ~u_L     db)
     3.98967845E-03    2    -1000001         2   # BR(~chi_2+ -> ~d_L*    u )
     4.05885326E-03    2     1000004        -3   # BR(~chi_2+ -> ~c_L     sb)
     3.98932921E-03    2    -1000003         4   # BR(~chi_2+ -> ~s_L*     c )
     1.58962006E-01    2     1000012       -11   # BR(~chi_2+ -> ~nu_eL   e+  )
     1.58962006E-01    2     1000014       -13   # BR(~chi_2+ -> ~nu_muL mu+ )
     1.58946965E-01    2    -1000011        12   # BR(~chi_2+ -> ~e_L+    nu_e)
     1.58946965E-01    2    -1000013        14   # BR(~chi_2+ -> ~mu_L+   nu_mu)
     8.34866804E-02    2     1000024        23   # BR(~chi_2+ -> ~chi_1+  Z )
     1.68123454E-02    2     1000022        24   # BR(~chi_2+ -> ~chi_10  W+)
     8.11601770E-02    2     1000023        24   # BR(~chi_2+ -> ~chi_20  W+)
     6.41409377E-02    2     1000025        24   # BR(~chi_2+ -> ~chi_30  W+)
     8.48699978E-02    2     1000024        25   # BR(~chi_2+ -> ~chi_1+  h )
     4.43328721E-03    2     1000024        35   # BR(~chi_2+ -> ~chi_1+  H )
     4.43764894E-03    2     1000024        36   # BR(~chi_2+ -> ~chi_1+  A )
     1.48804423E-03    2     1000022        37   # BR(~chi_2+ -> ~chi_10  H+)
     4.35723440E-03    2     1000023        37   # BR(~chi_2+ -> ~chi_20  H+)
     2.89897076E-03    2     1000025        37   # BR(~chi_2+ -> ~chi_30  H+)
#
#         PDG            Width
DECAY   1000022     0.00000000E+00   # neutralino1 decays
#
#         PDG            Width
DECAY   1000023     1.05705288E-04   # neutralino2 decays
#          BR         NDA      ID1       ID2
     8.82755894E-04    2     1000022        22   # BR(~chi_20 -> ~chi_10 gam)
#           BR         NDA      ID1       ID2       ID3
     1.17685747E-01    3     1000022        -2         2   # BR(~chi_20 -> ~chi_10 ub      u)
     1.52804455E-01    3     1000022        -1         1   # BR(~chi_20 -> ~chi_10 db      d)
     1.17685747E-01    3     1000022        -4         4   # BR(~chi_20 -> ~chi_10 cb      c)
     1.52804455E-01    3     1000022        -3         3   # BR(~chi_20 -> ~chi_10 sb      s)
     1.42409337E-01    3     1000022        -5         5   # BR(~chi_20 -> ~chi_10 bb      b)
     3.49593865E-02    3     1000022       -11        11   # BR(~chi_20 -> ~chi_10 e+      e-)
     3.49593865E-02    3     1000022       -13        13   # BR(~chi_20 -> ~chi_10 mu+     mu-)
     3.48767898E-02    3     1000022       -15        15   # BR(~chi_20 -> ~chi_10 tau+    tau-)
     7.03292524E-02    3     1000022       -12        12   # BR(~chi_20 -> ~chi_10 nu_eb   nu_e)
     7.03292524E-02    3     1000022       -14        14   # BR(~chi_20 -> ~chi_10 nu_mub  nu_mu)
     7.02734350E-02    3     1000022       -16        16   # BR(~chi_20 -> ~chi_10 nu_taub nu_tau)
     1.53124787E-10    3     1000024        -2         1   # BR(~chi_20 -> ~chi_1+ ub      d)
     1.53124787E-10    3    -1000024        -1         2   # BR(~chi_20 -> ~chi_1- db      u)
     5.10412762E-11    3     1000024       -12        11   # BR(~chi_20 -> ~chi_1+ nu_eb   e-)
     5.10412762E-11    3    -1000024        12       -11   # BR(~chi_20 -> ~chi_1- nu_e    e+)
     5.10412762E-11    3     1000024       -14        13   # BR(~chi_20 -> ~chi_1+ nu_mub  mu-)
     5.10412762E-11    3    -1000024        14       -13   # BR(~chi_20 -> ~chi_1- nu_mu   mu+)
#
#         PDG            Width
DECAY   1000025     1.52346196E-05   # neutralino3 decays
#          BR         NDA      ID1       ID2
     2.92349729E-02    2     1000022        22   # BR(~chi_30 -> ~chi_10 gam)
     3.03977817E-02    2     1000023        22   # BR(~chi_30 -> ~chi_20 gam)
#           BR         NDA      ID1       ID2       ID3
     7.45444596E-02    3     1000022        -2         2   # BR(~chi_30 -> ~chi_10 ub      u)
     9.59932576E-02    3     1000022        -1         1   # BR(~chi_30 -> ~chi_10 db      d)
     7.45444596E-02    3     1000022        -4         4   # BR(~chi_30 -> ~chi_10 cb      c)
     9.59932576E-02    3     1000022        -3         3   # BR(~chi_30 -> ~chi_10 sb      s)
     9.42853006E-02    3     1000022        -5         5   # BR(~chi_30 -> ~chi_10 bb      b)
     1.70654956E-02    3     1000022       -11        11   # BR(~chi_30 -> ~chi_10 e+      e-)
     1.70654956E-02    3     1000022       -13        13   # BR(~chi_30 -> ~chi_10 mu+     mu-)
     2.19329084E-02    3     1000022       -15        15   # BR(~chi_30 -> ~chi_10 tau+    tau-)
     5.79682725E-02    3     1000022       -12        12   # BR(~chi_30 -> ~chi_10 nu_eb   nu_e)
     5.79682725E-02    3     1000022       -14        14   # BR(~chi_30 -> ~chi_10 nu_mub  nu_mu)
     4.44966983E-02    3     1000022       -16        16   # BR(~chi_30 -> ~chi_10 nu_taub nu_tau)
     9.15811485E-03    3     1000023        -2         2   # BR(~chi_30 -> ~chi_20 ub      u)
     1.18925348E-02    3     1000023        -1         1   # BR(~chi_30 -> ~chi_20 db      d)
     9.15811485E-03    3     1000023        -4         4   # BR(~chi_30 -> ~chi_20 cb      c)
     1.18925348E-02    3     1000023        -3         3   # BR(~chi_30 -> ~chi_20 sb      s)
     5.74943122E-03    3     1000023        -5         5   # BR(~chi_30 -> ~chi_20 bb      b)
     2.74014529E-03    3     1000023       -11        11   # BR(~chi_30 -> ~chi_20 e+      e-)
     2.74014529E-03    3     1000023       -13        13   # BR(~chi_30 -> ~chi_20 mu+     mu-)
     2.58222280E-03    3     1000023       -15        15   # BR(~chi_30 -> ~chi_20 tau+    tau-)
     5.46702403E-03    3     1000023       -12        12   # BR(~chi_30 -> ~chi_20 nu_eb   nu_e)
     5.46702403E-03    3     1000023       -14        14   # BR(~chi_30 -> ~chi_20 nu_mub  nu_mu)
     5.46893335E-03    3     1000023       -16        16   # BR(~chi_30 -> ~chi_20 nu_taub nu_tau)
     3.62106786E-02    3     1000024        -2         1   # BR(~chi_30 -> ~chi_1+ ub      d)
     3.62106786E-02    3    -1000024        -1         2   # BR(~chi_30 -> ~chi_1- db      u)
     3.62106786E-02    3     1000024        -4         3   # BR(~chi_30 -> ~chi_1+ cb      s)
     3.62106786E-02    3    -1000024        -3         4   # BR(~chi_30 -> ~chi_1- sb      c)
     1.20824716E-02    3     1000024       -12        11   # BR(~chi_30 -> ~chi_1+ nu_eb   e-)
     1.20824716E-02    3    -1000024        12       -11   # BR(~chi_30 -> ~chi_1- nu_e    e+)
     1.20824716E-02    3     1000024       -14        13   # BR(~chi_30 -> ~chi_1+ nu_mub  mu-)
     1.20824716E-02    3    -1000024        14       -13   # BR(~chi_30 -> ~chi_1- nu_mu   mu+)
     1.15102706E-02    3     1000024       -16        15   # BR(~chi_30 -> ~chi_1+ nu_taub tau-)
     1.15102706E-02    3    -1000024        16       -15   # BR(~chi_30 -> ~chi_1- nu_tau  tau+)
#
#         PDG            Width
DECAY   1000035     6.24826484E+01   # neutralino4 decays
#          BR         NDA      ID1       ID2
     1.06635969E-02    2     1000022        23   # BR(~chi_40 -> ~chi_10   Z )
     3.07494919E-02    2     1000023        23   # BR(~chi_40 -> ~chi_20   Z )
     4.21028499E-02    2     1000025        23   # BR(~chi_40 -> ~chi_30   Z )
     8.10509182E-02    2     1000024       -24   # BR(~chi_40 -> ~chi_1+   W-)
     8.10509182E-02    2    -1000024        24   # BR(~chi_40 -> ~chi_1-   W+)
     6.71391421E-03    2     1000022        25   # BR(~chi_40 -> ~chi_10   h )
     2.96253339E-04    2     1000022        35   # BR(~chi_40 -> ~chi_10   H )
     1.20593755E-03    2     1000022        36   # BR(~chi_40 -> ~chi_10   A )
     5.38473811E-02    2     1000023        25   # BR(~chi_40 -> ~chi_20   h )
     3.84034694E-03    2     1000023        35   # BR(~chi_40 -> ~chi_20   H )
     5.63752710E-04    2     1000023        36   # BR(~chi_40 -> ~chi_20   A )
     2.41900445E-02    2     1000025        25   # BR(~chi_40 -> ~chi_30   h )
     3.10851149E-04    2     1000025        35   # BR(~chi_40 -> ~chi_30   H )
     2.62749487E-03    2     1000025        36   # BR(~chi_40 -> ~chi_30   A )
     4.37754001E-03    2     1000024       -37   # BR(~chi_40 -> ~chi_1+   H-)
     4.37754001E-03    2    -1000024        37   # BR(~chi_40 -> ~chi_1-   H+)
     2.02608904E-03    2     1000002        -2   # BR(~chi_40 -> ~u_L      ub)
     2.02608904E-03    2    -1000002         2   # BR(~chi_40 -> ~u_L*     u )
     1.98857750E-03    2     1000001        -1   # BR(~chi_40 -> ~d_L      db)
     1.98857750E-03    2    -1000001         1   # BR(~chi_40 -> ~d_L*     d )
     6.22378061E-09    2     2000001        -1   # BR(~chi_40 -> ~d_R      db)
     6.22378061E-09    2    -2000001         1   # BR(~chi_40 -> ~d_R*     d )
     2.02591469E-03    2     1000004        -4   # BR(~chi_40 -> ~c_L      cb)
     2.02591469E-03    2    -1000004         4   # BR(~chi_40 -> ~c_L*     c )
     1.98857750E-03    2     1000003        -3   # BR(~chi_40 -> ~s _L      sb)
     1.98857750E-03    2    -1000003         3   # BR(~chi_40 -> ~s _L*     s )
     6.22378061E-09    2     2000003        -3   # BR(~chi_40 -> ~s _R      sb)
     6.22378061E-09    2    -2000003         3   # BR(~chi_40 -> ~s _R*     s )
     1.81304584E-09    2     1000005        -5   # BR(~chi_40 -> ~b_1      bb)
     1.81304584E-09    2    -1000005         5   # BR(~chi_40 -> ~b_1*     b )
     7.93767935E-02    2     1000011       -11   # BR(~chi_40 -> ~e_L-     e+)
     7.93767935E-02    2    -1000011        11   # BR(~chi_40 -> ~e_L+     e-)
     7.93767935E-02    2     1000013       -13   # BR(~chi_40 -> ~mu_L-    mu+)
     7.93767935E-02    2    -1000013        13   # BR(~chi_40 -> ~mu_L+    mu-)
     7.96164121E-02    2     1000012       -12   # BR(~chi_40 -> ~nu_eL    nu_eb)
     7.96164121E-02    2    -1000012        12   # BR(~chi_40 -> ~nu_eL*   nu_e )
     7.96164121E-02    2     1000014       -14   # BR(~chi_40 -> ~nu_muL   nu_mub)
     7.96164121E-02    2    -1000014        14   # BR(~chi_40 -> ~nu_muL*  nu_mu )
#
#         PDG            Width
DECAY        25     4.47302713E-03   # h decays
#          BR         NDA      ID1       ID2
     5.69373907E-01    2           5        -5   # BR(h -> b       bb     )
     5.94716098E-02    2         -15        15   # BR(h -> tau+    tau-   )
     2.10444840E-04    2         -13        13   # BR(h -> mu+     mu-    )
     2.28835310E-04    2           3        -3   # BR(h -> s       sb     )
     1.96742195E-02    2           4        -4   # BR(h -> c       cb     )
     7.52295212E-02    2          21        21   # BR(h -> g       g      )
     2.27083919E-03    2          22        22   # BR(h -> gam     gam    )
     1.70385752E-03    2          22        23   # BR(h -> Z       gam    )
     2.40801558E-01    2          24       -24   # BR(h -> W+      W-     )
     3.10352078E-02    2          23        23   # BR(h -> Z       Z      )
#
#         PDG            Width
DECAY        35     4.96113565E+01   # H decays
#          BR         NDA      ID1       ID2
     8.06430817E-01    2           5        -5   # BR(H -> b       bb     )
     1.39932055E-01    2         -15        15   # BR(H -> tau+    tau-   )
     4.68494712E-04    2         -13        13   # BR(H -> mu+     mu-    )
     2.92860787E-04    2           3        -3   # BR(H -> s       sb     )
     1.24980869E-08    2           4        -4   # BR(H -> c       cb     )
     1.21632947E-03    2           6        -6   # BR(H -> t       tb     )
     2.20170533E-05    2          21        21   # BR(H -> g       g      )
     9.00328029E-09    2          22        22   # BR(H -> gam     gam    )
     1.12154156E-08    2          23        22   # BR(H -> Z       gam    )
     1.05235988E-06    2          24       -24   # BR(H -> W+      W-     )
     5.24445161E-07    2          23        23   # BR(H -> Z       Z      )
     3.71767392E-06    2          25        25   # BR(H -> h       h      )
     6.27646915E-04    2     1000024  -1000024   # BR(H -> ~chi_1+ ~chi_1-)
     1.12056055E-02    2     1000022   1000022   # BR(H -> ~chi_10 ~chi_10)
     7.95837737E-06    2     1000023   1000023   # BR(H -> ~chi_20 ~chi_20)
     9.69644947E-03    2     1000025   1000025   # BR(H -> ~chi_30 ~chi_30)
     1.79499317E-02    2     1000022   1000023   # BR(H -> ~chi_10 ~chi_20)
     5.25713432E-03    2     1000022   1000025   # BR(H -> ~chi_10 ~chi_30)
     6.88605109E-03    2     1000023   1000025   # BR(H -> ~chi_20 ~chi_30)
     1.79754900E-08    2     2000001  -2000001   # BR(H -> ~d_R    ~d_R*  )
     1.79754900E-08    2     2000003  -2000003   # BR(H -> ~s_R    ~s_R*  )
     1.50552857E-07    2     1000011  -1000011   # BR(H -> ~e_L-   ~e_L+  )
     1.50552857E-07    2     1000013  -1000013   # BR(H -> ~mu_L-  ~mu_L+ )
     4.92322468E-07    2     1000012  -1000012   # BR(H -> ~nu_eL  ~nu_eL*   )
     4.92322468E-07    2     1000014  -1000014   # BR(H -> ~nu_muL ~nu_muL*  )
#
#         PDG            Width
DECAY        36     4.96170370E+01   # A decays
#          BR         NDA      ID1       ID2
     8.06360243E-01    2           5        -5   # BR(A -> b       bb     )
     1.39916904E-01    2         -15        15   # BR(A -> tau+    tau-   )
     4.68442862E-04    2         -13        13   # BR(A -> mu+     mu-    )
     2.92841926E-04    2           3        -3   # BR(A -> s       sb     )
     1.24912731E-08    2           4        -4   # BR(A -> c       cb     )
     1.22486407E-03    2           6        -6   # BR(A -> t       tb     )
     4.14017223E-05    2          21        21   # BR(A -> g       g      )
     4.26068843E-08    2          22        22   # BR(A -> gam     gam    )
     2.57399355E-08    2          23        22   # BR(A -> Z       gam    )
     1.06253221E-06    2          23        25   # BR(A -> Z       h      )
     6.83230630E-04    2     1000024  -1000024   # BR(A -> ~chi_1+ ~chi_1-)
     1.08120688E-02    2     1000022   1000022   # BR(A -> ~chi_10 ~chi_10)
     9.46822238E-06    2     1000023   1000023   # BR(A -> ~chi_20 ~chi_20)
     9.42729830E-03    2     1000025   1000025   # BR(A -> ~chi_30 ~chi_30)
     1.87929335E-02    2     1000022   1000023   # BR(A -> ~chi_10 ~chi_20)
     4.93191320E-03    2     1000022   1000025   # BR(A -> ~chi_10 ~chi_30)
     7.03724714E-03    2     1000023   1000025   # BR(A -> ~chi_20 ~chi_30)
#
#         PDG            Width
DECAY        37     4.74318462E+01   # H+ decays
#          BR         NDA      ID1       ID2
     1.34283941E-03    2           4        -5   # BR(H+ -> c       bb     )
     1.46471522E-01    2         -15        16   # BR(H+ -> tau+    nu_tau )
     4.90387773E-04    2         -13        14   # BR(H+ -> mu+     nu_mu  )
     1.34283658E-05    2           2        -5   # BR(H+ -> u       bb     )
     1.53150900E-05    2           2        -3   # BR(H+ -> u       sb     )
     3.01459930E-04    2           4        -3   # BR(H+ -> c       sb     )
     7.97726144E-01    2           6        -5   # BR(H+ -> t       bb     )
     1.11526339E-06    2          24        25   # BR(H+ -> W+      h      )
     3.31871789E-13    2          24        36   # BR(H+ -> W+      A      )
     4.27558456E-02    2     1000024   1000022   # BR(H+ -> ~chi_1+ ~chi_10)
     4.64902132E-04    2     1000024   1000023   # BR(H+ -> ~chi_1+ ~chi_20)
     1.04158060E-02    2     1000024   1000025   # BR(H+ -> ~chi_1+ ~chi_30)
     6.17352603E-07    2    -1000011   1000012   # BR(H+ -> ~e_L+   ~nu_eL )
     6.17352603E-07    2    -1000013   1000014   # BR(H+ -> ~mu_L+  ~nu_muL)

DECAY         5   0.000000e+00 # b decays
DECAY        15   0.000000e+00 # tau decays
DECAY        23     2.49520000E+00   # Z
DECAY        24     2.08500000E+00   # W
