# SUSY Les Houches Accord 2 - MSSM spectrum + Decays
# SPheno v4.0.5be
# W. Porod, Comput. Phys. Commun. 153 (2003) 275-315, hep-ph/0301101;
# W. Porod, F.~Staub, Comput. Phys. Commun. 183 (2012) 2458
#                     arXiv:1104.1573 [hep-ph] 
# in case of problems send email to porod@physik.uni-wuerzburg.de
# Created: 20.12.2022,  17:46
Block SPINFO         # Program information
     1   SPheno      # spectrum calculator
     2   v4.0.5be    # version number
#
Block SPhenoINFO     # SPheno specific information
    1      2         # using 2-loop RGEs
    2      2         # using pole masses for boundary conditions at mZ
Block MODSEL  # Model selection
    1    0    # general MSSM
Block MINPAR  # Input parameters
    3    4.41827815E+01  # tanb at m_Z    
    4   -1.00000000E+00  # Sign(mu)
Block EXTPAR  # non-universal input parameters
    0    3.51511511E+03  # scale for input parameters
    1   -7.78115141E+00  # M_1
    2   -8.40454412E+02  # M_2
    3    2.00741854E+03  # M_3
   11    3.99700763E+03  # A_t
   12    1.23268047E+02  # A_b
   13   -1.11697672E+03  # A_tau
   23   -1.13597074E+03  # mu
   25    4.37192353E+01  # tan(beta)
   26    2.95840725E+03  # m_A, pole mass
   31    1.00000000E+04  # M_L11
   32    1.00000000E+04  # M_L22
   33    1.00000000E+04  # M_L33
   34    1.00000000E+04  # M_E11
   35    1.00000000E+04  # M_E22
   36    1.00000000E+04  # M_E33
   41    1.00000000E+04  # M_Q11
   42    1.00000000E+04  # M_Q22
   43    3.22231147E+03  # M_Q33
   44    1.00000000E+04  # M_U11
   45    1.00000000E+04  # M_U22
   46    3.85035227E+03  # M_U33
   47    1.00000000E+04  # M_D11
   48    1.00000000E+04  # M_D22
   49    3.08696056E+03  # M_D33
Block SMINPUTS  # SM parameters
         1     1.27908970E+02  # alpha_em^-1(MZ)^MSbar
         2     1.16637870E-05  # G_mu [GeV^-2]
         3     1.18400000E-01  # alpha_s(MZ)^MSbar
         4     9.11876000E+01  # m_Z(pole)
         5     4.18000000E+00  # m_b(m_b), MSbar
         6     1.73200000E+02  # m_t(pole)
         7     1.77700000E+00  # m_tau(pole)
         8     0.00000000E+00  # m_nu_3
        11     5.10998930E-04  # m_e(pole)
        12     0.00000000E+00  # m_nu_1
        13     1.05658372E-01  # m_muon(pole)
        14     0.00000000E+00  # m_nu_2
        21     5.00000000E-03  # m_d(2 GeV), MSbar
        22     2.50000000E-03  # m_u(2 GeV), MSbar
        23     9.50000000E-02  # m_s(2 GeV), MSbar
        24     1.27000000E+00  # m_c(m_c), MSbar
Block gauge Q=  3.51511511E+03  # (SUSY scale)
   1    3.55362975E-01  # g'(Q)^DRbar
   2    6.65198874E-01  # g(Q)^DRbar
   3    1.21977796E+00  # g3(Q)^DRbar
Block Yu Q=  3.51511511E+03  # (SUSY scale)
  1  1     8.38656513E-06   # Y_u(Q)^DRbar
  2  2     4.26037509E-03   # Y_c(Q)^DRbar
  3  3     1.01316443E+00   # Y_t(Q)^DRbar
Block Yd Q=  3.51511511E+03  # (SUSY scale)
  1  1     7.36778474E-04   # Y_d(Q)^DRbar
  2  2     1.39987910E-02   # Y_s(Q)^DRbar
  3  3     7.30653373E-01   # Y_b(Q)^DRbar
Block Ye Q=  3.51511511E+03  # (SUSY scale)
  1  1     1.28573231E-04   # Y_e(Q)^DRbar
  2  2     2.65848665E-02   # Y_mu(Q)^DRbar
  3  3     4.47113719E-01   # Y_tau(Q)^DRbar
Block Au Q=  3.51511511E+03  # (SUSY scale)
  1  1     0.00000000E+00   # A_u(Q)^DRbar
  2  2     0.00000000E+00   # A_c(Q)^DRbar
  3  3     3.99700764E+03   # A_t(Q)^DRbar
Block Ad Q=  3.51511511E+03  # (SUSY scale)
  1  1     0.00000000E+00   # A_d(Q)^DRbar
  2  2     0.00000000E+00   # A_s(Q)^DRbar
  3  3     1.23268045E+02   # A_b(Q)^DRbar
Block Ae Q=  3.51511511E+03  # (SUSY scale)
  1  1     0.00000000E+00   # A_e(Q)^DRbar
  2  2     0.00000000E+00   # A_mu(Q)^DRbar
  3  3    -1.11697672E+03   # A_tau(Q)^DRbar
Block MSOFT Q=  3.51511511E+03  # soft SUSY breaking masses at Q
   1   -7.78115141E+00  # M_1
   2   -8.40454412E+02  # M_2
   3    2.00741854E+03  # M_3
  21    7.56318781E+06  # M^2_(H,d)
  22   -1.04425890E+06  # M^2_(H,u)
  31    1.00000000E+04  # M_(L,11)
  32    1.00000000E+04  # M_(L,22)
  33    1.00000000E+04  # M_(L,33)
  34    1.00000000E+04  # M_(E,11)
  35    1.00000000E+04  # M_(E,22)
  36    1.00000000E+04  # M_(E,33)
  41    1.00000000E+04  # M_(Q,11)
  42    1.00000000E+04  # M_(Q,22)
  43    3.22231147E+03  # M_(Q,33)
  44    1.00000000E+04  # M_(U,11)
  45    1.00000000E+04  # M_(U,22)
  46    3.85035227E+03  # M_(U,33)
  47    1.00000000E+04  # M_(D,11)
  48    1.00000000E+04  # M_(D,22)
  49    3.08696056E+03  # M_(D,33)
Block MASS  # Mass spectrum
#   PDG code      mass          particle
         6     1.73200000E+02  # m_t(pole)
        23     9.11876000E+01  # m_Z(pole)
        24     8.04299946E+01  # W+
        15     1.77700000E+00  # m_tau(pole)
        25     1.24128673E+02  # h0
        35     2.95722298E+03  # H0
        36     2.95840725E+03  # A0
        37     2.96040567E+03  # H+
   1000001     1.01163414E+04  # ~d_L
   2000001     1.00916687E+04  # ~d_R
   1000002     1.01159793E+04  # ~u_L
   2000002     1.00946956E+04  # ~u_R
   1000003     1.01163471E+04  # ~s_L
   2000003     1.00916776E+04  # ~s_R
   1000004     1.01159846E+04  # ~c_L
   2000004     1.00946966E+04  # ~c_R
   1000005     3.10947599E+03  # ~b_1
   2000005     3.24086830E+03  # ~b_2
   1000006     3.22986666E+03  # ~t_1
   2000006     3.82555552E+03  # ~t_2
   1000011     1.00209298E+04  # ~e_L-
   2000011     1.00090649E+04  # ~e_R-
   1000012     1.00201657E+04  # ~nu_eL
   1000013     1.00209599E+04  # ~mu_L-
   2000013     1.00091064E+04  # ~mu_R-
   1000014     1.00201899E+04  # ~nu_muL
   1000015     1.00201620E+04  # ~tau_1-
   2000015     1.00303124E+04  # ~tau_2-
   1000016     1.00270974E+04  # ~nu_tauL
   1000021     2.41660025E+03  # ~g
   1000022     7.66955760E+00  # ~chi_10
   1000023     8.96004518E+02  # ~chi_20
   1000025     1.15159367E+03  # ~chi_30
   1000035     1.16309332E+03  # ~chi_40
   1000024     8.95729402E+02  # ~chi_1+
   1000037     1.16358655E+03  # ~chi_2+
# Higgs mixing
Block alpha # Effective Higgs mixing angle
          -2.26962063E-02   # alpha
Block Hmix Q=  3.51511511E+03  # Higgs mixing parameters
   1   -1.13597074E+03  # mu
   2    4.37192353E+01  # tan[beta](Q)
   3    2.43055977E+02  # v(Q)
   4    8.75217346E+06  # m^2_A(Q)
Block stopmix # stop mixing matrix
   1  1    -9.92442134E-01   # Re[R_st(1,1)]
   1  2     1.22713532E-01   # Re[R_st(1,2)]
   2  1    -1.22713532E-01   # Re[R_st(2,1)]
   2  2    -9.92442134E-01   # Re[R_st(2,2)]
Block sbotmix # sbottom mixing matrix
   1  1    -1.61217724E-01   # Re[R_sb(1,1)]
   1  2     9.86918865E-01   # Re[R_sb(1,2)]
   2  1    -9.86918865E-01   # Re[R_sb(2,1)]
   2  2    -1.61217724E-01   # Re[R_sb(2,2)]
Block staumix # stau mixing matrix
   1  1    -4.94693122E-01   # Re[R_sta(1,1)]
   1  2     8.69067727E-01   # Re[R_sta(1,2)]
   2  1    -8.69067727E-01   # Re[R_sta(2,1)]
   2  2    -4.94693122E-01   # Re[R_sta(2,2)]
Block Nmix # neutralino mixing matrix
   1  1     9.99248728E-01   # Re[N(1,1)]
   1  2    -1.71457340E-04   # Re[N(1,2)]
   1  3    -3.87355363E-02   # Re[N(1,3)]
   1  4     1.22846140E-03   # Re[N(1,4)]
   2  1    -6.90997960E-03   # Re[N(2,1)]
   2  2    -9.76532465E-01   # Re[N(2,2)]
   2  3    -1.69733511E-01   # Re[N(2,3)]
   2  4     1.32390078E-01   # Re[N(2,4)]
   3  1     2.64876852E-02   # Re[N(3,1)]
   3  2    -2.69752620E-02   # Re[N(3,2)]
   3  3     7.05847170E-01   # Re[N(3,3)]
   3  4     7.07354586E-01   # Re[N(3,4)]
   4  1    -2.74341940E-02   # Re[N(4,1)]
   4  2     2.13674170E-01   # Re[N(4,2)]
   4  3    -6.86636633E-01   # Re[N(4,3)]
   4  4     6.94349226E-01   # Re[N(4,4)]
Block Umix # chargino mixing matrix
   1  1    -9.69791604E-01   # Re[U(1,1)]
   1  2    -2.43934918E-01   # Re[U(1,2)]
   2  1    -2.43934918E-01   # Re[U(2,1)]
   2  2     9.69791604E-01   # Re[U(2,2)]
Block Vmix # chargino mixing matrix
   1  1     9.81492737E-01   # Re[V(1,1)]
   1  2     1.91499364E-01   # Re[V(1,2)]
   2  1     1.91499364E-01   # Re[V(2,1)]
   2  2    -9.81492737E-01   # Re[V(2,2)]
DECAY        23     2.49520000E+00   # Z
DECAY        24     2.08500000E+00   # W
DECAY   2000011     5.02898608E+01   # ~e^-_R
#    BR                NDA      ID1      ID2
     9.98537236E-01    2     1000022        11   # BR(~e^-_R -> chi^0_1 e^-)
     6.83204768E-04    2     1000025        11   # BR(~e^-_R -> chi^0_3 e^-)
     7.32505681E-04    2     1000035        11   # BR(~e^-_R -> chi^0_4 e^-)
DECAY   1000011     1.42727053E+02   # ~e^-_L
#    BR                NDA      ID1      ID2
     8.80063271E-02    2     1000022        11   # BR(~e^-_L -> chi^0_1 e^-)
     2.92202160E-01    2     1000023        11   # BR(~e^-_L -> chi^0_2 e^-)
     1.19127068E-02    2     1000035        11   # BR(~e^-_L -> chi^0_4 e^-)
     5.72036793E-01    2    -1000024        12   # BR(~e^-_L -> chi^-_1 nu_e)
     3.57925061E-02    2    -1000037        12   # BR(~e^-_L -> chi^-_2 nu_e)
#    BR                NDA      ID1      ID2       ID3
DECAY   2000013     5.05641519E+01   # ~mu^-_R
#    BR                NDA      ID1      ID2
     9.93128850E-01    2     1000022        13   # BR(~mu^-_R -> chi^0_1 mu^-)
     1.25636456E-04    2     1000023        13   # BR(~mu^-_R -> chi^0_2 mu^-)
     2.02966582E-03    2     1000025        13   # BR(~mu^-_R -> chi^0_3 mu^-)
     2.00551841E-03    2     1000035        13   # BR(~mu^-_R -> chi^0_4 mu^-)
     1.62972881E-04    2    -1000024        14   # BR(~mu^-_R -> chi^-_1 nu_mu)
     2.54735666E-03    2    -1000037        14   # BR(~mu^-_R -> chi^-_2 nu_mu)
DECAY   1000013     1.42864707E+02   # ~mu^-_L
#    BR                NDA      ID1      ID2
     8.79232749E-02    2     1000022        13   # BR(~mu^-_L -> chi^0_1 mu^-)
     2.91949493E-01    2     1000023        13   # BR(~mu^-_L -> chi^0_2 mu^-)
     5.27921103E-04    2     1000025        13   # BR(~mu^-_L -> chi^0_3 mu^-)
     1.23537841E-02    2     1000035        13   # BR(~mu^-_L -> chi^0_4 mu^-)
     5.71487395E-01    2    -1000024        14   # BR(~mu^-_L -> chi^-_1 nu_mu)
     3.57581325E-02    2    -1000037        14   # BR(~mu^-_L -> chi^-_2 nu_mu)
#    BR                NDA      ID1      ID2       ID3
DECAY   1000015     1.41287671E+02   # ~tau^-_1
#    BR                NDA      ID1      ID2
     2.96193186E-01    2     1000022        15   # BR(~tau^-_1 -> chi^0_1 tau^-)
     1.21699137E-01    2     1000023        15   # BR(~tau^-_1 -> chi^0_2 tau^-)
     1.29827369E-01    2     1000025        15   # BR(~tau^-_1 -> chi^0_3 tau^-)
     9.36376124E-02    2     1000035        15   # BR(~tau^-_1 -> chi^0_4 tau^-)
     2.37877867E-01    2    -1000024        16   # BR(~tau^-_1 -> chi^-_1 nu_tau)
     1.20764829E-01    2    -1000037        16   # BR(~tau^-_1 -> chi^-_2 nu_tau)
DECAY   2000015     1.68377568E+02   # ~tau^-_2
#    BR                NDA      ID1      ID2
     1.25458590E-01    2     1000022        15   # BR(~tau^-_2 -> chi^0_1 tau^-)
     1.59152220E-01    2     1000023        15   # BR(~tau^-_2 -> chi^0_2 tau^-)
     1.21081018E-01    2     1000025        15   # BR(~tau^-_2 -> chi^0_3 tau^-)
     1.49098761E-01    2     1000035        15   # BR(~tau^-_2 -> chi^0_4 tau^-)
     2.99420437E-01    2    -1000024        16   # BR(~tau^-_2 -> chi^-_1 nu_tau)
     1.45788974E-01    2    -1000037        16   # BR(~tau^-_2 -> chi^-_2 nu_tau)
#    BR                NDA      ID1      ID2       ID3
DECAY   1000012     1.42731306E+02   # ~nu_e
#    BR                NDA      ID1      ID2
     8.81101224E-02    2     1000022        12   # BR(~nu_e -> chi^0_1 nu_e)
     2.87785857E-01    2     1000023        12   # BR(~nu_e -> chi^0_2 nu_e)
     5.08900382E-04    2     1000025        12   # BR(~nu_e -> chi^0_3 nu_e)
     1.56784323E-02    2     1000035        12   # BR(~nu_e -> chi^0_4 nu_e)
     5.85860452E-01    2     1000024        11   # BR(~nu_e -> chi^+_1 e^-)
     2.20562353E-02    2     1000037        11   # BR(~nu_e -> chi^+_2 e^-)
#    BR                NDA      ID1      ID2       ID3
DECAY   1000014     1.42868863E+02   # ~nu_mu
#    BR                NDA      ID1      ID2
     8.80255007E-02    2     1000022        14   # BR(~nu_mu -> chi^0_1 nu_mu)
     2.87509488E-01    2     1000023        14   # BR(~nu_mu -> chi^0_2 nu_mu)
     5.08411695E-04    2     1000025        14   # BR(~nu_mu -> chi^0_3 nu_mu)
     1.56633767E-02    2     1000035        14   # BR(~nu_mu -> chi^0_4 nu_mu)
     5.85355554E-01    2     1000024        13   # BR(~nu_mu -> chi^+_1 mu^-)
     2.29376698E-02    2     1000037        13   # BR(~nu_mu -> chi^+_2 mu^-)
#    BR                NDA      ID1      ID2       ID3
DECAY   1000016     1.81670709E+02   # ~nu_tau
#    BR                NDA      ID1      ID2
     6.92724364E-02    2     1000022        16   # BR(~nu_tau -> chi^0_1 nu_tau)
     2.26263125E-01    2     1000023        16   # BR(~nu_tau -> chi^0_2 nu_tau)
     4.00113774E-04    2     1000025        16   # BR(~nu_tau -> chi^0_3 nu_tau)
     1.23268947E-02    2     1000035        16   # BR(~nu_tau -> chi^0_4 nu_tau)
     4.73464722E-01    2     1000024        15   # BR(~nu_tau -> chi^+_1 tau^-)
     2.18272708E-01    2     1000037        15   # BR(~nu_tau -> chi^+_2 tau^-)
#    BR                NDA      ID1      ID2       ID3
DECAY   2000001     7.13466473E+02   # ~d_R
#    BR                NDA      ID1      ID2
     7.88493503E-03    2     1000022         1   # BR(~d_R -> chi^0_1 d)
     9.92103213E-01    2     1000021         1   # BR(~d_R -> ~g d)
DECAY   1000001     8.42811308E+02   # ~d_L
#    BR                NDA      ID1      ID2
     1.67601700E-03    2     1000022         1   # BR(~d_L -> chi^0_1 d)
     4.94690861E-02    2     1000023         1   # BR(~d_L -> chi^0_2 d)
     2.45746906E-03    2     1000035         1   # BR(~d_L -> chi^0_4 d)
     9.78242878E-02    2    -1000024         2   # BR(~d_L -> chi^-_1 u)
     6.12218362E-03    2    -1000037         2   # BR(~d_L -> chi^-_2 u)
     8.42399196E-01    2     1000021         1   # BR(~d_L -> ~g d)
DECAY   2000003     7.13543700E+02   # ~s_R
#    BR                NDA      ID1      ID2
     7.88417110E-03    2     1000022         3   # BR(~s_R -> chi^0_1 s)
     9.91996925E-01    2     1000021         3   # BR(~s_R -> ~g s)
DECAY   1000003     8.42853760E+02   # ~s_L
#    BR                NDA      ID1      ID2
     1.67600354E-03    2     1000022         3   # BR(~s_L -> chi^0_1 s)
     4.94679486E-02    2     1000023         3   # BR(~s_L -> chi^0_2 s)
     2.47876702E-03    2     1000035         3   # BR(~s_L -> chi^0_4 s)
     9.78195639E-02    2    -1000024         4   # BR(~s_L -> chi^-_1 c)
     6.12595429E-03    2    -1000037         4   # BR(~s_L -> chi^-_2 c)
     8.42357355E-01    2     1000021         3   # BR(~s_L -> ~g s)
DECAY   1000005     9.05049807E+01   # ~b_1
#    BR                NDA      ID1      ID2
     2.08727420E-02    2     1000022         5   # BR(~b_1 -> chi^0_1 b)
     2.23656479E-02    2     1000023         5   # BR(~b_1 -> chi^0_2 b)
     1.33792578E-01    2     1000025         5   # BR(~b_1 -> chi^0_3 b)
     1.18788394E-01    2     1000035         5   # BR(~b_1 -> chi^0_4 b)
     4.49062209E-02    2    -1000024         6   # BR(~b_1 -> chi^-_1 t)
     2.34746923E-01    2    -1000037         6   # BR(~b_1 -> chi^-_2 t)
     4.24527494E-01    2     1000021         5   # BR(~b_1 -> ~g b)
DECAY   2000005     1.62392937E+02   # ~b_2
#    BR                NDA      ID1      ID2
     2.42322242E-03    2     1000022         5   # BR(~b_2 -> chi^0_1 b)
     6.85394065E-02    2     1000023         5   # BR(~b_2 -> chi^0_2 b)
     8.16124702E-02    2     1000025         5   # BR(~b_2 -> chi^0_3 b)
     8.40559614E-02    2     1000035         5   # BR(~b_2 -> chi^0_4 b)
     1.34155043E-01    2    -1000024         6   # BR(~b_2 -> chi^-_1 t)
     3.17616950E-01    2    -1000037         6   # BR(~b_2 -> chi^-_2 t)
     3.10957404E-01    2     1000021         5   # BR(~b_2 -> ~g b)
     3.37657263E-04    2     1000005        23   # BR(~b_2 -> ~b_1 Z)
     3.01885927E-04    2     1000005        25   # BR(~b_2 -> ~b_1 h^0)
DECAY   2000002     7.30638623E+02   # ~u_R
#    BR                NDA      ID1      ID2
     3.08077006E-02    2     1000022         2   # BR(~u_R -> chi^0_1 u)
     9.69147152E-01    2     1000021         2   # BR(~u_R -> ~g u)
DECAY   1000002     8.42798644E+02   # ~u_L
#    BR                NDA      ID1      ID2
     1.66953473E-03    2     1000022         2   # BR(~u_L -> chi^0_1 u)
     4.97179581E-02    2     1000023         2   # BR(~u_L -> chi^0_2 u)
     2.24255498E-03    2     1000035         2   # BR(~u_L -> chi^0_4 u)
     1.00196963E-01    2     1000024         1   # BR(~u_L -> chi^+_1 d)
     3.77308774E-03    2     1000037         1   # BR(~u_L -> chi^+_2 d)
     8.42374401E-01    2     1000021         2   # BR(~u_L -> ~g u)
DECAY   2000004     7.30645782E+02   # ~c_R
#    BR                NDA      ID1      ID2
     3.08074006E-02    2     1000022         4   # BR(~c_R -> chi^0_1 c)
     9.69137734E-01    2     1000021         4   # BR(~c_R -> ~g c)
DECAY   1000004     8.42841024E+02   # ~c_L
#    BR                NDA      ID1      ID2
     1.66945160E-03    2     1000022         4   # BR(~c_L -> chi^0_1 c)
     4.97155609E-02    2     1000023         4   # BR(~c_L -> chi^0_2 c)
     2.24447360E-03    2     1000035         4   # BR(~c_L -> chi^0_4 c)
     1.00194708E-01    2     1000024         3   # BR(~c_L -> chi^+_1 s)
     3.81563671E-03    2     1000037         3   # BR(~c_L -> chi^+_2 s)
     8.42332557E-01    2     1000021         4   # BR(~c_L -> ~g c)
DECAY   1000006     1.78595233E+02   # ~t_1
#    BR                NDA      ID1      ID2
     7.92530639E-04    2     1000022         4   # BR(~t_1 -> chi^0_1 c)
     3.09425622E-03    2     1000022         6   # BR(~t_1 -> chi^0_1 t)
     2.04278538E-02    2     1000023         4   # BR(~t_1 -> chi^0_2 c)
     7.46979129E-02    2     1000023         6   # BR(~t_1 -> chi^0_2 t)
     1.42355765E-01    2     1000025         6   # BR(~t_1 -> chi^0_3 t)
     1.31253180E-01    2     1000035         6   # BR(~t_1 -> chi^0_4 t)
     1.47878100E-01    2     1000024         5   # BR(~t_1 -> chi^+_1 b)
     1.34743503E-01    2     1000037         5   # BR(~t_1 -> chi^+_2 b)
     8.71464562E-02    2     1000021         4   # BR(~t_1 -> ~g c)
     2.56348286E-01    2     1000021         6   # BR(~t_1 -> ~g t)
     5.29991659E-04    2     1000005        24   # BR(~t_1 -> ~b_1 W^+)
#    BR                NDA      ID1      ID2       ID3
     7.32164238E-04    3     1000022        24         5   # BR(~t_1 -> chi^0_1 W^+ b)
DECAY   2000006     2.77632927E+02   # ~t_2
#    BR                NDA      ID1      ID2
     3.01467612E-02    2     1000022         6   # BR(~t_2 -> chi^0_1 t)
     1.50329354E-03    2     1000023         6   # BR(~t_2 -> chi^0_2 t)
     1.14351005E-01    2     1000025         6   # BR(~t_2 -> chi^0_3 t)
     1.14446502E-01    2     1000035         6   # BR(~t_2 -> chi^0_4 t)
     3.21372691E-03    2     1000024         5   # BR(~t_2 -> chi^+_1 b)
     2.28632510E-01    2     1000037         5   # BR(~t_2 -> chi^+_2 b)
     3.97373787E-01    2     1000021         6   # BR(~t_2 -> ~g t)
     2.05822958E-03    2     1000005        24   # BR(~t_2 -> ~b_1 W^+)
     4.39947159E-02    2     2000005        24   # BR(~t_2 -> ~b_2 W^+)
     2.32514162E-02    2     1000006        23   # BR(~t_2 -> ~t_1 Z)
     4.10280532E-02    2     1000006        25   # BR(~t_2 -> ~t_1 h^0)
DECAY   1000024     2.33140489E-02   # chi^+_1
#    BR                NDA      ID1      ID2
     9.85467025E-01    2     1000022        24   # BR(chi^+_1 -> chi^0_1 W^+)
#    BR                NDA      ID1      ID2       ID3
     1.45273122E-02    3     1000022        -5         6   # BR(chi^+_1 -> chi^0_1 b_bar t)
DECAY   1000037     5.34394130E+00   # chi^+_2
#    BR                NDA      ID1      ID2
     1.41192705E-01    2     1000022        24   # BR(chi^+_2 -> chi^0_1 W^+)
     3.61838025E-01    2     1000023        24   # BR(chi^+_2 -> chi^0_2 W^+)
     2.59383761E-01    2     1000024        23   # BR(chi^+_2 -> chi^+_1 Z)
     2.34192701E-01    2     1000024        25   # BR(chi^+_2 -> chi^+_1 h^0)
#    BR                NDA      ID1      ID2       ID3
     3.01413202E-03    3     1000022        -5         6   # BR(chi^+_2 -> chi^0_1 b_bar t)
     3.77880119E-04    3     1000023        -5         6   # BR(chi^+_2 -> chi^0_2 b_bar t)
DECAY   1000022     0.00000000E+00   # chi^0_1
DECAY   1000023     2.09942842E-02   # chi^0_2
#    BR                NDA      ID1      ID2
     4.79246724E-01    2     1000022        23   # BR(chi^0_2 -> chi^0_1 Z)
     5.14136133E-01    2     1000022        25   # BR(chi^0_2 -> chi^0_1 h^0)
#    BR                NDA      ID1      ID2       ID3
     6.50392524E-03    3     1000022         6        -6   # BR(chi^0_2 -> chi^0_1 t t_bar)
DECAY   1000025     6.38797419E+00   # chi^0_3
#    BR                NDA      ID1      ID2
     2.08030156E-01    2     1000024       -24   # BR(chi^0_3 -> chi^+_1 W^-)
     2.08030156E-01    2    -1000024        24   # BR(chi^0_3 -> chi^-_1 W^+)
     6.47272706E-02    2     1000022        23   # BR(chi^0_3 -> chi^0_1 Z)
     2.66121378E-01    2     1000023        23   # BR(chi^0_3 -> chi^0_2 Z)
     5.35293887E-02    2     1000022        25   # BR(chi^0_3 -> chi^0_1 h^0)
     1.97795026E-01    2     1000023        25   # BR(chi^0_3 -> chi^0_2 h^0)
#    BR                NDA      ID1      ID2       ID3
     1.32334856E-03    3     1000022         6        -6   # BR(chi^0_3 -> chi^0_1 t t_bar)
     1.76540000E-04    3     1000024         5        -6   # BR(chi^0_3 -> chi^+_1 b t_bar)
     1.76540000E-04    3    -1000024        -5         6   # BR(chi^0_3 -> chi^-_1 b_bar t)
DECAY   1000035     5.43945999E+00   # chi^0_4
#    BR                NDA      ID1      ID2
     3.15676730E-01    2     1000024       -24   # BR(chi^0_4 -> chi^+_1 W^-)
     3.15676730E-01    2    -1000024        24   # BR(chi^0_4 -> chi^-_1 W^+)
     6.52206308E-02    2     1000022        23   # BR(chi^0_4 -> chi^0_1 Z)
     4.63168014E-03    2     1000023        23   # BR(chi^0_4 -> chi^0_2 Z)
     6.67752333E-02    2     1000022        25   # BR(chi^0_4 -> chi^0_1 h^0)
     2.29570750E-01    2     1000023        25   # BR(chi^0_4 -> chi^0_2 h^0)
#    BR                NDA      ID1      ID2       ID3
     1.63942666E-03    3     1000022         6        -6   # BR(chi^0_4 -> chi^0_1 t t_bar)
     3.98535205E-04    3     1000024         5        -6   # BR(chi^0_4 -> chi^+_1 b t_bar)
     3.98535205E-04    3    -1000024        -5         6   # BR(chi^0_4 -> chi^-_1 b_bar t)
DECAY   1000021     5.02824056E-02   # ~g
#    BR                NDA      ID1      ID2
     1.76402162E-04    2     1000023        21   # BR(~g -> chi^0_2 g)
     4.81182675E-03    2     1000025        21   # BR(~g -> chi^0_3 g)
     3.49816904E-03    2     1000035        21   # BR(~g -> chi^0_4 g)
#    BR                NDA      ID1      ID2       ID3
     3.09394613E-04    3     1000022         2        -2   # BR(~g -> chi^0_1 u u_bar)
     3.09394456E-04    3     1000022         4        -4   # BR(~g -> chi^0_1 c c_bar)
     2.13245033E-02    3     1000022         6        -6   # BR(~g -> chi^0_1 t t_bar)
     1.89493932E-02    3     1000022         5        -5   # BR(~g -> chi^0_1 b b_bar)
     2.85544808E-04    3     1000023         2        -2   # BR(~g -> chi^0_2 u u_bar)
     2.85545114E-04    3     1000023         4        -4   # BR(~g -> chi^0_2 c c_bar)
     6.51662416E-02    3     1000023         6        -6   # BR(~g -> chi^0_2 t t_bar)
     2.84061955E-04    3     1000023         1        -1   # BR(~g -> chi^0_2 d d_bar)
     2.84077628E-04    3     1000023         3        -3   # BR(~g -> chi^0_2 s s_bar)
     6.23657129E-02    3     1000023         5        -5   # BR(~g -> chi^0_2 b b_bar)
     9.84843561E-02    3     1000025         6        -6   # BR(~g -> chi^0_3 t t_bar)
     9.11503810E-02    3     1000025         5        -5   # BR(~g -> chi^0_3 b b_bar)
     8.15768035E-02    3     1000035         6        -6   # BR(~g -> chi^0_4 t t_bar)
     8.43389433E-02    3     1000035         5        -5   # BR(~g -> chi^0_4 b b_bar)
     2.42171893E-04    3     1000024         1        -2   # BR(~g -> chi^+_1 d u_bar)
     2.42171893E-04    3    -1000024        -1         2   # BR(~g -> chi^-_1 d_bar u)
     2.42189192E-04    3     1000024         3        -4   # BR(~g -> chi^+_1 s c_bar)
     2.42189192E-04    3    -1000024        -3         4   # BR(~g -> chi^-_1 s_bar c)
     6.70429202E-02    3     1000024         5        -6   # BR(~g -> chi^+_1 b t_bar)
     6.70429202E-02    3    -1000024        -5         6   # BR(~g -> chi^-_1 b_bar t)
     1.65527895E-01    3     1000037         5        -6   # BR(~g -> chi^+_2 b t_bar)
     1.65527895E-01    3    -1000037        -5         6   # BR(~g -> chi^-_2 b_bar t)
DECAY        25     3.77790342E-03   # Gamma(h0)
     2.33802482E-03   2        22        22   # BR(h0 -> photon photon)
     1.42149023E-03   2        22        23   # BR(h0 -> photon Z)
     2.54471927E-02   2        23        23   # BR(h0 -> Z Z)
     2.13901780E-01   2       -24        24   # BR(h0 -> W W)
     7.30028045E-02   2        21        21   # BR(h0 -> gluon gluon)
     5.24665079E-09   2       -11        11   # BR(h0 -> Electron electron)
     2.33379921E-04   2       -13        13   # BR(h0 -> Muon muon)
     6.72907296E-02   2       -15        15   # BR(h0 -> Tau tau)
     1.48923546E-07   2        -2         2   # BR(h0 -> Up up)
     2.88985396E-02   2        -4         4   # BR(h0 -> Charm charm)
     6.08169525E-07   2        -1         1   # BR(h0 -> Down down)
     2.19961085E-04   2        -3         3   # BR(h0 -> Strange strange)
     5.86952090E-01   2        -5         5   # BR(h0 -> Bottom bottom)
     2.93245259E-04   2   1000022   1000022   # BR(h0 -> neutralino1 neutralino1)
DECAY        35     1.38382352E+02   # Gamma(HH)
     1.65464973E-08   2        22        22   # BR(HH -> photon photon)
     5.13519757E-08   2        22        23   # BR(HH -> photon Z)
     1.68766837E-07   2        23        23   # BR(HH -> Z Z)
     5.19322347E-08   2       -24        24   # BR(HH -> W W)
     9.28570462E-06   2        21        21   # BR(HH -> gluon gluon)
     6.52224650E-09   2       -11        11   # BR(HH -> Electron electron)
     2.90401936E-04   2       -13        13   # BR(HH -> Muon muon)
     8.38714507E-02   2       -15        15   # BR(HH -> Tau tau)
     3.40896429E-14   2        -2         2   # BR(HH -> Up up)
     6.61390413E-09   2        -4         4   # BR(HH -> Charm charm)
     6.01296290E-04   2        -6         6   # BR(HH -> Top top)
     4.97183817E-07   2        -1         1   # BR(HH -> Down down)
     1.79843022E-04   2        -3         3   # BR(HH -> Strange strange)
     7.45140487E-01   2        -5         5   # BR(HH -> Bottom bottom)
     4.26100733E-03   2  -1000024   1000024   # BR(HH -> Chargino1 chargino1)
     4.80048114E-02   2  -1000024   1000037   # BR(HH -> Chargino1 chargino2)
     4.80048114E-02   2  -1000037   1000024   # BR(HH -> Chargino2 chargino1)
     9.84510206E-04   2  -1000037   1000037   # BR(HH -> Chargino2 chargino2)
     7.18075936E-05   2   1000022   1000022   # BR(HH -> neutralino1 neutralino1)
     1.00916213E-03   2   1000022   1000023   # BR(HH -> neutralino1 neutralino2)
     9.41764827E-03   2   1000022   1000025   # BR(HH -> neutralino1 neutralino3)
     7.87539953E-03   2   1000022   1000035   # BR(HH -> neutralino1 neutralino4)
     2.10045836E-03   2   1000023   1000023   # BR(HH -> neutralino2 neutralino2)
     3.14659898E-02   2   1000023   1000025   # BR(HH -> neutralino2 neutralino3)
     1.41954228E-02   2   1000023   1000035   # BR(HH -> neutralino2 neutralino4)
     4.17471803E-05   2   1000025   1000025   # BR(HH -> neutralino3 neutralino3)
     1.66731939E-03   2   1000025   1000035   # BR(HH -> neutralino3 neutralino4)
     8.05964965E-04   2   1000035   1000035   # BR(HH -> neutralino4 neutralino4)
     3.75707632E-07   2        25        25   # BR(HH -> h0 h0)
DECAY        36     1.29652313E+02   # Gamma(A0)
     6.29860696E-08   2        22        22   # BR(A0 -> photon photon)
     1.13323296E-07   2        22        23   # BR(A0 -> photon Z)
     1.50773100E-05   2        21        21   # BR(A0 -> gluon gluon)
     6.43176070E-09   2       -11        11   # BR(A0 -> Electron electron)
     2.86371932E-04   2       -13        13   # BR(A0 -> Muon muon)
     8.27076749E-02   2       -15        15   # BR(A0 -> Tau tau)
     3.17053060E-14   2        -2         2   # BR(A0 -> Up up)
     6.15110685E-09   2        -4         4   # BR(A0 -> Charm charm)
     5.69732038E-04   2        -6         6   # BR(A0 -> Top top)
     4.90262466E-07   2        -1         1   # BR(A0 -> Down down)
     1.77339352E-04   2        -3         3   # BR(A0 -> Strange strange)
     7.34815991E-01   2        -5         5   # BR(A0 -> Bottom bottom)
     7.10938401E-03   2  -1000024   1000024   # BR(A0 -> Chargino1 chargino1)
     4.89998523E-02   2  -1000024   1000037   # BR(A0 -> Chargino1 chargino2)
     4.89998523E-02   2  -1000037   1000024   # BR(A0 -> Chargino2 chargino1)
     3.00081439E-03   2  -1000037   1000037   # BR(A0 -> Chargino2 chargino2)
     7.68803923E-05   2   1000022   1000022   # BR(A0 -> neutralino1 neutralino1)
     1.13313938E-03   2   1000022   1000023   # BR(A0 -> neutralino1 neutralino2)
     9.13816745E-03   2   1000022   1000025   # BR(A0 -> neutralino1 neutralino3)
     9.27954727E-03   2   1000022   1000035   # BR(A0 -> neutralino1 neutralino4)
     3.50696073E-03   2   1000023   1000023   # BR(A0 -> neutralino2 neutralino2)
     1.72522777E-02   2   1000023   1000025   # BR(A0 -> neutralino2 neutralino3)
     2.97790734E-02   2   1000023   1000035   # BR(A0 -> neutralino2 neutralino4)
     9.99854109E-05   2   1000025   1000025   # BR(A0 -> neutralino3 neutralino3)
     6.75876033E-04   2   1000025   1000035   # BR(A0 -> neutralino3 neutralino4)
     2.37503321E-03   2   1000035   1000035   # BR(A0 -> neutralino4 neutralino4)
     2.90222225E-07   2        23        25   # BR(A0 -> Z h0)
     1.97387978E-14   2        23        35   # BR(A0 -> Z HH)
     7.64668270E-38   2        25        25   # BR(A0 -> h0 h0)
DECAY        37     1.38377821E+02   # Gamma(Hp)
     6.90639608E-09   2       -11        12   # BR(Hp -> Electron nu_e)
     2.95270003E-04   2       -13        14   # BR(Hp -> Muon nu_mu)
     8.35191455E-02   2       -15        16   # BR(Hp -> Tau nu_tau)
     4.61768099E-07   2        -1         2   # BR(Hp -> Down up)
     7.79522105E-06   2        -3         2   # BR(Hp -> Strange up)
     7.88583629E-06   2        -5         2   # BR(Hp -> Bottom up)
     2.18198715E-08   2        -1         4   # BR(Hp -> Down charm)
     1.66460699E-04   2        -3         4   # BR(Hp -> Strange charm)
     1.10429922E-03   2        -5         4   # BR(Hp -> Bottom charm)
     2.82589917E-08   2        -1         6   # BR(Hp -> Down top)
     8.62516933E-07   2        -3         6   # BR(Hp -> Strange top)
     7.44922831E-01   2        -5         6   # BR(Hp -> Bottom top)
     2.06384092E-03   2   1000022   1000024   # BR(Hp -> neutralino1 chargino1)
     1.65101640E-02   2   1000022   1000037   # BR(Hp -> neutralino1 chargino2)
     1.24580878E-07   2   1000023   1000024   # BR(Hp -> neutralino2 chargino1)
     5.13529414E-02   2   1000023   1000037   # BR(Hp -> neutralino2 chargino2)
     4.87201428E-02   2   1000024   1000025   # BR(Hp -> chargino1 neutralino3)
     1.57873905E-03   2   1000025   1000037   # BR(Hp -> neutralino3 chargino2)
     4.96849720E-02   2   1000024   1000035   # BR(Hp -> chargino1 neutralino4)
     6.37340387E-05   2   1000035   1000037   # BR(Hp -> neutralino4 chargino2)
     2.72650487E-07   2        24        25   # BR(Hp -> W h0)
     3.21204568E-12   2        24        35   # BR(Hp -> W HH)
     3.13520609E-13   2        24        36   # BR(Hp -> W A0)
DECAY         6     2.43000000E+00   # top
#    BR                NDA      ID1      ID2
     1.00000000E+00    2           5        24   # BR(t -> b W)
Block HiggsBoundsInputHiggsCouplingsFermions
# ScalarNormEffCoupSq PseudoSNormEffCoupSq NP IP1 IP2 IP2
    9.84927445E-01    0.00000000E+00        3  25   5   5  # h0-b-b eff. coupling^2, normalised to SM
    1.91138661E+03    0.00000000E+00        3  35   5   5  # H0-b-b eff. coupling^2, normalised to SM
    0.00000000E+00    1.91137154E+03        3  36   5   5  # A0-b-b eff. coupling^2, normalised to SM
#
    1.00000789E+00    0.00000000E+00        3  25   6   6  # h0-t-t eff. coupling^2, normalised to SM
    5.15298793E-04    0.00000000E+00        3  35   6   6  # H0-t-t eff. coupling^2, normalised to SM
    0.00000000E+00    5.23184520E-04        3  36   6   6  # A0-t-t eff. coupling^2, normalised to SM
#
    9.84927445E-01    0.00000000E+00        3  25  15  15  # h0-tau-tau eff. coupling^2, normalised to SM
    1.91138661E+03    0.00000000E+00        3  35  15  15  # H0-tau-tau eff. coupling^2, normalised to SM
    0.00000000E+00    1.91137154E+03        3  36  15  15  # A0-tau-tau eff. coupling^2, normalised to SM
#
Block HiggsBoundsInputHiggsCouplingsBosons
    9.99999970E-01        3  25  24  24  # h0-W-W eff. coupling^2, normalised to SM
    2.99404647E-08        3  35  24  24  # H0-W-W eff. coupling^2, normalised to SM
    0.00000000E+00        3  36  24  24  # A0-W-W eff. coupling^2, normalised to SM
#
    9.99999970E-01        3  25  23  23  # h0-Z-Z eff. coupling^2, normalised to SM
    2.99404647E-08        3  35  23  23  # H0-Z-Z eff. coupling^2, normalised to SM
    0.00000000E+00        3  36  23  23  # A0-Z-Z eff. coupling^2, normalised to SM
#
    1.26394316E+00        3  25  21  21  # h0-g-g eff. coupling^2, normalised to SM
    9.69876202E-03        3  35  21  21  # H0-g-g eff. coupling^2, normalised to SM
    1.30345637E-01        3  36  21  21  # A0-g-g eff. coupling^2, normalised to SM
#
    0.00000000E+00        3  25  25  23  # h0-h0-Z eff. coupling^2, normalised to SM
    0.00000000E+00        3  35  25  23  # H0-h0-Z eff. coupling^2, normalised to SM
    2.99404647E-08        3  36  25  23  # A0-h0-Z eff. coupling^2, normalised to SM
    0.00000000E+00        3  35  35  23  # H0-H0-Z eff. coupling^2, normalised to SM
    9.99999970E-01        3  36  35  23  # A0-H0-Z eff. coupling^2, normalised to SM
    0.00000000E+00        3  36  36  23  # A0-A0-Z eff. coupling^2, normalised to SM
#
    0.00000000E+00        4  25  21  21  23  # h0-g-g-Z eff. coupling^2, normalised to SM
    0.00000000E+00        4  35  21  21  23  # H0-g-g-Z eff. coupling^2, normalised to SM
    0.00000000E+00        4  36  21  21  23  # A0-g-g-Z eff. coupling^2, normalised to SM
Block SPhenoLowEnergy  # low energy observables
    1    3.15327677E-04   # BR(b -> s gamma)
    2    1.59085743E-06   # BR(b -> s mu+ mu-)
    3    3.52491999E-05   # BR(b -> s nu nu)
    4    3.53934515E-15   # BR(Bd -> e+ e-)
    5    1.51191557E-10   # BR(Bd -> mu+ mu-)
    6    3.13472785E-08   # BR(Bd -> tau+ tau-)
    7    1.22511155E-13   # BR(Bs -> e+ e-)
    8    5.23348178E-09   # BR(Bs -> mu+ mu-)
    9    1.09890045E-06   # BR(Bs -> tau+ tau-)
   10    9.57425612E-05   # BR(B_u -> tau nu)
   11    9.88984003E-01   # BR(B_u -> tau nu)/BR(B_u -> tau nu)_SM
   12    5.41876511E-01   # |Delta(M_Bd)| [ps^-1] 
   13    1.93648501E+01   # |Delta(M_Bs)| [ps^-1] 
   14    0.00000000E+00   # neutron EDM according to the chiral quark model
   15    0.00000000E+00   # neutron EDM according to the relativistic quark-parton model
   16    2.15703470E-03   # epsilon_K
   17    2.28165670E-15   # Delta(M_K)
   18    2.47956363E-11   # BR(K^0 -> pi^0 nu nu)
   19    8.28950941E-11   # BR(K^+ -> pi^+ nu nu)
   20    4.12670495E-16   # Delta(g-2)_electron/2
   21    1.76431194E-11   # Delta(g-2)_muon/2
   22    5.00321863E-09   # Delta(g-2)_tau/2
   23    0.00000000E+00   # electric dipole moment of the electron
   24    0.00000000E+00   # electric dipole moment of the muon
   25    0.00000000E+00   # electric dipole moment of the tau
   26    0.00000000E+00   # Br(mu -> e gamma)
   27    0.00000000E+00   # Br(tau -> e gamma)
   28    0.00000000E+00   # Br(tau -> mu gamma)
   29    0.00000000E+00   # Br(mu -> 3 e)
   30    0.00000000E+00   # Br(tau -> 3 e)
   31    0.00000000E+00   # Br(tau -> 3 mu)
   39    7.52868470E-05   # Delta(rho_parameter)
   40    0.00000000E+00   # BR(Z -> e mu)
   41    0.00000000E+00   # BR(Z -> e tau)
   42    0.00000000E+00   # BR(Z -> mu tau)
Block FWCOEF Q=  1.60000000E+02  # Wilson coefficients at scale Q
#    id        order  M        value         comment
     0305 4422   00   0    -1.88819110E-01   # C7
     0305 4422   00   2    -1.82198620E-01   # C7
     0305 4322   00   2    -6.66038117E-05   # C7'
     0305 6421   00   0    -9.52278348E-02   # C8
     0305 6421   00   2    -9.55065083E-02   # C8
     0305 6321   00   2    -1.14915052E-04   # C8'
 03051111 4133   00   0     1.62269163E+00   # C9 e+e-
 03051111 4133   00   2     1.62304761E+00   # C9 e+e-
 03051111 4233   00   2     4.91148636E-04   # C9' e+e-
 03051111 4137   00   0    -4.44538373E+00   # C10 e+e-
 03051111 4137   00   2    -4.44351490E+00   # C10 e+e-
 03051111 4237   00   2    -3.65457681E-03   # C10' e+e-
 03051313 4133   00   0     1.62269163E+00   # C9 mu+mu-
 03051313 4133   00   2     1.62304743E+00   # C9 mu+mu-
 03051313 4233   00   2     4.91147984E-04   # C9' mu+mu-
 03051313 4137   00   0    -4.44538373E+00   # C10 mu+mu-
 03051313 4137   00   2    -4.44351507E+00   # C10 mu+mu-
 03051313 4237   00   2    -3.65457686E-03   # C10' mu+mu-
 03051212 4137   00   0     1.50535012E+00   # C11 nu_1 nu_1
 03051212 4137   00   2     1.50494736E+00   # C11 nu_1 nu_1
 03051212 4237   00   2     7.90966645E-04   # C11' nu_1 nu_1
 03051414 4137   00   0     1.50535012E+00   # C11 nu_2 nu_2
 03051414 4137   00   2     1.50494736E+00   # C11 nu_2 nu_2
 03051414 4237   00   2     7.90966748E-04   # C11' nu_2 nu_2
 03051616 4137   00   0     1.50535012E+00   # C11 nu_3 nu_3
 03051616 4137   00   2     1.50494736E+00   # C11 nu_3 nu_3
 03051616 4237   00   2     7.90995752E-04   # C11' nu_3 nu_3
Block IMFWCOEF Q=  1.60000000E+02  # Im(Wilson coefficients) at scale Q
#    id        order  M        value         comment
     0305 4422   00   0     3.85856284E-07   # C7
     0305 4422   00   2     7.13915903E-06   # C7
     0305 4322   00   2     1.22466775E-06   # C7'
     0305 6421   00   0     3.30511425E-07   # C8
     0305 6421   00   2     3.49166512E-05   # C8
     0305 6321   00   2     1.05764905E-06   # C8'
 03051111 4133   00   2     7.59490230E-07   # C9 e+e-
 03051111 4233   00   2     9.68779310E-06   # C9' e+e-
 03051111 4137   00   2    -5.14740243E-07   # C10 e+e-
 03051111 4237   00   2    -7.20916259E-05   # C10' e+e-
 03051313 4133   00   2     7.59485339E-07   # C9 mu+mu-
 03051313 4233   00   2     9.68778997E-06   # C9' mu+mu-
 03051313 4137   00   2    -5.14735315E-07   # C10 mu+mu-
 03051313 4237   00   2    -7.20916353E-05   # C10' mu+mu-
 03051212 4137   00   2     1.41886801E-07   # C11 nu_1 nu_1
 03051212 4237   00   2     1.56029225E-05   # C11' nu_1 nu_1
 03051414 4137   00   2     1.41887031E-07   # C11 nu_2 nu_2
 03051414 4237   00   2     1.56029225E-05   # C11' nu_2 nu_2
 03051616 4137   00   2     1.41951148E-07   # C11 nu_3 nu_3
 03051616 4237   00   2     1.56029224E-05   # C11' nu_3 nu_3
