# SUSY Les Houches Accord 2 - MSSM spectrum + Decays
# SPheno v4.0.5be
# W. Porod, Comput. Phys. Commun. 153 (2003) 275-315, hep-ph/0301101;
# W. Porod, F.~Staub, Comput. Phys. Commun. 183 (2012) 2458
#                     arXiv:1104.1573 [hep-ph] 
# in case of problems send email to porod@physik.uni-wuerzburg.de
# Created: 07.09.2021,  19:39
Block SPINFO         # Program information
     1   SPheno      # spectrum calculator
     2   v4.0.5be    # version number
#
Block SPhenoINFO     # SPheno specific information
    1      2         # using 2-loop RGEs
    2      2         # using pole masses for boundary conditions at mZ
Block MODSEL  # Model selection
    1    0    # general MSSM
Block MINPAR  # Input parameters
    3    5.72938841E+01  # tanb at m_Z    
    4   -1.00000000E+00  # Sign(mu)
Block EXTPAR  # non-universal input parameters
    0    4.28073707E+03  # scale for input parameters
    1    2.10922826E+02  # M_1
    2   -1.07782128E+03  # M_2
    3    1.23700923E+03  # M_3
   11   -3.87759679E+03  # A_t
   12   -6.96579964E+02  # A_b
   13   -4.86694765E+02  # A_tau
   23   -2.17259547E+02  # mu
   25    5.72464326E+01  # tan(beta)
   26    4.23323063E+03  # m_A, pole mass
   31    1.00000000E+04  # M_L11
   32    1.00000000E+04  # M_L22
   33    1.00000000E+04  # M_L33
   34    1.00000000E+04  # M_E11
   35    1.00000000E+04  # M_E22
   36    1.00000000E+04  # M_E33
   41    1.00000000E+04  # M_Q11
   42    1.00000000E+04  # M_Q22
   43    4.98864496E+03  # M_Q33
   44    1.00000000E+04  # M_U11
   45    1.00000000E+04  # M_U22
   46    3.71327107E+03  # M_U33
   47    1.00000000E+04  # M_D11
   48    1.00000000E+04  # M_D22
   49    4.00869379E+03  # M_D33
Block SMINPUTS  # SM parameters
         1     1.27908970E+02  # alpha_em^-1(MZ)^MSbar
         2     1.16637870E-05  # G_mu [GeV^-2]
         3     1.18400000E-01  # alpha_s(MZ)^MSbar
         4     9.11876000E+01  # m_Z(pole)
         5     4.18000000E+00  # m_b(m_b), MSbar
         6     1.73200000E+02  # m_t(pole)
         7     1.77700000E+00  # m_tau(pole)
         8     0.00000000E+00  # m_nu_3
        11     5.10998930E-04  # m_e(pole)
        12     0.00000000E+00  # m_nu_1
        13     1.05658372E-01  # m_muon(pole)
        14     0.00000000E+00  # m_nu_2
        21     5.00000000E-03  # m_d(2 GeV), MSbar
        22     2.50000000E-03  # m_u(2 GeV), MSbar
        23     9.50000000E-02  # m_s(2 GeV), MSbar
        24     1.27000000E+00  # m_c(m_c), MSbar
Block gauge Q=  4.28073707E+03  # (SUSY scale)
   1    3.55362975E-01  # g'(Q)^DRbar
   2    6.65198874E-01  # g(Q)^DRbar
   3    1.21977796E+00  # g3(Q)^DRbar
Block Yu Q=  4.28073707E+03  # (SUSY scale)
  1  1     8.38565125E-06   # Y_u(Q)^DRbar
  2  2     4.25991084E-03   # Y_c(Q)^DRbar
  3  3     1.01305403E+00   # Y_t(Q)^DRbar
Block Yd Q=  4.28073707E+03  # (SUSY scale)
  1  1     9.64640457E-04   # Y_d(Q)^DRbar
  2  2     1.83281687E-02   # Y_s(Q)^DRbar
  3  3     9.56621059E-01   # Y_b(Q)^DRbar
Block Ye Q=  4.28073707E+03  # (SUSY scale)
  1  1     1.68336814E-04   # Y_e(Q)^DRbar
  2  2     3.48067142E-02   # Y_mu(Q)^DRbar
  3  3     5.85391672E-01   # Y_tau(Q)^DRbar
Block Au Q=  4.28073707E+03  # (SUSY scale)
  1  1     0.00000000E+00   # A_u(Q)^DRbar
  2  2     0.00000000E+00   # A_c(Q)^DRbar
  3  3    -3.87759838E+03   # A_t(Q)^DRbar
Block Ad Q=  4.28073707E+03  # (SUSY scale)
  1  1     0.00000000E+00   # A_d(Q)^DRbar
  2  2     0.00000000E+00   # A_s(Q)^DRbar
  3  3    -6.96580069E+02   # A_b(Q)^DRbar
Block Ae Q=  4.28073707E+03  # (SUSY scale)
  1  1     0.00000000E+00   # A_e(Q)^DRbar
  2  2     0.00000000E+00   # A_mu(Q)^DRbar
  3  3    -4.86694702E+02   # A_tau(Q)^DRbar
Block MSOFT Q=  4.28073707E+03  # soft SUSY breaking masses at Q
   1    2.10922826E+02  # M_1
   2   -1.07782128E+03  # M_2
   3    1.23700923E+03  # M_3
  21    1.83637467E+07  # M^2_(H,d)
  22    3.41147825E+05  # M^2_(H,u)
  31    1.00000000E+04  # M_(L,11)
  32    1.00000000E+04  # M_(L,22)
  33    1.00000000E+04  # M_(L,33)
  34    1.00000000E+04  # M_(E,11)
  35    1.00000000E+04  # M_(E,22)
  36    1.00000000E+04  # M_(E,33)
  41    1.00000000E+04  # M_(Q,11)
  42    1.00000000E+04  # M_(Q,22)
  43    4.98864496E+03  # M_(Q,33)
  44    1.00000000E+04  # M_(U,11)
  45    1.00000000E+04  # M_(U,22)
  46    3.71327107E+03  # M_(U,33)
  47    1.00000000E+04  # M_(D,11)
  48    1.00000000E+04  # M_(D,22)
  49    4.00869379E+03  # M_(D,33)
Block MASS  # Mass spectrum
#   PDG code      mass          particle
         6     1.73200000E+02  # m_t(pole)
        23     9.11876000E+01  # m_Z(pole)
        24     8.04299946E+01  # W+
        15     1.77700000E+00  # m_tau(pole)
        25     1.24867250E+02  # h0
        35     4.22936286E+03  # H0
        36     4.23323063E+03  # A0
        37     4.23198422E+03  # H+
   1000001     1.01225443E+04  # ~d_L
   2000001     1.00977277E+04  # ~d_R
   1000002     1.01221826E+04  # ~u_L
   2000002     1.01004831E+04  # ~u_R
   1000003     1.01225459E+04  # ~s_L
   2000003     1.00977305E+04  # ~s_R
   1000004     1.01221842E+04  # ~c_L
   2000004     1.01004834E+04  # ~c_R
   1000005     3.99056848E+03  # ~b_1
   2000005     4.97651753E+03  # ~b_2
   1000006     3.67915097E+03  # ~t_1
   2000006     4.98068984E+03  # ~t_2
   1000011     1.00208657E+04  # ~e_L-
   2000011     1.00093874E+04  # ~e_R-
   1000012     1.00200981E+04  # ~nu_eL
   1000013     1.00208733E+04  # ~mu_L-
   2000013     1.00094010E+04  # ~mu_R-
   1000014     1.00201053E+04  # ~nu_muL
   1000015     1.00132759E+04  # ~tau_1-
   2000015     1.00230424E+04  # ~tau_2-
   1000016     1.00221575E+04  # ~nu_tauL
   1000021     1.57669043E+03  # ~g
   1000022     1.93367489E+02  # ~chi_10
   1000023     2.36413629E+02  # ~chi_20
   1000025     2.60582258E+02  # ~chi_30
   1000035     1.16714802E+03  # ~chi_40
   1000024     2.36388062E+02  # ~chi_1+
   1000037     1.16621646E+03  # ~chi_2+
# Higgs mixing
Block alpha # Effective Higgs mixing angle
          -1.74784589E-02   # alpha
Block Hmix Q=  4.28073707E+03  # Higgs mixing parameters
   1   -2.17259547E+02  # mu
   2    5.72464326E+01  # tan[beta](Q)
   3    2.42853639E+02  # v(Q)
   4    1.79202416E+07  # m^2_A(Q)
Block stopmix # stop mixing matrix
   1  1     4.85341576E-02   # Re[R_st(1,1)]
   1  2     9.98821523E-01   # Re[R_st(1,2)]
   2  1    -9.98821523E-01   # Re[R_st(2,1)]
   2  2     4.85341576E-02   # Re[R_st(2,2)]
Block sbotmix # sbottom mixing matrix
   1  1    -2.63712710E-03   # Re[R_sb(1,1)]
   1  2     9.99996523E-01   # Re[R_sb(1,2)]
   2  1    -9.99996523E-01   # Re[R_sb(2,1)]
   2  2    -2.63712710E-03   # Re[R_sb(2,2)]
Block staumix # stau mixing matrix
   1  1    -1.08728671E-01   # Re[R_sta(1,1)]
   1  2     9.94071464E-01   # Re[R_sta(1,2)]
   2  1    -9.94071464E-01   # Re[R_sta(2,1)]
   2  2    -1.08728671E-01   # Re[R_sta(2,2)]
Block Nmix # neutralino mixing matrix
   1  1     8.27780142E-01   # Re[N(1,1)]
   1  2     2.05527498E-02   # Re[N(1,2)]
   1  3    -4.36037579E-01   # Re[N(1,3)]
   1  4    -3.52461133E-01   # Re[N(1,4)]
   2  1     7.11535464E-02   # Re[N(2,1)]
   2  2     6.16386359E-02   # Re[N(2,2)]
   2  3     7.05653169E-01   # Re[N(2,3)]
   2  4    -7.02275911E-01   # Re[N(2,4)]
   3  1     5.56517345E-01   # Re[N(3,1)]
   3  2    -3.41903940E-02   # Re[N(3,2)]
   3  3     5.58287536E-01   # Re[N(3,3)]
   3  4     6.14356972E-01   # Re[N(3,4)]
   4  1     2.37783616E-03   # Re[N(4,1)]
   4  2    -9.97300998E-01   # Re[N(4,2)]
   4  3     1.54874574E-02   # Re[N(4,3)]
   4  4    -7.17300812E-02   # Re[N(4,4)]
Block Umix # chargino mixing matrix
   1  1    -2.19190116E-02   # Re[U(1,1)]
   1  2    -9.99759750E-01   # Re[U(1,2)]
   2  1    -9.99759750E-01   # Re[U(2,1)]
   2  2     2.19190116E-02   # Re[U(2,2)]
Block Vmix # chargino mixing matrix
   1  1     1.01530001E-01   # Re[V(1,1)]
   1  2     9.94832478E-01   # Re[V(1,2)]
   2  1     9.94832478E-01   # Re[V(2,1)]
   2  2    -1.01530001E-01   # Re[V(2,2)]
DECAY        23     2.49520000E+00   # Z
DECAY        24     2.08500000E+00   # W
DECAY   2000011     5.02464097E+01   # ~e^-_R
#    BR                NDA      ID1      ID2
     6.85350531E-01    2     1000022        11   # BR(~e^-_R -> chi^0_1 e^-)
     5.06197692E-03    2     1000023        11   # BR(~e^-_R -> chi^0_2 e^-)
     3.09581873E-01    2     1000025        11   # BR(~e^-_R -> chi^0_3 e^-)
DECAY   1000011     1.41345997E+02   # ~e^-_L
#    BR                NDA      ID1      ID2
     6.67777592E-02    2     1000022        11   # BR(~e^-_L -> chi^0_1 e^-)
     3.09529166E-03    2     1000023        11   # BR(~e^-_L -> chi^0_2 e^-)
     2.15735244E-02    2     1000025        11   # BR(~e^-_L -> chi^0_3 e^-)
     3.01235880E-01    2     1000035        11   # BR(~e^-_L -> chi^0_4 e^-)
     2.99511389E-04    2    -1000024        12   # BR(~e^-_L -> chi^-_1 nu_e)
     6.07018034E-01    2    -1000037        12   # BR(~e^-_L -> chi^-_2 nu_e)
#    BR                NDA      ID1      ID2       ID3
DECAY   2000013     5.07284194E+01   # ~mu^-_R
#    BR                NDA      ID1      ID2
     6.79742929E-01    2     1000022        13   # BR(~mu^-_R -> chi^0_1 mu^-)
     7.37926138E-03    2     1000023        13   # BR(~mu^-_R -> chi^0_2 mu^-)
     3.08120924E-01    2     1000025        13   # BR(~mu^-_R -> chi^0_3 mu^-)
     4.74809792E-03    2    -1000024        14   # BR(~mu^-_R -> chi^-_1 nu_mu)
DECAY   1000013     1.41587357E+02   # ~mu^-_L
#    BR                NDA      ID1      ID2
     6.69880511E-02    2     1000022        13   # BR(~mu^-_L -> chi^0_1 mu^-)
     3.93846894E-03    2     1000023        13   # BR(~mu^-_L -> chi^0_2 mu^-)
     2.20677208E-02    2     1000025        13   # BR(~mu^-_L -> chi^0_3 mu^-)
     3.00723007E-01    2     1000035        13   # BR(~mu^-_L -> chi^0_4 mu^-)
     2.99001047E-04    2    -1000024        14   # BR(~mu^-_L -> chi^-_1 nu_mu)
     6.05983751E-01    2    -1000037        14   # BR(~mu^-_L -> chi^-_2 nu_mu)
#    BR                NDA      ID1      ID2       ID3
DECAY   1000015     1.86927478E+02   # ~tau^-_1
#    BR                NDA      ID1      ID2
     2.63750763E-01    2     1000022        15   # BR(~tau^-_1 -> chi^0_1 tau^-)
     1.84074638E-01    2     1000023        15   # BR(~tau^-_1 -> chi^0_2 tau^-)
     1.84404119E-01    2     1000025        15   # BR(~tau^-_1 -> chi^0_3 tau^-)
     1.82283082E-03    2     1000035        15   # BR(~tau^-_1 -> chi^0_4 tau^-)
     3.62269853E-01    2    -1000024        16   # BR(~tau^-_1 -> chi^-_1 nu_tau)
     3.67779624E-03    2    -1000037        16   # BR(~tau^-_1 -> chi^-_2 nu_tau)
DECAY   2000015     2.09347991E+02   # ~tau^-_2
#    BR                NDA      ID1      ID2
     9.81061378E-02    2     1000022        15   # BR(~tau^-_2 -> chi^0_1 tau^-)
     1.63486142E-01    2     1000023        15   # BR(~tau^-_2 -> chi^0_2 tau^-)
     1.27352397E-01    2     1000025        15   # BR(~tau^-_2 -> chi^0_3 tau^-)
     2.01956836E-01    2     1000035        15   # BR(~tau^-_2 -> chi^0_4 tau^-)
     2.29741378E-03    2    -1000024        16   # BR(~tau^-_2 -> chi^-_1 nu_tau)
     4.06801074E-01    2    -1000037        16   # BR(~tau^-_2 -> chi^-_2 nu_tau)
#    BR                NDA      ID1      ID2       ID3
DECAY   1000012     1.41350196E+02   # ~nu_e
#    BR                NDA      ID1      ID2
     5.54356645E-02    2     1000022        12   # BR(~nu_e -> chi^0_1 nu_e)
     1.73984315E-04    2     1000023        12   # BR(~nu_e -> chi^0_2 nu_e)
     3.42405707E-02    2     1000025        12   # BR(~nu_e -> chi^0_3 nu_e)
     3.02741104E-01    2     1000035        12   # BR(~nu_e -> chi^0_4 nu_e)
     6.42564372E-03    2     1000024        11   # BR(~nu_e -> chi^+_1 e^-)
     6.00983033E-01    2     1000037        11   # BR(~nu_e -> chi^+_2 e^-)
#    BR                NDA      ID1      ID2       ID3
DECAY   1000014     1.41591531E+02   # ~nu_mu
#    BR                NDA      ID1      ID2
     5.53412170E-02    2     1000022        14   # BR(~nu_mu -> chi^0_1 nu_mu)
     1.73687892E-04    2     1000023        14   # BR(~nu_mu -> chi^0_2 nu_mu)
     3.41822340E-02    2     1000025        14   # BR(~nu_mu -> chi^0_3 nu_mu)
     3.02225326E-01    2     1000035        14   # BR(~nu_mu -> chi^0_4 nu_mu)
     8.11759149E-03    2     1000024        13   # BR(~nu_mu -> chi^+_1 mu^-)
     5.99959943E-01    2     1000037        13   # BR(~nu_mu -> chi^+_2 mu^-)
#    BR                NDA      ID1      ID2       ID3
DECAY   1000016     2.09629594E+02   # ~nu_tau
#    BR                NDA      ID1      ID2
     3.73871586E-02    2     1000022        16   # BR(~nu_tau -> chi^0_1 nu_tau)
     1.17339266E-04    2     1000023        16   # BR(~nu_tau -> chi^0_2 nu_tau)
     2.30926783E-02    2     1000025        16   # BR(~nu_tau -> chi^0_3 nu_tau)
     2.04178200E-01    2     1000035        16   # BR(~nu_tau -> chi^0_4 nu_tau)
     3.29749606E-01    2     1000024        15   # BR(~nu_tau -> chi^+_1 tau^-)
     4.05475018E-01    2     1000037        15   # BR(~nu_tau -> chi^+_2 tau^-)
#    BR                NDA      ID1      ID2       ID3
DECAY   2000001     7.64288669E+02   # ~d_R
#    BR                NDA      ID1      ID2
     5.05060783E-03    2     1000022         1   # BR(~d_R -> chi^0_1 d)
     2.28150532E-03    2     1000025         1   # BR(~d_R -> chi^0_3 d)
     9.92630177E-01    2     1000021         1   # BR(~d_R -> ~g d)
DECAY   1000001     8.92261680E+02   # ~d_L
#    BR                NDA      ID1      ID2
     8.02983553E-04    2     1000022         1   # BR(~d_L -> chi^0_1 d)
     1.19710392E-04    2     1000023         1   # BR(~d_L -> chi^0_2 d)
     8.86056044E-04    2     1000025         1   # BR(~d_L -> chi^0_3 d)
     4.83945995E-02    2     1000035         1   # BR(~d_L -> chi^0_4 d)
     9.71886736E-02    2    -1000037         2   # BR(~d_L -> chi^-_2 u)
     8.52560048E-01    2     1000021         1   # BR(~d_L -> ~g d)
DECAY   2000003     7.64423344E+02   # ~s_R
#    BR                NDA      ID1      ID2
     5.06644556E-03    2     1000022         3   # BR(~s_R -> chi^0_1 s)
     2.30850595E-03    2     1000025         3   # BR(~s_R -> chi^0_3 s)
     9.92455599E-01    2     1000021         3   # BR(~s_R -> ~g s)
DECAY   1000003     8.92332869E+02   # ~s_L
#    BR                NDA      ID1      ID2
     8.17283204E-04    2     1000022         3   # BR(~s_L -> chi^0_1 s)
     1.57305096E-04    2     1000023         3   # BR(~s_L -> chi^0_2 s)
     9.09517576E-04    2     1000025         3   # BR(~s_L -> chi^0_3 s)
     4.83907640E-02    2     1000035         3   # BR(~s_L -> chi^0_4 s)
     9.71809775E-02    2    -1000037         4   # BR(~s_L -> chi^-_2 c)
     8.52492179E-01    2     1000021         3   # BR(~s_L -> ~g s)
DECAY   1000005     3.70533922E+02   # ~b_1
#    BR                NDA      ID1      ID2
     4.13004143E-02    2     1000022         5   # BR(~b_1 -> chi^0_1 b)
     9.69875304E-02    2     1000023         5   # BR(~b_1 -> chi^0_2 b)
     6.23427447E-02    2     1000025         5   # BR(~b_1 -> chi^0_3 b)
     1.93876711E-01    2    -1000024         6   # BR(~b_1 -> chi^-_1 t)
     6.05393710E-01    2     1000021         5   # BR(~b_1 -> ~g b)
DECAY   2000005     5.86728083E+02   # ~b_2
#    BR                NDA      ID1      ID2
     2.97968284E-02    2     1000022         5   # BR(~b_2 -> chi^0_1 b)
     7.66281032E-02    2     1000023         5   # BR(~b_2 -> chi^0_2 b)
     4.85985260E-02    2     1000025         5   # BR(~b_2 -> chi^0_3 b)
     3.32247395E-02    2     1000035         5   # BR(~b_2 -> chi^0_4 b)
     1.70210881E-01    2    -1000024         6   # BR(~b_2 -> chi^-_1 t)
     6.84335160E-02    2    -1000037         6   # BR(~b_2 -> chi^-_2 t)
     5.41837561E-01    2     1000021         5   # BR(~b_2 -> ~g b)
     3.12011578E-02    2     1000006       -24   # BR(~b_2 -> ~t_1 W^-)
DECAY   2000002     7.81419059E+02   # ~u_R
#    BR                NDA      ID1      ID2
     1.97647684E-02    2     1000022         2   # BR(~u_R -> chi^0_1 u)
     1.45981313E-04    2     1000023         2   # BR(~u_R -> chi^0_2 u)
     8.92810355E-03    2     1000025         2   # BR(~u_R -> chi^0_3 u)
     9.71160988E-01    2     1000021         2   # BR(~u_R -> ~g u)
DECAY   1000002     8.92251226E+02   # ~u_L
#    BR                NDA      ID1      ID2
     1.40759301E-03    2     1000022         2   # BR(~u_L -> chi^0_1 u)
     2.75423769E-04    2     1000023         2   # BR(~u_L -> chi^0_2 u)
     2.10109619E-04    2     1000025         2   # BR(~u_L -> chi^0_3 u)
     4.83112272E-02    2     1000035         2   # BR(~u_L -> chi^0_4 u)
     1.02854582E-03    2     1000024         1   # BR(~u_L -> chi^+_1 d)
     9.62305580E-02    2     1000037         1   # BR(~u_L -> chi^+_2 d)
     8.52536543E-01    2     1000021         2   # BR(~u_L -> ~g u)
DECAY   2000004     7.81426336E+02   # ~c_R
#    BR                NDA      ID1      ID2
     1.97651622E-02    2     1000022         4   # BR(~c_R -> chi^0_1 c)
     1.48278629E-04    2     1000023         4   # BR(~c_R -> chi^0_2 c)
     8.92978105E-03    2     1000025         4   # BR(~c_R -> chi^0_3 c)
     9.71151936E-01    2     1000021         4   # BR(~c_R -> ~g c)
DECAY   1000004     8.92322380E+02   # ~c_L
#    BR                NDA      ID1      ID2
     1.40798960E-03    2     1000022         4   # BR(~c_L -> chi^0_1 c)
     2.77419693E-04    2     1000023         4   # BR(~c_L -> chi^0_2 c)
     2.11636278E-04    2     1000025         4   # BR(~c_L -> chi^0_3 c)
     4.83073995E-02    2     1000035         4   # BR(~c_L -> chi^0_4 c)
     1.10394366E-03    2     1000024         3   # BR(~c_L -> chi^+_1 s)
     9.62229365E-02    2     1000037         3   # BR(~c_L -> chi^+_2 s)
     8.52468675E-01    2     1000021         4   # BR(~c_L -> ~g c)
DECAY   1000006     3.49905717E+02   # ~t_1
#    BR                NDA      ID1      ID2
     4.35070969E-02    2     1000022         6   # BR(~t_1 -> chi^0_1 t)
     1.04391624E-01    2     1000023         6   # BR(~t_1 -> chi^0_2 t)
     8.53381639E-02    2     1000025         6   # BR(~t_1 -> chi^0_3 t)
     1.52800667E-03    2     1000035         6   # BR(~t_1 -> chi^0_4 t)
     2.09302734E-01    2     1000024         5   # BR(~t_1 -> chi^+_1 b)
     3.07819966E-03    2     1000037         5   # BR(~t_1 -> chi^+_2 b)
     7.80922551E-04    2     1000021         4   # BR(~t_1 -> ~g c)
     5.52065231E-01    2     1000021         6   # BR(~t_1 -> ~g t)
#    BR                NDA      ID1      ID2       ID3
DECAY   2000006     5.90177751E+02   # ~t_2
#    BR                NDA      ID1      ID2
     2.12425101E-02    2     1000022         6   # BR(~t_2 -> chi^0_1 t)
     8.47776518E-02    2     1000023         6   # BR(~t_2 -> chi^0_2 t)
     6.62570244E-02    2     1000025         6   # BR(~t_2 -> chi^0_3 t)
     3.29250983E-02    2     1000035         6   # BR(~t_2 -> chi^0_4 t)
     1.54779539E-01    2     1000024         5   # BR(~t_2 -> chi^+_1 b)
     6.46113301E-02    2     1000037         5   # BR(~t_2 -> chi^+_2 b)
     5.36431750E-01    2     1000021         6   # BR(~t_2 -> ~g t)
     1.55804471E-02    2     1000006        23   # BR(~t_2 -> ~t_1 Z)
     2.33497318E-02    2     1000006        25   # BR(~t_2 -> ~t_1 h^0)
DECAY   1000024     6.08927272E-05   # chi^+_1
#    BR                NDA      ID1      ID2       ID3
     3.34064145E-01    3     1000022        -1         2   # BR(chi^+_1 -> chi^0_1 d_bar u)
     3.32786857E-01    3     1000022        -3         4   # BR(chi^+_1 -> chi^0_1 s_bar c)
     1.11354070E-01    3     1000022       -11        12   # BR(chi^+_1 -> chi^0_1 e^+ nu_e)
     1.11353501E-01    3     1000022       -13        14   # BR(chi^+_1 -> chi^0_1 mu^+ nu_mu)
     1.10441427E-01    3     1000022       -15        16   # BR(chi^+_1 -> chi^0_1 tau^+ nu_tau)
DECAY   1000037     1.03141136E+01   # chi^+_2
#    BR                NDA      ID1      ID2
     7.38957728E-02    2     1000022        24   # BR(chi^+_2 -> chi^0_1 W^+)
     2.48606044E-01    2     1000023        24   # BR(chi^+_2 -> chi^0_2 W^+)
     1.73223842E-01    2     1000025        24   # BR(chi^+_2 -> chi^0_3 W^+)
     2.45533577E-01    2     1000024        23   # BR(chi^+_2 -> chi^+_1 Z)
     2.42719410E-01    2     1000024        25   # BR(chi^+_2 -> chi^+_1 h^0)
#    BR                NDA      ID1      ID2       ID3
     5.45673196E-03    3     1000024         6        -6   # BR(chi^+_2 -> chi^+_1 t t_bar)
     1.61916635E-03    3     1000022        -5         6   # BR(chi^+_2 -> chi^0_1 b_bar t)
     5.22516460E-03    3     1000023        -5         6   # BR(chi^+_2 -> chi^0_2 b_bar t)
     3.71211498E-03    3     1000025        -5         6   # BR(chi^+_2 -> chi^0_3 b_bar t)
DECAY   1000022     0.00000000E+00   # chi^0_1
DECAY   1000023     1.49740274E-04   # chi^0_2
#    BR                NDA      ID1      ID2
     1.60942911E-02    2     1000022        22   # BR(chi^0_2 -> chi^0_1 photon)
#    BR                NDA      ID1      ID2       ID3
     1.18608170E-01    3     1000022         2        -2   # BR(chi^0_2 -> chi^0_1 u u_bar)
     1.17360575E-01    3     1000022         4        -4   # BR(chi^0_2 -> chi^0_1 c c_bar)
     1.52078691E-01    3     1000022         1        -1   # BR(chi^0_2 -> chi^0_1 d d_bar)
     1.52071030E-01    3     1000022         3        -3   # BR(chi^0_2 -> chi^0_1 s s_bar)
     1.38225004E-01    3     1000022         5        -5   # BR(chi^0_2 -> chi^0_1 b b_bar)
     3.43190271E-02    3     1000022        11       -11   # BR(chi^0_2 -> chi^0_1 e^- e^+)
     3.43162840E-02    3     1000022        13       -13   # BR(chi^0_2 -> chi^0_1 mu^- mu^+)
     3.35547131E-02    3     1000022        15       -15   # BR(chi^0_2 -> chi^0_1 tau^- tau^+)
     2.03372213E-01    3     1000022        12       -12   # BR(chi^0_2 -> chi^0_1 nu_e nu_bar_e)
DECAY   1000025     3.80614958E-05   # chi^0_3
#    BR                NDA      ID1      ID2
     3.08524320E-03    2     1000022        22   # BR(chi^0_3 -> chi^0_1 photon)
     3.56762686E-02    2     1000023        22   # BR(chi^0_3 -> chi^0_2 photon)
#    BR                NDA      ID1      ID2       ID3
     1.43283320E-02    3     1000022         2        -2   # BR(chi^0_3 -> chi^0_1 u u_bar)
     1.42791602E-02    3     1000022         4        -4   # BR(chi^0_3 -> chi^0_1 c c_bar)
     1.83621515E-02    3     1000022         1        -1   # BR(chi^0_3 -> chi^0_1 d d_bar)
     1.83619142E-02    3     1000022         3        -3   # BR(chi^0_3 -> chi^0_1 s s_bar)
     1.82747828E-02    3     1000022         5        -5   # BR(chi^0_3 -> chi^0_1 b b_bar)
     4.13612893E-03    3     1000022        11       -11   # BR(chi^0_3 -> chi^0_1 e^- e^+)
     4.13606319E-03    3     1000022        13       -13   # BR(chi^0_3 -> chi^0_1 mu^- mu^+)
     4.11727090E-03    3     1000022        15       -15   # BR(chi^0_3 -> chi^0_1 tau^- tau^+)
     2.45691708E-02    3     1000022        12       -12   # BR(chi^0_3 -> chi^0_1 nu_e nu_bar_e)
     5.64896516E-02    3     1000023         2        -2   # BR(chi^0_3 -> chi^0_2 u u_bar)
     5.44869604E-02    3     1000023         4        -4   # BR(chi^0_3 -> chi^0_2 c c_bar)
     7.24311599E-02    3     1000023         1        -1   # BR(chi^0_3 -> chi^0_2 d d_bar)
     7.24185364E-02    3     1000023         3        -3   # BR(chi^0_3 -> chi^0_2 s s_bar)
     5.16073628E-02    3     1000023         5        -5   # BR(chi^0_3 -> chi^0_2 b b_bar)
     1.63458400E-02    3     1000023        11       -11   # BR(chi^0_3 -> chi^0_2 e^- e^+)
     1.63413379E-02    3     1000023        13       -13   # BR(chi^0_3 -> chi^0_2 mu^- mu^+)
     1.51313959E-02    3     1000023        15       -15   # BR(chi^0_3 -> chi^0_2 tau^- tau^+)
     9.68614564E-02    3     1000023        12       -12   # BR(chi^0_3 -> chi^0_2 nu_e nu_bar_e)
     6.52369557E-02    3     1000024         1        -2   # BR(chi^0_3 -> chi^+_1 d u_bar)
     6.52369557E-02    3    -1000024        -1         2   # BR(chi^0_3 -> chi^-_1 d_bar u)
     6.43766626E-02    3     1000024         3        -4   # BR(chi^0_3 -> chi^+_1 s c_bar)
     6.43766626E-02    3    -1000024        -3         4   # BR(chi^0_3 -> chi^-_1 s_bar c)
     2.17457393E-02    3     1000024        11       -12   # BR(chi^0_3 -> chi^+_1 e^- nu_bar_e)
     2.17457393E-02    3    -1000024       -11        12   # BR(chi^0_3 -> chi^-_1 e^+ nu_e)
     2.17455655E-02    3     1000024        13       -14   # BR(chi^0_3 -> chi^+_1 mu^- nu_bar_mu)
     2.17455655E-02    3    -1000024       -13        14   # BR(chi^0_3 -> chi^-_1 mu^+ nu_mu)
     2.11749830E-02    3     1000024        15       -16   # BR(chi^0_3 -> chi^+_1 tau^- nu_bar_tau)
     2.11749830E-02    3    -1000024       -15        16   # BR(chi^0_3 -> chi^-_1 tau^+ nu_tau)
DECAY   1000035     1.13420327E+01   # chi^0_4
#    BR                NDA      ID1      ID2
     2.27629640E-01    2     1000024       -24   # BR(chi^0_4 -> chi^+_1 W^-)
     2.27629640E-01    2    -1000024        24   # BR(chi^0_4 -> chi^-_1 W^+)
     4.53024275E-02    2     1000022        23   # BR(chi^0_4 -> chi^0_1 Z)
     6.59544860E-02    2     1000023        23   # BR(chi^0_4 -> chi^0_2 Z)
     1.14680987E-01    2     1000025        23   # BR(chi^0_4 -> chi^0_3 Z)
     4.11353526E-02    2     1000022        25   # BR(chi^0_4 -> chi^0_1 h^0)
     1.55810173E-01    2     1000023        25   # BR(chi^0_4 -> chi^0_2 h^0)
     1.05975205E-01    2     1000025        25   # BR(chi^0_4 -> chi^0_3 h^0)
#    BR                NDA      ID1      ID2       ID3
     7.21167958E-04    3     1000022         6        -6   # BR(chi^0_4 -> chi^0_1 t t_bar)
     2.28695574E-03    3     1000023         6        -6   # BR(chi^0_4 -> chi^0_2 t t_bar)
     1.54477663E-03    3     1000025         6        -6   # BR(chi^0_4 -> chi^0_3 t t_bar)
     5.63825120E-03    3     1000024         5        -6   # BR(chi^0_4 -> chi^+_1 b t_bar)
     5.63825120E-03    3    -1000024        -5         6   # BR(chi^0_4 -> chi^-_1 b_bar t)
DECAY   1000021     4.82737559E-03   # ~g
#    BR                NDA      ID1      ID2
     2.20073112E-03    2     1000022        21   # BR(~g -> chi^0_1 g)
     7.48473450E-03    2     1000023        21   # BR(~g -> chi^0_2 g)
     7.14821177E-03    2     1000025        21   # BR(~g -> chi^0_3 g)
#    BR                NDA      ID1      ID2       ID3
     2.75888874E-04    3     1000022         2        -2   # BR(~g -> chi^0_1 u u_bar)
     2.75907383E-04    3     1000022         4        -4   # BR(~g -> chi^0_1 c c_bar)
     3.55556885E-02    3     1000022         6        -6   # BR(~g -> chi^0_1 t t_bar)
     4.81387883E-02    3     1000022         5        -5   # BR(~g -> chi^0_1 b b_bar)
     1.26057109E-01    3     1000023         6        -6   # BR(~g -> chi^0_2 t t_bar)
     1.10964962E-01    3     1000023         5        -5   # BR(~g -> chi^0_2 b b_bar)
     1.12840723E-04    3     1000025         2        -2   # BR(~g -> chi^0_3 u u_bar)
     1.12892221E-04    3     1000025         4        -4   # BR(~g -> chi^0_3 c c_bar)
     1.13297673E-01    3     1000025         6        -6   # BR(~g -> chi^0_3 t t_bar)
     6.82466978E-02    3     1000025         5        -5   # BR(~g -> chi^0_3 b b_bar)
     1.95007933E-04    3     1000035         5        -5   # BR(~g -> chi^0_4 b b_bar)
     2.39729409E-01    3     1000024         5        -6   # BR(~g -> chi^+_1 b t_bar)
     2.39729409E-01    3    -1000024        -5         6   # BR(~g -> chi^-_1 b_bar t)
DECAY        25     3.64008486E-03   # Gamma(h0)
     2.48897303E-03   2        22        22   # BR(h0 -> photon photon)
     1.57709150E-03   2        22        23   # BR(h0 -> photon Z)
     2.89905920E-02   2        23        23   # BR(h0 -> Z Z)
     2.40115785E-01   2       -24        24   # BR(h0 -> W W)
     7.71215441E-02   2        21        21   # BR(h0 -> gluon gluon)
     5.00718389E-09   2       -11        11   # BR(h0 -> Electron electron)
     2.22728428E-04   2       -13        13   # BR(h0 -> Muon muon)
     6.42205018E-02   2       -15        15   # BR(h0 -> Tau tau)
     1.42425978E-07   2        -2         2   # BR(h0 -> Up up)
     2.76405746E-02   2        -4         4   # BR(h0 -> Charm charm)
     5.79701939E-07   2        -1         1   # BR(h0 -> Down down)
     2.09664476E-04   2        -3         3   # BR(h0 -> Strange strange)
     5.57411818E-01   2        -5         5   # BR(h0 -> Bottom bottom)
DECAY        35     2.07869015E+02   # Gamma(HH)
     7.72234543E-10   2        22        22   # BR(HH -> photon photon)
     4.99992856E-09   2        22        23   # BR(HH -> photon Z)
     3.68291197E-08   2        23        23   # BR(HH -> Z Z)
     7.29745826E-09   2       -24        24   # BR(HH -> W W)
     5.17085188E-06   2        21        21   # BR(HH -> gluon gluon)
     9.46525121E-09   2       -11        11   # BR(HH -> Electron electron)
     4.21488502E-04   2       -13        13   # BR(HH -> Muon muon)
     1.21737550E-01   2       -15        15   # BR(HH -> Tau tau)
     1.53521598E-14   2        -2         2   # BR(HH -> Up up)
     2.97839545E-09   2        -4         4   # BR(HH -> Charm charm)
     2.26760219E-04   2        -6         6   # BR(HH -> Top top)
     6.72145056E-07   2        -1         1   # BR(HH -> Down down)
     2.43112677E-04   2        -3         3   # BR(HH -> Strange strange)
     6.36519777E-01   2        -5         5   # BR(HH -> Bottom bottom)
     1.95207293E-03   2  -1000024   1000024   # BR(HH -> Chargino1 chargino1)
     7.14350142E-02   2  -1000024   1000037   # BR(HH -> Chargino1 chargino2)
     7.14350142E-02   2  -1000037   1000024   # BR(HH -> Chargino2 chargino1)
     4.97190144E-05   2  -1000037   1000037   # BR(HH -> Chargino2 chargino2)
     6.03881773E-03   2   1000022   1000022   # BR(HH -> neutralino1 neutralino1)
     6.11196604E-03   2   1000022   1000023   # BR(HH -> neutralino1 neutralino2)
     2.11279715E-05   2   1000022   1000025   # BR(HH -> neutralino1 neutralino3)
     1.92994909E-02   2   1000022   1000035   # BR(HH -> neutralino1 neutralino4)
     6.16620498E-05   2   1000023   1000023   # BR(HH -> neutralino2 neutralino2)
     5.45594486E-03   2   1000023   1000025   # BR(HH -> neutralino2 neutralino3)
     3.36496927E-02   2   1000023   1000035   # BR(HH -> neutralino2 neutralino4)
     6.23679928E-03   2   1000025   1000025   # BR(HH -> neutralino3 neutralino3)
     1.90727815E-02   2   1000025   1000035   # BR(HH -> neutralino3 neutralino4)
     2.50504959E-05   2   1000035   1000035   # BR(HH -> neutralino4 neutralino4)
     2.52687900E-07   2        25        25   # BR(HH -> h0 h0)
DECAY        36     1.91352852E+02   # Gamma(A0)
     2.70281300E-08   2        22        22   # BR(A0 -> photon photon)
     3.47972139E-08   2        22        23   # BR(A0 -> photon Z)
     8.08023784E-06   2        21        21   # BR(A0 -> gluon gluon)
     9.20294575E-09   2       -11        11   # BR(A0 -> Electron electron)
     4.09804993E-04   2       -13        13   # BR(A0 -> Muon muon)
     1.18363139E-01   2       -15        15   # BR(A0 -> Tau tau)
     1.42495697E-14   2        -2         2   # BR(A0 -> Up up)
     2.76441835E-09   2        -4         4   # BR(A0 -> Charm charm)
     2.12014197E-04   2        -6         6   # BR(A0 -> Top top)
     6.53443039E-07   2        -1         1   # BR(A0 -> Down down)
     2.36347316E-04   2        -3         3   # BR(A0 -> Strange strange)
     6.18835052E-01   2        -5         5   # BR(A0 -> Bottom bottom)
     2.17743669E-03   2  -1000024   1000024   # BR(A0 -> Chargino1 chargino1)
     7.76411298E-02   2  -1000024   1000037   # BR(A0 -> Chargino1 chargino2)
     7.76411298E-02   2  -1000037   1000024   # BR(A0 -> Chargino2 chargino1)
     1.01481991E-04   2  -1000037   1000037   # BR(A0 -> Chargino2 chargino2)
     6.23472384E-03   2   1000022   1000022   # BR(A0 -> neutralino1 neutralino1)
     7.01234223E-03   2   1000022   1000023   # BR(A0 -> neutralino1 neutralino2)
     2.72149689E-05   2   1000022   1000025   # BR(A0 -> neutralino1 neutralino3)
     1.87531187E-02   2   1000022   1000035   # BR(A0 -> neutralino1 neutralino4)
     7.26175354E-05   2   1000023   1000023   # BR(A0 -> neutralino2 neutralino2)
     6.33234914E-03   2   1000023   1000025   # BR(A0 -> neutralino2 neutralino3)
     4.14815580E-02   2   1000023   1000035   # BR(A0 -> neutralino2 neutralino4)
     6.34845485E-03   2   1000025   1000025   # BR(A0 -> neutralino3 neutralino3)
     1.80601605E-02   2   1000025   1000035   # BR(A0 -> neutralino3 neutralino4)
     5.10275074E-05   2   1000035   1000035   # BR(A0 -> neutralino4 neutralino4)
     9.00427332E-08   2        23        25   # BR(A0 -> Z h0)
     4.97025985E-12   2        23        35   # BR(A0 -> Z HH)
     5.95404799E-39   2        25        25   # BR(A0 -> h0 h0)
DECAY        37     2.24031885E+02   # Gamma(Hp)
     1.02544271E-08   2       -11        12   # BR(Hp -> Electron nu_e)
     4.38408786E-04   2       -13        14   # BR(Hp -> Muon nu_mu)
     1.24006978E-01   2       -15        16   # BR(Hp -> Tau nu_tau)
     6.34948311E-07   2        -1         2   # BR(Hp -> Down up)
     1.07584029E-05   2        -3         2   # BR(Hp -> Strange up)
     6.89477718E-06   2        -5         2   # BR(Hp -> Bottom up)
     2.98963806E-08   2        -1         4   # BR(Hp -> Down charm)
     2.28824179E-04   2        -3         4   # BR(Hp -> Strange charm)
     9.65515664E-04   2        -5         4   # BR(Hp -> Bottom charm)
     1.43593280E-08   2        -1         6   # BR(Hp -> Down top)
     6.54309521E-07   2        -3         6   # BR(Hp -> Strange top)
     6.50850421E-01   2        -5         6   # BR(Hp -> Bottom top)
     1.49384357E-02   2   1000022   1000024   # BR(Hp -> neutralino1 chargino1)
     3.39094519E-02   2   1000022   1000037   # BR(Hp -> neutralino1 chargino2)
     5.05357273E-04   2   1000023   1000024   # BR(Hp -> neutralino2 chargino1)
     6.72903972E-02   2   1000023   1000037   # BR(Hp -> neutralino2 chargino2)
     7.18222445E-03   2   1000024   1000025   # BR(Hp -> chargino1 neutralino3)
     3.30767647E-02   2   1000025   1000037   # BR(Hp -> neutralino3 chargino2)
     6.65881477E-02   2   1000024   1000035   # BR(Hp -> chargino1 neutralino4)
     3.36868813E-10   2   1000035   1000037   # BR(Hp -> neutralino4 chargino2)
     7.68642366E-08   2        24        25   # BR(Hp -> W h0)
     7.52263549E-13   2        24        35   # BR(Hp -> W HH)
DECAY         6     2.43000000E+00   # top
#    BR                NDA      ID1      ID2
     1.00000000E+00    2           5        24   # BR(t -> b W)
Block HiggsBoundsInputHiggsCouplingsFermions
# ScalarNormEffCoupSq PseudoSNormEffCoupSq NP IP1 IP2 IP2
    1.00136269E+00    0.00000000E+00        3  25   5   5  # h0-b-b eff. coupling^2, normalised to SM
    3.27715268E+03    0.00000000E+00        3  35   5   5  # H0-b-b eff. coupling^2, normalised to SM
    0.00000000E+00    3.27715405E+03        3  36   5   5  # A0-b-b eff. coupling^2, normalised to SM
#
    9.99999584E-01    0.00000000E+00        3  25   6   6  # h0-t-t eff. coupling^2, normalised to SM
    3.05558628E-04    0.00000000E+00        3  35   6   6  # H0-t-t eff. coupling^2, normalised to SM
    0.00000000E+00    3.05142812E-04        3  36   6   6  # A0-t-t eff. coupling^2, normalised to SM
#
    1.00136269E+00    0.00000000E+00        3  25  15  15  # h0-tau-tau eff. coupling^2, normalised to SM
    3.27715268E+03    0.00000000E+00        3  35  15  15  # H0-tau-tau eff. coupling^2, normalised to SM
    0.00000000E+00    3.27715405E+03        3  36  15  15  # A0-tau-tau eff. coupling^2, normalised to SM
#
Block HiggsBoundsInputHiggsCouplingsBosons
    1.00000000E+00        3  25  24  24  # h0-W-W eff. coupling^2, normalised to SM
    1.41561144E-10        3  35  24  24  # H0-W-W eff. coupling^2, normalised to SM
    0.00000000E+00        3  36  24  24  # A0-W-W eff. coupling^2, normalised to SM
#
    1.00000000E+00        3  25  23  23  # h0-Z-Z eff. coupling^2, normalised to SM
    1.41561144E-10        3  35  23  23  # H0-Z-Z eff. coupling^2, normalised to SM
    0.00000000E+00        3  36  23  23  # A0-Z-Z eff. coupling^2, normalised to SM
#
    1.26590584E+00        3  25  21  21  # h0-g-g eff. coupling^2, normalised to SM
    1.49525575E-02        3  35  21  21  # H0-g-g eff. coupling^2, normalised to SM
    1.48119255E-01        3  36  21  21  # A0-g-g eff. coupling^2, normalised to SM
#
    0.00000000E+00        3  25  25  23  # h0-h0-Z eff. coupling^2, normalised to SM
    0.00000000E+00        3  35  25  23  # H0-h0-Z eff. coupling^2, normalised to SM
    1.41561144E-10        3  36  25  23  # A0-h0-Z eff. coupling^2, normalised to SM
    0.00000000E+00        3  35  35  23  # H0-H0-Z eff. coupling^2, normalised to SM
    1.00000000E+00        3  36  35  23  # A0-H0-Z eff. coupling^2, normalised to SM
    0.00000000E+00        3  36  36  23  # A0-A0-Z eff. coupling^2, normalised to SM
#
    0.00000000E+00        4  25  21  21  23  # h0-g-g-Z eff. coupling^2, normalised to SM
    0.00000000E+00        4  35  21  21  23  # H0-g-g-Z eff. coupling^2, normalised to SM
    0.00000000E+00        4  36  21  21  23  # A0-g-g-Z eff. coupling^2, normalised to SM
Block SPhenoLowEnergy  # low energy observables
    1    3.34973723E-04   # BR(b -> s gamma)
    2    1.58829731E-06   # BR(b -> s mu+ mu-)
    3    3.52424240E-05   # BR(b -> s nu nu)
    4    1.57956741E-15   # BR(Bd -> e+ e-)
    5    6.74778522E-11   # BR(Bd -> mu+ mu-)
    6    1.41573342E-08   # BR(Bd -> tau+ tau-)
    7    5.36360226E-14   # BR(Bs -> e+ e-)
    8    2.29134961E-09   # BR(Bs -> mu+ mu-)
    9    4.87246126E-07   # BR(Bs -> tau+ tau-)
   10    9.58273189E-05   # BR(B_u -> tau nu)
   11    9.89859517E-01   # BR(B_u -> tau nu)/BR(B_u -> tau nu)_SM
   12    5.42066185E-01   # |Delta(M_Bd)| [ps^-1] 
   13    1.93592899E+01   # |Delta(M_Bs)| [ps^-1] 
   14    0.00000000E+00   # neutron EDM according to the chiral quark model
   15    0.00000000E+00   # neutron EDM according to the relativistic quark-parton model
   16    2.15787736E-03   # epsilon_K
   17    2.28166503E-15   # Delta(M_K)
   18    2.47948697E-11   # BR(K^0 -> pi^0 nu nu)
   19    8.28918998E-11   # BR(K^+ -> pi^+ nu nu)
   20    5.32135071E-16   # Delta(g-2)_electron/2
   21    2.27508314E-11   # Delta(g-2)_muon/2
   22    6.46325772E-09   # Delta(g-2)_tau/2
   23    0.00000000E+00   # electric dipole moment of the electron
   24    0.00000000E+00   # electric dipole moment of the muon
   25    0.00000000E+00   # electric dipole moment of the tau
   26    0.00000000E+00   # Br(mu -> e gamma)
   27    0.00000000E+00   # Br(tau -> e gamma)
   28    0.00000000E+00   # Br(tau -> mu gamma)
   29    0.00000000E+00   # Br(mu -> 3 e)
   30    0.00000000E+00   # Br(tau -> 3 e)
   31    0.00000000E+00   # Br(tau -> 3 mu)
   39    7.10198859E-05   # Delta(rho_parameter)
   40    0.00000000E+00   # BR(Z -> e mu)
   41    0.00000000E+00   # BR(Z -> e tau)
   42    0.00000000E+00   # BR(Z -> mu tau)
Block FWCOEF Q=  1.60000000E+02  # Wilson coefficients at scale Q
#    id        order  M        value         comment
     0305 4422   00   0    -1.88819110E-01   # C7
     0305 4422   00   2    -2.06448869E-01   # C7
     0305 4322   00   2    -1.76644236E-04   # C7'
     0305 6421   00   0    -9.52278348E-02   # C8
     0305 6421   00   2    -1.04715594E-01   # C8
     0305 6321   00   2    -1.07298954E-04   # C8'
 03051111 4133   00   0     1.63033417E+00   # C9 e+e-
 03051111 4133   00   2     1.63056766E+00   # C9 e+e-
 03051111 4233   00   2     6.77958516E-04   # C9' e+e-
 03051111 4137   00   0    -4.45302628E+00   # C10 e+e-
 03051111 4137   00   2    -4.45053938E+00   # C10 e+e-
 03051111 4237   00   2    -4.99062265E-03   # C10' e+e-
 03051313 4133   00   0     1.63033417E+00   # C9 mu+mu-
 03051313 4133   00   2     1.63056731E+00   # C9 mu+mu-
 03051313 4233   00   2     6.77957808E-04   # C9' mu+mu-
 03051313 4137   00   0    -4.45302628E+00   # C10 mu+mu-
 03051313 4137   00   2    -4.45053973E+00   # C10 mu+mu-
 03051313 4237   00   2    -4.99062338E-03   # C10' mu+mu-
 03051212 4137   00   0     1.50535012E+00   # C11 nu_1 nu_1
 03051212 4137   00   2     1.50481402E+00   # C11 nu_1 nu_1
 03051212 4237   00   2     1.07827624E-03   # C11' nu_1 nu_1
 03051414 4137   00   0     1.50535012E+00   # C11 nu_2 nu_2
 03051414 4137   00   2     1.50481402E+00   # C11 nu_2 nu_2
 03051414 4237   00   2     1.07827631E-03   # C11' nu_2 nu_2
 03051616 4137   00   0     1.50535012E+00   # C11 nu_3 nu_3
 03051616 4137   00   2     1.50481402E+00   # C11 nu_3 nu_3
 03051616 4237   00   2     1.07829735E-03   # C11' nu_3 nu_3
Block IMFWCOEF Q=  1.60000000E+02  # Im(Wilson coefficients) at scale Q
#    id        order  M        value         comment
     0305 4422   00   0     3.85808528E-07   # C7
     0305 4422   00   2     5.04938024E-06   # C7
     0305 4322   00   2    -1.80630397E-06   # C7'
     0305 6421   00   0     3.30470519E-07   # C8
     0305 6421   00   2     3.85630821E-05   # C8
     0305 6321   00   2    -1.37054228E-07   # C8'
 03051111 4133   00   2     7.65157619E-08   # C9 e+e-
 03051111 4233   00   2     1.29466251E-05   # C9' e+e-
 03051111 4137   00   2     1.88921515E-06   # C10 e+e-
 03051111 4237   00   2    -9.53072073E-05   # C10' e+e-
 03051313 4133   00   2     7.65103147E-08   # C9 mu+mu-
 03051313 4233   00   2     1.29466186E-05   # C9' mu+mu-
 03051313 4137   00   2     1.88922178E-06   # C10 mu+mu-
 03051313 4237   00   2    -9.53072266E-05   # C10' mu+mu-
 03051212 4137   00   2    -3.86401551E-07   # C11 nu_1 nu_1
 03051212 4237   00   2     2.05921204E-05   # C11' nu_1 nu_1
 03051414 4137   00   2    -3.86401271E-07   # C11 nu_2 nu_2
 03051414 4237   00   2     2.05921204E-05   # C11' nu_2 nu_2
 03051616 4137   00   2    -3.86324365E-07   # C11 nu_3 nu_3
 03051616 4237   00   2     2.05921203E-05   # C11' nu_3 nu_3
