# SUSY Les Houches Accord 2 - MSSM spectrum + Decays
# SPheno v4.0.5be
# W. Porod, Comput. Phys. Commun. 153 (2003) 275-315, hep-ph/0301101;
# W. Porod, F.~Staub, Comput. Phys. Commun. 183 (2012) 2458
#                     arXiv:1104.1573 [hep-ph] 
# in case of problems send email to porod@physik.uni-wuerzburg.de
# Created: 18.08.2022,  12:47
Block SPINFO         # Program information
     1   SPheno      # spectrum calculator
     2   v4.0.5be    # version number
#
Block SPhenoINFO     # SPheno specific information
    1      2         # using 2-loop RGEs
    2      2         # using pole masses for boundary conditions at mZ
Block MODSEL  # Model selection
    1    0    # general MSSM
Block MINPAR  # Input parameters
    3    2.06851513E+00  # tanb at m_Z    
    4   -1.00000000E+00  # Sign(mu)
Block EXTPAR  # non-universal input parameters
    0    1.48602145E+03  # scale for input parameters
    1    1.34762273E+03  # M_1
    2    3.09394391E+01  # M_2
    3    3.39277470E+03  # M_3
   11   -1.39958305E+03  # A_t
   12   -1.55401047E+03  # A_b
   13   -3.68466291E+03  # A_tau
   23   -3.98323329E+01  # mu
   25    1.96588155E+00  # tan(beta)
   26    1.05079645E+03  # m_A, pole mass
   31    3.29442758E+02  # M_L11
   32    3.29442758E+02  # M_L22
   33    9.24020451E+02  # M_L33
   34    1.80994438E+03  # M_E11
   35    1.80994438E+03  # M_E22
   36    5.16387945E+02  # M_E33
   41    2.87972998E+03  # M_Q11
   42    2.87972998E+03  # M_Q22
   43    2.24390574E+03  # M_Q33
   44    3.40575691E+03  # M_U11
   45    3.40575691E+03  # M_U22
   46    1.06983374E+03  # M_U33
   47    1.37305399E+03  # M_D11
   48    1.37305399E+03  # M_D22
   49    3.68949061E+03  # M_D33
Block SMINPUTS  # SM parameters
         1     1.27908970E+02  # alpha_em^-1(MZ)^MSbar
         2     1.16637870E-05  # G_mu [GeV^-2]
         3     1.18400000E-01  # alpha_s(MZ)^MSbar
         4     9.11876000E+01  # m_Z(pole)
         5     4.18000000E+00  # m_b(m_b), MSbar
         6     1.73200000E+02  # m_t(pole)
         7     1.77700000E+00  # m_tau(pole)
         8     0.00000000E+00  # m_nu_3
        11     5.10998930E-04  # m_e(pole)
        12     0.00000000E+00  # m_nu_1
        13     1.05658372E-01  # m_muon(pole)
        14     0.00000000E+00  # m_nu_2
        21     5.00000000E-03  # m_d(2 GeV), MSbar
        22     2.50000000E-03  # m_u(2 GeV), MSbar
        23     9.50000000E-02  # m_s(2 GeV), MSbar
        24     1.27000000E+00  # m_c(m_c), MSbar
Block gauge Q=  1.48602145E+03  # (SUSY scale)
   1    3.55362975E-01  # g'(Q)^DRbar
   2    6.65198874E-01  # g(Q)^DRbar
   3    1.21977796E+00  # g3(Q)^DRbar
Block Yu Q=  1.48602145E+03  # (SUSY scale)
  1  1     9.40677586E-06   # Y_u(Q)^DRbar
  2  2     4.77864214E-03   # Y_c(Q)^DRbar
  3  3     1.13641408E+00   # Y_t(Q)^DRbar
Block Yd Q=  1.48602145E+03  # (SUSY scale)
  1  1     3.71602298E-05   # Y_d(Q)^DRbar
  2  2     7.06044365E-04   # Y_s(Q)^DRbar
  3  3     3.68513036E-02   # Y_b(Q)^DRbar
Block Ye Q=  1.48602145E+03  # (SUSY scale)
  1  1     6.48473183E-06   # Y_e(Q)^DRbar
  2  2     1.34083687E-03   # Y_mu(Q)^DRbar
  3  3     2.25506704E-02   # Y_tau(Q)^DRbar
Block Au Q=  1.48602145E+03  # (SUSY scale)
  1  1     0.00000000E+00   # A_u(Q)^DRbar
  2  2     0.00000000E+00   # A_c(Q)^DRbar
  3  3    -1.39958304E+03   # A_t(Q)^DRbar
Block Ad Q=  1.48602145E+03  # (SUSY scale)
  1  1     0.00000000E+00   # A_d(Q)^DRbar
  2  2     0.00000000E+00   # A_s(Q)^DRbar
  3  3    -1.55401047E+03   # A_b(Q)^DRbar
Block Ae Q=  1.48602145E+03  # (SUSY scale)
  1  1     0.00000000E+00   # A_e(Q)^DRbar
  2  2     0.00000000E+00   # A_mu(Q)^DRbar
  3  3    -3.68466292E+03   # A_tau(Q)^DRbar
Block MSOFT Q=  1.48602145E+03  # soft SUSY breaking masses at Q
   1    1.34762273E+03  # M_1
   2    3.09394391E+01  # M_2
   3    3.39277470E+03  # M_3
  21    8.76367676E+05  # M^2_(H,d)
  22    2.51832530E+05  # M^2_(H,u)
  31    3.29442758E+02  # M_(L,11)
  32    3.29442758E+02  # M_(L,22)
  33    9.24020451E+02  # M_(L,33)
  34    1.80994438E+03  # M_(E,11)
  35    1.80994438E+03  # M_(E,22)
  36    5.16387945E+02  # M_(E,33)
  41    2.87972998E+03  # M_(Q,11)
  42    2.87972998E+03  # M_(Q,22)
  43    2.24390574E+03  # M_(Q,33)
  44    3.40575691E+03  # M_(U,11)
  45    3.40575691E+03  # M_(U,22)
  46    1.06983374E+03  # M_(U,33)
  47    1.37305399E+03  # M_(D,11)
  48    1.37305399E+03  # M_(D,22)
  49    3.68949061E+03  # M_(D,33)
Block MASS  # Mass spectrum
#   PDG code      mass          particle
         6     1.73200000E+02  # m_t(pole)
        23     9.11876000E+01  # m_Z(pole)
        24     8.04299946E+01  # W+
        15     1.77700000E+00  # m_tau(pole)
        25     9.89197437E+01  # h0
        35     1.05298651E+03  # H0
        36     1.05079645E+03  # A0
        37     1.05373044E+03  # H+
   1000001     2.91571793E+03  # ~d_L
   2000001     1.33548610E+03  # ~d_R
   1000002     2.91522151E+03  # ~u_L
   2000002     3.43924618E+03  # ~u_R
   1000003     2.91571791E+03  # ~s_L
   2000003     1.33548610E+03  # ~s_R
   1000004     2.91522156E+03  # ~c_L
   2000004     3.43924613E+03  # ~c_R
   1000005     2.24375404E+03  # ~b_1
   2000005     3.71563394E+03  # ~b_2
   1000006     9.81317938E+02  # ~t_1
   2000006     2.25030000E+03  # ~t_2
   1000011     3.45045560E+02  # ~e_L-
   2000011     1.80997534E+03  # ~e_R-
   1000012     3.38943126E+02  # ~nu_eL
   1000013     3.45045506E+02  # ~mu_L-
   2000013     1.80997529E+03  # ~mu_R-
   1000014     3.38943056E+02  # ~nu_muL
   1000015     5.13521852E+02  # ~tau_1-
   2000015     9.31273394E+02  # ~tau_2-
   1000016     9.28780953E+02  # ~nu_tauL
   1000021     3.37818926E+03  # ~g
   1000022     3.81276769E+01  # ~chi_10
   1000023     9.14061723E+01  # ~chi_20
   1000025     9.57475251E+01  # ~chi_30
   1000035     1.33754492E+03  # ~chi_40
   1000024     6.22513643E+01  # ~chi_1+
   1000037     1.13139069E+02  # ~chi_2+
# Higgs mixing
Block alpha # Effective Higgs mixing angle
          -4.56422005E-01   # alpha
Block Hmix Q=  1.48602145E+03  # Higgs mixing parameters
   1   -3.98323329E+01  # mu
   2    1.96588155E+00  # tan[beta](Q)
   3    2.44012505E+02  # v(Q)
   4    1.10417318E+06  # m^2_A(Q)
Block stopmix # stop mixing matrix
   1  1     4.79930174E-02   # Re[R_st(1,1)]
   1  2     9.98847671E-01   # Re[R_st(1,2)]
   2  1    -9.98847671E-01   # Re[R_st(2,1)]
   2  2     4.79930174E-02   # Re[R_st(2,2)]
Block sbotmix # sbottom mixing matrix
   1  1     9.99999930E-01   # Re[R_sb(1,1)]
   1  2     3.75117968E-04   # Re[R_sb(1,2)]
   2  1    -3.75117968E-04   # Re[R_sb(2,1)]
   2  2     9.99999930E-01   # Re[R_sb(2,2)]
Block staumix # stau mixing matrix
   1  1     1.04699408E-02   # Re[R_sta(1,1)]
   1  2     9.99945189E-01   # Re[R_sta(1,2)]
   2  1    -9.99945189E-01   # Re[R_sta(2,1)]
   2  2     1.04699408E-02   # Re[R_sta(2,2)]
Block Nmix # neutralino mixing matrix
   1  1     3.16869717E-04   # Re[N(1,1)]
   1  2    -3.30677894E-01   # Re[N(1,2)]
   1  3    -8.44029640E-01   # Re[N(1,3)]
   1  4    -4.22215581E-01   # Re[N(1,4)]
   2  1     1.96408235E-02   # Re[N(2,1)]
   2  2     7.89898457E-01   # Re[N(2,2)]
   2  3    -2.85877208E-03   # Re[N(2,3)]
   2  4    -6.12916383E-01   # Re[N(2,4)]
   3  1     2.60402919E-02   # Re[N(3,1)]
   3  2    -5.16438483E-01   # Re[N(3,2)]
   3  3     5.36115313E-01   # Re[N(3,3)]
   3  4    -6.67228273E-01   # Re[N(3,4)]
   4  1     9.99467879E-01   # Re[N(4,1)]
   4  2    -1.96230973E-03   # Re[N(4,2)]
   4  3    -1.36442636E-02   # Re[N(4,3)]
   4  4     2.95625197E-02   # Re[N(4,4)]
Block Umix # chargino mixing matrix
   1  1    -3.59039045E-01   # Re[U(1,1)]
   1  2    -9.33322540E-01   # Re[U(1,2)]
   2  1     9.33322540E-01   # Re[U(2,1)]
   2  2    -3.59039045E-01   # Re[U(2,2)]
Block Vmix # chargino mixing matrix
   1  1    -9.91620080E-01   # Re[V(1,1)]
   1  2     1.29188300E-01   # Re[V(1,2)]
   2  1     1.29188300E-01   # Re[V(2,1)]
   2  2     9.91620080E-01   # Re[V(2,2)]
DECAY        23     2.49520000E+00   # Z
DECAY        24     2.08500000E+00   # W
DECAY   1000011     3.80379402E+00   # ~e^-_L
#    BR                NDA      ID1      ID2
     4.25556407E-02    2     1000022        11   # BR(~e^-_L -> chi^0_1 e^-)
     2.21139874E-01    2     1000023        11   # BR(~e^-_L -> chi^0_2 e^-)
     8.58980449E-02    2     1000025        11   # BR(~e^-_L -> chi^0_3 e^-)
     9.63459445E-02    2    -1000024        12   # BR(~e^-_L -> chi^-_1 nu_e)
     5.54060492E-01    2    -1000037        12   # BR(~e^-_L -> chi^-_2 nu_e)
#    BR                NDA      ID1      ID2       ID3
DECAY   2000011     1.88132699E+00   # ~e^-_R
#    BR                NDA      ID1      ID2
     1.85530018E-03    2     1000023        11   # BR(~e^-_R -> chi^0_2 e^-)
     3.25964666E-03    2     1000025        11   # BR(~e^-_R -> chi^0_3 e^-)
     9.94884567E-01    2     1000035        11   # BR(~e^-_R -> chi^0_4 e^-)
DECAY   1000013     3.80380430E+00   # ~mu^-_L
#    BR                NDA      ID1      ID2
     4.25578080E-02    2     1000022        13   # BR(~mu^-_L -> chi^0_1 mu^-)
     2.21139182E-01    2     1000023        13   # BR(~mu^-_L -> chi^0_2 mu^-)
     8.58984740E-02    2     1000025        13   # BR(~mu^-_L -> chi^0_3 mu^-)
     9.63456669E-02    2    -1000024        14   # BR(~mu^-_L -> chi^-_1 nu_mu)
     5.54058865E-01    2    -1000037        14   # BR(~mu^-_L -> chi^-_2 nu_mu)
#    BR                NDA      ID1      ID2       ID3
DECAY   2000013     1.88145579E+00   # ~mu^-_R
#    BR                NDA      ID1      ID2
     1.85517339E-03    2     1000023        13   # BR(~mu^-_R -> chi^0_2 mu^-)
     3.26925525E-03    2     1000025        13   # BR(~mu^-_R -> chi^0_3 mu^-)
     9.94816283E-01    2     1000035        13   # BR(~mu^-_R -> chi^0_4 mu^-)
DECAY   1000015     1.32054566E-02   # ~tau^-_1
#    BR                NDA      ID1      ID2
     2.31771251E-01    2     1000022        15   # BR(~tau^-_1 -> chi^0_1 tau^-)
     8.23701422E-02    2     1000023        15   # BR(~tau^-_1 -> chi^0_2 tau^-)
     2.78333699E-01    2     1000025        15   # BR(~tau^-_1 -> chi^0_3 tau^-)
     2.58312883E-01    2    -1000024        16   # BR(~tau^-_1 -> chi^-_1 nu_tau)
     1.49212025E-01    2    -1000037        16   # BR(~tau^-_1 -> chi^-_2 nu_tau)
DECAY   2000015     1.20411979E+01   # ~tau^-_2
#    BR                NDA      ID1      ID2
     3.77088963E-02    2     1000022        15   # BR(~tau^-_2 -> chi^0_1 tau^-)
     2.13872149E-01    2     1000023        15   # BR(~tau^-_2 -> chi^0_2 tau^-)
     8.42706271E-02    2     1000025        15   # BR(~tau^-_2 -> chi^0_3 tau^-)
     8.71340045E-02    2    -1000024        16   # BR(~tau^-_2 -> chi^-_1 nu_tau)
     5.75469726E-01    2    -1000037        16   # BR(~tau^-_2 -> chi^-_2 nu_tau)
     7.78836900E-04    2     1000015        23   # BR(~tau^-_2 -> ~tau^-_1 Z)
     7.65760715E-04    2     1000015        25   # BR(~tau^-_2 -> ~tau^-_1 h^0)
#    BR                NDA      ID1      ID2       ID3
DECAY   1000012     4.07241150E+00   # ~nu_e
#    BR                NDA      ID1      ID2
     3.90905654E-02    2     1000022        12   # BR(~nu_e -> chi^0_1 nu_e)
     1.91346578E-01    2     1000023        12   # BR(~nu_e -> chi^0_2 nu_e)
     8.72504691E-02    2     1000025        12   # BR(~nu_e -> chi^0_3 nu_e)
     6.72657535E-01    2     1000024        11   # BR(~nu_e -> chi^+_1 e^-)
     9.65485293E-03    2     1000037        11   # BR(~nu_e -> chi^+_2 e^-)
DECAY   1000014     4.07242214E+00   # ~nu_mu
#    BR                NDA      ID1      ID2
     3.90904548E-02    2     1000022        14   # BR(~nu_mu -> chi^0_1 nu_mu)
     1.91346026E-01    2     1000023        14   # BR(~nu_mu -> chi^0_2 nu_mu)
     8.72502169E-02    2     1000025        14   # BR(~nu_mu -> chi^0_3 nu_mu)
     6.72658202E-01    2     1000024        13   # BR(~nu_mu -> chi^+_1 mu^-)
     9.65509999E-03    2     1000037        13   # BR(~nu_mu -> chi^+_2 mu^-)
DECAY   1000016     1.21351801E+01   # ~nu_tau
#    BR                NDA      ID1      ID2
     3.67502333E-02    2     1000022        16   # BR(~nu_tau -> chi^0_1 nu_tau)
     2.00698381E-01    2     1000023        16   # BR(~nu_tau -> chi^0_2 nu_tau)
     9.27501646E-02    2     1000025        16   # BR(~nu_tau -> chi^0_3 nu_tau)
     6.57242948E-01    2     1000024        15   # BR(~nu_tau -> chi^+_1 tau^-)
     1.10092478E-02    2     1000037        15   # BR(~nu_tau -> chi^+_2 tau^-)
     1.54902575E-03    2     1000015        24   # BR(~nu_tau -> ~tau^-_1 W^+)
DECAY   2000001     7.85479785E-04   # ~d_R
#    BR                NDA      ID1      ID2
     1.28372960E-04    2     1000022         1   # BR(~d_R -> chi^0_1 d)
     3.62749791E-01    2     1000023         1   # BR(~d_R -> chi^0_2 d)
     6.37075391E-01    2     1000025         1   # BR(~d_R -> chi^0_3 d)
DECAY   1000001     3.86574042E+01   # ~d_L
#    BR                NDA      ID1      ID2
     3.63016181E-02    2     1000022         1   # BR(~d_L -> chi^0_1 d)
     2.04903781E-01    2     1000023         1   # BR(~d_L -> chi^0_2 d)
     8.99456671E-02    2     1000025         1   # BR(~d_L -> chi^0_3 d)
     6.70113509E-03    2     1000035         1   # BR(~d_L -> chi^0_4 d)
     8.55132299E-02    2    -1000024         2   # BR(~d_L -> chi^-_1 u)
     5.76634569E-01    2    -1000037         2   # BR(~d_L -> chi^-_2 u)
DECAY   2000003     8.11762104E-04   # ~s_R
#    BR                NDA      ID1      ID2
     1.16962024E-02    2     1000022         3   # BR(~s_R -> chi^0_1 s)
     3.51005215E-01    2     1000023         3   # BR(~s_R -> chi^0_2 s)
     6.21074732E-01    2     1000025         3   # BR(~s_R -> chi^0_3 s)
     1.41507006E-02    2    -1000024         4   # BR(~s_R -> chi^-_1 c)
     2.07314994E-03    2    -1000037         4   # BR(~s_R -> chi^-_2 c)
DECAY   1000003     3.86587538E+01   # ~s_L
#    BR                NDA      ID1      ID2
     3.63008820E-02    2     1000022         3   # BR(~s_L -> chi^0_1 s)
     2.04896625E-01    2     1000023         3   # BR(~s_L -> chi^0_2 s)
     8.99427381E-02    2     1000025         3   # BR(~s_L -> chi^0_3 s)
     6.70090119E-03    2     1000035         3   # BR(~s_L -> chi^0_4 s)
     8.55107665E-02    2    -1000024         4   # BR(~s_L -> chi^-_1 c)
     5.76648087E-01    2    -1000037         4   # BR(~s_L -> chi^-_2 c)
DECAY   1000005     9.80396106E+01   # ~b_1
#    BR                NDA      ID1      ID2
     1.14512379E-02    2     1000022         5   # BR(~b_1 -> chi^0_1 b)
     6.20896175E-02    2     1000023         5   # BR(~b_1 -> chi^0_2 b)
     2.74296114E-02    2     1000025         5   # BR(~b_1 -> chi^0_3 b)
     1.35547864E-03    2     1000035         5   # BR(~b_1 -> chi^0_4 b)
     3.51649276E-02    2    -1000024         6   # BR(~b_1 -> chi^-_1 t)
     7.45809959E-01    2    -1000037         6   # BR(~b_1 -> chi^-_2 t)
     9.48390945E-02    2     1000006       -24   # BR(~b_1 -> ~t_1 W^-)
     2.18600736E-02    2     1000006       -37   # BR(~b_1 -> ~t_1 H^-)
DECAY   2000005     1.06041764E+01   # ~b_2
#    BR                NDA      ID1      ID2
     6.76775371E-03    2     1000022         5   # BR(~b_2 -> chi^0_1 b)
     2.82397444E-03    2     1000025         5   # BR(~b_2 -> chi^0_3 b)
     1.48052580E-01    2     1000035         5   # BR(~b_2 -> chi^0_4 b)
     8.24852798E-03    2    -1000024         6   # BR(~b_2 -> chi^-_1 t)
     1.17145948E-03    2    -1000037         6   # BR(~b_2 -> chi^-_2 t)
     8.31395363E-01    2     1000021         5   # BR(~b_2 -> ~g b)
     1.16758034E-04    2     2000006       -24   # BR(~b_2 -> ~t_2 W^-)
     5.91957369E-04    2     2000006       -37   # BR(~b_2 -> ~t_2 H^-)
     2.95602006E-04    2     1000005        36   # BR(~b_2 -> ~b_1 A^0)
     2.98754479E-04    2     1000005        35   # BR(~b_2 -> ~b_1 H^0)
DECAY   1000002     3.87034922E+01   # ~u_L
#    BR                NDA      ID1      ID2
     3.62274757E-02    2     1000022         2   # BR(~u_L -> chi^0_1 u)
     2.08281258E-01    2     1000023         2   # BR(~u_L -> chi^0_2 u)
     8.66542803E-02    2     1000025         2   # BR(~u_L -> chi^0_3 u)
     6.40212325E-03    2     1000035         2   # BR(~u_L -> chi^0_4 u)
     6.51401912E-01    2     1000024         1   # BR(~u_L -> chi^+_1 d)
     1.10329508E-02    2     1000037         1   # BR(~u_L -> chi^+_2 d)
DECAY   2000002     5.87128142E+00   # ~u_R
#    BR                NDA      ID1      ID2
     5.03916186E-04    2     1000023         2   # BR(~u_R -> chi^0_2 u)
     8.85667691E-04    2     1000025         2   # BR(~u_R -> chi^0_3 u)
     9.41350671E-01    2     1000035         2   # BR(~u_R -> chi^0_4 u)
     5.72596125E-02    2     1000021         2   # BR(~u_R -> ~g u)
DECAY   1000004     3.87048372E+01   # ~c_L
#    BR                NDA      ID1      ID2
     3.62322865E-02    2     1000022         4   # BR(~c_L -> chi^0_1 c)
     2.08286856E-01    2     1000023         4   # BR(~c_L -> chi^0_2 c)
     8.66663578E-02    2     1000025         4   # BR(~c_L -> chi^0_3 c)
     6.40190261E-03    2     1000035         4   # BR(~c_L -> chi^0_4 c)
     6.51379934E-01    2     1000024         3   # BR(~c_L -> chi^+_1 s)
     1.10326629E-02    2     1000037         3   # BR(~c_L -> chi^+_2 s)
DECAY   2000004     5.87430863E+00   # ~c_R
#    BR                NDA      ID1      ID2
     6.03424034E-04    2     1000023         4   # BR(~c_R -> chi^0_2 c)
     1.00342390E-03    2     1000025         4   # BR(~c_R -> chi^0_3 c)
     9.40865573E-01    2     1000035         4   # BR(~c_R -> chi^0_4 c)
     2.60973135E-04    2     1000037         3   # BR(~c_R -> chi^+_2 s)
     5.72146346E-02    2     1000021         4   # BR(~c_R -> ~g c)
DECAY   1000006     4.77161644E+01   # ~t_1
#    BR                NDA      ID1      ID2
     9.07612749E-02    2     1000022         6   # BR(~t_1 -> chi^0_1 t)
     1.73080640E-01    2     1000023         6   # BR(~t_1 -> chi^0_2 t)
     2.22288609E-01    2     1000025         6   # BR(~t_1 -> chi^0_3 t)
     1.29032004E-02    2     1000024         5   # BR(~t_1 -> chi^+_1 b)
     5.00966266E-01    2     1000037         5   # BR(~t_1 -> chi^+_2 b)
#    BR                NDA      ID1      ID2       ID3
DECAY   2000006     1.00567128E+02   # ~t_2
#    BR                NDA      ID1      ID2
     1.08526733E-01    2     1000022         6   # BR(~t_2 -> chi^0_1 t)
     2.85914196E-01    2     1000023         6   # BR(~t_2 -> chi^0_2 t)
     2.68483520E-01    2     1000025         6   # BR(~t_2 -> chi^0_3 t)
     1.42685558E-03    2     1000035         6   # BR(~t_2 -> chi^0_4 t)
     1.89369207E-01    2     1000024         5   # BR(~t_2 -> chi^+_1 b)
     8.74807951E-03    2     1000037         5   # BR(~t_2 -> chi^+_2 b)
     4.66282843E-02    2     1000006        23   # BR(~t_2 -> ~t_1 Z)
     1.09424616E-02    2     1000006        36   # BR(~t_2 -> ~t_1 A^0)
     6.97046182E-02    2     1000006        25   # BR(~t_2 -> ~t_1 h^0)
     1.02560450E-02    2     1000006        35   # BR(~t_2 -> ~t_1 H^0)
DECAY   1000024     8.89075148E-06   # chi^+_1
#    BR                NDA      ID1      ID2       ID3
     3.34993672E-01    3     1000022        -1         2   # BR(chi^+_1 -> chi^0_1 d_bar u)
     3.30389565E-01    3     1000022        -3         4   # BR(chi^+_1 -> chi^0_1 s_bar c)
     1.12919506E-01    3     1000022       -11        12   # BR(chi^+_1 -> chi^0_1 e^+ nu_e)
     1.12916677E-01    3     1000022       -13        14   # BR(chi^+_1 -> chi^0_1 mu^+ nu_mu)
     1.08780579E-01    3     1000022       -15        16   # BR(chi^+_1 -> chi^0_1 tau^+ nu_tau)
DECAY   1000037     1.67391571E-03   # chi^+_2
#    BR                NDA      ID1      ID2       ID3
     1.44855646E-03    3     1000024         2        -2   # BR(chi^+_2 -> chi^+_1 u u_bar)
     1.44018639E-03    3     1000024         4        -4   # BR(chi^+_2 -> chi^+_1 c c_bar)
     1.85621249E-03    3     1000024         1        -1   # BR(chi^+_2 -> chi^+_1 d d_bar)
     1.85615355E-03    3     1000024         3        -3   # BR(chi^+_2 -> chi^+_1 s s_bar)
     1.75102360E-03    3     1000024         5        -5   # BR(chi^+_2 -> chi^+_1 b b_bar)
     4.15636775E-04    3     1000024        11       -11   # BR(chi^+_2 -> chi^+_1 e^- e^+)
     4.15619339E-04    3     1000024        13       -13   # BR(chi^+_2 -> chi^+_1 mu^- mu^+)
     4.12972297E-04    3     1000024        15       -15   # BR(chi^+_2 -> chi^+_1 tau^- tau^+)
     2.55359573E-03    3     1000024        12       -12   # BR(chi^+_2 -> chi^+_1 nu_e nu_bar_e)
     3.25448839E-01    3     1000022        -1         2   # BR(chi^+_2 -> chi^0_1 d_bar u)
     3.25192390E-01    3     1000022        -3         4   # BR(chi^+_2 -> chi^0_1 s_bar c)
     1.09868154E-01    3     1000022       -11        12   # BR(chi^+_2 -> chi^0_1 e^+ nu_e)
     1.09867609E-01    3     1000022       -13        14   # BR(chi^+_2 -> chi^0_1 mu^+ nu_mu)
     1.08468747E-01    3     1000022       -15        16   # BR(chi^+_2 -> chi^0_1 tau^+ nu_tau)
     1.84454334E-03    3     1000023        -1         2   # BR(chi^+_2 -> chi^0_2 d_bar u)
     1.81405108E-03    3     1000023        -3         4   # BR(chi^+_2 -> chi^0_2 s_bar c)
     6.45498086E-04    3     1000023       -11        12   # BR(chi^+_2 -> chi^0_2 e^+ nu_e)
     6.45484874E-04    3     1000023       -13        14   # BR(chi^+_2 -> chi^0_2 mu^+ nu_mu)
     5.98176589E-04    3     1000023       -15        16   # BR(chi^+_2 -> chi^0_2 tau^+ nu_tau)
     1.16182855E-03    3     1000025        -1         2   # BR(chi^+_2 -> chi^0_3 d_bar u)
     1.13198905E-03    3     1000025        -3         4   # BR(chi^+_2 -> chi^0_3 s_bar c)
     3.96772284E-04    3     1000025       -11        12   # BR(chi^+_2 -> chi^0_3 e^+ nu_e)
     3.96722251E-04    3     1000025       -13        14   # BR(chi^+_2 -> chi^0_3 mu^+ nu_mu)
     3.69238761E-04    3     1000025       -15        16   # BR(chi^+_2 -> chi^0_3 tau^+ nu_tau)
DECAY   1000022     0.00000000E+00   # chi^0_1
DECAY   1000023     1.11806723E-04   # chi^0_2
#    BR                NDA      ID1      ID2
     3.63152036E-02    2     1000022        22   # BR(chi^0_2 -> chi^0_1 photon)
#    BR                NDA      ID1      ID2       ID3
     4.74447159E-02    3     1000022         2        -2   # BR(chi^0_2 -> chi^0_1 u u_bar)
     4.71117927E-02    3     1000022         4        -4   # BR(chi^0_2 -> chi^0_1 c c_bar)
     6.10165128E-02    3     1000022         1        -1   # BR(chi^0_2 -> chi^0_1 d d_bar)
     6.10144674E-02    3     1000022         3        -3   # BR(chi^0_2 -> chi^0_1 s s_bar)
     5.72340848E-02    3     1000022         5        -5   # BR(chi^0_2 -> chi^0_1 b b_bar)
     1.52619286E-02    3     1000022        11       -11   # BR(chi^0_2 -> chi^0_1 e^- e^+)
     1.52610954E-02    3     1000022        13       -13   # BR(chi^0_2 -> chi^0_1 mu^- mu^+)
     1.37265765E-02    3     1000022        15       -15   # BR(chi^0_2 -> chi^0_1 tau^- tau^+)
     7.59967806E-02    3     1000022        12       -12   # BR(chi^0_2 -> chi^0_1 nu_e nu_bar_e)
     9.40795785E-02    3     1000024         1        -2   # BR(chi^0_2 -> chi^+_1 d u_bar)
     9.40795785E-02    3    -1000024        -1         2   # BR(chi^0_2 -> chi^-_1 d_bar u)
     9.32209402E-02    3     1000024         3        -4   # BR(chi^0_2 -> chi^+_1 s c_bar)
     9.32209402E-02    3    -1000024        -3         4   # BR(chi^0_2 -> chi^-_1 s_bar c)
     3.32540718E-02    3     1000024        11       -12   # BR(chi^0_2 -> chi^+_1 e^- nu_bar_e)
     3.32540718E-02    3    -1000024       -11        12   # BR(chi^0_2 -> chi^-_1 e^+ nu_e)
     3.32532935E-02    3     1000024        13       -14   # BR(chi^0_2 -> chi^+_1 mu^- nu_bar_mu)
     3.32532935E-02    3    -1000024       -13        14   # BR(chi^0_2 -> chi^-_1 mu^+ nu_mu)
     3.10005370E-02    3     1000024        15       -16   # BR(chi^0_2 -> chi^+_1 tau^- nu_bar_tau)
     3.10005370E-02    3    -1000024       -15        16   # BR(chi^0_2 -> chi^-_1 tau^+ nu_tau)
DECAY   1000025     7.01580047E-04   # chi^0_3
#    BR                NDA      ID1      ID2
     9.80597593E-03    2     1000022        22   # BR(chi^0_3 -> chi^0_1 photon)
#    BR                NDA      ID1      ID2       ID3
     9.43193836E-02    3     1000022         2        -2   # BR(chi^0_3 -> chi^0_1 u u_bar)
     9.38099768E-02    3     1000022         4        -4   # BR(chi^0_3 -> chi^0_1 c c_bar)
     1.20856951E-01    3     1000022         1        -1   # BR(chi^0_3 -> chi^0_1 d d_bar)
     1.20853829E-01    3     1000022         3        -3   # BR(chi^0_3 -> chi^0_1 s s_bar)
     1.14956073E-01    3     1000022         5        -5   # BR(chi^0_3 -> chi^0_1 b b_bar)
     2.66824447E-02    3     1000022        11       -11   # BR(chi^0_3 -> chi^0_1 e^- e^+)
     2.66813765E-02    3     1000022        13       -13   # BR(chi^0_3 -> chi^0_1 mu^- mu^+)
     2.68960991E-02    3     1000022        15       -15   # BR(chi^0_3 -> chi^0_1 tau^- tau^+)
     1.64229679E-01    3     1000022        12       -12   # BR(chi^0_3 -> chi^0_1 nu_e nu_bar_e)
     3.33433235E-02    3     1000024         1        -2   # BR(chi^0_3 -> chi^+_1 d u_bar)
     3.33433235E-02    3    -1000024        -1         2   # BR(chi^0_3 -> chi^-_1 d_bar u)
     3.31365231E-02    3     1000024         3        -4   # BR(chi^0_3 -> chi^+_1 s c_bar)
     3.31365231E-02    3    -1000024        -3         4   # BR(chi^0_3 -> chi^-_1 s_bar c)
     1.14723608E-02    3     1000024        11       -12   # BR(chi^0_3 -> chi^+_1 e^- nu_bar_e)
     1.14723608E-02    3    -1000024       -11        12   # BR(chi^0_3 -> chi^-_1 e^+ nu_e)
     1.14720808E-02    3     1000024        13       -14   # BR(chi^0_3 -> chi^+_1 mu^- nu_bar_mu)
     1.14720808E-02    3    -1000024       -13        14   # BR(chi^0_3 -> chi^-_1 mu^+ nu_mu)
     1.10274775E-02    3     1000024        15       -16   # BR(chi^0_3 -> chi^+_1 tau^- nu_bar_tau)
     1.10274775E-02    3    -1000024       -15        16   # BR(chi^0_3 -> chi^-_1 tau^+ nu_tau)
DECAY   1000035     1.72437585E+01   # chi^0_4
#    BR                NDA      ID1      ID2
     4.20934340E-02    2     1000011       -11   # BR(chi^0_4 -> ~e^-_L e^+)
     4.20934340E-02    2    -1000011        11   # BR(chi^0_4 -> ~e^+_L e^-)
     4.20934371E-02    2     1000013       -13   # BR(chi^0_4 -> ~mu^-_L mu^+)
     4.20934371E-02    2    -1000013        13   # BR(chi^0_4 -> ~mu^+_L mu^-)
     1.41489273E-01    2     1000015       -15   # BR(chi^0_4 -> ~tau^-_1 tau^+)
     1.41489273E-01    2    -1000015        15   # BR(chi^0_4 -> ~tau^+_1 tau^-)
     1.28316399E-02    2     2000015       -15   # BR(chi^0_4 -> ~tau^-_2 tau^+)
     1.28316399E-02    2    -2000015        15   # BR(chi^0_4 -> ~tau^+_2 tau^-)
     4.29306140E-02    2     1000012       -12   # BR(chi^0_4 -> ~nu_e nu_bar_e)
     4.29306140E-02    2    -1000012        12   # BR(chi^0_4 -> ~nu^*_e nu_e)
     4.29306164E-02    2     1000014       -14   # BR(chi^0_4 -> ~nu_mu nu_bar_mu)
     4.29306164E-02    2    -1000014        14   # BR(chi^0_4 -> ~nu^*_mu nu_mu)
     1.31453277E-02    2     1000016       -16   # BR(chi^0_4 -> ~nu_tau nu_bar_tau)
     1.31453277E-02    2    -1000016        16   # BR(chi^0_4 -> ~nu^*_tau nu_tau)
     4.39767781E-02    2     1000006        -6   # BR(chi^0_4 -> ~t_1 t_bar)
     4.39767781E-02    2    -1000006         6   # BR(chi^0_4 -> ~t^*_1 t)
     8.89750305E-03    2     1000024       -24   # BR(chi^0_4 -> chi^+_1 W^-)
     8.89750305E-03    2    -1000024        24   # BR(chi^0_4 -> chi^-_1 W^+)
     4.09387565E-02    2     1000037       -24   # BR(chi^0_4 -> chi^+_2 W^-)
     4.09387565E-02    2    -1000037        24   # BR(chi^0_4 -> chi^-_2 W^+)
     4.92071759E-03    2          37  -1000024   # BR(chi^0_4 -> H^+ chi^-_1)
     4.92071759E-03    2         -37   1000024   # BR(chi^0_4 -> H^- chi^+_1)
     2.63153408E-03    2          37  -1000037   # BR(chi^0_4 -> H^+ chi^-_2)
     2.63153408E-03    2         -37   1000037   # BR(chi^0_4 -> H^- chi^+_2)
     2.71415261E-02    2     1000022        23   # BR(chi^0_4 -> chi^0_1 Z)
     1.53775333E-02    2     1000023        23   # BR(chi^0_4 -> chi^0_2 Z)
     7.17341766E-03    2     1000025        23   # BR(chi^0_4 -> chi^0_3 Z)
     2.01983839E-03    2     1000022        36   # BR(chi^0_4 -> chi^0_1 A^0)
     4.35414183E-04    2     1000023        36   # BR(chi^0_4 -> chi^0_2 A^0)
     2.46653083E-03    2     1000025        36   # BR(chi^0_4 -> chi^0_3 A^0)
     1.95958012E-02    2     1000023        25   # BR(chi^0_4 -> chi^0_2 h^0)
     3.57418482E-02    2     1000025        25   # BR(chi^0_4 -> chi^0_3 h^0)
     7.19854786E-03    2     1000022        35   # BR(chi^0_4 -> chi^0_1 H^0)
     6.89940064E-04    2     1000023        35   # BR(chi^0_4 -> chi^0_2 H^0)
     3.27423900E-04    2     1000025        35   # BR(chi^0_4 -> chi^0_3 H^0)
#    BR                NDA      ID1      ID2       ID3
     4.73934699E-04    3     1000022         6        -6   # BR(chi^0_4 -> chi^0_1 t t_bar)
     5.10816087E-04    3     1000023         6        -6   # BR(chi^0_4 -> chi^0_2 t t_bar)
     5.77040716E-04    3     1000025         6        -6   # BR(chi^0_4 -> chi^0_3 t t_bar)
     2.37007170E-04    3     1000024         5        -6   # BR(chi^0_4 -> chi^+_1 b t_bar)
     2.37007170E-04    3    -1000024        -5         6   # BR(chi^0_4 -> chi^-_1 b_bar t)
     1.00880216E-03    3     1000037         5        -6   # BR(chi^0_4 -> chi^+_2 b t_bar)
     1.00880216E-03    3    -1000037        -5         6   # BR(chi^0_4 -> chi^-_2 b_bar t)
DECAY   1000021     3.13880222E+02   # ~g
#    BR                NDA      ID1      ID2
     1.03829191E-02    2     1000002        -2   # BR(~g -> ~u_L u_bar)
     1.03829191E-02    2    -1000002         2   # BR(~g -> ~u^*_L u)
     1.03828835E-02    2     1000004        -4   # BR(~g -> ~c_L c_bar)
     1.03828835E-02    2    -1000004         4   # BR(~g -> ~c^*_L c)
     1.32038460E-01    2     1000006        -6   # BR(~g -> ~t_1 t_bar)
     1.32038460E-01    2    -1000006         6   # BR(~g -> ~t^*_1 t)
     4.97731345E-02    2     2000006        -6   # BR(~g -> ~t_2 t_bar)
     4.97731345E-02    2    -2000006         6   # BR(~g -> ~t^*_2 t)
     1.13390245E-01    2     2000001        -1   # BR(~g -> ~d_R d_bar)
     1.13390245E-01    2    -2000001         1   # BR(~g -> ~d^*_R d)
     1.03622993E-02    2     1000001        -1   # BR(~g -> ~d_L d_bar)
     1.03622993E-02    2    -1000001         1   # BR(~g -> ~d^*_L d)
     1.13390245E-01    2     2000003        -3   # BR(~g -> ~s_R s_bar)
     1.13390245E-01    2    -2000003         3   # BR(~g -> ~s^*_R s)
     1.03622999E-02    2     1000003        -3   # BR(~g -> ~s_L s_bar)
     1.03622999E-02    2    -1000003         3   # BR(~g -> ~s^*_L s)
     4.97479098E-02    2     1000005        -5   # BR(~g -> ~b_1 b_bar)
     4.97479098E-02    2    -1000005         5   # BR(~g -> ~b^*_1 b)
#    BR                NDA      ID1      ID2       ID3
DECAY        25     2.33190317E-03   # Gamma(h0)
     5.46038147E-04   2        22        22   # BR(h0 -> photon photon)
     1.18400131E-05   2        22        23   # BR(h0 -> photon Z)
     6.60735517E-04   2        23        23   # BR(h0 -> Z Z)
     6.33989701E-03   2       -24        24   # BR(h0 -> W W)
     6.16939857E-02   2        21        21   # BR(h0 -> gluon gluon)
     6.89055043E-09   2       -11        11   # BR(h0 -> Electron electron)
     3.06482167E-04   2       -13        13   # BR(h0 -> Muon muon)
     8.83406450E-02   2       -15        15   # BR(h0 -> Tau tau)
     1.98631972E-07   2        -2         2   # BR(h0 -> Up up)
     3.85258382E-02   2        -4         4   # BR(h0 -> Charm charm)
     8.32795694E-07   2        -1         1   # BR(h0 -> Down down)
     3.01200721E-04   2        -3         3   # BR(h0 -> Strange strange)
     8.02625943E-01   2        -5         5   # BR(h0 -> Bottom bottom)
     6.46356574E-04   2   1000022   1000022   # BR(h0 -> neutralino1 neutralino1)
DECAY        35     2.23516450E+01   # Gamma(HH)
     1.27148599E-06   2        22        22   # BR(HH -> photon photon)
     4.88344525E-07   2        22        23   # BR(HH -> photon Z)
     4.19179616E-04   2        23        23   # BR(HH -> Z Z)
     5.30527847E-04   2       -24        24   # BR(HH -> W W)
     4.09491855E-04   2        21        21   # BR(HH -> gluon gluon)
     3.29286280E-11   2       -11        11   # BR(HH -> Electron electron)
     1.46566626E-06   2       -13        13   # BR(HH -> Muon muon)
     4.27999831E-04   2       -15        15   # BR(HH -> Tau tau)
     3.33941738E-11   2        -2         2   # BR(HH -> Up up)
     6.47629909E-06   2        -4         4   # BR(HH -> Charm charm)
     4.26922467E-01   2        -6         6   # BR(HH -> Top top)
     2.79618148E-09   2        -1         1   # BR(HH -> Down down)
     1.01137832E-06   2        -3         3   # BR(HH -> Strange strange)
     2.66976633E-03   2        -5         5   # BR(HH -> Bottom bottom)
     2.84747626E-01   2  -1000024   1000024   # BR(HH -> Chargino1 chargino1)
     8.09798724E-03   2  -1000024   1000037   # BR(HH -> Chargino1 chargino2)
     8.09798724E-03   2  -1000037   1000024   # BR(HH -> Chargino2 chargino1)
     7.39024123E-02   2  -1000037   1000037   # BR(HH -> Chargino2 chargino2)
     3.04381211E-02   2   1000022   1000022   # BR(HH -> neutralino1 neutralino1)
     8.43029775E-02   2   1000022   1000023   # BR(HH -> neutralino1 neutralino2)
     4.46874755E-02   2   1000022   1000025   # BR(HH -> neutralino1 neutralino3)
     1.34903226E-02   2   1000023   1000023   # BR(HH -> neutralino2 neutralino2)
     1.31167732E-02   2   1000023   1000025   # BR(HH -> neutralino2 neutralino3)
     2.99341173E-03   2   1000025   1000025   # BR(HH -> neutralino3 neutralino3)
     2.47059079E-12   2        23        36   # BR(HH -> Z A0)
     3.52716749E-03   2        25        25   # BR(HH -> h0 h0)
     1.37627217E-04   2  -1000011   1000011   # BR(HH -> Selectron1 selectron1)
     1.37623718E-04   2  -1000013   1000013   # BR(HH -> Smuon1 smuon1)
     2.54747805E-05   2  -1000015   1000015   # BR(HH -> Stau1 stau1)
DECAY        36     2.27069084E+01   # Gamma(A0)
     1.90109703E-07   2        22        22   # BR(A0 -> photon photon)
     4.94289028E-06   2        22        23   # BR(A0 -> photon Z)
     5.11490318E-04   2        21        21   # BR(A0 -> gluon gluon)
     3.09861919E-11   2       -11        11   # BR(A0 -> Electron electron)
     1.37920597E-06   2       -13        13   # BR(A0 -> Muon muon)
     4.02699971E-04   2       -15        15   # BR(A0 -> Tau tau)
     3.04357271E-11   2        -2         2   # BR(A0 -> Up up)
     5.90177162E-06   2        -4         4   # BR(A0 -> Charm charm)
     4.36769792E-01   2        -6         6   # BR(A0 -> Top top)
     2.63151394E-09   2        -1         1   # BR(A0 -> Down down)
     9.51819341E-07   2        -3         3   # BR(A0 -> Strange strange)
     2.51505792E-03   2        -5         5   # BR(A0 -> Bottom bottom)
     2.62250373E-01   2  -1000024   1000024   # BR(A0 -> Chargino1 chargino1)
     2.95219919E-02   2  -1000024   1000037   # BR(A0 -> Chargino1 chargino2)
     2.95219919E-02   2  -1000037   1000024   # BR(A0 -> Chargino2 chargino1)
     5.23320836E-02   2  -1000037   1000037   # BR(A0 -> Chargino2 chargino2)
     1.16046366E-02   2   1000022   1000022   # BR(A0 -> neutralino1 neutralino1)
     5.61624310E-02   2   1000022   1000023   # BR(A0 -> neutralino1 neutralino2)
     2.25313745E-03   2   1000022   1000025   # BR(A0 -> neutralino1 neutralino3)
     1.94550132E-02   2   1000023   1000023   # BR(A0 -> neutralino2 neutralino2)
     3.13806136E-02   2   1000023   1000025   # BR(A0 -> neutralino2 neutralino3)
     6.47096547E-02   2   1000025   1000025   # BR(A0 -> neutralino3 neutralino3)
     5.95664781E-04   2        23        25   # BR(A0 -> Z h0)
     1.40359138E-37   2        25        25   # BR(A0 -> h0 h0)
DECAY        37     2.32638184E+01   # Gamma(Hp)
     3.20498916E-11   2       -11        12   # BR(Hp -> Electron nu_e)
     1.37023294E-06   2       -13        14   # BR(Hp -> Muon nu_mu)
     3.87577867E-04   2       -15        16   # BR(Hp -> Tau nu_tau)
     2.37227042E-09   2        -1         2   # BR(Hp -> Down up)
     3.89914246E-08   2        -3         2   # BR(Hp -> Strange up)
     2.49880328E-08   2        -5         2   # BR(Hp -> Bottom up)
     2.80762912E-07   2        -1         4   # BR(Hp -> Down charm)
     6.92199881E-06   2        -3         4   # BR(Hp -> Strange charm)
     3.50851809E-06   2        -5         4   # BR(Hp -> Bottom charm)
     2.92627763E-05   2        -1         6   # BR(Hp -> Down top)
     6.38026625E-04   2        -3         6   # BR(Hp -> Strange top)
     4.57796594E-01   2        -5         6   # BR(Hp -> Bottom top)
     1.11682261E-02   2   1000022   1000024   # BR(Hp -> neutralino1 chargino1)
     2.33466011E-01   2   1000022   1000037   # BR(Hp -> neutralino1 chargino2)
     1.14039796E-01   2   1000023   1000024   # BR(Hp -> neutralino2 chargino1)
     2.57515607E-02   2   1000023   1000037   # BR(Hp -> neutralino2 chargino2)
     1.01103118E-01   2   1000024   1000025   # BR(Hp -> chargino1 neutralino3)
     5.39823005E-02   2   1000025   1000037   # BR(Hp -> neutralino3 chargino2)
     5.89499666E-04   2        24        25   # BR(Hp -> W h0)
     1.26856021E-11   2        24        36   # BR(Hp -> W A0)
     5.17941949E-04   2  -1000011   1000012   # BR(Hp -> Selectron1 snu_e1)
     5.17937215E-04   2  -1000013   1000014   # BR(Hp -> Smuon1 snu_mu1)
DECAY         6     2.43000000E+00   # top
#    BR                NDA      ID1      ID2
     1.00000000E+00    2           5        24   # BR(t -> b W)
Block HiggsBoundsInputHiggsCouplingsFermions
# ScalarNormEffCoupSq PseudoSNormEffCoupSq NP IP1 IP2 IP2
    9.44971159E-01    0.00000000E+00        3  25   5   5  # h0-b-b eff. coupling^2, normalised to SM
    3.91971911E+00    0.00000000E+00        3  35   5   5  # H0-b-b eff. coupling^2, normalised to SM
    0.00000000E+00    3.86469027E+00        3  36   5   5  # A0-b-b eff. coupling^2, normalised to SM
#
    1.01423887E+00    0.00000000E+00        3  25   6   6  # h0-t-t eff. coupling^2, normalised to SM
    2.44514073E-01    0.00000000E+00        3  35   6   6  # H0-t-t eff. coupling^2, normalised to SM
    0.00000000E+00    2.58752948E-01        3  36   6   6  # A0-t-t eff. coupling^2, normalised to SM
#
    9.44971159E-01    0.00000000E+00        3  25  15  15  # h0-tau-tau eff. coupling^2, normalised to SM
    3.91971911E+00    0.00000000E+00        3  35  15  15  # H0-tau-tau eff. coupling^2, normalised to SM
    0.00000000E+00    3.86469027E+00        3  36  15  15  # A0-tau-tau eff. coupling^2, normalised to SM
#
Block HiggsBoundsInputHiggsCouplingsBosons
    9.99799972E-01        3  25  24  24  # h0-W-W eff. coupling^2, normalised to SM
    2.00028015E-04        3  35  24  24  # H0-W-W eff. coupling^2, normalised to SM
    0.00000000E+00        3  36  24  24  # A0-W-W eff. coupling^2, normalised to SM
#
    9.99799972E-01        3  25  23  23  # h0-Z-Z eff. coupling^2, normalised to SM
    2.00028015E-04        3  35  23  23  # H0-Z-Z eff. coupling^2, normalised to SM
    0.00000000E+00        3  36  23  23  # A0-Z-Z eff. coupling^2, normalised to SM
#
    1.28915229E+00        3  25  21  21  # h0-g-g eff. coupling^2, normalised to SM
    2.40643365E-01        3  35  21  21  # H0-g-g eff. coupling^2, normalised to SM
    5.11819354E-01        3  36  21  21  # A0-g-g eff. coupling^2, normalised to SM
#
    0.00000000E+00        3  25  25  23  # h0-h0-Z eff. coupling^2, normalised to SM
    0.00000000E+00        3  35  25  23  # H0-h0-Z eff. coupling^2, normalised to SM
    2.00028015E-04        3  36  25  23  # A0-h0-Z eff. coupling^2, normalised to SM
    0.00000000E+00        3  35  35  23  # H0-H0-Z eff. coupling^2, normalised to SM
    9.99799972E-01        3  36  35  23  # A0-H0-Z eff. coupling^2, normalised to SM
    0.00000000E+00        3  36  36  23  # A0-A0-Z eff. coupling^2, normalised to SM
#
    0.00000000E+00        4  25  21  21  23  # h0-g-g-Z eff. coupling^2, normalised to SM
    0.00000000E+00        4  35  21  21  23  # H0-g-g-Z eff. coupling^2, normalised to SM
    0.00000000E+00        4  36  21  21  23  # A0-g-g-Z eff. coupling^2, normalised to SM
Block SPhenoLowEnergy  # low energy observables
    1    3.52866629E-04   # BR(b -> s gamma)
    2    1.60371956E-06   # BR(b -> s mu+ mu-)
    3    3.55875802E-05   # BR(b -> s nu nu)
    4    2.52939983E-15   # BR(Bd -> e+ e-)
    5    1.08053090E-10   # BR(Bd -> mu+ mu-)
    6    2.26204438E-08   # BR(Bd -> tau+ tau-)
    7    8.52478177E-14   # BR(Bs -> e+ e-)
    8    3.64178404E-09   # BR(Bs -> mu+ mu-)
    9    7.72483267E-07   # BR(Bs -> tau+ tau-)
   10    9.67866447E-05   # BR(B_u -> tau nu)
   11    9.99768986E-01   # BR(B_u -> tau nu)/BR(B_u -> tau nu)_SM
   12    5.56381979E-01   # |Delta(M_Bd)| [ps^-1] 
   13    1.98798524E+01   # |Delta(M_Bs)| [ps^-1] 
   14    0.00000000E+00   # neutron EDM according to the chiral quark model
   15    0.00000000E+00   # neutron EDM according to the relativistic quark-parton model
   16    2.21673225E-03   # epsilon_K
   17    2.28227566E-15   # Delta(M_K)
   18    2.50312483E-11   # BR(K^0 -> pi^0 nu nu)
   19    8.34585779E-11   # BR(K^+ -> pi^+ nu nu)
   20   -4.13108595E-17   # Delta(g-2)_electron/2
   21   -1.76646880E-12   # Delta(g-2)_muon/2
   22   -2.01502739E-09   # Delta(g-2)_tau/2
   23    0.00000000E+00   # electric dipole moment of the electron
   24    0.00000000E+00   # electric dipole moment of the muon
   25    0.00000000E+00   # electric dipole moment of the tau
   26    0.00000000E+00   # Br(mu -> e gamma)
   27    0.00000000E+00   # Br(tau -> e gamma)
   28    0.00000000E+00   # Br(tau -> mu gamma)
   29    0.00000000E+00   # Br(mu -> 3 e)
   30    0.00000000E+00   # Br(tau -> 3 e)
   31    0.00000000E+00   # Br(tau -> 3 mu)
   39   -1.35166961E-03   # Delta(rho_parameter)
   40    0.00000000E+00   # BR(Z -> e mu)
   41    0.00000000E+00   # BR(Z -> e tau)
   42    0.00000000E+00   # BR(Z -> mu tau)
Block FWCOEF Q=  1.60000000E+02  # Wilson coefficients at scale Q
#    id        order  M        value         comment
     0305 4422   00   0    -1.88819110E-01   # C7
     0305 4422   00   2    -2.21537878E-01   # C7
     0305 4322   00   2    -6.33665519E-04   # C7'
     0305 6421   00   0    -9.52278348E-02   # C8
     0305 6421   00   2    -1.33140315E-01   # C8
     0305 6321   00   2    -7.34373648E-04   # C8'
 03051111 4133   00   0     1.59159977E+00   # C9 e+e-
 03051111 4133   00   2     1.59464936E+00   # C9 e+e-
 03051111 4233   00   2    -7.55818232E-08   # C9' e+e-
 03051111 4137   00   0    -4.41429187E+00   # C10 e+e-
 03051111 4137   00   2    -4.44515215E+00   # C10 e+e-
 03051111 4237   00   2    -2.26399533E-07   # C10' e+e-
 03051313 4133   00   0     1.59159977E+00   # C9 mu+mu-
 03051313 4133   00   2     1.59464933E+00   # C9 mu+mu-
 03051313 4233   00   2    -7.55819106E-08   # C9' mu+mu-
 03051313 4137   00   0    -4.41429187E+00   # C10 mu+mu-
 03051313 4137   00   2    -4.44515218E+00   # C10 mu+mu-
 03051313 4237   00   2    -2.26399475E-07   # C10' mu+mu-
 03051212 4137   00   0     1.50535012E+00   # C11 nu_1 nu_1
 03051212 4137   00   2     1.51212338E+00   # C11 nu_1 nu_1
 03051212 4237   00   2     4.84828594E-08   # C11' nu_1 nu_1
 03051414 4137   00   0     1.50535012E+00   # C11 nu_2 nu_2
 03051414 4137   00   2     1.51212338E+00   # C11 nu_2 nu_2
 03051414 4237   00   2     4.84828769E-08   # C11' nu_2 nu_2
 03051616 4137   00   0     1.50535012E+00   # C11 nu_3 nu_3
 03051616 4137   00   2     1.51211929E+00   # C11 nu_3 nu_3
 03051616 4237   00   2     4.88838901E-08   # C11' nu_3 nu_3
Block IMFWCOEF Q=  1.60000000E+02  # Im(Wilson coefficients) at scale Q
#    id        order  M        value         comment
     0305 4422   00   0     3.85821793E-07   # C7
     0305 4422   00   2    -1.16511278E-07   # C7
     0305 4322   00   2    -4.57855924E-07   # C7'
     0305 6421   00   0     3.30481882E-07   # C8
     0305 6421   00   2     4.66055797E-07   # C8
     0305 6321   00   2    -1.98182989E-07   # C8'
 03051111 4133   00   2     6.14001706E-07   # C9 e+e-
 03051111 4233   00   2     7.53339914E-09   # C9' e+e-
 03051111 4137   00   2    -2.31664402E-06   # C10 e+e-
 03051111 4237   00   2    -7.33298863E-08   # C10' e+e-
 03051313 4133   00   2     6.13999598E-07   # C9 mu+mu-
 03051313 4233   00   2     7.53339905E-09   # C9' mu+mu-
 03051313 4137   00   2    -2.31664258E-06   # C10 mu+mu-
 03051313 4237   00   2    -7.33298867E-08   # C10' mu+mu-
 03051212 4137   00   2     1.34973867E-06   # C11 nu_1 nu_1
 03051212 4237   00   2     1.59673389E-08   # C11' nu_1 nu_1
 03051414 4137   00   2     1.34973875E-06   # C11 nu_2 nu_2
 03051414 4237   00   2     1.59673389E-08   # C11' nu_2 nu_2
 03051616 4137   00   2     1.27754494E-06   # C11 nu_3 nu_3
 03051616 4237   00   2     1.59744054E-08   # C11' nu_3 nu_3
