# SUSY Les Houches Accord 2 - MSSM spectrum + Decays
# SPheno v4.0.5be
# W. Porod, Comput. Phys. Commun. 153 (2003) 275-315, hep-ph/0301101;
# W. Porod, F.~Staub, Comput. Phys. Commun. 183 (2012) 2458
#                     arXiv:1104.1573 [hep-ph] 
# in case of problems send email to porod@physik.uni-wuerzburg.de
# Created: 07.09.2021,  16:00
Block SPINFO         # Program information
     1   SPheno      # spectrum calculator
     2   v4.0.5be    # version number
#
Block SPhenoINFO     # SPheno specific information
    1      2         # using 2-loop RGEs
    2      2         # using pole masses for boundary conditions at mZ
Block MODSEL  # Model selection
    1    0    # general MSSM
Block MINPAR  # Input parameters
    3    3.58205185E+01  # tanb at m_Z    
    4    1.00000000E+00  # Sign(mu)
Block EXTPAR  # non-universal input parameters
    0    5.02576207E+03  # scale for input parameters
    1    2.58453040E+02  # M_1
    2   -3.82067746E+02  # M_2
    3    4.61914635E+03  # M_3
   11   -4.47066345E+03  # A_t
   12   -1.97260209E+03  # A_b
   13   -6.32408676E+02  # A_tau
   23    2.66792541E+02  # mu
   25    3.46315942E+01  # tan(beta)
   26    3.52567683E+03  # m_A, pole mass
   31    1.00000000E+04  # M_L11
   32    1.00000000E+04  # M_L22
   33    1.00000000E+04  # M_L33
   34    1.00000000E+04  # M_E11
   35    1.00000000E+04  # M_E22
   36    1.00000000E+04  # M_E33
   41    1.00000000E+04  # M_Q11
   42    1.00000000E+04  # M_Q22
   43    4.93630464E+03  # M_Q33
   44    1.00000000E+04  # M_U11
   45    1.00000000E+04  # M_U22
   46    4.93892429E+03  # M_U33
   47    1.00000000E+04  # M_D11
   48    1.00000000E+04  # M_D22
   49    2.88160989E+03  # M_D33
Block SMINPUTS  # SM parameters
         1     1.27908970E+02  # alpha_em^-1(MZ)^MSbar
         2     1.16637870E-05  # G_mu [GeV^-2]
         3     1.18400000E-01  # alpha_s(MZ)^MSbar
         4     9.11876000E+01  # m_Z(pole)
         5     4.18000000E+00  # m_b(m_b), MSbar
         6     1.73200000E+02  # m_t(pole)
         7     1.77700000E+00  # m_tau(pole)
         8     0.00000000E+00  # m_nu_3
        11     5.10998930E-04  # m_e(pole)
        12     0.00000000E+00  # m_nu_1
        13     1.05658372E-01  # m_muon(pole)
        14     0.00000000E+00  # m_nu_2
        21     5.00000000E-03  # m_d(2 GeV), MSbar
        22     2.50000000E-03  # m_u(2 GeV), MSbar
        23     9.50000000E-02  # m_s(2 GeV), MSbar
        24     1.27000000E+00  # m_c(m_c), MSbar
Block gauge Q=  5.02576207E+03  # (SUSY scale)
   1    3.55362975E-01  # g'(Q)^DRbar
   2    6.65198874E-01  # g(Q)^DRbar
   3    1.21977796E+00  # g3(Q)^DRbar
Block Yu Q=  5.02576207E+03  # (SUSY scale)
  1  1     8.38786680E-06   # Y_u(Q)^DRbar
  2  2     4.26103633E-03   # Y_c(Q)^DRbar
  3  3     1.01332168E+00   # Y_t(Q)^DRbar
Block Yd Q=  5.02576207E+03  # (SUSY scale)
  1  1     5.83719573E-04   # Y_d(Q)^DRbar
  2  2     1.10906719E-02   # Y_s(Q)^DRbar
  3  3     5.78866906E-01   # Y_b(Q)^DRbar
Block Ye Q=  5.02576207E+03  # (SUSY scale)
  1  1     1.01863334E-04   # Y_e(Q)^DRbar
  2  2     2.10621068E-02   # Y_mu(Q)^DRbar
  3  3     3.54229988E-01   # Y_tau(Q)^DRbar
Block Au Q=  5.02576207E+03  # (SUSY scale)
  1  1     0.00000000E+00   # A_u(Q)^DRbar
  2  2     0.00000000E+00   # A_c(Q)^DRbar
  3  3    -4.47066584E+03   # A_t(Q)^DRbar
Block Ad Q=  5.02576207E+03  # (SUSY scale)
  1  1     0.00000000E+00   # A_d(Q)^DRbar
  2  2     0.00000000E+00   # A_s(Q)^DRbar
  3  3    -1.97260156E+03   # A_b(Q)^DRbar
Block Ae Q=  5.02576207E+03  # (SUSY scale)
  1  1     0.00000000E+00   # A_e(Q)^DRbar
  2  2     0.00000000E+00   # A_mu(Q)^DRbar
  3  3    -6.32408566E+02   # A_tau(Q)^DRbar
Block MSOFT Q=  5.02576207E+03  # soft SUSY breaking masses at Q
   1    2.58453040E+02  # M_1
   2   -3.82067746E+02  # M_2
   3    4.61914635E+03  # M_3
  21    1.25791304E+07  # M^2_(H,d)
  22    5.06360456E+05  # M^2_(H,u)
  31    1.00000000E+04  # M_(L,11)
  32    1.00000000E+04  # M_(L,22)
  33    1.00000000E+04  # M_(L,33)
  34    1.00000000E+04  # M_(E,11)
  35    1.00000000E+04  # M_(E,22)
  36    1.00000000E+04  # M_(E,33)
  41    1.00000000E+04  # M_(Q,11)
  42    1.00000000E+04  # M_(Q,22)
  43    4.93630464E+03  # M_(Q,33)
  44    1.00000000E+04  # M_(U,11)
  45    1.00000000E+04  # M_(U,22)
  46    4.93892429E+03  # M_(U,33)
  47    1.00000000E+04  # M_(D,11)
  48    1.00000000E+04  # M_(D,22)
  49    2.88160989E+03  # M_(D,33)
Block MASS  # Mass spectrum
#   PDG code      mass          particle
         6     1.73200000E+02  # m_t(pole)
        23     9.11876000E+01  # m_Z(pole)
        24     8.04299946E+01  # W+
        15     1.77700000E+00  # m_tau(pole)
        25     1.26447232E+02  # h0
        35     3.52467001E+03  # H0
        36     3.52567683E+03  # A0
        37     3.52542417E+03  # H+
   1000001     1.01161045E+04  # ~d_L
   2000001     1.00912826E+04  # ~d_R
   1000002     1.01157423E+04  # ~u_L
   2000002     1.00934910E+04  # ~u_R
   1000003     1.01161034E+04  # ~s_L
   2000003     1.00912806E+04  # ~s_R
   1000004     1.01157413E+04  # ~c_L
   2000004     1.00934909E+04  # ~c_R
   1000005     3.07909290E+03  # ~b_1
   2000005     5.04874412E+03  # ~b_2
   1000006     4.95862002E+03  # ~t_1
   2000006     5.09381326E+03  # ~t_2
   1000011     1.00210606E+04  # ~e_L-
   2000011     1.00098668E+04  # ~e_R-
   1000012     1.00202881E+04  # ~nu_eL
   1000013     1.00210550E+04  # ~mu_L-
   2000013     1.00098552E+04  # ~mu_R-
   1000014     1.00202823E+04  # ~nu_muL
   1000015     1.00065855E+04  # ~tau_1-
   2000015     1.00194725E+04  # ~tau_2-
   1000016     1.00186532E+04  # ~nu_tauL
   1000021     5.15260353E+03  # ~g
   1000022     2.41331906E+02  # ~chi_10
   1000023     2.72857060E+02  # ~chi_20
   1000025     3.14545520E+02  # ~chi_30
   1000035     4.46493594E+02  # ~chi_40
   1000024     2.75598709E+02  # ~chi_1+
   1000037     4.46712083E+02  # ~chi_2+
# Higgs mixing
Block alpha # Effective Higgs mixing angle
          -2.79565724E-02   # alpha
Block Hmix Q=  5.02576207E+03  # Higgs mixing parameters
   1    2.66792541E+02  # mu
   2    3.46315942E+01  # tan[beta](Q)
   3    2.42715893E+02  # v(Q)
   4    1.24303971E+07  # m^2_A(Q)
Block stopmix # stop mixing matrix
   1  1     5.75098408E-01   # Re[R_st(1,1)]
   1  2     8.18084238E-01   # Re[R_st(1,2)]
   2  1    -8.18084238E-01   # Re[R_st(2,1)]
   2  2     5.75098408E-01   # Re[R_st(2,2)]
Block sbotmix # sbottom mixing matrix
   1  1     1.46735028E-03   # Re[R_sb(1,1)]
   1  2     9.99998923E-01   # Re[R_sb(1,2)]
   2  1    -9.99998923E-01   # Re[R_sb(2,1)]
   2  2     1.46735028E-03   # Re[R_sb(2,2)]
Block staumix # stau mixing matrix
   1  1     6.67175043E-02   # Re[R_sta(1,1)]
   1  2     9.97771905E-01   # Re[R_sta(1,2)]
   2  1    -9.97771905E-01   # Re[R_sta(2,1)]
   2  2     6.67175043E-02   # Re[R_sta(2,2)]
Block Nmix # neutralino mixing matrix
   1  1    -8.56498273E-01   # Re[N(1,1)]
   1  2    -4.16016175E-02   # Re[N(1,2)]
   1  3    -3.94061488E-01   # Re[N(1,3)]
   1  4     3.30749992E-01   # Re[N(1,4)]
   2  1     5.17669440E-02   # Re[N(2,1)]
   2  2     3.36735455E-01   # Re[N(2,2)]
   2  3    -6.86887493E-01   # Re[N(2,3)]
   2  4    -6.41961828E-01   # Re[N(2,4)]
   3  1     5.13227881E-01   # Re[N(3,1)]
   3  2    -7.02880459E-02   # Re[N(3,2)]
   3  3    -5.81798318E-01   # Re[N(3,3)]
   3  4     6.27030661E-01   # Re[N(3,4)]
   4  1     1.81117115E-02   # Re[N(4,1)]
   4  2    -9.38050174E-01   # Re[N(4,2)]
   4  3    -1.85504267E-01   # Re[N(4,3)]
   4  4    -2.92099304E-01   # Re[N(4,4)]
Block Umix # chargino mixing matrix
   1  1    -2.66102856E-01   # Re[U(1,1)]
   1  2     9.63944641E-01   # Re[U(1,2)]
   2  1    -9.63944641E-01   # Re[U(2,1)]
   2  2    -2.66102856E-01   # Re[U(2,2)]
Block Vmix # chargino mixing matrix
   1  1     4.18819765E-01   # Re[V(1,1)]
   1  2     9.08069383E-01   # Re[V(1,2)]
   2  1     9.08069383E-01   # Re[V(2,1)]
   2  2    -4.18819765E-01   # Re[V(2,2)]
DECAY        23     2.49520000E+00   # Z
DECAY        24     2.08500000E+00   # W
DECAY   2000011     5.02266314E+01   # ~e^-_R
#    BR                NDA      ID1      ID2
     7.33747616E-01    2     1000022        11   # BR(~e^-_R -> chi^0_1 e^-)
     2.67954651E-03    2     1000023        11   # BR(~e^-_R -> chi^0_2 e^-)
     2.63245614E-01    2     1000025        11   # BR(~e^-_R -> chi^0_3 e^-)
     3.27182223E-04    2     1000035        11   # BR(~e^-_R -> chi^0_4 e^-)
DECAY   1000011     1.44401173E+02   # ~e^-_L
#    BR                NDA      ID1      ID2
     7.60191453E-02    2     1000022        11   # BR(~e^-_L -> chi^0_1 e^-)
     4.04982184E-02    2     1000023        11   # BR(~e^-_L -> chi^0_2 e^-)
     1.26729353E-02    2     1000025        11   # BR(~e^-_L -> chi^0_3 e^-)
     2.62220430E-01    2     1000035        11   # BR(~e^-_L -> chi^0_4 e^-)
     4.31934589E-02    2    -1000024        12   # BR(~e^-_L -> chi^-_1 nu_e)
     5.65395812E-01    2    -1000037        12   # BR(~e^-_L -> chi^-_2 nu_e)
#    BR                NDA      ID1      ID2       ID3
DECAY   2000013     5.04029525E+01   # ~mu^-_R
#    BR                NDA      ID1      ID2
     7.31451777E-01    2     1000022        13   # BR(~mu^-_R -> chi^0_1 mu^-)
     3.49586901E-03    2     1000023        13   # BR(~mu^-_R -> chi^0_2 mu^-)
     2.62916514E-01    2     1000025        13   # BR(~mu^-_R -> chi^0_3 mu^-)
     3.86109719E-04    2     1000035        13   # BR(~mu^-_R -> chi^0_4 mu^-)
     1.62611436E-03    2    -1000024        14   # BR(~mu^-_R -> chi^-_1 nu_mu)
     1.23615536E-04    2    -1000037        14   # BR(~mu^-_R -> chi^-_2 nu_mu)
DECAY   1000013     1.44489380E+02   # ~mu^-_L
#    BR                NDA      ID1      ID2
     7.60676321E-02    2     1000022        13   # BR(~mu^-_L -> chi^0_1 mu^-)
     4.07618240E-02    2     1000023        13   # BR(~mu^-_L -> chi^0_2 mu^-)
     1.28719606E-02    2     1000025        13   # BR(~mu^-_L -> chi^0_3 mu^-)
     2.62081186E-01    2     1000035        13   # BR(~mu^-_L -> chi^0_4 mu^-)
     4.31670660E-02    2    -1000024        14   # BR(~mu^-_L -> chi^-_1 nu_mu)
     5.65050332E-01    2    -1000037        14   # BR(~mu^-_L -> chi^-_2 nu_mu)
#    BR                NDA      ID1      ID2       ID3
DECAY   1000015     1.00398993E+02   # ~tau^-_1
#    BR                NDA      ID1      ID2
     4.11594095E-01    2     1000022        15   # BR(~tau^-_1 -> chi^0_1 tau^-)
     1.28132276E-01    2     1000023        15   # BR(~tau^-_1 -> chi^0_2 tau^-)
     2.06401340E-01    2     1000025        15   # BR(~tau^-_1 -> chi^0_3 tau^-)
     2.66475490E-03    2     1000035        15   # BR(~tau^-_1 -> chi^0_4 tau^-)
     2.46015912E-01    2    -1000024        16   # BR(~tau^-_1 -> chi^-_1 nu_tau)
     5.19162290E-03    2    -1000037        16   # BR(~tau^-_1 -> chi^-_2 nu_tau)
DECAY   2000015     1.69033641E+02   # ~tau^-_2
#    BR                NDA      ID1      ID2
     8.42817184E-02    2     1000022        15   # BR(~tau^-_2 -> chi^0_1 tau^-)
     9.86050288E-02    2     1000023        15   # BR(~tau^-_2 -> chi^0_2 tau^-)
     6.63439570E-02    2     1000025        15   # BR(~tau^-_2 -> chi^0_3 tau^-)
     2.32629495E-01    2     1000035        15   # BR(~tau^-_2 -> chi^0_4 tau^-)
     2.78649742E-02    2    -1000024        16   # BR(~tau^-_2 -> chi^-_1 nu_tau)
     4.90274827E-01    2    -1000037        16   # BR(~tau^-_2 -> chi^-_2 nu_tau)
#    BR                NDA      ID1      ID2       ID3
DECAY   1000012     1.44405928E+02   # ~nu_e
#    BR                NDA      ID1      ID2
     5.27827703E-02    2     1000022        12   # BR(~nu_e -> chi^0_1 nu_e)
     2.91338058E-02    2     1000023        12   # BR(~nu_e -> chi^0_2 nu_e)
     3.61686399E-02    2     1000025        12   # BR(~nu_e -> chi^0_3 nu_e)
     2.73235723E-01    2     1000035        12   # BR(~nu_e -> chi^0_4 nu_e)
     1.06985623E-01    2     1000024        11   # BR(~nu_e -> chi^+_1 e^-)
     5.01693438E-01    2     1000037        11   # BR(~nu_e -> chi^+_2 e^-)
#    BR                NDA      ID1      ID2       ID3
DECAY   1000014     1.44494125E+02   # ~nu_mu
#    BR                NDA      ID1      ID2
     5.27505217E-02    2     1000022        14   # BR(~nu_mu -> chi^0_1 nu_mu)
     2.91160059E-02    2     1000023        14   # BR(~nu_mu -> chi^0_2 nu_mu)
     3.61465420E-02    2     1000025        14   # BR(~nu_mu -> chi^0_3 nu_mu)
     2.73068784E-01    2     1000035        14   # BR(~nu_mu -> chi^0_4 nu_mu)
     1.07488074E-01    2     1000024        13   # BR(~nu_mu -> chi^+_1 mu^-)
     5.01430073E-01    2     1000037        13   # BR(~nu_mu -> chi^+_2 mu^-)
#    BR                NDA      ID1      ID2       ID3
DECAY   1000016     1.69349811E+02   # ~nu_tau
#    BR                NDA      ID1      ID2
     4.50009266E-02    2     1000022        16   # BR(~nu_tau -> chi^0_1 nu_tau)
     2.48385621E-02    2     1000023        16   # BR(~nu_tau -> chi^0_2 nu_tau)
     3.08362344E-02    2     1000025        16   # BR(~nu_tau -> chi^0_3 nu_tau)
     2.32951953E-01    2     1000035        16   # BR(~nu_tau -> chi^0_4 nu_tau)
     2.28230969E-01    2     1000024        15   # BR(~nu_tau -> chi^+_1 tau^-)
     4.38141356E-01    2     1000037        15   # BR(~nu_tau -> chi^+_2 tau^-)
#    BR                NDA      ID1      ID2       ID3
DECAY   2000001     4.40972170E+02   # ~d_R
#    BR                NDA      ID1      ID2
     9.36169231E-03    2     1000022         1   # BR(~d_R -> chi^0_1 d)
     3.35876894E-03    2     1000025         1   # BR(~d_R -> chi^0_3 d)
     9.87240943E-01    2     1000021         1   # BR(~d_R -> ~g d)
DECAY   1000001     5.72422338E+02   # ~d_L
#    BR                NDA      ID1      ID2
     9.55913237E-04    2     1000022         1   # BR(~d_L -> chi^0_1 d)
     8.33179801E-03    2     1000023         1   # BR(~d_L -> chi^0_2 d)
     2.02947128E-03    2     1000025         1   # BR(~d_L -> chi^0_3 d)
     6.86498526E-02    2     1000035         1   # BR(~d_L -> chi^0_4 d)
     1.09997812E-02    2    -1000024         2   # BR(~d_L -> chi^-_1 u)
     1.43992110E-01    2    -1000037         2   # BR(~d_L -> chi^-_2 u)
     7.65041073E-01    2     1000021         1   # BR(~d_L -> ~g d)
DECAY   2000003     4.41021130E+02   # ~s_R
#    BR                NDA      ID1      ID2
     9.36931137E-03    2     1000022         3   # BR(~s_R -> chi^0_1 s)
     3.37725988E-03    2     1000025         3   # BR(~s_R -> chi^0_3 s)
     9.87130872E-01    2     1000021         3   # BR(~s_R -> ~g s)
DECAY   1000003     5.72450501E+02   # ~s_L
#    BR                NDA      ID1      ID2
     9.62554759E-04    2     1000022         3   # BR(~s_L -> chi^0_1 s)
     8.35170301E-03    2     1000023         3   # BR(~s_L -> chi^0_2 s)
     2.04394041E-03    2     1000025         3   # BR(~s_L -> chi^0_3 s)
     6.86479471E-02    2     1000035         3   # BR(~s_L -> chi^0_4 s)
     1.10044904E-02    2    -1000024         4   # BR(~s_L -> chi^-_1 c)
     1.43986130E-01    2    -1000037         4   # BR(~s_L -> chi^-_2 c)
     7.65003234E-01    2     1000021         3   # BR(~s_L -> ~g s)
DECAY   1000005     4.18876203E+01   # ~b_1
#    BR                NDA      ID1      ID2
     1.05067288E-01    2     1000022         5   # BR(~b_1 -> chi^0_1 b)
     2.27941300E-01    2     1000023         5   # BR(~b_1 -> chi^0_2 b)
     1.72806048E-01    2     1000025         5   # BR(~b_1 -> chi^0_3 b)
     1.59780956E-02    2     1000035         5   # BR(~b_1 -> chi^0_4 b)
     4.45578956E-01    2    -1000024         6   # BR(~b_1 -> chi^-_1 t)
     3.26283124E-02    2    -1000037         6   # BR(~b_1 -> chi^-_2 t)
DECAY   2000005     2.02206791E+02   # ~b_2
#    BR                NDA      ID1      ID2
     2.70087548E-02    2     1000022         5   # BR(~b_2 -> chi^0_1 b)
     8.97040957E-02    2     1000023         5   # BR(~b_2 -> chi^0_2 b)
     5.88360100E-02    2     1000025         5   # BR(~b_2 -> chi^0_3 b)
     1.01566597E-01    2     1000035         5   # BR(~b_2 -> chi^0_4 b)
     4.31778165E-01    2    -1000024         6   # BR(~b_2 -> chi^-_1 t)
     2.90196864E-01    2    -1000037         6   # BR(~b_2 -> chi^-_2 t)
     5.82608104E-04    2     1000006       -24   # BR(~b_2 -> ~t_1 W^-)
     1.15098884E-04    2     1000005        23   # BR(~b_2 -> ~b_1 Z)
     2.11805661E-04    2     1000005        25   # BR(~b_2 -> ~b_1 h^0)
DECAY   2000002     4.58085388E+02   # ~u_R
#    BR                NDA      ID1      ID2
     3.60556419E-02    2     1000022         2   # BR(~u_R -> chi^0_1 u)
     1.31670066E-04    2     1000023         2   # BR(~u_R -> chi^0_2 u)
     1.29358057E-02    2     1000025         2   # BR(~u_R -> chi^0_3 u)
     9.50860804E-01    2     1000021         2   # BR(~u_R -> ~g u)
DECAY   1000002     5.72404525E+02   # ~u_L
#    BR                NDA      ID1      ID2
     2.92785632E-03    2     1000022         2   # BR(~u_L -> chi^0_1 u)
     9.29612225E-03    2     1000023         2   # BR(~u_L -> chi^0_2 u)
     6.77118398E-02    2     1000035         2   # BR(~u_L -> chi^0_4 u)
     2.72482743E-02    2     1000024         1   # BR(~u_L -> chi^+_1 d)
     1.27782226E-01    2     1000037         1   # BR(~u_L -> chi^+_2 d)
     7.64999104E-01    2     1000021         2   # BR(~u_L -> ~g u)
DECAY   2000004     4.58092624E+02   # ~c_R
#    BR                NDA      ID1      ID2
     3.60559379E-02    2     1000022         4   # BR(~c_R -> chi^0_1 c)
     1.34942810E-04    2     1000023         4   # BR(~c_R -> chi^0_2 c)
     1.29387273E-02    2     1000025         4   # BR(~c_R -> chi^0_3 c)
     9.50845694E-01    2     1000021         4   # BR(~c_R -> ~g c)
DECAY   1000004     5.72432666E+02   # ~c_L
#    BR                NDA      ID1      ID2
     2.92841007E-03    2     1000022         4   # BR(~c_L -> chi^0_1 c)
     9.29829307E-03    2     1000023         4   # BR(~c_L -> chi^0_2 c)
     6.77090395E-02    2     1000035         4   # BR(~c_L -> chi^0_4 c)
     2.72869451E-02    2     1000024         3   # BR(~c_L -> chi^+_1 s)
     1.27778970E-01    2     1000037         3   # BR(~c_L -> chi^+_2 s)
     7.64961261E-01    2     1000021         4   # BR(~c_L -> ~g c)
DECAY   1000006     2.08219217E+02   # ~t_1
#    BR                NDA      ID1      ID2
     4.28084300E-04    2     1000022         4   # BR(~t_1 -> chi^0_1 c)
     1.08775667E-01    2     1000022         6   # BR(~t_1 -> chi^0_1 t)
     1.35782835E-03    2     1000023         4   # BR(~t_1 -> chi^0_2 c)
     1.60571498E-01    2     1000023         6   # BR(~t_1 -> chi^0_2 t)
     1.52649694E-01    2     1000025         6   # BR(~t_1 -> chi^0_3 t)
     1.27695630E-01    2     1000035         6   # BR(~t_1 -> chi^0_4 t)
     2.13793682E-01    2     1000024         5   # BR(~t_1 -> chi^+_1 b)
     2.28521486E-01    2     1000037         5   # BR(~t_1 -> chi^+_2 b)
#    BR                NDA      ID1      ID2       ID3
     6.14081679E-03    3     1000022        24         5   # BR(~t_1 -> chi^0_1 W^+ b)
DECAY   2000006     2.09745005E+02   # ~t_2
#    BR                NDA      ID1      ID2
     4.01315163E-02    2     1000022         6   # BR(~t_2 -> chi^0_1 t)
     2.54927987E-01    2     1000023         6   # BR(~t_2 -> chi^0_2 t)
     2.45057899E-01    2     1000025         6   # BR(~t_2 -> chi^0_3 t)
     4.38187860E-02    2     1000035         6   # BR(~t_2 -> chi^0_4 t)
     3.75445336E-01    2     1000024         5   # BR(~t_2 -> chi^+_1 b)
     3.73058706E-02    2     1000037         5   # BR(~t_2 -> chi^+_2 b)
     1.57500445E-04    2     1000005        24   # BR(~t_2 -> ~b_1 W^+)
     2.74333462E-03    2     1000006        23   # BR(~t_2 -> ~t_1 Z)
     4.11769627E-04    2     1000006        25   # BR(~t_2 -> ~t_1 h^0)
DECAY   1000024     1.47704612E-05   # chi^+_1
#    BR                NDA      ID1      ID2       ID3
     3.34521865E-01    3     1000022        -1         2   # BR(chi^+_1 -> chi^0_1 d_bar u)
     3.32406557E-01    3     1000022        -3         4   # BR(chi^+_1 -> chi^0_1 s_bar c)
     1.11501778E-01    3     1000022       -11        12   # BR(chi^+_1 -> chi^0_1 e^+ nu_e)
     1.11501139E-01    3     1000022       -13        14   # BR(chi^+_1 -> chi^0_1 mu^+ nu_mu)
     1.10031666E-01    3     1000022       -15        16   # BR(chi^+_1 -> chi^0_1 tau^+ nu_tau)
DECAY   1000037     2.20656041E+00   # chi^+_2
#    BR                NDA      ID1      ID2
     1.34825020E-01    2     1000022        24   # BR(chi^+_2 -> chi^0_1 W^+)
     4.22192659E-01    2     1000023        24   # BR(chi^+_2 -> chi^0_2 W^+)
     8.73771602E-02    2     1000025        24   # BR(chi^+_2 -> chi^0_3 W^+)
     2.21542229E-01    2     1000024        23   # BR(chi^+_2 -> chi^+_1 Z)
     1.34056171E-01    2     1000024        25   # BR(chi^+_2 -> chi^+_1 h^0)
#    BR                NDA      ID1      ID2       ID3
DECAY   1000022     0.00000000E+00   # chi^0_1
DECAY   1000023     2.39859202E-05   # chi^0_2
#    BR                NDA      ID1      ID2
     3.92363952E-02    2     1000022        22   # BR(chi^0_2 -> chi^0_1 photon)
#    BR                NDA      ID1      ID2       ID3
     1.17572956E-01    3     1000022         2        -2   # BR(chi^0_2 -> chi^0_1 u u_bar)
     1.15159151E-01    3     1000022         4        -4   # BR(chi^0_2 -> chi^0_1 c c_bar)
     1.50750155E-01    3     1000022         1        -1   # BR(chi^0_2 -> chi^0_1 d d_bar)
     1.50735119E-01    3     1000022         3        -3   # BR(chi^0_2 -> chi^0_1 s s_bar)
     1.24389344E-01    3     1000022         5        -5   # BR(chi^0_2 -> chi^0_1 b b_bar)
     3.40176035E-02    3     1000022        11       -11   # BR(chi^0_2 -> chi^0_1 e^- e^+)
     3.40122248E-02    3     1000022        13       -13   # BR(chi^0_2 -> chi^0_1 mu^- mu^+)
     3.25393384E-02    3     1000022        15       -15   # BR(chi^0_2 -> chi^0_1 tau^- tau^+)
     2.01587713E-01    3     1000022        12       -12   # BR(chi^0_2 -> chi^0_1 nu_e nu_bar_e)
DECAY   1000025     4.56168691E-04   # chi^0_3
#    BR                NDA      ID1      ID2
     2.78546209E-04    2     1000022        22   # BR(chi^0_3 -> chi^0_1 photon)
     1.86430260E-02    2     1000023        22   # BR(chi^0_3 -> chi^0_2 photon)
#    BR                NDA      ID1      ID2       ID3
     1.57958794E-03    3     1000022         2        -2   # BR(chi^0_3 -> chi^0_1 u u_bar)
     1.57574332E-03    3     1000022         4        -4   # BR(chi^0_3 -> chi^0_1 c c_bar)
     2.02428428E-03    3     1000022         1        -1   # BR(chi^0_3 -> chi^0_1 d d_bar)
     2.02426512E-03    3     1000022         3        -3   # BR(chi^0_3 -> chi^0_1 s s_bar)
     2.01170408E-03    3     1000022         5        -5   # BR(chi^0_3 -> chi^0_1 b b_bar)
     4.55974184E-04    3     1000022        11       -11   # BR(chi^0_3 -> chi^0_1 e^- e^+)
     4.55969702E-04    3     1000022        13       -13   # BR(chi^0_3 -> chi^0_1 mu^- mu^+)
     4.54510085E-04    3     1000022        15       -15   # BR(chi^0_3 -> chi^0_1 tau^- tau^+)
     2.70873091E-03    3     1000022        12       -12   # BR(chi^0_3 -> chi^0_1 nu_e nu_bar_e)
     7.41135605E-02    3     1000023         2        -2   # BR(chi^0_3 -> chi^0_2 u u_bar)
     7.32733264E-02    3     1000023         4        -4   # BR(chi^0_3 -> chi^0_2 c c_bar)
     9.50278515E-02    3     1000023         1        -1   # BR(chi^0_3 -> chi^0_2 d d_bar)
     9.50226785E-02    3     1000023         3        -3   # BR(chi^0_3 -> chi^0_2 s s_bar)
     8.56168976E-02    3     1000023         5        -5   # BR(chi^0_3 -> chi^0_2 b b_bar)
     2.14456008E-02    3     1000023        11       -11   # BR(chi^0_3 -> chi^0_2 e^- e^+)
     2.14437331E-02    3     1000023        13       -13   # BR(chi^0_3 -> chi^0_2 mu^- mu^+)
     2.09259761E-02    3     1000023        15       -15   # BR(chi^0_3 -> chi^0_2 tau^- tau^+)
     1.27082526E-01    3     1000023        12       -12   # BR(chi^0_3 -> chi^0_2 nu_e nu_bar_e)
     5.91344407E-02    3     1000024         1        -2   # BR(chi^0_3 -> chi^+_1 d u_bar)
     5.91344407E-02    3    -1000024        -1         2   # BR(chi^0_3 -> chi^-_1 d_bar u)
     5.88499785E-02    3     1000024         3        -4   # BR(chi^0_3 -> chi^+_1 s c_bar)
     5.88499785E-02    3    -1000024        -3         4   # BR(chi^0_3 -> chi^-_1 s_bar c)
     1.97118549E-02    3     1000024        11       -12   # BR(chi^0_3 -> chi^+_1 e^- nu_bar_e)
     1.97118549E-02    3    -1000024       -11        12   # BR(chi^0_3 -> chi^-_1 e^+ nu_e)
     1.97117437E-02    3     1000024        13       -14   # BR(chi^0_3 -> chi^+_1 mu^- nu_bar_mu)
     1.97117437E-02    3    -1000024       -13        14   # BR(chi^0_3 -> chi^-_1 mu^+ nu_mu)
     1.95097362E-02    3     1000024        15       -16   # BR(chi^0_3 -> chi^+_1 tau^- nu_bar_tau)
     1.95097362E-02    3    -1000024       -15        16   # BR(chi^0_3 -> chi^-_1 tau^+ nu_tau)
DECAY   1000035     3.47706190E+00   # chi^0_4
#    BR                NDA      ID1      ID2
     2.88270725E-01    2     1000024       -24   # BR(chi^0_4 -> chi^+_1 W^-)
     2.88270725E-01    2    -1000024        24   # BR(chi^0_4 -> chi^-_1 W^+)
     1.08265616E-01    2     1000022        23   # BR(chi^0_4 -> chi^0_1 Z)
     9.96944805E-03    2     1000023        23   # BR(chi^0_4 -> chi^0_2 Z)
     1.30409748E-01    2     1000025        23   # BR(chi^0_4 -> chi^0_3 Z)
     6.97020496E-02    2     1000022        25   # BR(chi^0_4 -> chi^0_1 h^0)
     7.55218578E-02    2     1000023        25   # BR(chi^0_4 -> chi^0_2 h^0)
     2.95452791E-02    2     1000025        25   # BR(chi^0_4 -> chi^0_3 h^0)
#    BR                NDA      ID1      ID2       ID3
DECAY   1000021     6.47943929E+01   # ~g
#    BR                NDA      ID1      ID2
     6.99474439E-04    2     1000006        -4   # BR(~g -> ~t_1 c_bar)
     6.99474439E-04    2    -1000006         4   # BR(~g -> ~t^*_1 c)
     4.59982091E-04    2     1000006        -6   # BR(~g -> ~t_1 t_bar)
     4.59982091E-04    2    -1000006         6   # BR(~g -> ~t^*_1 t)
     4.86442626E-01    2     1000005        -5   # BR(~g -> ~b_1 b_bar)
     4.86442626E-01    2    -1000005         5   # BR(~g -> ~b^*_1 b)
     1.87308647E-03    2     2000005        -5   # BR(~g -> ~b_2 b_bar)
     1.87308647E-03    2    -2000005         5   # BR(~g -> ~b^*_2 b)
#    BR                NDA      ID1      ID2       ID3
     8.67771516E-04    3     1000022         6        -6   # BR(~g -> chi^0_1 t t_bar)
     5.72338373E-03    3     1000023         6        -6   # BR(~g -> chi^0_2 t t_bar)
     5.39798601E-03    3     1000025         6        -6   # BR(~g -> chi^0_3 t t_bar)
     7.29262981E-04    3     1000035         6        -6   # BR(~g -> chi^0_4 t t_bar)
     3.60739886E-03    3     1000024         5        -6   # BR(~g -> chi^+_1 b t_bar)
     3.60739886E-03    3    -1000024        -5         6   # BR(~g -> chi^-_1 b_bar t)
     3.55476055E-04    3     1000037         5        -6   # BR(~g -> chi^+_2 b t_bar)
     3.55476055E-04    3    -1000037        -5         6   # BR(~g -> chi^-_2 b_bar t)
DECAY        25     3.86243423E-03   # Gamma(h0)
     2.46558346E-03   2        22        22   # BR(h0 -> photon photon)
     1.70496604E-03   2        22        23   # BR(h0 -> photon Z)
     3.32113139E-02   2        23        23   # BR(h0 -> Z Z)
     2.66730912E-01   2       -24        24   # BR(h0 -> W W)
     7.53911441E-02   2        21        21   # BR(h0 -> gluon gluon)
     4.79068817E-09   2       -11        11   # BR(h0 -> Electron electron)
     2.13099129E-04   2       -13        13   # BR(h0 -> Muon muon)
     6.14459638E-02   2       -15        15   # BR(h0 -> Tau tau)
     1.35903494E-07   2        -2         2   # BR(h0 -> Up up)
     2.63756183E-02   2        -4         4   # BR(h0 -> Charm charm)
     5.53378341E-07   2        -1         1   # BR(h0 -> Down down)
     2.00144109E-04   2        -3         3   # BR(h0 -> Strange strange)
     5.32260561E-01   2        -5         5   # BR(h0 -> Bottom bottom)
DECAY        35     9.74724895E+01   # Gamma(HH)
     4.22730606E-08   2        22        22   # BR(HH -> photon photon)
     1.13481072E-07   2        22        23   # BR(HH -> photon Z)
     1.73417750E-07   2        23        23   # BR(HH -> Z Z)
     4.26268112E-08   2       -24        24   # BR(HH -> W W)
     3.64511495E-06   2        21        21   # BR(HH -> gluon gluon)
     6.75374039E-09   2       -11        11   # BR(HH -> Electron electron)
     3.00721122E-04   2       -13        13   # BR(HH -> Muon muon)
     8.68541266E-02   2       -15        15   # BR(HH -> Tau tau)
     6.79977647E-14   2        -2         2   # BR(HH -> Up up)
     1.31914161E-08   2        -4         4   # BR(HH -> Charm charm)
     9.60490855E-04   2        -6         6   # BR(HH -> Top top)
     4.81920158E-07   2        -1         1   # BR(HH -> Down down)
     1.74315055E-04   2        -3         3   # BR(HH -> Strange strange)
     4.42320429E-01   2        -5         5   # BR(HH -> Bottom bottom)
     5.59729475E-02   2  -1000024   1000024   # BR(HH -> Chargino1 chargino1)
     1.04832857E-01   2  -1000024   1000037   # BR(HH -> Chargino1 chargino2)
     1.04832857E-01   2  -1000037   1000024   # BR(HH -> Chargino2 chargino1)
     1.97640880E-02   2  -1000037   1000037   # BR(HH -> Chargino2 chargino2)
     7.86170248E-03   2   1000022   1000022   # BR(HH -> neutralino1 neutralino1)
     2.40630939E-02   2   1000022   1000023   # BR(HH -> neutralino1 neutralino2)
     2.69808053E-05   2   1000022   1000025   # BR(HH -> neutralino1 neutralino3)
     1.89755248E-02   2   1000022   1000035   # BR(HH -> neutralino1 neutralino4)
     1.59014785E-02   2   1000023   1000023   # BR(HH -> neutralino2 neutralino2)
     2.12878408E-03   2   1000023   1000025   # BR(HH -> neutralino2 neutralino3)
     4.84703863E-02   2   1000023   1000035   # BR(HH -> neutralino2 neutralino4)
     1.18111569E-02   2   1000025   1000025   # BR(HH -> neutralino3 neutralino3)
     4.42490208E-02   2   1000025   1000035   # BR(HH -> neutralino3 neutralino4)
     1.04933646E-02   2   1000035   1000035   # BR(HH -> neutralino4 neutralino4)
     1.15616807E-06   2        25        25   # BR(HH -> h0 h0)
DECAY        36     9.42633815E+01   # Gamma(A0)
     4.43517959E-09   2        22        22   # BR(A0 -> photon photon)
     5.31870144E-08   2        22        23   # BR(A0 -> photon Z)
     8.63679595E-06   2        21        21   # BR(A0 -> gluon gluon)
     6.54905396E-09   2       -11        11   # BR(A0 -> Electron electron)
     2.91610803E-04   2       -13        13   # BR(A0 -> Muon muon)
     8.42229880E-02   2       -15        15   # BR(A0 -> Tau tau)
     6.18987238E-14   2        -2         2   # BR(A0 -> Up up)
     1.20077093E-08   2        -4         4   # BR(A0 -> Charm charm)
     8.82464322E-04   2        -6         6   # BR(A0 -> Top top)
     4.67301849E-07   2        -1         1   # BR(A0 -> Down down)
     1.69027883E-04   2        -3         3   # BR(A0 -> Strange strange)
     4.28908604E-01   2        -5         5   # BR(A0 -> Bottom bottom)
     5.52982603E-02   2  -1000024   1000024   # BR(A0 -> Chargino1 chargino1)
     1.11011427E-01   2  -1000024   1000037   # BR(A0 -> Chargino1 chargino2)
     1.11011427E-01   2  -1000037   1000024   # BR(A0 -> Chargino2 chargino1)
     1.78912061E-02   2  -1000037   1000037   # BR(A0 -> Chargino2 chargino2)
     9.13745082E-03   2   1000022   1000022   # BR(A0 -> neutralino1 neutralino1)
     2.38736790E-02   2   1000022   1000023   # BR(A0 -> neutralino1 neutralino2)
     2.20187858E-05   2   1000022   1000025   # BR(A0 -> neutralino1 neutralino3)
     2.21179739E-02   2   1000022   1000035   # BR(A0 -> neutralino1 neutralino4)
     1.51352549E-02   2   1000023   1000023   # BR(A0 -> neutralino2 neutralino2)
     1.34776209E-03   2   1000023   1000025   # BR(A0 -> neutralino2 neutralino3)
     4.71523551E-02   2   1000023   1000035   # BR(A0 -> neutralino2 neutralino4)
     1.42387011E-02   2   1000025   1000025   # BR(A0 -> neutralino3 neutralino3)
     4.76561174E-02   2   1000025   1000035   # BR(A0 -> neutralino3 neutralino4)
     9.62215858E-03   2   1000035   1000035   # BR(A0 -> neutralino4 neutralino4)
     3.33072460E-07   2        23        25   # BR(A0 -> Z h0)
     1.20594123E-14   2        23        35   # BR(A0 -> Z HH)
     8.35433413E-38   2        25        25   # BR(A0 -> h0 h0)
DECAY        37     1.01526516E+02   # Gamma(Hp)
     7.36811333E-09   2       -11        12   # BR(Hp -> Electron nu_e)
     3.15009858E-04   2       -13        14   # BR(Hp -> Muon nu_mu)
     8.91027177E-02   2       -15        16   # BR(Hp -> Tau nu_tau)
     4.56065096E-07   2        -1         2   # BR(Hp -> Down up)
     7.71243150E-06   2        -3         2   # BR(Hp -> Strange up)
     4.85461935E-06   2        -5         2   # BR(Hp -> Bottom up)
     2.19627658E-08   2        -1         4   # BR(Hp -> Down charm)
     1.64377229E-04   2        -3         4   # BR(Hp -> Strange charm)
     6.79820486E-04   2        -5         4   # BR(Hp -> Bottom charm)
     6.85718699E-08   2        -1         6   # BR(Hp -> Down top)
     1.73934816E-06   2        -3         6   # BR(Hp -> Strange top)
     4.59393380E-01   2        -5         6   # BR(Hp -> Bottom top)
     5.76974541E-02   2   1000022   1000024   # BR(Hp -> neutralino1 chargino1)
     3.56750390E-02   2   1000022   1000037   # BR(Hp -> neutralino1 chargino2)
     1.25635918E-03   2   1000023   1000024   # BR(Hp -> neutralino2 chargino1)
     1.47739009E-01   2   1000023   1000037   # BR(Hp -> neutralino2 chargino2)
     3.92309089E-04   2   1000024   1000025   # BR(Hp -> chargino1 neutralino3)
     8.16477578E-02   2   1000025   1000037   # BR(Hp -> neutralino3 chargino2)
     1.25915499E-01   2   1000024   1000035   # BR(Hp -> chargino1 neutralino4)
     6.09796571E-06   2   1000035   1000037   # BR(Hp -> neutralino4 chargino2)
     3.09316924E-07   2        24        25   # BR(Hp -> W h0)
DECAY         6     2.43000000E+00   # top
#    BR                NDA      ID1      ID2
     1.00000000E+00    2           5        24   # BR(t -> b W)
Block HiggsBoundsInputHiggsCouplingsFermions
# ScalarNormEffCoupSq PseudoSNormEffCoupSq NP IP1 IP2 IP2
    9.37910995E-01    0.00000000E+00        3  25   5   5  # h0-b-b eff. coupling^2, normalised to SM
    1.19940941E+03    0.00000000E+00        3  35   5   5  # H0-b-b eff. coupling^2, normalised to SM
    0.00000000E+00    1.19934732E+03        3  36   5   5  # A0-b-b eff. coupling^2, normalised to SM
#
    1.00005177E+00    0.00000000E+00        3  25   6   6  # h0-t-t eff. coupling^2, normalised to SM
    7.82017837E-04    0.00000000E+00        3  35   6   6  # H0-t-t eff. coupling^2, normalised to SM
    0.00000000E+00    8.33786832E-04        3  36   6   6  # A0-t-t eff. coupling^2, normalised to SM
#
    9.37910995E-01    0.00000000E+00        3  25  15  15  # h0-tau-tau eff. coupling^2, normalised to SM
    1.19940941E+03    0.00000000E+00        3  35  15  15  # H0-tau-tau eff. coupling^2, normalised to SM
    0.00000000E+00    1.19934732E+03        3  36  15  15  # A0-tau-tau eff. coupling^2, normalised to SM
#
Block HiggsBoundsInputHiggsCouplingsBosons
    9.99999170E-01        3  25  24  24  # h0-W-W eff. coupling^2, normalised to SM
    8.29508201E-07        3  35  24  24  # H0-W-W eff. coupling^2, normalised to SM
    0.00000000E+00        3  36  24  24  # A0-W-W eff. coupling^2, normalised to SM
#
    9.99999170E-01        3  25  23  23  # h0-Z-Z eff. coupling^2, normalised to SM
    8.29508201E-07        3  35  23  23  # H0-Z-Z eff. coupling^2, normalised to SM
    0.00000000E+00        3  36  23  23  # A0-Z-Z eff. coupling^2, normalised to SM
#
    1.27175835E+00        3  25  21  21  # h0-g-g eff. coupling^2, normalised to SM
    4.27195781E-03        3  35  21  21  # H0-g-g eff. coupling^2, normalised to SM
    1.09731168E-01        3  36  21  21  # A0-g-g eff. coupling^2, normalised to SM
#
    0.00000000E+00        3  25  25  23  # h0-h0-Z eff. coupling^2, normalised to SM
    0.00000000E+00        3  35  25  23  # H0-h0-Z eff. coupling^2, normalised to SM
    8.29508201E-07        3  36  25  23  # A0-h0-Z eff. coupling^2, normalised to SM
    0.00000000E+00        3  35  35  23  # H0-H0-Z eff. coupling^2, normalised to SM
    9.99999170E-01        3  36  35  23  # A0-H0-Z eff. coupling^2, normalised to SM
    0.00000000E+00        3  36  36  23  # A0-A0-Z eff. coupling^2, normalised to SM
#
    0.00000000E+00        4  25  21  21  23  # h0-g-g-Z eff. coupling^2, normalised to SM
    0.00000000E+00        4  35  21  21  23  # H0-g-g-Z eff. coupling^2, normalised to SM
    0.00000000E+00        4  36  21  21  23  # A0-g-g-Z eff. coupling^2, normalised to SM
Block SPhenoLowEnergy  # low energy observables
    1    3.20816212E-04   # BR(b -> s gamma)
    2    1.59032925E-06   # BR(b -> s mu+ mu-)
    3    3.52559980E-05   # BR(b -> s nu nu)
    4    2.78547089E-15   # BR(Bd -> e+ e-)
    5    1.18991769E-10   # BR(Bd -> mu+ mu-)
    6    2.48873562E-08   # BR(Bd -> tau+ tau-)
    7    9.33175875E-14   # BR(Bs -> e+ e-)
    8    3.98651232E-09   # BR(Bs -> mu+ mu-)
    9    8.44863960E-07   # BR(Bs -> tau+ tau-)
   10    9.62186126E-05   # BR(B_u -> tau nu)
   11    9.93901431E-01   # BR(B_u -> tau nu)/BR(B_u -> tau nu)_SM
   12    5.41808644E-01   # |Delta(M_Bd)| [ps^-1] 
   13    1.93555203E+01   # |Delta(M_Bs)| [ps^-1] 
   14    0.00000000E+00   # neutron EDM according to the chiral quark model
   15    0.00000000E+00   # neutron EDM according to the relativistic quark-parton model
   16    2.15662217E-03   # epsilon_K
   17    2.28165171E-15   # Delta(M_K)
   18    2.48025953E-11   # BR(K^0 -> pi^0 nu nu)
   19    8.29107266E-11   # BR(K^+ -> pi^+ nu nu)
   20   -2.17731196E-16   # Delta(g-2)_electron/2
   21   -9.30877808E-12   # Delta(g-2)_muon/2
   22   -2.64001500E-09   # Delta(g-2)_tau/2
   23    0.00000000E+00   # electric dipole moment of the electron
   24    0.00000000E+00   # electric dipole moment of the muon
   25    0.00000000E+00   # electric dipole moment of the tau
   26    0.00000000E+00   # Br(mu -> e gamma)
   27    0.00000000E+00   # Br(tau -> e gamma)
   28    0.00000000E+00   # Br(tau -> mu gamma)
   29    0.00000000E+00   # Br(mu -> 3 e)
   30    0.00000000E+00   # Br(tau -> 3 e)
   31    0.00000000E+00   # Br(tau -> 3 mu)
   39    6.27131035E-05   # Delta(rho_parameter)
   40    0.00000000E+00   # BR(Z -> e mu)
   41    0.00000000E+00   # BR(Z -> e tau)
   42    0.00000000E+00   # BR(Z -> mu tau)
Block FWCOEF Q=  1.60000000E+02  # Wilson coefficients at scale Q
#    id        order  M        value         comment
     0305 4422   00   0    -1.88819110E-01   # C7
     0305 4422   00   2    -1.88547696E-01   # C7
     0305 4322   00   2    -5.59631663E-05   # C7'
     0305 6421   00   0    -9.52278348E-02   # C8
     0305 6421   00   2    -9.97675222E-02   # C8
     0305 6321   00   2    -1.22526862E-04   # C8'
 03051111 4133   00   0     1.63483825E+00   # C9 e+e-
 03051111 4133   00   2     1.63497162E+00   # C9 e+e-
 03051111 4233   00   2     2.90559613E-04   # C9' e+e-
 03051111 4137   00   0    -4.45753035E+00   # C10 e+e-
 03051111 4137   00   2    -4.45626875E+00   # C10 e+e-
 03051111 4237   00   2    -2.12547088E-03   # C10' e+e-
 03051313 4133   00   0     1.63483825E+00   # C9 mu+mu-
 03051313 4133   00   2     1.63497152E+00   # C9 mu+mu-
 03051313 4233   00   2     2.90559452E-04   # C9' mu+mu-
 03051313 4137   00   0    -4.45753035E+00   # C10 mu+mu-
 03051313 4137   00   2    -4.45626885E+00   # C10 mu+mu-
 03051313 4237   00   2    -2.12547093E-03   # C10' mu+mu-
 03051212 4137   00   0     1.50535012E+00   # C11 nu_1 nu_1
 03051212 4137   00   2     1.50507932E+00   # C11 nu_1 nu_1
 03051212 4237   00   2     4.58765714E-04   # C11' nu_1 nu_1
 03051414 4137   00   0     1.50535012E+00   # C11 nu_2 nu_2
 03051414 4137   00   2     1.50507932E+00   # C11 nu_2 nu_2
 03051414 4237   00   2     4.58765737E-04   # C11' nu_2 nu_2
 03051616 4137   00   0     1.50535012E+00   # C11 nu_3 nu_3
 03051616 4137   00   2     1.50507932E+00   # C11 nu_3 nu_3
 03051616 4237   00   2     4.58772324E-04   # C11' nu_3 nu_3
Block IMFWCOEF Q=  1.60000000E+02  # Im(Wilson coefficients) at scale Q
#    id        order  M        value         comment
     0305 4422   00   0     3.85825319E-07   # C7
     0305 4422   00   2    -1.37957491E-06   # C7
     0305 4322   00   2     8.70437638E-07   # C7'
     0305 6421   00   0     3.30484902E-07   # C8
     0305 6421   00   2    -5.91458816E-06   # C8
     0305 6321   00   2     2.47857211E-07   # C8'
 03051111 4133   00   2     3.31508061E-07   # C9 e+e-
 03051111 4233   00   2     5.64822677E-06   # C9' e+e-
 03051111 4137   00   2     1.48636387E-06   # C10 e+e-
 03051111 4237   00   2    -4.13190666E-05   # C10' e+e-
 03051313 4133   00   2     3.31505226E-07   # C9 mu+mu-
 03051313 4233   00   2     5.64822584E-06   # C9' mu+mu-
 03051313 4137   00   2     1.48636695E-06   # C10 mu+mu-
 03051313 4237   00   2    -4.13190694E-05   # C10' mu+mu-
 03051212 4137   00   2    -2.93941429E-07   # C11 nu_1 nu_1
 03051212 4237   00   2     8.91838798E-06   # C11' nu_1 nu_1
 03051414 4137   00   2    -2.93941276E-07   # C11 nu_2 nu_2
 03051414 4237   00   2     8.91838798E-06   # C11' nu_2 nu_2
 03051616 4137   00   2    -2.93898615E-07   # C11 nu_3 nu_3
 03051616 4237   00   2     8.91838796E-06   # C11' nu_3 nu_3
