#
#                              ======================
#                              | THE SUSYHIT OUTPUT |
#                              ======================
#
#
#              ------------------------------------------------------
#              |     This is the output of the SUSY-HIT package     |
#              |  created by A.Djouadi, M.Muehlleitner and M.Spira. |
#              |  In case of problems with SUSY-HIT email to        |
#              |           margarete.muehlleitner@cern.ch           |
#              |           michael.spira@psi.ch                     |
#              |           abdelhak.djouadi@cern.ch                 |
#              ------------------------------------------------------
#
#              ------------------------------------------------------
#              |  SUSY Les Houches Accord - MSSM Spectrum + Decays  |
#              |              based on the decay programs           |
#              |                                                    |
#              |                     SDECAY 1.3b                    |
#              |                                                    |
#              |  Authors: M.Muhlleitner, A.Djouadi and Y.Mambrini  |
#              |  Ref.:    Comput.Phys.Commun.168(2005)46           |
#              |           [hep-ph/0311167]                         |
#              |                                                    |
#              |                     HDECAY 3.4                     |
#              |                                                    |
#              |  By: A.Djouadi,J.Kalinowski,M.Muhlleitner,M.Spira  |
#              |  Ref.:    Comput.Phys.Commun.108(1998)56           |
#              |           [hep-ph/9704448]                         |
#              |                                                    |
#              |                                                    |
#              |  If not stated otherwise all DRbar couplings and   |
#              |  soft SUSY breaking masses are given at the scale  |
#              |  Q=  0.35465720E+04
#              |                                                    |
#              ------------------------------------------------------
#
#
BLOCK DCINFO  # Decay Program information
     1   SDECAY/HDECAY # decay calculator
     2   1.3b  /3.4    # version number
#
BLOCK SPINFO  # Spectrum calculator information
     1     SOFTSUSY    # spectrum calculator               
     2     3.4.0       # version number                    
#
BLOCK MODSEL  # Model selection
     1     0   #  nonUniversal                                     
#
BLOCK SMINPUTS  # Standard Model inputs
         1     1.27908970E+02   # alpha_em^-1(M_Z)^MSbar
         2     1.16637870E-05   # G_F [GeV^-2]
         3     1.18400000E-01   # alpha_S(M_Z)^MSbar
         4     9.11876000E+01   # M_Z pole mass
         5     4.18000000E+00   # mb(mb)^MSbar
         6     1.73200000E+02   # mt pole mass
         7     1.77700000E+00   # mtau pole mass
#
BLOCK MINPAR  # Input parameters - minimal models
         3     1.93200000E+01   # tanb                
#
BLOCK EXTPAR  # Input parameters - non-minimal models
         0    -1.00000000E+00   # Set                 
         1     2.68320000E+02   # M_1(MX)             
         2    -1.05678000E+03   # M_2(MX)             
         3     1.48517000E+03   # M_3(MX)             
        11     1.98583000E+03   # At(MX)              
        12    -1.40348000E+03   # Ab(MX)              
        13     1.35888000E+03   # Atau(MX)            
        23    -2.65960000E+02   # mu(MX)              
        26     2.90712000E+03   # mA(pole)            
        31     3.72240000E+03   # meL(MX)             
        32     3.72240000E+03   # mmuL(MX)            
        33     2.96120000E+02   # mtauL(MX)           
        34     2.95175000E+03   # meR(MX)             
        35     2.95175000E+03   # mmuR(MX)            
        36     3.03981000E+03   # mtauR(MX)           
        41     3.19558000E+03   # mqL1(MX)            
        42     3.19558000E+03   # mqL2(MX)            
        43     3.25620000E+03   # mqL3(MX)            
        44     1.30747000E+03   # muR(MX)             
        45     1.30747000E+03   # mcR(MX)             
        46     3.85827000E+03   # mtR(MX)             
        47     2.65104000E+03   # mdR(MX)             
        48     2.65104000E+03   # msR(MX)             
        49     1.49447000E+03   # mbR(MX)             
#
BLOCK MASS  # Mass Spectrum
# PDG code           mass       particle
        24     8.03908182E+01   # W+
        25     1.24257688E+02   # h
        35     2.90714148E+03   # H
        36     2.90712000E+03   # A
        37     2.90845296E+03   # H+
         5     4.81876030E+00   # b-quark pole mass calculated from mb(mb)_Msbar
   1000001     3.24894412E+03   # ~d_L
   2000001     2.70198504E+03   # ~d_R
   1000002     3.24810701E+03   # ~u_L
   2000002     1.41577657E+03   # ~u_R
   1000003     3.24894412E+03   # ~s_L
   2000003     2.70198504E+03   # ~s_R
   1000004     3.24810701E+03   # ~c_L
   2000004     1.41577657E+03   # ~c_R
   1000005     1.57855063E+03   # ~b_1
   2000005     3.27994526E+03   # ~b_2
   1000006     3.27981134E+03   # ~t_1
   2000006     3.85499934E+03   # ~t_2
   1000011     3.73227552E+03   # ~e_L
   2000011     2.95181700E+03   # ~e_R
   1000012     3.73109840E+03   # ~nu_eL
   1000013     3.73227552E+03   # ~mu_L
   2000013     2.95181700E+03   # ~mu_R
   1000014     3.73109840E+03   # ~nu_muL
   1000015     3.50906196E+02   # ~tau_1
   2000015     3.03698936E+03   # ~tau_2
   1000016     3.41645194E+02   # ~nu_tauL
   1000021     1.70284517E+03   # ~g
   1000022     2.43217188E+02   # ~chi_10
   1000023    -2.76223682E+02   # ~chi_20
   1000025     3.03468420E+02   # ~chi_30
   1000035    -1.10301042E+03   # ~chi_40
   1000024     2.76629015E+02   # ~chi_1+
   1000037     1.10318623E+03   # ~chi_2+
#
BLOCK NMIX  # Neutralino Mixing Matrix
  1  1     7.84685962E-01   # N_11
  1  2     2.25333474E-02   # N_12
  1  3    -4.69557043E-01   # N_13
  1  4    -4.04074713E-01   # N_14
  2  1    -5.95824073E-02   # N_21
  2  2    -7.13400718E-02   # N_22
  2  3    -7.06626390E-01   # N_23
  2  4     7.01455399E-01   # N_24
  3  1     6.17018126E-01   # N_31
  3  2    -3.14236363E-02   # N_32
  3  3     5.28822214E-01   # N_33
  3  4     5.81934922E-01   # N_34
  4  1    -2.55167618E-03   # N_41
  4  2     9.96702261E-01   # N_42
  4  3    -2.32893707E-02   # N_43
  4  4     7.76897462E-02   # N_44
#
BLOCK UMIX  # Chargino Mixing Matrix U
  1  1     3.29592026E-02   # U_11
  1  2     9.99456698E-01   # U_12
  2  1    -9.99456698E-01   # U_21
  2  2     3.29592026E-02   # U_22
#
BLOCK VMIX  # Chargino Mixing Matrix V
  1  1    -1.10018711E-01   # V_11
  1  2    -9.93929516E-01   # V_12
  2  1     9.93929516E-01   # V_21
  2  2    -1.10018711E-01   # V_22
#
BLOCK STOPMIX  # Stop Mixing Matrix
  1  1     9.98012615E-01   # cos(theta_t)
  1  2    -6.30144452E-02   # sin(theta_t)
  2  1     6.30144452E-02   # -sin(theta_t)
  2  2     9.98012615E-01   # cos(theta_t)
#
BLOCK SBOTMIX  # Sbottom Mixing Matrix
  1  1    -9.64073705E-04   # cos(theta_b)
  1  2     9.99999535E-01   # sin(theta_b)
  2  1    -9.99999535E-01   # -sin(theta_b)
  2  2    -9.64073705E-04   # cos(theta_b)
#
BLOCK STAUMIX  # Stau Mixing Matrix
  1  1     9.99999169E-01   # cos(theta_tau)
  1  2    -1.28918552E-03   # sin(theta_tau)
  2  1     1.28918552E-03   # -sin(theta_tau)
  2  2     9.99999169E-01   # cos(theta_tau)
#
BLOCK ALPHA  # Higgs mixing
          -5.42925531E-02   # Mixing angle in the neutral Higgs boson sector
#
BLOCK HMIX Q=  3.54657200E+03  # DRbar Higgs Parameters
         1    -2.70706866E+02   # mu(Q)MSSM           
         2     1.84517677E+01   # tan                 
         3     2.41568258E+02   # higgs               
         4     8.56632913E+06   # mA^2(Q)MSSM         
#
BLOCK GAUGE Q=  3.54657200E+03  # The gauge couplings
     1     3.65951113E-01   # gprime(Q) DRbar
     2     6.40101218E-01   # g(Q) DRbar
     3     1.01823922E+00   # g3(Q) DRbar
#
BLOCK AU Q=  3.54657200E+03  # The trilinear couplings
  1  1     0.00000000E+00   # A_u(Q) DRbar
  2  2     0.00000000E+00   # A_c(Q) DRbar
  3  3     1.98583001E+03   # A_t(Q) DRbar
#
BLOCK AD Q=  3.54657200E+03  # The trilinear couplings
  1  1     0.00000000E+00   # A_d(Q) DRbar
  2  2     0.00000000E+00   # A_s(Q) DRbar
  3  3    -1.40348000E+03   # A_b(Q) DRbar
#
BLOCK AE Q=  3.54657200E+03  # The trilinear couplings
  1  1     0.00000000E+00   # A_e(Q) DRbar
  2  2     0.00000000E+00   # A_mu(Q) DRbar
  3  3     1.35888000E+03   # A_tau(Q) DRbar
#
BLOCK Yu Q=  3.54657200E+03  # The Yukawa couplings
  1  1     0.00000000E+00   # y_u(Q) DRbar
  2  2     0.00000000E+00   # y_c(Q) DRbar
  3  3     8.26328989E-01   # y_t(Q) DRbar
#
BLOCK Yd Q=  3.54657200E+03  # The Yukawa couplings
  1  1     0.00000000E+00   # y_d(Q) DRbar
  2  2     0.00000000E+00   # y_s(Q) DRbar
  3  3     2.51724007E-01   # y_b(Q) DRbar
#
BLOCK Ye Q=  3.54657200E+03  # The Yukawa couplings
  1  1     0.00000000E+00   # y_e(Q) DRbar
  2  2     0.00000000E+00   # y_mu(Q) DRbar
  3  3     1.96151357E-01   # y_tau(Q) DRbar
#
BLOCK MSOFT Q=  3.54657200E+03  # The soft SUSY breaking masses at the scale Q
         1     2.68320000E+02   # M_1(Q)              
         2    -1.05678000E+03   # M_2(Q)              
         3     1.48517000E+03   # M_3(Q)              
        21     8.36760593E+06   # mH1^2(Q)            
        22     2.49817536E+05   # mH2^2(Q)            
        31     3.72240000E+03   # meL(Q)              
        32     3.72240000E+03   # mmuL(Q)             
        33     2.96120000E+02   # mtauL(Q)            
        34     2.95175000E+03   # meR(Q)              
        35     2.95175000E+03   # mmuR(Q)             
        36     3.03981000E+03   # mtauR(Q)            
        41     3.19558000E+03   # mqL1(Q)             
        42     3.19558000E+03   # mqL2(Q)             
        43     3.25620000E+03   # mqL3(Q)             
        44     1.30746999E+03   # muR(Q)              
        45     1.30746999E+03   # mcR(Q)              
        46     3.85827000E+03   # mtR(Q)              
        47     2.65104000E+03   # mdR(Q)              
        48     2.65104000E+03   # msR(Q)              
        49     1.49446999E+03   # mbR(Q)              
#
Block HiggsBoundsInputHiggsCouplingsFermions
# ScalarNormEffCoupSq PseudoSNormEffCoupSq NP   IP1 IP2 IP2
    1.00554946E+00    0.00000000E+00        3  25   5   5  # h0-b-b eff. coupling^2, normalised to SM
    3.40462182E+02    0.00000000E+00        3  35   5   5  # H0-b-b eff. coupling^2, normalised to SM
    0.00000000E+00    3.40467731E+02        3  36   5   5  # A0-b-b eff. coupling^2, normalised to SM
#
    9.99983700E-01    0.00000000E+00        3  25   6   6  # h0-t-t eff. coupling^2, normalised to SM
    2.95343542E-03    0.00000000E+00        3  35   6   6  # H0-t-t eff. coupling^2, normalised to SM
    0.00000000E+00    2.93713591E-03        3  36   6   6  # A0-t-t eff. coupling^2, normalised to SM
#
    1.00554946E+00    0.00000000E+00        3  25  15  15  # h0-tau-tau eff. coupling^2, normalised to SM
    3.40462182E+02    0.00000000E+00        3  35  15  15  # H0-tau-tau eff. coupling^2, normalised to SM
    0.00000000E+00    3.40467731E+02        3  36  15  15  # A0-tau-tau eff. coupling^2, normalised to SM
#
Block HiggsBoundsInputHiggsCouplingsBosons
    9.99999977E-01        3  25  24  24  # h0-W-W eff. coupling^2, normalised to SM
    2.25510165E-08        3  35  24  24  # H0-W-W eff. coupling^2, normalised to SM
    0.00000000E+00        3  36  24  24  # A0-W-W eff. coupling^2, normalised to SM
#
    9.99999977E-01        3  25  23  23  # h0-Z-Z eff. coupling^2, normalised to SM
    2.25510165E-08        3  35  23  23  # H0-Z-Z eff. coupling^2, normalised to SM
    0.00000000E+00        3  36  23  23  # A0-Z-Z eff. coupling^2, normalised to SM
#
    8.90727765E-01        3  25  21  21  # h0-g-g eff. coupling^2, normalised to SM
    1.39008197E-14        3  35  21  21  # H0-g-g eff. coupling^2, normalised to SM
    1.73276568E-12        3  36  21  21  # A0-g-g eff. coupling^2, normalised to SM
#
    0.00000000E+00        3  25  25  23  # h0-h0-Z eff. coupling^2, normalised to SM
    0.00000000E+00        3  35  25  23  # H0-h0-Z eff. coupling^2, normalised to SM
    2.25510165E-08        3  36  25  23  # A0-h0-Z eff. coupling^2, normalised to SM
    0.00000000E+00        3  35  35  23  # H0-H0-Z eff. coupling^2, normalised to SM
    9.99999977E-01        3  36  35  23  # A0-H0-Z eff. coupling^2, normalised to SM
    0.00000000E+00        3  36  36  23  # A0-A0-Z eff. coupling^2, normalised to SM
#
    0.00000000E+00        4  25  21  21  23  # h0-g-g-Z eff. coupling^2, normalised to SM
    0.00000000E+00        4  35  21  21  23  # H0-g-g-Z eff. coupling^2, normalised to SM
    0.00000000E+00        4  36  21  21  23  # A0-g-g-Z eff. coupling^2, normalised to SM
#
#
#
#                             =================
#                             |The decay table|
#                             =================
#
# - The QCD corrections to the decays gluino -> squark  + quark
#                                     squark -> gaugino + quark_prime
#                                     squark -> squark_prime + Higgs
#                                     squark -> gluino  + quark
#   are included.
#
# - The multi-body decays for the inos, stops and sbottoms are included.
#
# - The loop induced decays for the gluino, neutralinos and stops
#   are included.
#
# - The SUSY decays of the top quark are included.
#
#
#         PDG            Width
DECAY         6     1.44296584E+00   # top decays
#          BR         NDA      ID1       ID2
     1.00000000E+00    2           5        24   # BR(t ->  b    W+)
#
#         PDG            Width
DECAY   1000021     6.82237165E+00   # gluino decays
#          BR         NDA      ID1       ID2
     2.21429817E-01    2     2000002        -2   # BR(~g -> ~u_R  ub)
     2.21429817E-01    2    -2000002         2   # BR(~g -> ~u_R* u )
     2.21426675E-01    2     2000004        -4   # BR(~g -> ~c_R  cb)
     2.21426675E-01    2    -2000004         4   # BR(~g -> ~c_R* c )
     5.71435088E-02    2     1000005        -5   # BR(~g -> ~b_1  bb)
     5.71435088E-02    2    -1000005         5   # BR(~g -> ~b_1* b )
#
#         PDG            Width
DECAY   1000006     1.74353951E+02   # stop1 decays
#          BR         NDA      ID1       ID2
     4.05644529E-02    2     1000022         6   # BR(~t_1 -> ~chi_10 t )
     1.23939281E-01    2     1000023         6   # BR(~t_1 -> ~chi_20 t )
     8.90157633E-02    2     1000025         6   # BR(~t_1 -> ~chi_30 t )
     5.99999747E-02    2     1000035         6   # BR(~t_1 -> ~chi_40 t )
     2.87480491E-02    2     1000024         5   # BR(~t_1 -> ~chi_1+ b )
     1.16561549E-01    2     1000037         5   # BR(~t_1 -> ~chi_2+ b )
     5.41117541E-01    2     1000021         6   # BR(~t_1 -> ~g      t )
     5.33883266E-05    2     1000005        24   # BR(~t_1 -> ~b_1    W+)
#
#         PDG            Width
DECAY   2000006     2.55809000E+02   # stop2 decays
#          BR         NDA      ID1       ID2
     5.67328297E-02    2     1000022         6   # BR(~t_2 -> ~chi_10 t )
     9.91773266E-02    2     1000023         6   # BR(~t_2 -> ~chi_20 t )
     7.87707893E-02    2     1000025         6   # BR(~t_2 -> ~chi_30 t )
     2.16379235E-03    2     1000035         6   # BR(~t_2 -> ~chi_40 t )
     1.97285117E-01    2     1000024         5   # BR(~t_2 -> ~chi_1+ b )
     4.32506560E-03    2     1000037         5   # BR(~t_2 -> ~chi_2+ b )
     5.36968771E-01    2     1000021         6   # BR(~t_2 -> ~g      t )
     7.28326560E-03    2     1000006        25   # BR(~t_2 -> ~t_1    h )
     5.83672871E-03    2     1000006        23   # BR(~t_2 -> ~t_1    Z )
     2.99892497E-07    2     1000005        24   # BR(~t_2 -> ~b_1    W+)
     1.14560136E-02    2     2000005        24   # BR(~t_2 -> ~b_2    W+)
#
#         PDG            Width
DECAY   1000005     4.57023274E+00   # sbottom1 decays
#          BR         NDA      ID1       ID2
     2.11990170E-01    2     1000022         5   # BR(~b_1 -> ~chi_10 b )
     2.05040660E-01    2     1000023         5   # BR(~b_1 -> ~chi_20 b )
     1.84627560E-01    2     1000025         5   # BR(~b_1 -> ~chi_30 b )
     5.34149813E-05    2     1000035         5   # BR(~b_1 -> ~chi_40 b )
     3.98192601E-01    2    -1000024         6   # BR(~b_1 -> ~chi_1- t )
     9.55944059E-05    2    -1000037         6   # BR(~b_1 -> ~chi_2- t )
#
#         PDG            Width
DECAY   2000005     1.76030099E+02   # sbottom2 decays
#          BR         NDA      ID1       ID2
     6.31852818E-03    2     1000022         5   # BR(~b_2 -> ~chi_10 b )
     1.18289798E-02    2     1000023         5   # BR(~b_2 -> ~chi_20 b )
     8.12855050E-03    2     1000025         5   # BR(~b_2 -> ~chi_30 b )
     5.94133766E-02    2     1000035         5   # BR(~b_2 -> ~chi_40 b )
     2.45158686E-01    2    -1000024         6   # BR(~b_2 -> ~chi_1- t )
     1.22236026E-01    2    -1000037         6   # BR(~b_2 -> ~chi_2- t )
     5.46857018E-01    2     1000021         5   # BR(~b_2 -> ~g      b )
     3.14843125E-05    2     1000005        25   # BR(~b_2 -> ~b_1    h )
     2.73506948E-05    2     1000005        23   # BR(~b_2 -> ~b_1    Z )
#
#         PDG            Width
DECAY   1000002     1.55948155E+02   # sup_L decays
#          BR         NDA      ID1       ID2
     2.39474993E-03    2     1000022         2   # BR(~u_L -> ~chi_10 u)
     5.51377935E-04    2     1000023         2   # BR(~u_L -> ~chi_20 u)
     5.96844230E-04    2     1000025         2   # BR(~u_L -> ~chi_30 u)
     6.37362799E-02    2     1000035         2   # BR(~u_L -> ~chi_40 u)
     1.95182032E-03    2     1000024         1   # BR(~u_L -> ~chi_1+ d)
     1.26877624E-01    2     1000037         1   # BR(~u_L -> ~chi_2+ d)
     8.03891304E-01    2     1000021         2   # BR(~u_L -> ~g      u)
#
#         PDG            Width
DECAY   2000002     3.06913719E+00   # sup_R decays
#          BR         NDA      ID1       ID2
     6.23617444E-01    2     1000022         2   # BR(~u_R -> ~chi_10 u)
     3.53352383E-03    2     1000023         2   # BR(~u_R -> ~chi_20 u)
     3.72847928E-01    2     1000025         2   # BR(~u_R -> ~chi_30 u)
     1.10381529E-06    2     1000035         2   # BR(~u_R -> ~chi_40 u)
#
#         PDG            Width
DECAY   1000001     1.55979011E+02   # sdown_L decays
#          BR         NDA      ID1       ID2
     1.30470243E-03    2     1000022         1   # BR(~d_L -> ~chi_10 d)
     2.90147150E-04    2     1000023         1   # BR(~d_L -> ~chi_20 d)
     1.78522014E-03    2     1000025         1   # BR(~d_L -> ~chi_30 d)
     6.38733621E-02    2     1000035         1   # BR(~d_L -> ~chi_40 d)
     1.75182833E-04    2    -1000024         2   # BR(~d_L -> ~chi_1- u)
     1.28317939E-01    2    -1000037         2   # BR(~d_L -> ~chi_2- u)
     8.04253446E-01    2     1000021         1   # BR(~d_L -> ~g      d)
#
#         PDG            Width
DECAY   2000001     7.35741942E+01   # sdown_R decays
#          BR         NDA      ID1       ID2
     1.26379215E-02    2     1000022         1   # BR(~d_R -> ~chi_10 d)
     7.25372228E-05    2     1000023         1   # BR(~d_R -> ~chi_20 d)
     7.74640434E-03    2     1000025         1   # BR(~d_R -> ~chi_30 d)
     9.48249721E-08    2     1000035         1   # BR(~d_R -> ~chi_40 d)
     9.79543042E-01    2     1000021         1   # BR(~d_R -> ~g      d)
#
#         PDG            Width
DECAY   1000004     1.25589685E+02   # scharm_L decays
#          BR         NDA      ID1       ID2
     3.08604665E-03    2     1000022         4   # BR(~c_L -> ~chi_10 c)
     7.10434404E-04    2     1000023         4   # BR(~c_L -> ~chi_20 c)
     7.68920100E-04    2     1000025         4   # BR(~c_L -> ~chi_30 c)
     8.18756123E-02    2     1000035         4   # BR(~c_L -> ~chi_40 c)
     2.51486003E-03    2     1000024         3   # BR(~c_L -> ~chi_1+ s)
     1.62986965E-01    2     1000037         3   # BR(~c_L -> ~chi_2+ s)
     7.48057162E-01    2     1000021         4   # BR(~c_L -> ~g      c)
#
#         PDG            Width
DECAY   2000004     3.11731499E+00   # scharm_R decays
#          BR         NDA      ID1       ID2
     6.23748153E-01    2     1000022         4   # BR(~c_R -> ~chi_10 c)
     3.53316733E-03    2     1000023         4   # BR(~c_R -> ~chi_20 c)
     3.72717598E-01    2     1000025         4   # BR(~c_R -> ~chi_30 c)
     1.08174933E-06    2     1000035         4   # BR(~c_R -> ~chi_40 c)
#
#         PDG            Width
DECAY   1000003     1.25597432E+02   # sstrange_L decays
#          BR         NDA      ID1       ID2
     1.68155446E-03    2     1000022         3   # BR(~s_L -> ~chi_10 s)
     3.73895378E-04    2     1000023         3   # BR(~s_L -> ~chi_20 s)
     2.30021912E-03    2     1000025         3   # BR(~s_L -> ~chi_30 s)
     8.20627041E-02    2     1000035         3   # BR(~s_L -> ~chi_40 s)
     2.25747217E-04    2    -1000024         4   # BR(~s_L -> ~chi_1- c)
     1.64859132E-01    2    -1000037         4   # BR(~s_L -> ~chi_2- c)
     7.48496748E-01    2     1000021         3   # BR(~s_L -> ~g      s)
#
#         PDG            Width
DECAY   2000003     5.55767576E+01   # sstrange_R decays
#          BR         NDA      ID1       ID2
     1.74372827E-02    2     1000022         3   # BR(~s_R -> ~chi_10 s)
     1.00060864E-04    2     1000023         3   # BR(~s_R -> ~chi_20 s)
     1.06837342E-02    2     1000025         3   # BR(~s_R -> ~chi_30 s)
     1.30156030E-07    2     1000035         3   # BR(~s_R -> ~chi_40 s)
     9.71778792E-01    2     1000021         3   # BR(~s_R -> ~g      s)
#
#         PDG            Width
DECAY   1000011     4.29595634E+01   # selectron_L decays
#          BR         NDA      ID1       ID2
     7.79333943E-02    2     1000022        11   # BR(~e_L -> ~chi_10 e-)
     3.89092920E-03    2     1000023        11   # BR(~e_L -> ~chi_20 e-)
     3.60789772E-02    2     1000025        11   # BR(~e_L -> ~chi_30 e-)
     2.92138126E-01    2     1000035        11   # BR(~e_L -> ~chi_40 e-)
     7.60869096E-04    2    -1000024        12   # BR(~e_L -> ~chi_1- nu_e)
     5.89197705E-01    2    -1000037        12   # BR(~e_L -> ~chi_2- nu_e)
#
#         PDG            Width
DECAY   2000011     1.54708378E+01   # selectron_R decays
#          BR         NDA      ID1       ID2
     6.17527974E-01    2     1000022        11   # BR(~e_R -> ~chi_10 e-)
     3.54632439E-03    2     1000023        11   # BR(~e_R -> ~chi_20 e-)
     3.78920802E-01    2     1000025        11   # BR(~e_R -> ~chi_30 e-)
     4.90007793E-06    2     1000035        11   # BR(~e_R -> ~chi_40 e-)
#
#         PDG            Width
DECAY   1000013     4.29595634E+01   # smuon_L decays
#          BR         NDA      ID1       ID2
     7.79333942E-02    2     1000022        13   # BR(~mu_L -> ~chi_10 mu-)
     3.89092920E-03    2     1000023        13   # BR(~mu_L -> ~chi_20 mu-)
     3.60789772E-02    2     1000025        13   # BR(~mu_L -> ~chi_30 mu-)
     2.92138125E-01    2     1000035        13   # BR(~mu_L -> ~chi_40 mu-)
     7.60869097E-04    2    -1000024        14   # BR(~mu_L -> ~chi_1- nu_mu)
     5.89197705E-01    2    -1000037        14   # BR(~mu_L -> ~chi_2- nu_mu)
#
#         PDG            Width
DECAY   2000013     1.54708378E+01   # smuon_R decays
#          BR         NDA      ID1       ID2
     6.17527974E-01    2     1000022        13   # BR(~mu_R -> ~chi_10 mu-)
     3.54632439E-03    2     1000023        13   # BR(~mu_R -> ~chi_20 mu-)
     3.78920802E-01    2     1000025        13   # BR(~mu_R -> ~chi_30 mu-)
     4.90007792E-06    2     1000035        13   # BR(~mu_R -> ~chi_40 mu-)
#
#         PDG            Width
DECAY   1000015     1.37225752E-01   # stau_1 decays
#          BR         NDA      ID1       ID2
     7.34266761E-01    2     1000022        15   # BR(~tau_1 -> ~chi_10  tau-)
     1.56088944E-01    2     1000023        15   # BR(~tau_1 -> ~chi_20  tau-)
     1.06321512E-01    2     1000025        15   # BR(~tau_1 -> ~chi_30  tau-)
     3.32278325E-03    2    -1000024        16   # BR(~tau_1 -> ~chi_1-  nu_tau)
#
#         PDG            Width
DECAY   2000015     2.05604084E+01   # stau_2 decays
#          BR         NDA      ID1       ID2
     5.02929483E-01    2     1000022        15   # BR(~tau_2 -> ~chi_10  tau-)
     5.82583673E-02    2     1000023        15   # BR(~tau_2 -> ~chi_20  tau-)
     3.24796794E-01    2     1000025        15   # BR(~tau_2 -> ~chi_30  tau-)
     6.26214208E-05    2     1000035        15   # BR(~tau_2 -> ~chi_40  tau-)
     1.11043848E-01    2    -1000024        16   # BR(~tau_2 -> ~chi_1-  nu_tau)
     1.17667261E-04    2    -1000037        16   # BR(~tau_2 -> ~chi_2-  nu_tau)
     1.37142325E-03    2     1000016       -24   # BR(~tau_2 -> ~nu_tauL W-)
     7.14597796E-04    2     1000015        25   # BR(~tau_2 -> ~tau_1   h)
     7.05198631E-04    2     1000015        23   # BR(~tau_2 -> ~tau_1   Z)
#
#         PDG            Width
DECAY   1000012     4.29769189E+01   # snu_eL decays
#          BR         NDA      ID1       ID2
     6.36910579E-02    2     1000022        12   # BR(~nu_eL -> ~chi_10 nu_e)
     4.86285440E-04    2     1000023        12   # BR(~nu_eL -> ~chi_20 nu_e)
     5.15345687E-02    2     1000025        12   # BR(~nu_eL -> ~chi_30 nu_e)
     2.93606709E-01    2     1000035        12   # BR(~nu_eL -> ~chi_40 nu_e)
     8.47177120E-03    2     1000024        11   # BR(~nu_eL -> ~chi_1+ e-)
     5.82209608E-01    2     1000037        11   # BR(~nu_eL -> ~chi_2+ e-)
#
#         PDG            Width
DECAY   1000014     4.29769189E+01   # snu_muL decays
#          BR         NDA      ID1       ID2
     6.36910580E-02    2     1000022        14   # BR(~nu_muL -> ~chi_10 nu_mu)
     4.86285441E-04    2     1000023        14   # BR(~nu_muL -> ~chi_20 nu_mu)
     5.15345687E-02    2     1000025        14   # BR(~nu_muL -> ~chi_30 nu_mu)
     2.93606709E-01    2     1000035        14   # BR(~nu_muL -> ~chi_40 nu_mu)
     8.47177119E-03    2     1000024        13   # BR(~nu_muL -> ~chi_1+ mu-)
     5.82209607E-01    2     1000037        13   # BR(~nu_muL -> ~chi_2+ mu-)
#
#         PDG            Width
DECAY   1000016     1.05290911E-01   # snu_tauL decays
#          BR         NDA      ID1       ID2
     5.83987696E-01    2     1000022        16   # BR(~nu_tauL -> ~chi_10 nu_tau)
     2.20384226E-03    2     1000023        16   # BR(~nu_tauL -> ~chi_20 nu_tau)
     8.68993197E-02    2     1000025        16   # BR(~nu_tauL -> ~chi_30 nu_tau)
     3.26909142E-01    2     1000024        15   # BR(~nu_tauL -> ~chi_1+ tau-)
#
#         PDG            Width
DECAY   1000024     1.80792015E-05   # chargino1+ decays
#           BR         NDA      ID1       ID2       ID3
     3.34312146E-01    3     1000022         2        -1   # BR(~chi_1+ -> ~chi_10 u    db)
     2.45892308E-10    3     1000023         2        -1   # BR(~chi_1+ -> ~chi_20 u    db)
     3.34312146E-01    3     1000022         4        -3   # BR(~chi_1+ -> ~chi_10 c    sb)
     1.11430983E-01    3     1000022       -11        12   # BR(~chi_1+ -> ~chi_10 e+   nu_e)
     8.19638340E-11    3     1000023       -11        12   # BR(~chi_1+ -> ~chi_20 e+   nu_e)
     1.11430983E-01    3     1000022       -13        14   # BR(~chi_1+ -> ~chi_10 mu+  nu_mu)
     8.19638340E-11    3     1000023       -13        14   # BR(~chi_1+ -> ~chi_20 mu+  nu_mu)
     1.08513742E-01    3     1000022       -15        16   # BR(~chi_1+ -> ~chi_10 tau+ nu_tau)
#
#         PDG            Width
DECAY   1000037     1.63841387E+01   # chargino2+ decays
#          BR         NDA      ID1       ID2
     2.21601464E-01    2     1000016       -15   # BR(~chi_2+ -> ~nu_tau1 tau+)
     2.21455446E-01    2    -1000015        16   # BR(~chi_2+ -> ~tau_1+  nu_tau)
     1.42067566E-01    2     1000024        23   # BR(~chi_2+ -> ~chi_1+  Z )
     5.32598857E-02    2     1000022        24   # BR(~chi_2+ -> ~chi_10  W+)
     1.38603413E-01    2     1000023        24   # BR(~chi_2+ -> ~chi_20  W+)
     8.55720416E-02    2     1000025        24   # BR(~chi_2+ -> ~chi_30  W+)
     1.37440184E-01    2     1000024        25   # BR(~chi_2+ -> ~chi_1+  h )
#
#         PDG            Width
DECAY   1000022     0.00000000E+00   # neutralino1 decays
#
#         PDG            Width
DECAY   1000023     1.34607362E-05   # neutralino2 decays
#          BR         NDA      ID1       ID2
     2.44727434E-03    2     1000022        22   # BR(~chi_20 -> ~chi_10 gam)
#           BR         NDA      ID1       ID2       ID3
     1.19525085E-01    3     1000022        -2         2   # BR(~chi_20 -> ~chi_10 ub      u)
     1.55134791E-01    3     1000022        -1         1   # BR(~chi_20 -> ~chi_10 db      d)
     1.19525085E-01    3     1000022        -4         4   # BR(~chi_20 -> ~chi_10 cb      c)
     1.55134791E-01    3     1000022        -3         3   # BR(~chi_20 -> ~chi_10 sb      s)
     1.28690763E-01    3     1000022        -5         5   # BR(~chi_20 -> ~chi_10 bb      b)
     3.56388346E-02    3     1000022       -11        11   # BR(~chi_20 -> ~chi_10 e+      e-)
     3.56388346E-02    3     1000022       -13        13   # BR(~chi_20 -> ~chi_10 mu+     mu-)
     3.48898296E-02    3     1000022       -15        15   # BR(~chi_20 -> ~chi_10 tau+    tau-)
     7.12755454E-02    3     1000022       -12        12   # BR(~chi_20 -> ~chi_10 nu_eb   nu_e)
     7.12755454E-02    3     1000022       -14        14   # BR(~chi_20 -> ~chi_10 nu_mub  nu_mu)
     7.08236208E-02    3     1000022       -16        16   # BR(~chi_20 -> ~chi_10 nu_taub nu_tau)
#
#         PDG            Width
DECAY   1000025     3.03393530E-05   # neutralino3 decays
#          BR         NDA      ID1       ID2
     3.27781739E-02    2     1000022        22   # BR(~chi_30 -> ~chi_10 gam)
     1.84331500E-02    2     1000023        22   # BR(~chi_30 -> ~chi_20 gam)
#           BR         NDA      ID1       ID2       ID3
     2.15610792E-03    3     1000022        -2         2   # BR(~chi_30 -> ~chi_10 ub      u)
     2.61233539E-03    3     1000022        -1         1   # BR(~chi_30 -> ~chi_10 db      d)
     2.15610792E-03    3     1000022        -4         4   # BR(~chi_30 -> ~chi_10 cb      c)
     2.61233539E-03    3     1000022        -3         3   # BR(~chi_30 -> ~chi_10 sb      s)
     2.53941363E-03    3     1000022        -5         5   # BR(~chi_30 -> ~chi_10 bb      b)
     5.66796447E-04    3     1000022       -11        11   # BR(~chi_30 -> ~chi_10 e+      e-)
     5.66796447E-04    3     1000022       -13        13   # BR(~chi_30 -> ~chi_10 mu+     mu-)
     2.15003920E-03    3     1000022       -15        15   # BR(~chi_30 -> ~chi_10 tau+    tau-)
     1.21425792E-03    3     1000022       -12        12   # BR(~chi_30 -> ~chi_10 nu_eb   nu_e)
     1.21425792E-03    3     1000022       -14        14   # BR(~chi_30 -> ~chi_10 nu_mub  nu_mu)
     7.28258328E-03    3     1000022       -16        16   # BR(~chi_30 -> ~chi_10 nu_taub nu_tau)
     3.34764084E-02    3     1000023        -2         2   # BR(~chi_30 -> ~chi_20 ub      u)
     4.34622281E-02    3     1000023        -1         1   # BR(~chi_30 -> ~chi_20 db      d)
     3.34764084E-02    3     1000023        -4         4   # BR(~chi_30 -> ~chi_20 cb      c)
     4.34622281E-02    3     1000023        -3         3   # BR(~chi_30 -> ~chi_20 sb      s)
     3.29810891E-02    3     1000023        -5         5   # BR(~chi_30 -> ~chi_20 bb      b)
     9.98806225E-03    3     1000023       -11        11   # BR(~chi_30 -> ~chi_20 e+      e-)
     9.98806225E-03    3     1000023       -13        13   # BR(~chi_30 -> ~chi_20 mu+     mu-)
     1.00150873E-02    3     1000023       -15        15   # BR(~chi_30 -> ~chi_20 tau+    tau-)
     1.99696719E-02    3     1000023       -12        12   # BR(~chi_30 -> ~chi_20 nu_eb   nu_e)
     1.99696719E-02    3     1000023       -14        14   # BR(~chi_30 -> ~chi_20 nu_mub  nu_mu)
     2.01080052E-02    3     1000023       -16        16   # BR(~chi_30 -> ~chi_20 nu_taub nu_tau)
     1.07942987E-01    3     1000024        -2         1   # BR(~chi_30 -> ~chi_1+ ub      d)
     1.07942987E-01    3    -1000024        -1         2   # BR(~chi_30 -> ~chi_1- db      u)
     1.07942987E-01    3     1000024        -4         3   # BR(~chi_30 -> ~chi_1+ cb      s)
     1.07942987E-01    3    -1000024        -3         4   # BR(~chi_30 -> ~chi_1- sb      c)
     3.59825913E-02    3     1000024       -12        11   # BR(~chi_30 -> ~chi_1+ nu_eb   e-)
     3.59825913E-02    3    -1000024        12       -11   # BR(~chi_30 -> ~chi_1- nu_e    e+)
     3.59825913E-02    3     1000024       -14        13   # BR(~chi_30 -> ~chi_1+ nu_mub  mu-)
     3.59825913E-02    3    -1000024        14       -13   # BR(~chi_30 -> ~chi_1- nu_mu   mu+)
     3.55592051E-02    3     1000024       -16        15   # BR(~chi_30 -> ~chi_1+ nu_taub tau-)
     3.55592051E-02    3    -1000024        16       -15   # BR(~chi_30 -> ~chi_1- nu_tau  tau+)
#
#         PDG            Width
DECAY   1000035     1.63799087E+01   # neutralino4 decays
#          BR         NDA      ID1       ID2
     4.06876819E-02    2     1000022        23   # BR(~chi_40 -> ~chi_10   Z )
     3.21031859E-02    2     1000023        23   # BR(~chi_40 -> ~chi_20   Z )
     6.86935566E-02    2     1000025        23   # BR(~chi_40 -> ~chi_30   Z )
     1.39585826E-01    2     1000024       -24   # BR(~chi_40 -> ~chi_1+   W-)
     1.39585826E-01    2    -1000024        24   # BR(~chi_40 -> ~chi_1-   W+)
     1.29202543E-02    2     1000022        25   # BR(~chi_40 -> ~chi_10   h )
     1.05950480E-01    2     1000023        25   # BR(~chi_40 -> ~chi_20   h )
     1.73759429E-02    2     1000025        25   # BR(~chi_40 -> ~chi_30   h )
     1.09802329E-01    2     1000015       -15   # BR(~chi_40 -> ~tau_1-   tau+)
     1.09802329E-01    2    -1000015        15   # BR(~chi_40 -> ~tau_1+   tau-)
     1.11746295E-01    2     1000016       -16   # BR(~chi_40 -> ~nu_tau1  nu_taub)
     1.11746295E-01    2    -1000016        16   # BR(~chi_40 -> ~nu_tau1* nu_tau )
#
#         PDG            Width
DECAY        25     3.91561405E-03   # h decays
#          BR         NDA      ID1       ID2
     6.05197438E-01    2           5        -5   # BR(h -> b       bb     )
     6.60428722E-02    2         -15        15   # BR(h -> tau+    tau-   )
     2.33798059E-04    2         -13        13   # BR(h -> mu+     mu-    )
     2.55524977E-04    2           3        -3   # BR(h -> s       sb     )
     2.20436871E-02    2           4        -4   # BR(h -> c       cb     )
     8.01477082E-02    2          21        21   # BR(h -> g       g      )
     2.34597323E-03    2          22        22   # BR(h -> gam     gam    )
     1.49181746E-03    2          22        23   # BR(h -> Z       gam    )
     1.97840597E-01    2          24       -24   # BR(h -> W+      W-     )
     2.44005845E-02    2          23        23   # BR(h -> Z       Z      )
#
#         PDG            Width
DECAY        35     4.39781829E+01   # H decays
#          BR         NDA      ID1       ID2
     2.61510008E-01    2           5        -5   # BR(H -> b       bb     )
     4.44422382E-02    2         -15        15   # BR(H -> tau+    tau-   )
     1.63976611E-04    2         -13        13   # BR(H -> mu+     mu-    )
     1.06082653E-04    2           3        -3   # BR(H -> s       sb     )
     8.04564259E-08    2           4        -4   # BR(H -> c       cb     )
     7.90113143E-03    2           6        -6   # BR(H -> t       tb     )
     2.01146783E-06    2          21        21   # BR(H -> g       g      )
     7.42444706E-08    2          22        22   # BR(H -> gam     gam    )
     3.21631475E-09    2          23        22   # BR(H -> Z       gam    )
     4.04701285E-06    2          24       -24   # BR(H -> W+      W-     )
     2.01885281E-06    2          23        23   # BR(H -> Z       Z      )
     1.48423097E-05    2          25        25   # BR(H -> h       h      )
     6.19094299E-03    2     1000024  -1000024   # BR(H -> ~chi_1+ ~chi_1-)
     1.10732954E-04    2     1000037  -1000037   # BR(H -> ~chi_2+ ~chi_2-)
     1.99861663E-01    2     1000024  -1000037   # BR(H -> ~chi_1+ ~chi_2-)
     1.99861663E-01    2     1000037  -1000024   # BR(H -> ~chi_2+ ~chi_1-)
     2.04614256E-02    2     1000022   1000022   # BR(H -> ~chi_10 ~chi_10)
     3.67816761E-04    2     1000023   1000023   # BR(H -> ~chi_20 ~chi_20)
     2.14986235E-02    2     1000025   1000025   # BR(H -> ~chi_30 ~chi_30)
     5.59406222E-05    2     1000035   1000035   # BR(H -> ~chi_40 ~chi_40)
     2.23643274E-02    2     1000022   1000023   # BR(H -> ~chi_10 ~chi_20)
     5.36411660E-04    2     1000022   1000025   # BR(H -> ~chi_10 ~chi_30)
     5.03856741E-02    2     1000022   1000035   # BR(H -> ~chi_10 ~chi_40)
     1.32260749E-02    2     1000023   1000025   # BR(H -> ~chi_20 ~chi_30)
     8.12071290E-02    2     1000023   1000035   # BR(H -> ~chi_20 ~chi_40)
     6.97221786E-02    2     1000025   1000035   # BR(H -> ~chi_30 ~chi_40)
     1.24651465E-07    2     2000002  -2000002   # BR(H -> ~u_R    ~u_R*  )
     1.24651465E-07    2     2000004  -2000004   # BR(H -> ~c_R    ~c_R*  )
     6.12889723E-07    2     1000015  -1000015   # BR(H -> ~tau_1- ~tau_1+)
     2.02031956E-06    2     1000016  -1000016   # BR(H -> ~nu_tauL ~nu_tauL*)
#
#         PDG            Width
DECAY        36     4.39781736E+01   # A decays
#          BR         NDA      ID1       ID2
     2.61534431E-01    2           5        -5   # BR(A -> b       bb     )
     4.44427277E-02    2         -15        15   # BR(A -> tau+    tau-   )
     1.63978115E-04    2         -13        13   # BR(A -> mu+     mu-    )
     1.06105611E-04    2           3        -3   # BR(A -> s       sb     )
     8.07524643E-08    2           4        -4   # BR(A -> c       cb     )
     7.93094351E-03    2           6        -6   # BR(A -> t       tb     )
     2.24568357E-05    2          21        21   # BR(A -> g       g      )
     1.20437685E-07    2          22        22   # BR(A -> gam     gam    )
     2.05593021E-08    2          23        22   # BR(A -> Z       gam    )
     4.09949635E-06    2          23        25   # BR(A -> Z       h      )
     6.85286594E-03    2     1000024  -1000024   # BR(A -> ~chi_1+ ~chi_1-)
     5.45784039E-04    2     1000037  -1000037   # BR(A -> ~chi_2+ ~chi_2-)
     1.99295454E-01    2     1000024  -1000037   # BR(A -> ~chi_1+ ~chi_2-)
     1.99295454E-01    2     1000037  -1000024   # BR(A -> ~chi_2+ ~chi_1-)
     1.74617702E-02    2     1000022   1000022   # BR(A -> ~chi_10 ~chi_10)
     4.73471995E-04    2     1000023   1000023   # BR(A -> ~chi_20 ~chi_20)
     1.76973101E-02    2     1000025   1000025   # BR(A -> ~chi_30 ~chi_30)
     2.74321470E-04    2     1000035   1000035   # BR(A -> ~chi_40 ~chi_40)
     2.62044651E-02    2     1000022   1000023   # BR(A -> ~chi_10 ~chi_20)
     3.50923680E-04    2     1000022   1000025   # BR(A -> ~chi_10 ~chi_30)
     3.53235193E-02    2     1000022   1000035   # BR(A -> ~chi_10 ~chi_40)
     1.64108796E-02    2     1000023   1000025   # BR(A -> ~chi_20 ~chi_30)
     1.19428802E-01    2     1000023   1000035   # BR(A -> ~chi_20 ~chi_40)
     4.61800153E-02    2     1000025   1000035   # BR(A -> ~chi_30 ~chi_40)
#
#         PDG            Width
DECAY        37     4.38895934E+01   # H+ decays
#          BR         NDA      ID1       ID2
     4.38158240E-04    2           4        -5   # BR(H+ -> c       bb     )
     4.45528432E-02    2         -15        16   # BR(H+ -> tau+    nu_tau )
     1.64384402E-04    2         -13        14   # BR(H+ -> mu+     nu_mu  )
     4.38157565E-06    2           2        -5   # BR(H+ -> u       bb     )
     5.31800048E-06    2           2        -3   # BR(H+ -> u       sb     )
     1.04751990E-04    2           4        -3   # BR(H+ -> c       sb     )
     2.68060908E-01    2           6        -5   # BR(H+ -> t       bb     )
     4.11617577E-06    2          24        25   # BR(H+ -> W+      h      )
     1.26137950E-13    2          24        36   # BR(H+ -> W+      A      )
     5.85144437E-02    2     1000024   1000022   # BR(H+ -> ~chi_1+ ~chi_10)
     1.33300885E-03    2     1000024   1000023   # BR(H+ -> ~chi_1+ ~chi_20)
     2.02783499E-02    2     1000024   1000025   # BR(H+ -> ~chi_1+ ~chi_30)
     2.01175681E-01    2     1000024   1000035   # BR(H+ -> ~chi_1+ ~chi_40)
     8.57810009E-02    2     1000037   1000022   # BR(H+ -> ~chi_2+ ~chi_10)
     2.03687587E-01    2     1000037   1000023   # BR(H+ -> ~chi_2+ ~chi_20)
     1.15892640E-01    2     1000037   1000025   # BR(H+ -> ~chi_2+ ~chi_30)
     1.49473782E-09    2     1000037   1000035   # BR(H+ -> ~chi_2+ ~chi_40)
     2.42595982E-06    2    -1000015   1000016   # BR(H+ -> ~tau_1+ ~nu_tauL)

DECAY         5   0.000000e+00 # b decays
DECAY        15   0.000000e+00 # tau decays
DECAY        23     2.49520000E+00   # Z
DECAY        24     2.08500000E+00   # W
