# SUSY Les Houches Accord 2 - MSSM spectrum + Decays
# SPheno v4.0.5be
# W. Porod, Comput. Phys. Commun. 153 (2003) 275-315, hep-ph/0301101;
# W. Porod, F.~Staub, Comput. Phys. Commun. 183 (2012) 2458
#                     arXiv:1104.1573 [hep-ph] 
# in case of problems send email to porod@physik.uni-wuerzburg.de
# Created: 07.09.2021,  19:43
Block SPINFO         # Program information
     1   SPheno      # spectrum calculator
     2   v4.0.5be    # version number
#
Block SPhenoINFO     # SPheno specific information
    1      2         # using 2-loop RGEs
    2      2         # using pole masses for boundary conditions at mZ
Block MODSEL  # Model selection
    1    0    # general MSSM
Block MINPAR  # Input parameters
    3    1.12433468E+01  # tanb at m_Z    
    4   -1.00000000E+00  # Sign(mu)
Block EXTPAR  # non-universal input parameters
    0    3.64522646E+03  # scale for input parameters
    1    1.81483829E+02  # M_1
    2   -6.20240080E+02  # M_2
    3    3.99919067E+03  # M_3
   11    4.71354626E+03  # A_t
   12    1.57694690E+03  # A_b
   13   -1.96141217E+03  # A_tau
   23   -1.72957781E+02  # mu
   25    1.06895214E+01  # tan(beta)
   26    2.19737321E+03  # m_A, pole mass
   31    1.00000000E+04  # M_L11
   32    1.00000000E+04  # M_L22
   33    1.00000000E+04  # M_L33
   34    1.00000000E+04  # M_E11
   35    1.00000000E+04  # M_E22
   36    1.00000000E+04  # M_E33
   41    1.00000000E+04  # M_Q11
   42    1.00000000E+04  # M_Q22
   43    3.73260113E+03  # M_Q33
   44    1.00000000E+04  # M_U11
   45    1.00000000E+04  # M_U22
   46    3.43044231E+03  # M_U33
   47    1.00000000E+04  # M_D11
   48    1.00000000E+04  # M_D22
   49    3.46451682E+03  # M_D33
Block SMINPUTS  # SM parameters
         1     1.27908970E+02  # alpha_em^-1(MZ)^MSbar
         2     1.16637870E-05  # G_mu [GeV^-2]
         3     1.18400000E-01  # alpha_s(MZ)^MSbar
         4     9.11876000E+01  # m_Z(pole)
         5     4.18000000E+00  # m_b(m_b), MSbar
         6     1.73200000E+02  # m_t(pole)
         7     1.77700000E+00  # m_tau(pole)
         8     0.00000000E+00  # m_nu_3
        11     5.10998930E-04  # m_e(pole)
        12     0.00000000E+00  # m_nu_1
        13     1.05658372E-01  # m_muon(pole)
        14     0.00000000E+00  # m_nu_2
        21     5.00000000E-03  # m_d(2 GeV), MSbar
        22     2.50000000E-03  # m_u(2 GeV), MSbar
        23     9.50000000E-02  # m_s(2 GeV), MSbar
        24     1.27000000E+00  # m_c(m_c), MSbar
Block gauge Q=  3.64522646E+03  # (SUSY scale)
   1    3.55362975E-01  # g'(Q)^DRbar
   2    6.65198874E-01  # g(Q)^DRbar
   3    1.21977796E+00  # g3(Q)^DRbar
Block Yu Q=  3.64522646E+03  # (SUSY scale)
  1  1     8.42098021E-06   # Y_u(Q)^DRbar
  2  2     4.27785795E-03   # Y_c(Q)^DRbar
  3  3     1.01732205E+00   # Y_t(Q)^DRbar
Block Yd Q=  3.64522646E+03  # (SUSY scale)
  1  1     1.80884417E-04   # Y_d(Q)^DRbar
  2  2     3.43680393E-03   # Y_s(Q)^DRbar
  3  3     1.79380661E-01   # Y_b(Q)^DRbar
Block Ye Q=  3.64522646E+03  # (SUSY scale)
  1  1     3.15656536E-05   # Y_e(Q)^DRbar
  2  2     6.52677603E-03   # Y_mu(Q)^DRbar
  3  3     1.09769636E-01   # Y_tau(Q)^DRbar
Block Au Q=  3.64522646E+03  # (SUSY scale)
  1  1     0.00000000E+00   # A_u(Q)^DRbar
  2  2     0.00000000E+00   # A_c(Q)^DRbar
  3  3     4.71354626E+03   # A_t(Q)^DRbar
Block Ad Q=  3.64522646E+03  # (SUSY scale)
  1  1     0.00000000E+00   # A_d(Q)^DRbar
  2  2     0.00000000E+00   # A_s(Q)^DRbar
  3  3     1.57694690E+03   # A_b(Q)^DRbar
Block Ae Q=  3.64522646E+03  # (SUSY scale)
  1  1     0.00000000E+00   # A_e(Q)^DRbar
  2  2     0.00000000E+00   # A_mu(Q)^DRbar
  3  3    -1.96141217E+03   # A_tau(Q)^DRbar
Block MSOFT Q=  3.64522646E+03  # soft SUSY breaking masses at Q
   1    1.81483829E+02  # M_1
   2   -6.20240080E+02  # M_2
   3    3.99919067E+03  # M_3
  21    4.74927224E+06  # M^2_(H,d)
  22    3.06147388E+05  # M^2_(H,u)
  31    1.00000000E+04  # M_(L,11)
  32    1.00000000E+04  # M_(L,22)
  33    1.00000000E+04  # M_(L,33)
  34    1.00000000E+04  # M_(E,11)
  35    1.00000000E+04  # M_(E,22)
  36    1.00000000E+04  # M_(E,33)
  41    1.00000000E+04  # M_(Q,11)
  42    1.00000000E+04  # M_(Q,22)
  43    3.73260113E+03  # M_(Q,33)
  44    1.00000000E+04  # M_(U,11)
  45    1.00000000E+04  # M_(U,22)
  46    3.43044231E+03  # M_(U,33)
  47    1.00000000E+04  # M_(D,11)
  48    1.00000000E+04  # M_(D,22)
  49    3.46451682E+03  # M_(D,33)
Block MASS  # Mass spectrum
#   PDG code      mass          particle
         6     1.73200000E+02  # m_t(pole)
        23     9.11876000E+01  # m_Z(pole)
        24     8.04299946E+01  # W+
        15     1.77700000E+00  # m_tau(pole)
        25     1.25754103E+02  # h0
        35     2.19719113E+03  # H0
        36     2.19737321E+03  # A0
        37     2.20172854E+03  # H+
   1000001     1.00980078E+04  # ~d_L
   2000001     1.00733581E+04  # ~d_R
   1000002     1.00976457E+04  # ~u_L
   2000002     1.00763636E+04  # ~u_R
   1000003     1.00980085E+04  # ~s_L
   2000003     1.00733586E+04  # ~s_R
   1000004     1.00976465E+04  # ~c_L
   2000004     1.00763645E+04  # ~c_R
   1000005     3.60406232E+03  # ~b_1
   2000005     3.82130997E+03  # ~b_2
   1000006     3.45792181E+03  # ~t_1
   2000006     3.84267681E+03  # ~t_2
   1000011     1.00212753E+04  # ~e_L-
   2000011     1.00090031E+04  # ~e_R-
   1000012     1.00205116E+04  # ~nu_eL
   1000013     1.00212767E+04  # ~mu_L-
   2000013     1.00090059E+04  # ~mu_R-
   1000014     1.00205130E+04  # ~nu_muL
   1000015     1.00097982E+04  # ~tau_1-
   2000015     1.00216831E+04  # ~tau_2-
   1000016     1.00209185E+04  # ~nu_tauL
   1000021     4.45653486E+03  # ~g
   1000022     1.60931400E+02  # ~chi_10
   1000023     1.85735411E+02  # ~chi_20
   1000025     2.18617732E+02  # ~chi_30
   1000035     6.82264442E+02  # ~chi_40
   1000024     1.85833965E+02  # ~chi_1+
   1000037     6.82490126E+02  # ~chi_2+
# Higgs mixing
Block alpha # Effective Higgs mixing angle
          -8.91426112E-02   # alpha
Block Hmix Q=  3.64522646E+03  # Higgs mixing parameters
   1   -1.72957781E+02  # mu
   2    1.06895214E+01  # tan[beta](Q)
   3    2.43036536E+02  # v(Q)
   4    4.82844902E+06  # m^2_A(Q)
Block stopmix # stop mixing matrix
   1  1    -2.33321589E-01   # Re[R_st(1,1)]
   1  2     9.72399628E-01   # Re[R_st(1,2)]
   2  1    -9.72399628E-01   # Re[R_st(2,1)]
   2  2    -2.33321589E-01   # Re[R_st(2,2)]
Block sbotmix # sbottom mixing matrix
   1  1    -3.79930675E-03   # Re[R_sb(1,1)]
   1  2     9.99992783E-01   # Re[R_sb(1,2)]
   2  1    -9.99992783E-01   # Re[R_sb(2,1)]
   2  2    -3.79930675E-03   # Re[R_sb(2,2)]
Block staumix # stau mixing matrix
   1  1     1.56743666E-03   # Re[R_sta(1,1)]
   1  2     9.99998772E-01   # Re[R_sta(1,2)]
   2  1    -9.99998772E-01   # Re[R_sta(2,1)]
   2  2     1.56743666E-03   # Re[R_sta(2,2)]
Block Nmix # neutralino mixing matrix
   1  1     7.47124718E-01   # Re[N(1,1)]
   1  2     3.60527130E-02   # Re[N(1,2)]
   1  3    -5.13940339E-01   # Re[N(1,3)]
   1  4    -4.19964505E-01   # Re[N(1,4)]
   2  1     9.09014787E-02   # Re[N(2,1)]
   2  2     1.24076006E-01   # Re[N(2,2)]
   2  3     7.05862904E-01   # Re[N(2,3)]
   2  4    -6.91447487E-01   # Re[N(2,4)]
   3  1     6.58402614E-01   # Re[N(3,1)]
   3  2    -4.76651135E-02   # Re[N(3,2)]
   3  3     4.85255907E-01   # Re[N(3,3)]
   3  4     5.73376612E-01   # Re[N(3,4)]
   4  1     6.89745395E-03   # Re[N(4,1)]
   4  2    -9.90471294E-01   # Re[N(4,2)]
   4  3     4.63637149E-02   # Re[N(4,3)]
   4  4    -1.29496902E-01   # Re[N(4,4)]
Block Umix # chargino mixing matrix
   1  1    -6.55835327E-02   # Re[U(1,1)]
   1  2    -9.97847083E-01   # Re[U(1,2)]
   2  1    -9.97847083E-01   # Re[U(2,1)]
   2  2     6.55835327E-02   # Re[U(2,2)]
Block Vmix # chargino mixing matrix
   1  1     1.83736099E-01   # Re[V(1,1)]
   1  2     9.82975608E-01   # Re[V(1,2)]
   2  1     9.82975608E-01   # Re[V(2,1)]
   2  2    -1.83736099E-01   # Re[V(2,2)]
DECAY        23     2.49520000E+00   # Z
DECAY        24     2.08500000E+00   # W
DECAY   2000011     5.02559669E+01   # ~e^-_R
#    BR                NDA      ID1      ID2
     5.58302171E-01    2     1000022        11   # BR(~e^-_R -> chi^0_1 e^-)
     8.26324309E-03    2     1000023        11   # BR(~e^-_R -> chi^0_2 e^-)
     4.33387415E-01    2     1000025        11   # BR(~e^-_R -> chi^0_3 e^-)
DECAY   1000011     1.43695467E+02   # ~e^-_L
#    BR                NDA      ID1      ID2
     5.81033586E-02    2     1000022        11   # BR(~e^-_L -> chi^0_1 e^-)
     9.14228458E-03    2     1000023        11   # BR(~e^-_L -> chi^0_2 e^-)
     2.83536292E-02    2     1000025        11   # BR(~e^-_L -> chi^0_3 e^-)
     2.96138009E-01    2     1000035        11   # BR(~e^-_L -> chi^0_4 e^-)
     2.63878468E-03    2    -1000024        12   # BR(~e^-_L -> chi^-_1 nu_e)
     6.05623934E-01    2    -1000037        12   # BR(~e^-_L -> chi^-_2 nu_e)
#    BR                NDA      ID1      ID2       ID3
DECAY   2000013     5.02729330E+01   # ~mu^-_R
#    BR                NDA      ID1      ID2
     5.58158457E-01    2     1000022        13   # BR(~mu^-_R -> chi^0_1 mu^-)
     8.34446311E-03    2     1000023        13   # BR(~mu^-_R -> chi^0_2 mu^-)
     4.33280965E-01    2     1000025        13   # BR(~mu^-_R -> chi^0_3 mu^-)
     1.67885349E-04    2    -1000024        14   # BR(~mu^-_R -> chi^-_1 nu_mu)
DECAY   1000013     1.43703974E+02   # ~mu^-_L
#    BR                NDA      ID1      ID2
     5.81155283E-02    2     1000022        13   # BR(~mu^-_L -> chi^0_1 mu^-)
     9.17116990E-03    2     1000023        13   # BR(~mu^-_L -> chi^0_2 mu^-)
     2.83658580E-02    2     1000025        13   # BR(~mu^-_L -> chi^0_3 mu^-)
     2.96120646E-01    2     1000035        13   # BR(~mu^-_L -> chi^0_4 mu^-)
     2.63862884E-03    2    -1000024        14   # BR(~mu^-_L -> chi^-_1 nu_mu)
     6.05588169E-01    2    -1000037        14   # BR(~mu^-_L -> chi^-_2 nu_mu)
#    BR                NDA      ID1      ID2       ID3
DECAY   1000015     5.50556390E+01   # ~tau^-_1
#    BR                NDA      ID1      ID2
     5.21067344E-01    2     1000022        15   # BR(~tau^-_1 -> chi^0_1 tau^-)
     2.92121471E-02    2     1000023        15   # BR(~tau^-_1 -> chi^0_2 tau^-)
     4.06001230E-01    2     1000025        15   # BR(~tau^-_1 -> chi^0_3 tau^-)
     1.64504312E-04    2     1000035        15   # BR(~tau^-_1 -> chi^0_4 tau^-)
     4.33114946E-02    2    -1000024        16   # BR(~tau^-_1 -> chi^-_1 nu_tau)
     2.43279977E-04    2    -1000037        16   # BR(~tau^-_1 -> chi^-_2 nu_tau)
DECAY   2000015     1.46101827E+02   # ~tau^-_2
#    BR                NDA      ID1      ID2
     6.15309528E-02    2     1000022        15   # BR(~tau^-_2 -> chi^0_1 tau^-)
     1.71908811E-02    2     1000023        15   # BR(~tau^-_2 -> chi^0_2 tau^-)
     3.17136476E-02    2     1000025        15   # BR(~tau^-_2 -> chi^0_3 tau^-)
     2.91296606E-01    2     1000035        15   # BR(~tau^-_2 -> chi^0_4 tau^-)
     2.61589047E-03    2    -1000024        16   # BR(~tau^-_2 -> chi^-_1 nu_tau)
     5.95652022E-01    2    -1000037        16   # BR(~tau^-_2 -> chi^-_2 nu_tau)
#    BR                NDA      ID1      ID2       ID3
DECAY   1000012     1.43699864E+02   # ~nu_e
#    BR                NDA      ID1      ID2
     4.04398454E-02    2     1000022        12   # BR(~nu_e -> chi^0_1 nu_e)
     1.74903946E-03    2     1000023        12   # BR(~nu_e -> chi^0_2 nu_e)
     4.89140476E-02    2     1000025        12   # BR(~nu_e -> chi^0_3 nu_e)
     3.00545234E-01    2     1000035        12   # BR(~nu_e -> chi^0_4 nu_e)
     2.07088946E-02    2     1000024        11   # BR(~nu_e -> chi^+_1 e^-)
     5.87642939E-01    2     1000037        11   # BR(~nu_e -> chi^+_2 e^-)
#    BR                NDA      ID1      ID2       ID3
DECAY   1000014     1.43708371E+02   # ~nu_mu
#    BR                NDA      ID1      ID2
     4.04374574E-02    2     1000022        14   # BR(~nu_mu -> chi^0_1 nu_mu)
     1.74893618E-03    2     1000023        14   # BR(~nu_mu -> chi^0_2 nu_mu)
     4.89111592E-02    2     1000025        14   # BR(~nu_mu -> chi^0_3 nu_mu)
     3.00527487E-01    2     1000035        14   # BR(~nu_mu -> chi^0_4 nu_mu)
     2.07664678E-02    2     1000024        13   # BR(~nu_mu -> chi^+_1 mu^-)
     5.87608492E-01    2     1000037        13   # BR(~nu_mu -> chi^+_2 mu^-)
#    BR                NDA      ID1      ID2       ID3
DECAY   1000016     1.46106222E+02   # ~nu_tau
#    BR                NDA      ID1      ID2
     3.97754213E-02    2     1000022        16   # BR(~nu_tau -> chi^0_1 nu_tau)
     1.72030288E-03    2     1000023        16   # BR(~nu_tau -> chi^0_2 nu_tau)
     4.81103945E-02    2     1000025        16   # BR(~nu_tau -> chi^0_3 nu_tau)
     2.95607506E-01    2     1000035        16   # BR(~nu_tau -> chi^0_4 nu_tau)
     3.67276267E-02    2     1000024        15   # BR(~nu_tau -> chi^+_1 tau^-)
     5.78058749E-01    2     1000037        15   # BR(~nu_tau -> chi^+_2 tau^-)
#    BR                NDA      ID1      ID2       ID3
DECAY   2000001     5.19952464E+02   # ~d_R
#    BR                NDA      ID1      ID2
     6.03444522E-03    2     1000022         1   # BR(~d_R -> chi^0_1 d)
     4.68432245E-03    2     1000025         1   # BR(~d_R -> chi^0_3 d)
     9.89191390E-01    2     1000021         1   # BR(~d_R -> ~g d)
DECAY   1000001     6.50357853E+02   # ~d_L
#    BR                NDA      ID1      ID2
     6.42577449E-04    2     1000022         1   # BR(~d_L -> chi^0_1 d)
     7.94965906E-04    2     1000023         1   # BR(~d_L -> chi^0_2 d)
     1.85681918E-03    2     1000025         1   # BR(~d_L -> chi^0_3 d)
     6.65997469E-02    2     1000035         1   # BR(~d_L -> chi^0_4 d)
     5.87505425E-04    2    -1000024         2   # BR(~d_L -> chi^-_1 u)
     1.34855198E-01    2    -1000037         2   # BR(~d_L -> chi^-_2 u)
     7.94663187E-01    2     1000021         1   # BR(~d_L -> ~g d)
DECAY   2000003     5.19957231E+02   # ~s_R
#    BR                NDA      ID1      ID2
     6.03558882E-03    2     1000022         3   # BR(~s_R -> chi^0_1 s)
     4.68534760E-03    2     1000025         3   # BR(~s_R -> chi^0_3 s)
     9.89182415E-01    2     1000021         3   # BR(~s_R -> ~g s)
DECAY   1000003     6.50363970E+02   # ~s_L
#    BR                NDA      ID1      ID2
     6.43532033E-04    2     1000022         3   # BR(~s_L -> chi^0_1 s)
     7.96770141E-04    2     1000023         3   # BR(~s_L -> chi^0_2 s)
     1.85765772E-03    2     1000025         3   # BR(~s_L -> chi^0_3 s)
     6.65991328E-02    2     1000035         3   # BR(~s_L -> chi^0_4 s)
     5.92957563E-04    2    -1000024         4   # BR(~s_L -> chi^-_1 c)
     1.34854129E-01    2    -1000037         4   # BR(~s_L -> chi^-_2 c)
     7.94655820E-01    2     1000021         3   # BR(~s_L -> ~g s)
DECAY   1000005     6.58052576E+00   # ~b_1
#    BR                NDA      ID1      ID2
     2.63558347E-01    2     1000022         5   # BR(~b_1 -> chi^0_1 b)
     1.76636036E-01    2     1000023         5   # BR(~b_1 -> chi^0_2 b)
     2.12150583E-01    2     1000025         5   # BR(~b_1 -> chi^0_3 b)
     4.46543443E-04    2     1000035         5   # BR(~b_1 -> chi^0_4 b)
     3.46343900E-01    2    -1000024         6   # BR(~b_1 -> chi^-_1 t)
     8.63481311E-04    2    -1000037         6   # BR(~b_1 -> chi^-_2 t)
DECAY   2000005     1.39629149E+02   # ~b_2
#    BR                NDA      ID1      ID2
     5.67583908E-03    2     1000022         5   # BR(~b_2 -> chi^0_1 b)
     1.00654045E-02    2     1000023         5   # BR(~b_2 -> chi^0_2 b)
     7.41913754E-03    2     1000025         5   # BR(~b_2 -> chi^0_3 b)
     1.11081951E-01    2     1000035         5   # BR(~b_2 -> chi^0_4 b)
     5.40434965E-01    2    -1000024         6   # BR(~b_2 -> chi^-_1 t)
     2.43727555E-01    2    -1000037         6   # BR(~b_2 -> chi^-_2 t)
     8.15879121E-02    2     1000006       -24   # BR(~b_2 -> ~t_1 W^-)
DECAY   2000002     5.37121842E+02   # ~u_R
#    BR                NDA      ID1      ID2
     2.33731699E-02    2     1000022         2   # BR(~u_R -> chi^0_1 u)
     3.45939168E-04    2     1000023         2   # BR(~u_R -> chi^0_2 u)
     1.81437531E-02    2     1000025         2   # BR(~u_R -> chi^0_3 u)
     9.58135163E-01    2     1000021         2   # BR(~u_R -> ~g u)
DECAY   1000002     6.50340837E+02   # ~u_L
#    BR                NDA      ID1      ID2
     1.95311394E-03    2     1000022         2   # BR(~u_L -> chi^0_1 u)
     1.34361718E-03    2     1000023         2   # BR(~u_L -> chi^0_2 u)
     3.30545401E-04    2     1000025         2   # BR(~u_L -> chi^0_3 u)
     6.62695251E-02    2     1000035         2   # BR(~u_L -> chi^0_4 u)
     4.61113620E-03    2     1000024         1   # BR(~u_L -> chi^+_1 d)
     1.30864152E-01    2     1000037         1   # BR(~u_L -> chi^+_2 d)
     7.94627911E-01    2     1000021         2   # BR(~u_L -> ~g u)
DECAY   2000004     5.37129234E+02   # ~c_R
#    BR                NDA      ID1      ID2
     2.33740519E-02    2     1000022         4   # BR(~c_R -> chi^0_1 c)
     3.49197172E-04    2     1000023         4   # BR(~c_R -> chi^0_2 c)
     1.81457501E-02    2     1000025         4   # BR(~c_R -> chi^0_3 c)
     9.58122089E-01    2     1000021         4   # BR(~c_R -> ~g c)
DECAY   1000004     6.50346932E+02   # ~c_L
#    BR                NDA      ID1      ID2
     1.95409257E-03    2     1000022         4   # BR(~c_L -> chi^0_1 c)
     1.34630599E-03    2     1000023         4   # BR(~c_L -> chi^0_2 c)
     3.32398662E-04    2     1000025         4   # BR(~c_L -> chi^0_3 c)
     6.62689977E-02    2     1000035         4   # BR(~c_L -> chi^0_4 c)
     4.61471342E-03    2     1000024         3   # BR(~c_L -> chi^+_1 s)
     1.30862951E-01    2     1000037         3   # BR(~c_L -> chi^+_2 s)
     7.94620540E-01    2     1000021         4   # BR(~c_L -> ~g c)
DECAY   1000006     1.47349925E+02   # ~t_1
#    BR                NDA      ID1      ID2
     9.64009077E-02    2     1000022         6   # BR(~t_1 -> chi^0_1 t)
     2.34740389E-01    2     1000023         6   # BR(~t_1 -> chi^0_2 t)
     2.02082717E-01    2     1000025         6   # BR(~t_1 -> chi^0_3 t)
     5.21702374E-04    2     1000035         6   # BR(~t_1 -> chi^0_4 t)
     4.65833072E-01    2     1000024         5   # BR(~t_1 -> chi^+_1 b)
     3.70792797E-04    2     1000037         5   # BR(~t_1 -> chi^+_2 b)
#    BR                NDA      ID1      ID2       ID3
DECAY   2000006     1.45048467E+02   # ~t_2
#    BR                NDA      ID1      ID2
     1.17664191E-01    2     1000022         6   # BR(~t_2 -> chi^0_1 t)
     2.54447047E-01    2     1000023         6   # BR(~t_2 -> chi^0_2 t)
     1.52952054E-01    2     1000025         6   # BR(~t_2 -> chi^0_3 t)
     1.22052376E-01    2     1000035         6   # BR(~t_2 -> chi^0_4 t)
     2.27688887E-02    2     1000024         5   # BR(~t_2 -> chi^+_1 b)
     2.28265024E-01    2     1000037         5   # BR(~t_2 -> chi^+_2 b)
     4.32303912E-02    2     1000006        23   # BR(~t_2 -> ~t_1 Z)
     5.86147467E-02    2     1000006        25   # BR(~t_2 -> ~t_1 h^0)
DECAY   1000024     5.16854242E-06   # chi^+_1
#    BR                NDA      ID1      ID2       ID3
     3.35649100E-01    3     1000022        -1         2   # BR(chi^+_1 -> chi^0_1 d_bar u)
     3.31477605E-01    3     1000022        -3         4   # BR(chi^+_1 -> chi^0_1 s_bar c)
     1.11881850E-01    3     1000022       -11        12   # BR(chi^+_1 -> chi^0_1 e^+ nu_e)
     1.11880878E-01    3     1000022       -13        14   # BR(chi^+_1 -> chi^0_1 mu^+ nu_mu)
     1.09110568E-01    3     1000022       -15        16   # BR(chi^+_1 -> chi^0_1 tau^+ nu_tau)
DECAY   1000037     6.20876735E+00   # chi^+_2
#    BR                NDA      ID1      ID2
     1.14158549E-01    2     1000022        24   # BR(chi^+_2 -> chi^0_1 W^+)
     2.61954614E-01    2     1000023        24   # BR(chi^+_2 -> chi^0_2 W^+)
     1.39534531E-01    2     1000025        24   # BR(chi^+_2 -> chi^0_3 W^+)
     2.49314608E-01    2     1000024        23   # BR(chi^+_2 -> chi^+_1 Z)
     2.30819014E-01    2     1000024        25   # BR(chi^+_2 -> chi^+_1 h^0)
#    BR                NDA      ID1      ID2       ID3
     7.12427144E-04    3     1000024         6        -6   # BR(chi^+_2 -> chi^+_1 t t_bar)
     9.37077845E-04    3     1000022        -5         6   # BR(chi^+_2 -> chi^0_1 b_bar t)
     1.58916508E-03    3     1000023        -5         6   # BR(chi^+_2 -> chi^0_2 b_bar t)
     9.79792987E-04    3     1000025        -5         6   # BR(chi^+_2 -> chi^0_3 b_bar t)
DECAY   1000022     0.00000000E+00   # chi^0_1
DECAY   1000023     1.21699462E-05   # chi^0_2
#    BR                NDA      ID1      ID2
     5.13788189E-02    2     1000022        22   # BR(chi^0_2 -> chi^0_1 photon)
#    BR                NDA      ID1      ID2       ID3
     1.18257356E-01    3     1000022         2        -2   # BR(chi^0_2 -> chi^0_1 u u_bar)
     1.14281808E-01    3     1000022         4        -4   # BR(chi^0_2 -> chi^0_1 c c_bar)
     1.51628613E-01    3     1000022         1        -1   # BR(chi^0_2 -> chi^0_1 d d_bar)
     1.51603566E-01    3     1000022         3        -3   # BR(chi^0_2 -> chi^0_1 s s_bar)
     1.09854067E-01    3     1000022         5        -5   # BR(chi^0_2 -> chi^0_1 b b_bar)
     3.42172249E-02    3     1000022        11       -11   # BR(chi^0_2 -> chi^0_1 e^- e^+)
     3.42082869E-02    3     1000022        13       -13   # BR(chi^0_2 -> chi^0_1 mu^- mu^+)
     3.18007293E-02    3     1000022        15       -15   # BR(chi^0_2 -> chi^0_1 tau^- tau^+)
     2.02769530E-01    3     1000022        12       -12   # BR(chi^0_2 -> chi^0_1 nu_e nu_bar_e)
DECAY   1000025     1.19856957E-04   # chi^0_3
#    BR                NDA      ID1      ID2
     1.09298314E-03    2     1000022        22   # BR(chi^0_3 -> chi^0_1 photon)
     1.84059226E-02    2     1000023        22   # BR(chi^0_3 -> chi^0_2 photon)
#    BR                NDA      ID1      ID2       ID3
     1.67993001E-04    3     1000022         2        -2   # BR(chi^0_3 -> chi^0_1 u u_bar)
     1.67115002E-04    3     1000022         4        -4   # BR(chi^0_3 -> chi^0_1 c c_bar)
     2.14972466E-04    3     1000022         1        -1   # BR(chi^0_3 -> chi^0_1 d d_bar)
     2.14967234E-04    3     1000022         3        -3   # BR(chi^0_3 -> chi^0_1 s s_bar)
     2.05769673E-04    3     1000022         5        -5   # BR(chi^0_3 -> chi^0_1 b b_bar)
     2.88071078E-04    3     1000022        12       -12   # BR(chi^0_3 -> chi^0_1 nu_e nu_bar_e)
     6.48826409E-02    3     1000023         2        -2   # BR(chi^0_3 -> chi^0_2 u u_bar)
     6.36595258E-02    3     1000023         4        -4   # BR(chi^0_3 -> chi^0_2 c c_bar)
     8.31926651E-02    3     1000023         1        -1   # BR(chi^0_3 -> chi^0_2 d d_bar)
     8.31850557E-02    3     1000023         3        -3   # BR(chi^0_3 -> chi^0_2 s s_bar)
     6.96955872E-02    3     1000023         5        -5   # BR(chi^0_3 -> chi^0_2 b b_bar)
     1.87746387E-02    3     1000023        11       -11   # BR(chi^0_3 -> chi^0_2 e^- e^+)
     1.87719065E-02    3     1000023        13       -13   # BR(chi^0_3 -> chi^0_2 mu^- mu^+)
     1.80222362E-02    3     1000023        15       -15   # BR(chi^0_3 -> chi^0_2 tau^- tau^+)
     1.11253354E-01    3     1000023        12       -12   # BR(chi^0_3 -> chi^0_2 nu_e nu_bar_e)
     7.49047678E-02    3     1000024         1        -2   # BR(chi^0_3 -> chi^+_1 d u_bar)
     7.49047678E-02    3    -1000024        -1         2   # BR(chi^0_3 -> chi^-_1 d_bar u)
     7.43805235E-02    3     1000024         3        -4   # BR(chi^0_3 -> chi^+_1 s c_bar)
     7.43805235E-02    3    -1000024        -3         4   # BR(chi^0_3 -> chi^-_1 s_bar c)
     2.49685194E-02    3     1000024        11       -12   # BR(chi^0_3 -> chi^+_1 e^- nu_bar_e)
     2.49685194E-02    3    -1000024       -11        12   # BR(chi^0_3 -> chi^-_1 e^+ nu_e)
     2.49683554E-02    3     1000024        13       -14   # BR(chi^0_3 -> chi^+_1 mu^- nu_bar_mu)
     2.49683554E-02    3    -1000024       -13        14   # BR(chi^0_3 -> chi^-_1 mu^+ nu_mu)
     2.46081250E-02    3     1000024        15       -16   # BR(chi^0_3 -> chi^+_1 tau^- nu_bar_tau)
     2.46081250E-02    3    -1000024       -15        16   # BR(chi^0_3 -> chi^-_1 tau^+ nu_tau)
DECAY   1000035     6.94401067E+00   # chi^0_4
#    BR                NDA      ID1      ID2
     2.38199936E-01    2     1000024       -24   # BR(chi^0_4 -> chi^+_1 W^-)
     2.38199936E-01    2    -1000024        24   # BR(chi^0_4 -> chi^-_1 W^+)
     8.22869923E-02    2     1000022        23   # BR(chi^0_4 -> chi^0_1 Z)
     4.11376976E-02    2     1000023        23   # BR(chi^0_4 -> chi^0_2 Z)
     1.09448907E-01    2     1000025        23   # BR(chi^0_4 -> chi^0_3 Z)
     5.13016909E-02    2     1000022        25   # BR(chi^0_4 -> chi^0_1 h^0)
     1.64984637E-01    2     1000023        25   # BR(chi^0_4 -> chi^0_2 h^0)
     7.03277276E-02    2     1000025        25   # BR(chi^0_4 -> chi^0_3 h^0)
#    BR                NDA      ID1      ID2       ID3
     1.08879288E-04    3     1000022         6        -6   # BR(chi^0_4 -> chi^0_1 t t_bar)
     1.95485075E-04    3     1000023         6        -6   # BR(chi^0_4 -> chi^0_2 t t_bar)
     1.84468864E-03    3     1000024         5        -6   # BR(chi^0_4 -> chi^+_1 b t_bar)
     1.84468864E-03    3    -1000024        -5         6   # BR(chi^0_4 -> chi^-_1 b_bar t)
DECAY   1000021     5.47593145E+01   # ~g
#    BR                NDA      ID1      ID2
     2.05165521E-01    2     1000006        -6   # BR(~g -> ~t_1 t_bar)
     2.05165521E-01    2    -1000006         6   # BR(~g -> ~t^*_1 t)
     6.60126929E-02    2     2000006        -6   # BR(~g -> ~t_2 t_bar)
     6.60126929E-02    2    -2000006         6   # BR(~g -> ~t^*_2 t)
     1.44185218E-01    2     1000005        -5   # BR(~g -> ~b_1 b_bar)
     1.44185218E-01    2    -1000005         5   # BR(~g -> ~b^*_1 b)
     8.44247857E-02    2     2000005        -5   # BR(~g -> ~b_2 b_bar)
     8.44247857E-02    2    -2000005         5   # BR(~g -> ~b^*_2 b)
     1.33377674E-04    2     1000023        21   # BR(~g -> chi^0_2 g)
#    BR                NDA      ID1      ID2       ID3
DECAY        25     3.65926643E-03   # Gamma(h0)
     2.57278163E-03   2        22        22   # BR(h0 -> photon photon)
     1.70388198E-03   2        22        23   # BR(h0 -> photon Z)
     3.22003312E-02   2        23        23   # BR(h0 -> Z Z)
     2.62087758E-01   2       -24        24   # BR(h0 -> W W)
     7.82866110E-02   2        21        21   # BR(h0 -> gluon gluon)
     4.80806737E-09   2       -11        11   # BR(h0 -> Electron electron)
     2.13871830E-04   2       -13        13   # BR(h0 -> Muon muon)
     6.16679377E-02   2       -15        15   # BR(h0 -> Tau tau)
     1.35680864E-07   2        -2         2   # BR(h0 -> Up up)
     2.63331622E-02   2        -4         4   # BR(h0 -> Charm charm)
     5.55932250E-07   2        -1         1   # BR(h0 -> Down down)
     2.01067723E-04   2        -3         3   # BR(h0 -> Strange strange)
     5.34731900E-01   2        -5         5   # BR(h0 -> Bottom bottom)
DECAY        35     2.92022879E+01   # Gamma(HH)
     1.97854833E-07   2        22        22   # BR(HH -> photon photon)
     2.83488843E-07   2        22        23   # BR(HH -> photon Z)
     1.60308752E-05   2        23        23   # BR(HH -> Z Z)
     7.43005890E-06   2       -24        24   # BR(HH -> W W)
     4.34192283E-06   2        21        21   # BR(HH -> gluon gluon)
     1.35125897E-09   2       -11        11   # BR(HH -> Electron electron)
     6.01587345E-05   2       -13        13   # BR(HH -> Muon muon)
     1.73737152E-02   2       -15        15   # BR(HH -> Tau tau)
     1.41971935E-12   2        -2         2   # BR(HH -> Up up)
     2.75389592E-07   2        -4         4   # BR(HH -> Charm charm)
     2.03892859E-02   2        -6         6   # BR(HH -> Top top)
     1.03486585E-07   2        -1         1   # BR(HH -> Down down)
     3.74317344E-05   2        -3         3   # BR(HH -> Strange strange)
     9.98408819E-02   2        -5         5   # BR(HH -> Bottom bottom)
     2.15684052E-02   2  -1000024   1000024   # BR(HH -> Chargino1 chargino1)
     2.47987779E-01   2  -1000024   1000037   # BR(HH -> Chargino1 chargino2)
     2.47987779E-01   2  -1000037   1000024   # BR(HH -> Chargino2 chargino1)
     8.61414827E-04   2  -1000037   1000037   # BR(HH -> Chargino2 chargino2)
     2.08273363E-02   2   1000022   1000022   # BR(HH -> neutralino1 neutralino1)
     1.84279316E-02   2   1000022   1000023   # BR(HH -> neutralino1 neutralino2)
     5.79739529E-03   2   1000022   1000025   # BR(HH -> neutralino1 neutralino3)
     9.66419575E-02   2   1000022   1000035   # BR(HH -> neutralino1 neutralino4)
     1.71382962E-03   2   1000023   1000023   # BR(HH -> neutralino2 neutralino2)
     1.91034220E-02   2   1000023   1000025   # BR(HH -> neutralino2 neutralino3)
     9.80648421E-02   2   1000023   1000035   # BR(HH -> neutralino2 neutralino4)
     2.42124027E-02   2   1000025   1000025   # BR(HH -> neutralino3 neutralino3)
     5.85451708E-02   2   1000025   1000035   # BR(HH -> neutralino3 neutralino4)
     4.48516117E-04   2   1000035   1000035   # BR(HH -> neutralino4 neutralino4)
     8.16804116E-05   2        25        25   # BR(HH -> h0 h0)
DECAY        36     2.90706901E+01   # Gamma(A0)
     2.54518314E-07   2        22        22   # BR(A0 -> photon photon)
     3.20772150E-07   2        22        23   # BR(A0 -> photon Z)
     2.35873415E-05   2        21        21   # BR(A0 -> gluon gluon)
     1.31283626E-09   2       -11        11   # BR(A0 -> Electron electron)
     5.84479431E-05   2       -13        13   # BR(A0 -> Muon muon)
     1.68796904E-02   2       -15        15   # BR(A0 -> Tau tau)
     1.34241878E-12   2        -2         2   # BR(A0 -> Up up)
     2.60376142E-07   2        -4         4   # BR(A0 -> Charm charm)
     1.98002387E-02   2        -6         6   # BR(A0 -> Top top)
     1.00542411E-07   2        -1         1   # BR(A0 -> Down down)
     3.63668484E-05   2        -3         3   # BR(A0 -> Strange strange)
     9.70017222E-02   2        -5         5   # BR(A0 -> Bottom bottom)
     2.51082458E-02   2  -1000024   1000024   # BR(A0 -> Chargino1 chargino1)
     2.46008144E-01   2  -1000024   1000037   # BR(A0 -> Chargino1 chargino2)
     2.46008144E-01   2  -1000037   1000024   # BR(A0 -> Chargino2 chargino1)
     3.70925701E-03   2  -1000037   1000037   # BR(A0 -> Chargino2 chargino2)
     1.56971523E-02   2   1000022   1000022   # BR(A0 -> neutralino1 neutralino1)
     2.27612649E-02   2   1000022   1000023   # BR(A0 -> neutralino1 neutralino2)
     5.00777894E-03   2   1000022   1000025   # BR(A0 -> neutralino1 neutralino3)
     6.31763638E-02   2   1000022   1000035   # BR(A0 -> neutralino1 neutralino4)
     2.49818094E-03   2   1000023   1000023   # BR(A0 -> neutralino2 neutralino2)
     2.90922458E-02   2   1000023   1000025   # BR(A0 -> neutralino2 neutralino3)
     1.53145525E-01   2   1000023   1000035   # BR(A0 -> neutralino2 neutralino4)
     1.61245781E-02   2   1000025   1000025   # BR(A0 -> neutralino3 neutralino3)
     3.59532907E-02   2   1000025   1000035   # BR(A0 -> neutralino3 neutralino4)
     1.88656126E-03   2   1000035   1000035   # BR(A0 -> neutralino4 neutralino4)
     2.22773154E-05   2        23        25   # BR(A0 -> Z h0)
     5.59737830E-37   2        25        25   # BR(A0 -> h0 h0)
DECAY        37     2.96245208E+01   # Gamma(Hp)
     1.55368981E-09   2       -11        12   # BR(Hp -> Electron nu_e)
     6.64250917E-05   2       -13        14   # BR(Hp -> Muon nu_mu)
     1.87887819E-02   2       -15        16   # BR(Hp -> Tau nu_tau)
     1.03326432E-07   2        -1         2   # BR(Hp -> Down up)
     1.73781662E-06   2        -3         2   # BR(Hp -> Strange up)
     1.13383532E-06   2        -5         2   # BR(Hp -> Bottom up)
     1.91125463E-08   2        -1         4   # BR(Hp -> Down charm)
     3.75443687E-05   2        -3         4   # BR(Hp -> Strange charm)
     1.58777936E-04   2        -5         4   # BR(Hp -> Bottom charm)
     1.55602843E-06   2        -1         6   # BR(Hp -> Down top)
     3.39811805E-05   2        -3         6   # BR(Hp -> Strange top)
     1.30789200E-01   2        -5         6   # BR(Hp -> Bottom top)
     5.99331521E-02   2   1000022   1000024   # BR(Hp -> neutralino1 chargino1)
     1.56588291E-01   2   1000022   1000037   # BR(Hp -> neutralino1 chargino2)
     3.71371251E-03   2   1000023   1000024   # BR(Hp -> neutralino2 chargino1)
     2.59556500E-01   2   1000023   1000037   # BR(Hp -> neutralino2 chargino2)
     2.97689711E-02   2   1000024   1000025   # BR(Hp -> chargino1 neutralino3)
     9.20958083E-02   2   1000025   1000037   # BR(Hp -> neutralino3 chargino2)
     2.48442134E-01   2   1000024   1000035   # BR(Hp -> chargino1 neutralino4)
     1.51152911E-07   2   1000035   1000037   # BR(Hp -> neutralino4 chargino2)
     2.20179312E-05   2        24        25   # BR(Hp -> W h0)
     8.83117679E-11   2        24        35   # BR(Hp -> W HH)
     7.19574964E-11   2        24        36   # BR(Hp -> W A0)
DECAY         6     2.43000000E+00   # top
#    BR                NDA      ID1      ID2
     1.00000000E+00    2           5        24   # BR(t -> b W)
Block HiggsBoundsInputHiggsCouplingsFermions
# ScalarNormEffCoupSq PseudoSNormEffCoupSq NP IP1 IP2 IP2
    9.13525684E-01    0.00000000E+00        3  25   5   5  # h0-b-b eff. coupling^2, normalised to SM
    1.14352342E+02    0.00000000E+00        3  35   5   5  # H0-b-b eff. coupling^2, normalised to SM
    0.00000000E+00    1.14265868E+02        3  36   5   5  # A0-b-b eff. coupling^2, normalised to SM
#
    1.00075678E+00    0.00000000E+00        3  25   6   6  # h0-t-t eff. coupling^2, normalised to SM
    7.99473808E-03    0.00000000E+00        3  35   6   6  # H0-t-t eff. coupling^2, normalised to SM
    0.00000000E+00    8.75151976E-03        3  36   6   6  # A0-t-t eff. coupling^2, normalised to SM
#
    9.13525684E-01    0.00000000E+00        3  25  15  15  # h0-tau-tau eff. coupling^2, normalised to SM
    1.14352342E+02    0.00000000E+00        3  35  15  15  # H0-tau-tau eff. coupling^2, normalised to SM
    0.00000000E+00    1.14265868E+02        3  36  15  15  # A0-tau-tau eff. coupling^2, normalised to SM
#
Block HiggsBoundsInputHiggsCouplingsBosons
    9.99982898E-01        3  25  24  24  # h0-W-W eff. coupling^2, normalised to SM
    1.71020180E-05        3  35  24  24  # H0-W-W eff. coupling^2, normalised to SM
    0.00000000E+00        3  36  24  24  # A0-W-W eff. coupling^2, normalised to SM
#
    9.99982898E-01        3  25  23  23  # h0-Z-Z eff. coupling^2, normalised to SM
    1.71020180E-05        3  35  23  23  # H0-Z-Z eff. coupling^2, normalised to SM
    0.00000000E+00        3  36  23  23  # A0-Z-Z eff. coupling^2, normalised to SM
#
    1.26949824E+00        3  25  21  21  # h0-g-g eff. coupling^2, normalised to SM
    4.76509097E-03        3  35  21  21  # H0-g-g eff. coupling^2, normalised to SM
    1.18331252E-01        3  36  21  21  # A0-g-g eff. coupling^2, normalised to SM
#
    0.00000000E+00        3  25  25  23  # h0-h0-Z eff. coupling^2, normalised to SM
    0.00000000E+00        3  35  25  23  # H0-h0-Z eff. coupling^2, normalised to SM
    1.71020180E-05        3  36  25  23  # A0-h0-Z eff. coupling^2, normalised to SM
    0.00000000E+00        3  35  35  23  # H0-H0-Z eff. coupling^2, normalised to SM
    9.99982898E-01        3  36  35  23  # A0-H0-Z eff. coupling^2, normalised to SM
    0.00000000E+00        3  36  36  23  # A0-A0-Z eff. coupling^2, normalised to SM
#
    0.00000000E+00        4  25  21  21  23  # h0-g-g-Z eff. coupling^2, normalised to SM
    0.00000000E+00        4  35  21  21  23  # H0-g-g-Z eff. coupling^2, normalised to SM
    0.00000000E+00        4  36  21  21  23  # A0-g-g-Z eff. coupling^2, normalised to SM
Block SPhenoLowEnergy  # low energy observables
    1    3.29281329E-04   # BR(b -> s gamma)
    2    1.58913033E-06   # BR(b -> s mu+ mu-)
    3    3.52510644E-05   # BR(b -> s nu nu)
    4    2.62442730E-15   # BR(Bd -> e+ e-)
    5    1.12112545E-10   # BR(Bd -> mu+ mu-)
    6    2.34690508E-08   # BR(Bd -> tau+ tau-)
    7    8.86528365E-14   # BR(Bs -> e+ e-)
    8    3.78724599E-09   # BR(Bs -> mu+ mu-)
    9    8.03286372E-07   # BR(Bs -> tau+ tau-)
   10    9.66501254E-05   # BR(B_u -> tau nu)
   11    9.98358793E-01   # BR(B_u -> tau nu)/BR(B_u -> tau nu)_SM
   12    5.42183644E-01   # |Delta(M_Bd)| [ps^-1] 
   13    1.93718429E+01   # |Delta(M_Bs)| [ps^-1] 
   14    0.00000000E+00   # neutron EDM according to the chiral quark model
   15    0.00000000E+00   # neutron EDM according to the relativistic quark-parton model
   16    2.15810038E-03   # epsilon_K
   17    2.28166631E-15   # Delta(M_K)
   18    2.47972962E-11   # BR(K^0 -> pi^0 nu nu)
   19    8.28988100E-11   # BR(K^+ -> pi^+ nu nu)
   20    8.31654445E-17   # Delta(g-2)_electron/2
   21    3.55558463E-12   # Delta(g-2)_muon/2
   22    1.00598227E-09   # Delta(g-2)_tau/2
   23    0.00000000E+00   # electric dipole moment of the electron
   24    0.00000000E+00   # electric dipole moment of the muon
   25    0.00000000E+00   # electric dipole moment of the tau
   26    0.00000000E+00   # Br(mu -> e gamma)
   27    0.00000000E+00   # Br(tau -> e gamma)
   28    0.00000000E+00   # Br(tau -> mu gamma)
   29    0.00000000E+00   # Br(mu -> 3 e)
   30    0.00000000E+00   # Br(tau -> 3 e)
   31    0.00000000E+00   # Br(tau -> 3 mu)
   39   -9.33255416E-06   # Delta(rho_parameter)
   40    0.00000000E+00   # BR(Z -> e mu)
   41    0.00000000E+00   # BR(Z -> e tau)
   42    0.00000000E+00   # BR(Z -> mu tau)
Block FWCOEF Q=  1.60000000E+02  # Wilson coefficients at scale Q
#    id        order  M        value         comment
     0305 4422   00   0    -1.88819110E-01   # C7
     0305 4422   00   2    -1.97612943E-01   # C7
     0305 4322   00   2    -2.04739085E-04   # C7'
     0305 6421   00   0    -9.52278348E-02   # C8
     0305 6421   00   2    -1.08197975E-01   # C8
     0305 6321   00   2    -2.69805787E-04   # C8'
 03051111 4133   00   0     1.62299259E+00   # C9 e+e-
 03051111 4133   00   2     1.62330489E+00   # C9 e+e-
 03051111 4233   00   2     2.59615661E-05   # C9' e+e-
 03051111 4137   00   0    -4.44568470E+00   # C10 e+e-
 03051111 4137   00   2    -4.44386326E+00   # C10 e+e-
 03051111 4237   00   2    -1.92650441E-04   # C10' e+e-
 03051313 4133   00   0     1.62299259E+00   # C9 mu+mu-
 03051313 4133   00   2     1.62330488E+00   # C9 mu+mu-
 03051313 4233   00   2     2.59615597E-05   # C9' mu+mu-
 03051313 4137   00   0    -4.44568470E+00   # C10 mu+mu-
 03051313 4137   00   2    -4.44386327E+00   # C10 mu+mu-
 03051313 4237   00   2    -1.92650437E-04   # C10' mu+mu-
 03051212 4137   00   0     1.50535012E+00   # C11 nu_1 nu_1
 03051212 4137   00   2     1.50495739E+00   # C11 nu_1 nu_1
 03051212 4237   00   2     4.16921480E-05   # C11' nu_1 nu_1
 03051414 4137   00   0     1.50535012E+00   # C11 nu_2 nu_2
 03051414 4137   00   2     1.50495739E+00   # C11 nu_2 nu_2
 03051414 4237   00   2     4.16921492E-05   # C11' nu_2 nu_2
 03051616 4137   00   0     1.50535012E+00   # C11 nu_3 nu_3
 03051616 4137   00   2     1.50495739E+00   # C11 nu_3 nu_3
 03051616 4237   00   2     4.16925002E-05   # C11' nu_3 nu_3
Block IMFWCOEF Q=  1.60000000E+02  # Im(Wilson coefficients) at scale Q
#    id        order  M        value         comment
     0305 4422   00   0     3.85824583E-07   # C7
     0305 4422   00   2     1.94036080E-06   # C7
     0305 4322   00   2     2.58312837E-07   # C7'
     0305 6421   00   0     3.30484271E-07   # C8
     0305 6421   00   2     2.25002992E-06   # C8
     0305 6321   00   2     1.24646914E-07   # C8'
 03051111 4133   00   2     4.52949098E-07   # C9 e+e-
 03051111 4233   00   2     5.58309149E-07   # C9' e+e-
 03051111 4137   00   2     3.24345804E-07   # C10 e+e-
 03051111 4237   00   2    -4.14523316E-06   # C10' e+e-
 03051313 4133   00   2     4.52948844E-07   # C9 mu+mu-
 03051313 4233   00   2     5.58309137E-07   # C9' mu+mu-
 03051313 4137   00   2     3.24346061E-07   # C10 mu+mu-
 03051313 4237   00   2    -4.14523320E-06   # C10' mu+mu-
 03051212 4137   00   2    -4.41218246E-08   # C11 nu_1 nu_1
 03051212 4237   00   2     8.97087054E-07   # C11' nu_1 nu_1
 03051414 4137   00   2    -4.41218117E-08   # C11 nu_2 nu_2
 03051414 4237   00   2     8.97087054E-07   # C11' nu_2 nu_2
 03051616 4137   00   2    -4.41181223E-08   # C11 nu_3 nu_3
 03051616 4237   00   2     8.97087053E-07   # C11' nu_3 nu_3
