# SUSY Les Houches Accord 2 - MSSM spectrum + Decays
# SPheno v4.0.5be
# W. Porod, Comput. Phys. Commun. 153 (2003) 275-315, hep-ph/0301101;
# W. Porod, F.~Staub, Comput. Phys. Commun. 183 (2012) 2458
#                     arXiv:1104.1573 [hep-ph] 
# in case of problems send email to porod@physik.uni-wuerzburg.de
# Created: 15.03.2021,  09:37
Block SPINFO         # Program information
     1   SPheno      # spectrum calculator
     2   v4.0.5be    # version number
#
Block SPhenoINFO     # SPheno specific information
    1      2         # using 2-loop RGEs
    2      2         # using pole masses for boundary conditions at mZ
Block MODSEL  # Model selection
    1    0    # general MSSM
Block MINPAR  # Input parameters
    3    3.54350647E+01  # tanb at m_Z    
    4   -1.00000000E+00  # Sign(mu)
Block EXTPAR  # non-universal input parameters
    0    3.82010724E+03  # scale for input parameters
    1    1.38291559E+03  # M_1
    2    5.89664276E+02  # M_2
    3    2.31832918E+03  # M_3
   11    2.98971174E+02  # A_t
   12    1.51423284E+03  # A_b
   13    1.11397712E+03  # A_tau
   23   -2.43817224E+02  # mu
   25    3.43255362E+01  # tan(beta)
   26    1.89277375E+03  # m_A, pole mass
   31    1.00000000E+04  # M_L11
   32    1.00000000E+04  # M_L22
   33    1.00000000E+04  # M_L33
   34    1.00000000E+04  # M_E11
   35    1.00000000E+04  # M_E22
   36    1.00000000E+04  # M_E33
   41    1.00000000E+04  # M_Q11
   42    1.00000000E+04  # M_Q22
   43    3.89257892E+03  # M_Q33
   44    1.00000000E+04  # M_U11
   45    1.00000000E+04  # M_U22
   46    3.67583247E+03  # M_U33
   47    1.00000000E+04  # M_D11
   48    1.00000000E+04  # M_D22
   49    2.09032205E+03  # M_D33
Block SMINPUTS  # SM parameters
         1     1.27908970E+02  # alpha_em^-1(MZ)^MSbar
         2     1.16637870E-05  # G_mu [GeV^-2]
         3     1.18400000E-01  # alpha_s(MZ)^MSbar
         4     9.11876000E+01  # m_Z(pole)
         5     4.18000000E+00  # m_b(m_b), MSbar
         6     1.73200000E+02  # m_t(pole)
         7     1.77700000E+00  # m_tau(pole)
         8     0.00000000E+00  # m_nu_3
        11     5.10998930E-04  # m_e(pole)
        12     0.00000000E+00  # m_nu_1
        13     1.05658372E-01  # m_muon(pole)
        14     0.00000000E+00  # m_nu_2
        21     5.00000000E-03  # m_d(2 GeV), MSbar
        22     2.50000000E-03  # m_u(2 GeV), MSbar
        23     9.50000000E-02  # m_s(2 GeV), MSbar
        24     1.27000000E+00  # m_c(m_c), MSbar
Block gauge Q=  3.82010724E+03  # (SUSY scale)
   1    3.55362975E-01  # g'(Q)^DRbar
   2    6.65198874E-01  # g(Q)^DRbar
   3    1.21977796E+00  # g3(Q)^DRbar
Block Yu Q=  3.82010724E+03  # (SUSY scale)
  1  1     8.38792938E-06   # Y_u(Q)^DRbar
  2  2     4.26106812E-03   # Y_c(Q)^DRbar
  3  3     1.01332924E+00   # Y_t(Q)^DRbar
Block Yd Q=  3.82010724E+03  # (SUSY scale)
  1  1     5.78565247E-04   # Y_d(Q)^DRbar
  2  2     1.09927397E-02   # Y_s(Q)^DRbar
  3  3     5.73755429E-01   # Y_b(Q)^DRbar
Block Ye Q=  3.82010724E+03  # (SUSY scale)
  1  1     1.00963866E-04   # Y_e(Q)^DRbar
  2  2     2.08761254E-02   # Y_mu(Q)^DRbar
  3  3     3.51102086E-01   # Y_tau(Q)^DRbar
Block Au Q=  3.82010724E+03  # (SUSY scale)
  1  1     0.00000000E+00   # A_u(Q)^DRbar
  2  2     0.00000000E+00   # A_c(Q)^DRbar
  3  3     2.98971177E+02   # A_t(Q)^DRbar
Block Ad Q=  3.82010724E+03  # (SUSY scale)
  1  1     0.00000000E+00   # A_d(Q)^DRbar
  2  2     0.00000000E+00   # A_s(Q)^DRbar
  3  3     1.51423292E+03   # A_b(Q)^DRbar
Block Ae Q=  3.82010724E+03  # (SUSY scale)
  1  1     0.00000000E+00   # A_e(Q)^DRbar
  2  2     0.00000000E+00   # A_mu(Q)^DRbar
  3  3     1.11397711E+03   # A_tau(Q)^DRbar
Block MSOFT Q=  3.82010724E+03  # soft SUSY breaking masses at Q
   1    1.38291559E+03  # M_1
   2    5.89664276E+02  # M_2
   3    2.31832918E+03  # M_3
  21    3.52036128E+06  # M^2_(H,d)
  22    2.76627282E+05  # M^2_(H,u)
  31    1.00000000E+04  # M_(L,11)
  32    1.00000000E+04  # M_(L,22)
  33    1.00000000E+04  # M_(L,33)
  34    1.00000000E+04  # M_(E,11)
  35    1.00000000E+04  # M_(E,22)
  36    1.00000000E+04  # M_(E,33)
  41    1.00000000E+04  # M_(Q,11)
  42    1.00000000E+04  # M_(Q,22)
  43    3.89257892E+03  # M_(Q,33)
  44    1.00000000E+04  # M_(U,11)
  45    1.00000000E+04  # M_(U,22)
  46    3.67583247E+03  # M_(U,33)
  47    1.00000000E+04  # M_(D,11)
  48    1.00000000E+04  # M_(D,22)
  49    2.09032205E+03  # M_(D,33)
Block MASS  # Mass spectrum
#   PDG code      mass          particle
         6     1.73200000E+02  # m_t(pole)
        23     9.11876000E+01  # m_Z(pole)
        24     8.04299946E+01  # W+
        15     1.77700000E+00  # m_tau(pole)
        25     1.22455426E+02  # h0
        35     1.89229741E+03  # H0
        36     1.89277375E+03  # A0
        37     1.89547307E+03  # H+
   1000001     1.01151937E+04  # ~d_L
   2000001     1.00901658E+04  # ~d_R
   1000002     1.01148273E+04  # ~u_L
   2000002     1.00929694E+04  # ~u_R
   1000003     1.01151962E+04  # ~s_L
   2000003     1.00901700E+04  # ~s_R
   1000004     1.01148298E+04  # ~c_L
   2000004     1.00929702E+04  # ~c_R
   1000005     2.20067015E+03  # ~b_1
   2000005     3.93897711E+03  # ~b_2
   1000006     3.70294676E+03  # ~t_1
   2000006     3.94097466E+03  # ~t_2
   1000011     1.00211354E+04  # ~e_L-
   2000011     1.00089070E+04  # ~e_R-
   1000012     1.00203640E+04  # ~nu_eL
   1000013     1.00211467E+04  # ~mu_L-
   2000013     1.00089284E+04  # ~mu_R-
   1000014     1.00203751E+04  # ~nu_muL
   1000015     1.00150139E+04  # ~tau_1-
   2000015     1.00243790E+04  # ~tau_2-
   1000016     1.00235305E+04  # ~nu_tauL
   1000021     2.74992749E+03  # ~g
   1000022     2.52533610E+02  # ~chi_10
   1000023     2.65308423E+02  # ~chi_20
   1000025     6.51866768E+02  # ~chi_30
   1000035     1.39274362E+03  # ~chi_40
   1000024     2.57117752E+02  # ~chi_1+
   1000037     6.52212427E+02  # ~chi_2+
# Higgs mixing
Block alpha # Effective Higgs mixing angle
          -2.83776640E-02   # alpha
Block Hmix Q=  3.82010724E+03  # Higgs mixing parameters
   1   -2.43817224E+02  # mu
   2    3.43255362E+01  # tan[beta](Q)
   3    2.42991240E+02  # v(Q)
   4    3.58259247E+06  # m^2_A(Q)
Block stopmix # stop mixing matrix
   1  1    -4.20097804E-03   # Re[R_st(1,1)]
   1  2     9.99991176E-01   # Re[R_st(1,2)]
   2  1    -9.99991176E-01   # Re[R_st(2,1)]
   2  2    -4.20097804E-03   # Re[R_st(2,2)]
Block sbotmix # sbottom mixing matrix
   1  1    -1.99613256E-03   # Re[R_sb(1,1)]
   1  2     9.99998008E-01   # Re[R_sb(1,2)]
   2  1    -9.99998008E-01   # Re[R_sb(2,1)]
   2  2    -1.99613256E-03   # Re[R_sb(2,2)]
Block staumix # stau mixing matrix
   1  1    -8.88461576E-02   # Re[R_sta(1,1)]
   1  2     9.96045361E-01   # Re[R_sta(1,2)]
   2  1    -9.96045361E-01   # Re[R_sta(2,1)]
   2  2    -8.88461576E-02   # Re[R_sta(2,2)]
Block Nmix # neutralino mixing matrix
   1  1    -2.61119593E-02   # Re[N(1,1)]
   1  2     1.37537253E-01   # Re[N(1,2)]
   1  3     7.12197900E-01   # Re[N(1,3)]
   1  4     6.87877766E-01   # Re[N(1,4)]
   2  1    -1.96354111E-02   # Re[N(2,1)]
   2  2     6.51552828E-02   # Re[N(2,2)]
   2  3    -6.99959079E-01   # Re[N(2,3)]
   2  4     7.10933560E-01   # Re[N(2,4)]
   3  1    -8.45544074E-03   # Re[N(3,1)]
   3  2    -9.88345145E-01   # Re[N(3,2)]
   3  3     5.29462922E-02   # Re[N(3,3)]
   3  4     1.42474804E-01   # Re[N(3,4)]
   4  1    -9.99430399E-01   # Re[N(4,1)]
   4  2     3.48816276E-03   # Re[N(4,2)]
   4  3    -5.30360349E-03   # Re[N(4,3)]
   4  4    -3.31448756E-02   # Re[N(4,4)]
Block Umix # chargino mixing matrix
   1  1    -7.60463771E-02   # Re[U(1,1)]
   1  2    -9.97104282E-01   # Re[U(1,2)]
   2  1     9.97104282E-01   # Re[U(2,1)]
   2  2    -7.60463771E-02   # Re[U(2,2)]
Block Vmix # chargino mixing matrix
   1  1    -2.04262605E-01   # Re[V(1,1)]
   1  2     9.78916129E-01   # Re[V(1,2)]
   2  1     9.78916129E-01   # Re[V(2,1)]
   2  2     2.04262605E-01   # Re[V(2,2)]
DECAY        23     2.49520000E+00   # Z
DECAY        24     2.08500000E+00   # W
DECAY   2000011     4.83644990E+01   # ~e^-_R
#    BR                NDA      ID1      ID2
     7.08114190E-04    2     1000022        11   # BR(~e^-_R -> chi^0_1 e^-)
     4.00365099E-04    2     1000023        11   # BR(~e^-_R -> chi^0_2 e^-)
     9.98817766E-01    2     1000035        11   # BR(~e^-_R -> chi^0_4 e^-)
DECAY   1000011     1.43327826E+02   # ~e^-_L
#    BR                NDA      ID1      ID2
     4.69449639E-03    2     1000022        11   # BR(~e^-_L -> chi^0_1 e^-)
     9.18359491E-04    2     1000023        11   # BR(~e^-_L -> chi^0_2 e^-)
     3.00804550E-01    2     1000025        11   # BR(~e^-_L -> chi^0_3 e^-)
     8.32724422E-02    2     1000035        11   # BR(~e^-_L -> chi^0_4 e^-)
     3.55471381E-03    2    -1000024        12   # BR(~e^-_L -> chi^-_1 nu_e)
     6.06755438E-01    2    -1000037        12   # BR(~e^-_L -> chi^-_2 nu_e)
#    BR                NDA      ID1      ID2       ID3
DECAY   2000013     4.85379296E+01   # ~mu^-_R
#    BR                NDA      ID1      ID2
     1.61126556E-03    2     1000022        13   # BR(~mu^-_R -> chi^0_1 mu^-)
     1.27363834E-03    2     1000023        13   # BR(~mu^-_R -> chi^0_2 mu^-)
     9.95251238E-01    2     1000035        13   # BR(~mu^-_R -> chi^0_4 mu^-)
     1.77518677E-03    2    -1000024        14   # BR(~mu^-_R -> chi^-_1 nu_mu)
DECAY   1000013     1.43414757E+02   # ~mu^-_L
#    BR                NDA      ID1      ID2
     4.99855464E-03    2     1000022        13   # BR(~mu^-_L -> chi^0_1 mu^-)
     1.21420427E-03    2     1000023        13   # BR(~mu^-_L -> chi^0_2 mu^-)
     3.00624245E-01    2     1000025        13   # BR(~mu^-_L -> chi^0_3 mu^-)
     8.32220845E-02    2     1000035        13   # BR(~mu^-_L -> chi^0_4 mu^-)
     3.55256314E-03    2    -1000024        14   # BR(~mu^-_L -> chi^-_1 nu_mu)
     6.06388349E-01    2    -1000037        14   # BR(~mu^-_L -> chi^-_2 nu_mu)
#    BR                NDA      ID1      ID2       ID3
DECAY   1000015     9.80140389E+01   # ~tau^-_1
#    BR                NDA      ID1      ID2
     1.33746725E-01    2     1000022        15   # BR(~tau^-_1 -> chi^0_1 tau^-)
     1.19666681E-01    2     1000023        15   # BR(~tau^-_1 -> chi^0_2 tau^-)
     1.13380062E-03    2     1000025        15   # BR(~tau^-_1 -> chi^0_3 tau^-)
     4.90094775E-01    2     1000035        15   # BR(~tau^-_1 -> chi^0_4 tau^-)
     2.53250645E-01    2    -1000024        16   # BR(~tau^-_1 -> chi^-_1 nu_tau)
     2.10737334E-03    2    -1000037        16   # BR(~tau^-_1 -> chi^-_2 nu_tau)
DECAY   2000015     1.67363334E+02   # ~tau^-_2
#    BR                NDA      ID1      ID2
     7.46509345E-02    2     1000022        15   # BR(~tau^-_2 -> chi^0_1 tau^-)
     7.44899445E-02    2     1000023        15   # BR(~tau^-_2 -> chi^0_2 tau^-)
     2.57862812E-01    2     1000025        15   # BR(~tau^-_2 -> chi^0_3 tau^-)
     7.31582116E-02    2     1000035        15   # BR(~tau^-_2 -> chi^0_4 tau^-)
     4.42453507E-04    2    -1000024        16   # BR(~tau^-_2 -> chi^-_1 nu_tau)
     5.19395644E-01    2    -1000037        16   # BR(~tau^-_2 -> chi^-_2 nu_tau)
#    BR                NDA      ID1      ID2       ID3
DECAY   1000012     1.43332663E+02   # ~nu_e
#    BR                NDA      ID1      ID2
     7.05243714E-03    2     1000022        12   # BR(~nu_e -> chi^0_1 nu_e)
     1.75829590E-03    2     1000023        12   # BR(~nu_e -> chi^0_2 nu_e)
     2.95322271E-01    2     1000025        12   # BR(~nu_e -> chi^0_3 nu_e)
     8.54673046E-02    2     1000035        12   # BR(~nu_e -> chi^0_4 nu_e)
     2.56435046E-02    2     1000024        11   # BR(~nu_e -> chi^+_1 e^-)
     5.84756187E-01    2     1000037        11   # BR(~nu_e -> chi^+_2 e^-)
#    BR                NDA      ID1      ID2       ID3
DECAY   1000014     1.43419584E+02   # ~nu_mu
#    BR                NDA      ID1      ID2
     7.04817075E-03    2     1000022        14   # BR(~nu_mu -> chi^0_1 nu_mu)
     1.75723221E-03    2     1000023        14   # BR(~nu_mu -> chi^0_2 nu_mu)
     2.95143620E-01    2     1000025        14   # BR(~nu_mu -> chi^0_3 nu_mu)
     8.54156082E-02    2     1000035        14   # BR(~nu_mu -> chi^0_4 nu_mu)
     2.62294525E-02    2     1000024        13   # BR(~nu_mu -> chi^+_1 mu^-)
     5.84405916E-01    2     1000037        13   # BR(~nu_mu -> chi^+_2 mu^-)
#    BR                NDA      ID1      ID2       ID3
DECAY   1000016     1.67927621E+02   # ~nu_tau
#    BR                NDA      ID1      ID2
     6.02143252E-03    2     1000022        16   # BR(~nu_tau -> chi^0_1 nu_tau)
     1.50124854E-03    2     1000023        16   # BR(~nu_tau -> chi^0_2 nu_tau)
     2.52149890E-01    2     1000025        16   # BR(~nu_tau -> chi^0_3 nu_tau)
     7.29744899E-02    2     1000035        16   # BR(~nu_tau -> chi^0_4 nu_tau)
     1.67242292E-01    2     1000024        15   # BR(~nu_tau -> chi^+_1 tau^-)
     5.00110647E-01    2     1000037        15   # BR(~nu_tau -> chi^+_2 tau^-)
#    BR                NDA      ID1      ID2       ID3
DECAY   2000001     6.87951760E+02   # ~d_R
#    BR                NDA      ID1      ID2
     7.87044308E-03    2     1000035         1   # BR(~d_R -> chi^0_4 d)
     9.92120052E-01    2     1000021         1   # BR(~d_R -> ~g d)
DECAY   1000001     8.18594072E+02   # ~d_L
#    BR                NDA      ID1      ID2
     1.09825734E-03    2     1000022         1   # BR(~d_L -> chi^0_1 d)
     2.56025694E-04    2     1000023         1   # BR(~d_L -> chi^0_2 d)
     5.25275273E-02    2     1000025         1   # BR(~d_L -> chi^0_3 d)
     1.72364204E-03    2     1000035         1   # BR(~d_L -> chi^0_4 d)
     6.28252804E-04    2    -1000024         2   # BR(~d_L -> chi^-_1 u)
     1.07250978E-01    2    -1000037         2   # BR(~d_L -> chi^-_2 u)
     8.36515317E-01    2     1000021         1   # BR(~d_L -> ~g d)
DECAY   2000003     6.88000453E+02   # ~s_R
#    BR                NDA      ID1      ID2
     7.86989050E-03    2     1000035         3   # BR(~s_R -> chi^0_4 s)
     9.92050381E-01    2     1000021         3   # BR(~s_R -> ~g s)
DECAY   1000003     8.18622194E+02   # ~s_L
#    BR                NDA      ID1      ID2
     1.11322696E-03    2     1000022         3   # BR(~s_L -> chi^0_1 s)
     2.70510399E-04    2     1000023         3   # BR(~s_L -> chi^0_2 s)
     5.25258179E-02    2     1000025         3   # BR(~s_L -> chi^0_3 s)
     1.72358407E-03    2     1000035         3   # BR(~s_L -> chi^0_4 s)
     6.32502171E-04    2    -1000024         4   # BR(~s_L -> chi^-_1 c)
     1.07247506E-01    2    -1000037         4   # BR(~s_L -> chi^-_2 c)
     8.36486852E-01    2     1000021         3   # BR(~s_L -> ~g s)
DECAY   1000005     2.82838134E+01   # ~b_1
#    BR                NDA      ID1      ID2
     2.51907992E-01    2     1000022         5   # BR(~b_1 -> chi^0_1 b)
     2.42381027E-01    2     1000023         5   # BR(~b_1 -> chi^0_2 b)
     1.12032173E-03    2     1000025         5   # BR(~b_1 -> chi^0_3 b)
     1.55935857E-02    2     1000035         5   # BR(~b_1 -> chi^0_4 b)
     4.86728063E-01    2    -1000024         6   # BR(~b_1 -> chi^-_1 t)
     2.26901042E-03    2    -1000037         6   # BR(~b_1 -> chi^-_2 t)
DECAY   2000005     2.36434498E+02   # ~b_2
#    BR                NDA      ID1      ID2
     5.63228554E-02    2     1000022         5   # BR(~b_2 -> chi^0_1 b)
     5.33325005E-02    2     1000023         5   # BR(~b_2 -> chi^0_2 b)
     6.78568042E-02    2     1000025         5   # BR(~b_2 -> chi^0_3 b)
     1.85158620E-03    2     1000035         5   # BR(~b_2 -> chi^0_4 b)
     3.22711213E-01    2    -1000024         6   # BR(~b_2 -> chi^-_1 t)
     1.52059781E-01    2    -1000037         6   # BR(~b_2 -> chi^-_2 t)
     3.45549598E-01    2     1000021         5   # BR(~b_2 -> ~g b)
     1.13533423E-04    2     1000005        23   # BR(~b_2 -> ~b_1 Z)
     1.98077191E-04    2     1000005        25   # BR(~b_2 -> ~b_1 h^0)
DECAY   2000002     7.04471289E+02   # ~u_R
#    BR                NDA      ID1      ID2
     3.07527450E-02    2     1000035         2   # BR(~u_R -> chi^0_4 u)
     9.69210880E-01    2     1000021         2   # BR(~u_R -> ~g u)
DECAY   1000002     8.18580993E+02   # ~u_L
#    BR                NDA      ID1      ID2
     9.59237219E-04    2     1000022         2   # BR(~u_L -> chi^0_1 u)
     2.06486389E-04    2     1000023         2   # BR(~u_L -> chi^0_2 u)
     5.28474940E-02    2     1000025         2   # BR(~u_L -> chi^0_3 u)
     1.59362050E-03    2     1000035         2   # BR(~u_L -> chi^0_4 u)
     4.53266995E-03    2     1000024         1   # BR(~u_L -> chi^+_1 d)
     1.03371785E-01    2     1000037         1   # BR(~u_L -> chi^+_2 d)
     8.36488707E-01    2     1000021         2   # BR(~u_L -> ~g u)
DECAY   2000004     7.04478612E+02   # ~c_R
#    BR                NDA      ID1      ID2
     3.07524332E-02    2     1000035         4   # BR(~c_R -> chi^0_4 c)
     9.69200864E-01    2     1000021         4   # BR(~c_R -> ~g c)
DECAY   1000004     8.18609084E+02   # ~c_L
#    BR                NDA      ID1      ID2
     9.61313129E-04    2     1000022         4   # BR(~c_L -> chi^0_1 c)
     2.08731754E-04    2     1000023         4   # BR(~c_L -> chi^0_2 c)
     5.28457841E-02    2     1000025         4   # BR(~c_L -> chi^0_3 c)
     1.59357068E-03    2     1000035         4   # BR(~c_L -> chi^0_4 c)
     4.56192935E-03    2     1000024         3   # BR(~c_L -> chi^+_1 s)
     1.03368432E-01    2     1000037         3   # BR(~c_L -> chi^+_2 s)
     8.36460239E-01    2     1000021         4   # BR(~c_L -> ~g c)
DECAY   1000006     2.12774138E+02   # ~t_1
#    BR                NDA      ID1      ID2
     1.65790127E-01    2     1000022         6   # BR(~t_1 -> chi^0_1 t)
     1.76990308E-01    2     1000023         6   # BR(~t_1 -> chi^0_2 t)
     6.92658351E-03    2     1000025         6   # BR(~t_1 -> chi^0_3 t)
     2.89797373E-02    2     1000035         6   # BR(~t_1 -> chi^0_4 t)
     3.37012784E-01    2     1000024         5   # BR(~t_1 -> chi^+_1 b)
     1.42974999E-02    2     1000037         5   # BR(~t_1 -> chi^+_2 b)
     2.69929952E-01    2     1000021         6   # BR(~t_1 -> ~g t)
#    BR                NDA      ID1      ID2       ID3
DECAY   2000006     2.35595983E+02   # ~t_2
#    BR                NDA      ID1      ID2
     1.60993848E-01    2     1000022         6   # BR(~t_2 -> chi^0_1 t)
     1.70740154E-01    2     1000023         6   # BR(~t_2 -> chi^0_2 t)
     7.49572796E-02    2     1000025         6   # BR(~t_2 -> chi^0_3 t)
     1.92860701E-03    2     1000035         6   # BR(~t_2 -> chi^0_4 t)
     1.14469435E-01    2     1000024         5   # BR(~t_2 -> chi^+_1 b)
     1.33720551E-01    2     1000037         5   # BR(~t_2 -> chi^+_2 b)
     3.42856030E-01    2     1000021         6   # BR(~t_2 -> ~g t)
     2.28762346E-04    2     1000005        24   # BR(~t_2 -> ~b_1 W^+)
     1.03357444E-04    2     1000006        25   # BR(~t_2 -> ~t_1 h^0)
DECAY   1000024     2.42552825E-09   # chi^+_1
#    BR                NDA      ID1      ID2       ID3
     3.96981520E-01    3     1000022        -1         2   # BR(chi^+_1 -> chi^0_1 d_bar u)
     2.74368809E-01    3     1000022        -3         4   # BR(chi^+_1 -> chi^0_1 s_bar c)
     1.32327205E-01    3     1000022       -11        12   # BR(chi^+_1 -> chi^0_1 e^+ nu_e)
     1.31976867E-01    3     1000022       -13        14   # BR(chi^+_1 -> chi^0_1 mu^+ nu_mu)
     6.43455993E-02    3     1000022       -15        16   # BR(chi^+_1 -> chi^0_1 tau^+ nu_tau)
DECAY   1000037     5.00334403E+00   # chi^+_2
#    BR                NDA      ID1      ID2
     2.47228932E-01    2     1000022        24   # BR(chi^+_2 -> chi^0_1 W^+)
     2.72744901E-01    2     1000023        24   # BR(chi^+_2 -> chi^0_2 W^+)
     2.48469337E-01    2     1000024        23   # BR(chi^+_2 -> chi^+_1 Z)
     2.28924425E-01    2     1000024        25   # BR(chi^+_2 -> chi^+_1 h^0)
#    BR                NDA      ID1      ID2       ID3
     1.17850162E-03    3     1000022        -5         6   # BR(chi^+_2 -> chi^0_1 b_bar t)
     1.35267739E-03    3     1000023        -5         6   # BR(chi^+_2 -> chi^0_2 b_bar t)
DECAY   1000022     0.00000000E+00   # chi^0_1
DECAY   1000023     1.53859572E-06   # chi^0_2
#    BR                NDA      ID1      ID2
     2.06201020E-01    2     1000022        22   # BR(chi^0_2 -> chi^0_1 photon)
#    BR                NDA      ID1      ID2       ID3
     8.42282310E-02    3     1000022         2        -2   # BR(chi^0_2 -> chi^0_1 u u_bar)
     7.38481555E-02    3     1000022         4        -4   # BR(chi^0_2 -> chi^0_1 c c_bar)
     1.07997186E-01    3     1000022         1        -1   # BR(chi^0_2 -> chi^0_1 d d_bar)
     1.07928110E-01    3     1000022         3        -3   # BR(chi^0_2 -> chi^0_1 s s_bar)
     2.61085389E-02    3     1000022         5        -5   # BR(chi^0_2 -> chi^0_1 b b_bar)
     2.43719066E-02    3     1000022        11       -11   # BR(chi^0_2 -> chi^0_1 e^- e^+)
     2.43473426E-02    3     1000022        13       -13   # BR(chi^0_2 -> chi^0_1 mu^- mu^+)
     1.83654793E-02    3     1000022        15       -15   # BR(chi^0_2 -> chi^0_1 tau^- tau^+)
     1.44423652E-01    3     1000022        12       -12   # BR(chi^0_2 -> chi^0_1 nu_e nu_bar_e)
     3.22763784E-02    3     1000024         1        -2   # BR(chi^0_2 -> chi^+_1 d u_bar)
     3.22763784E-02    3    -1000024        -1         2   # BR(chi^0_2 -> chi^-_1 d_bar u)
     2.87157774E-02    3     1000024         3        -4   # BR(chi^0_2 -> chi^+_1 s c_bar)
     2.87157774E-02    3    -1000024        -3         4   # BR(chi^0_2 -> chi^-_1 s_bar c)
     1.07587956E-02    3     1000024        11       -12   # BR(chi^0_2 -> chi^+_1 e^- nu_bar_e)
     1.07587956E-02    3    -1000024       -11        12   # BR(chi^0_2 -> chi^-_1 e^+ nu_e)
     1.07499073E-02    3     1000024        13       -14   # BR(chi^0_2 -> chi^+_1 mu^- nu_bar_mu)
     1.07499073E-02    3    -1000024       -13        14   # BR(chi^0_2 -> chi^-_1 mu^+ nu_mu)
     8.58932994E-03    3     1000024        15       -16   # BR(chi^0_2 -> chi^+_1 tau^- nu_bar_tau)
     8.58932994E-03    3    -1000024       -15        16   # BR(chi^0_2 -> chi^-_1 tau^+ nu_tau)
DECAY   1000025     5.97704230E+00   # chi^0_3
#    BR                NDA      ID1      ID2
     2.21989315E-01    2     1000024       -24   # BR(chi^0_3 -> chi^+_1 W^-)
     2.21989315E-01    2    -1000024        24   # BR(chi^0_3 -> chi^-_1 W^+)
     3.72606980E-02    2     1000022        23   # BR(chi^0_3 -> chi^0_1 Z)
     1.86492597E-01    2     1000023        23   # BR(chi^0_3 -> chi^0_2 Z)
     1.46697866E-01    2     1000022        25   # BR(chi^0_3 -> chi^0_1 h^0)
     1.83489107E-01    2     1000023        25   # BR(chi^0_3 -> chi^0_2 h^0)
#    BR                NDA      ID1      ID2       ID3
     1.01875147E-03    3     1000024         5        -6   # BR(chi^0_3 -> chi^+_1 b t_bar)
     1.01875147E-03    3    -1000024        -5         6   # BR(chi^0_3 -> chi^-_1 b_bar t)
DECAY   1000035     4.00891120E+00   # chi^0_4
#    BR                NDA      ID1      ID2
     2.08932658E-01    2     1000024       -24   # BR(chi^0_4 -> chi^+_1 W^-)
     2.08932658E-01    2    -1000024        24   # BR(chi^0_4 -> chi^-_1 W^+)
     1.75595623E-02    2     1000037       -24   # BR(chi^0_4 -> chi^+_2 W^-)
     1.75595623E-02    2    -1000037        24   # BR(chi^0_4 -> chi^-_2 W^+)
     7.54088961E-02    2     1000022        23   # BR(chi^0_4 -> chi^0_1 Z)
     1.53453870E-01    2     1000023        23   # BR(chi^0_4 -> chi^0_2 Z)
     2.19572463E-03    2     1000025        23   # BR(chi^0_4 -> chi^0_3 Z)
     1.27256118E-01    2     1000022        25   # BR(chi^0_4 -> chi^0_1 h^0)
     1.56673004E-01    2     1000023        25   # BR(chi^0_4 -> chi^0_2 h^0)
     1.47712752E-02    2     1000025        25   # BR(chi^0_4 -> chi^0_3 h^0)
#    BR                NDA      ID1      ID2       ID3
     2.87745389E-03    3     1000022         6        -6   # BR(chi^0_4 -> chi^0_1 t t_bar)
     3.20072358E-03    3     1000023         6        -6   # BR(chi^0_4 -> chi^0_2 t t_bar)
     1.17021866E-04    3     1000025         6        -6   # BR(chi^0_4 -> chi^0_3 t t_bar)
     5.13170168E-03    3     1000024         5        -6   # BR(chi^0_4 -> chi^+_1 b t_bar)
     5.13170168E-03    3    -1000024        -5         6   # BR(chi^0_4 -> chi^-_1 b_bar t)
     3.17250935E-04    3     1000037         5        -6   # BR(chi^0_4 -> chi^+_2 b t_bar)
     3.17250935E-04    3    -1000037        -5         6   # BR(chi^0_4 -> chi^-_2 b_bar t)
DECAY   1000021     1.06616149E+01   # ~g
#    BR                NDA      ID1      ID2
     4.93567683E-01    2     1000005        -5   # BR(~g -> ~b_1 b_bar)
     4.93567683E-01    2    -1000005         5   # BR(~g -> ~b^*_1 b)
#    BR                NDA      ID1      ID2       ID3
     2.28460590E-03    3     1000022         6        -6   # BR(~g -> chi^0_1 t t_bar)
     2.52286196E-04    3     1000022         5        -5   # BR(~g -> chi^0_1 b b_bar)
     2.45835094E-03    3     1000023         6        -6   # BR(~g -> chi^0_2 t t_bar)
     2.36848354E-04    3     1000023         5        -5   # BR(~g -> chi^0_2 b b_bar)
     4.32160598E-04    3     1000025         6        -6   # BR(~g -> chi^0_3 t t_bar)
     3.01769260E-04    3     1000025         5        -5   # BR(~g -> chi^0_3 b b_bar)
     2.60163795E-03    3     1000024         5        -6   # BR(~g -> chi^+_1 b t_bar)
     2.60163795E-03    3    -1000024        -5         6   # BR(~g -> chi^-_1 b_bar t)
     7.40808821E-04    3     1000037         5        -6   # BR(~g -> chi^+_2 b t_bar)
     7.40808821E-04    3    -1000037        -5         6   # BR(~g -> chi^-_2 b_bar t)
DECAY        25     3.28047258E-03   # Gamma(h0)
     2.53994286E-03   2        22        22   # BR(h0 -> photon photon)
     1.39698524E-03   2        22        23   # BR(h0 -> photon Z)
     2.36142535E-02   2        23        23   # BR(h0 -> Z Z)
     2.05327285E-01   2       -24        24   # BR(h0 -> W W)
     8.08541678E-02   2        21        21   # BR(h0 -> gluon gluon)
     5.27366395E-09   2       -11        11   # BR(h0 -> Electron electron)
     2.34580549E-04   2       -13        13   # BR(h0 -> Muon muon)
     6.76344590E-02   2       -15        15   # BR(h0 -> Tau tau)
     1.49178342E-07   2        -2         2   # BR(h0 -> Up up)
     2.89505251E-02   2        -4         4   # BR(h0 -> Charm charm)
     6.12695898E-07   2        -1         1   # BR(h0 -> Down down)
     2.21597434E-04   2        -3         3   # BR(h0 -> Strange strange)
     5.89225436E-01   2        -5         5   # BR(h0 -> Bottom bottom)
DECAY        35     4.84482369E+01   # Gamma(HH)
     9.50365411E-08   2        22        22   # BR(HH -> photon photon)
     2.23148631E-07   2        22        23   # BR(HH -> photon Z)
     9.11581384E-07   2        23        23   # BR(HH -> Z Z)
     5.23256843E-07   2       -24        24   # BR(HH -> W W)
     1.24312925E-05   2        21        21   # BR(HH -> gluon gluon)
     6.86937349E-09   2       -11        11   # BR(HH -> Electron electron)
     3.05813490E-04   2       -13        13   # BR(HH -> Muon muon)
     8.83161350E-02   2       -15        15   # BR(HH -> Tau tau)
     7.75275736E-14   2        -2         2   # BR(HH -> Up up)
     1.50376873E-08   2        -4         4   # BR(HH -> Charm charm)
     1.11747618E-03   2        -6         6   # BR(HH -> Top top)
     5.38127746E-07   2        -1         1   # BR(HH -> Down down)
     1.94640768E-04   2        -3         3   # BR(HH -> Strange strange)
     5.29176882E-01   2        -5         5   # BR(HH -> Bottom bottom)
     1.44945611E-02   2  -1000024   1000024   # BR(HH -> Chargino1 chargino1)
     1.16635737E-01   2  -1000024   1000037   # BR(HH -> Chargino1 chargino2)
     1.16635737E-01   2  -1000037   1000024   # BR(HH -> Chargino2 chargino1)
     1.15930300E-03   2  -1000037   1000037   # BR(HH -> Chargino2 chargino2)
     4.17461480E-03   2   1000022   1000022   # BR(HH -> neutralino1 neutralino1)
     4.20925694E-04   2   1000022   1000023   # BR(HH -> neutralino1 neutralino2)
     5.67284728E-02   2   1000022   1000025   # BR(HH -> neutralino1 neutralino3)
     2.72439836E-03   2   1000022   1000035   # BR(HH -> neutralino1 neutralino4)
     8.55010881E-04   2   1000023   1000023   # BR(HH -> neutralino2 neutralino2)
     6.09424114E-02   2   1000023   1000025   # BR(HH -> neutralino2 neutralino3)
     5.53024441E-03   2   1000023   1000035   # BR(HH -> neutralino2 neutralino4)
     5.68026996E-04   2   1000025   1000025   # BR(HH -> neutralino3 neutralino3)
     4.86486853E-06   2        25        25   # BR(HH -> h0 h0)
DECAY        36     4.71571892E+01   # Gamma(A0)
     7.21685428E-09   2        22        22   # BR(A0 -> photon photon)
     9.43068465E-08   2        22        23   # BR(A0 -> photon Z)
     2.51573607E-05   2        21        21   # BR(A0 -> gluon gluon)
     6.75189975E-09   2       -11        11   # BR(A0 -> Electron electron)
     3.00583475E-04   2       -13        13   # BR(A0 -> Muon muon)
     8.68060889E-02   2       -15        15   # BR(A0 -> Tau tau)
     7.34569860E-14   2        -2         2   # BR(A0 -> Up up)
     1.42467188E-08   2        -4         4   # BR(A0 -> Charm charm)
     1.09979249E-03   2        -6         6   # BR(A0 -> Top top)
     5.28908165E-07   2        -1         1   # BR(A0 -> Down down)
     1.91305862E-04   2        -3         3   # BR(A0 -> Strange strange)
     5.20119240E-01   2        -5         5   # BR(A0 -> Bottom bottom)
     1.52550055E-02   2  -1000024   1000024   # BR(A0 -> Chargino1 chargino1)
     1.19556472E-01   2  -1000024   1000037   # BR(A0 -> Chargino1 chargino2)
     1.19556472E-01   2  -1000037   1000024   # BR(A0 -> Chargino2 chargino1)
     1.47860249E-03   2  -1000037   1000037   # BR(A0 -> Chargino2 chargino2)
     4.10029432E-03   2   1000022   1000022   # BR(A0 -> neutralino1 neutralino1)
     5.68840275E-04   2   1000022   1000023   # BR(A0 -> neutralino1 neutralino2)
     6.27215331E-02   2   1000022   1000025   # BR(A0 -> neutralino1 neutralino3)
     5.92572339E-03   2   1000022   1000035   # BR(A0 -> neutralino1 neutralino4)
     1.05914499E-03   2   1000023   1000023   # BR(A0 -> neutralino2 neutralino2)
     5.79549217E-02   2   1000023   1000025   # BR(A0 -> neutralino2 neutralino3)
     2.55021514E-03   2   1000023   1000035   # BR(A0 -> neutralino2 neutralino4)
     7.28702934E-04   2   1000025   1000025   # BR(A0 -> neutralino3 neutralino3)
     1.25235749E-06   2        23        25   # BR(A0 -> Z h0)
     3.13861759E-39   2        25        25   # BR(A0 -> h0 h0)
DECAY        37     5.11887450E+01   # Gamma(Hp)
     7.68900708E-09   2       -11        12   # BR(Hp -> Electron nu_e)
     3.28729066E-04   2       -13        14   # BR(Hp -> Muon nu_mu)
     9.29831749E-02   2       -15        16   # BR(Hp -> Tau nu_tau)
     5.21509447E-07   2        -1         2   # BR(Hp -> Down up)
     8.75508587E-06   2        -3         2   # BR(Hp -> Strange up)
     5.79615017E-06   2        -5         2   # BR(Hp -> Bottom up)
     2.49524649E-08   2        -1         4   # BR(Hp -> Down charm)
     1.87960222E-04   2        -3         4   # BR(Hp -> Strange charm)
     8.11667985E-04   2        -5         4   # BR(Hp -> Bottom charm)
     7.90719537E-08   2        -1         6   # BR(Hp -> Down top)
     1.99800685E-06   2        -3         6   # BR(Hp -> Strange top)
     5.45890573E-01   2        -5         6   # BR(Hp -> Bottom top)
     3.72479047E-04   2   1000022   1000024   # BR(Hp -> neutralino1 chargino1)
     1.21095127E-01   2   1000022   1000037   # BR(Hp -> neutralino1 chargino2)
     2.90400529E-03   2   1000023   1000024   # BR(Hp -> neutralino2 chargino1)
     1.11979790E-01   2   1000023   1000037   # BR(Hp -> neutralino2 chargino2)
     1.15726368E-01   2   1000024   1000025   # BR(Hp -> chargino1 neutralino3)
     6.10594889E-08   2   1000025   1000037   # BR(Hp -> neutralino3 chargino2)
     7.70172112E-03   2   1000024   1000035   # BR(Hp -> chargino1 neutralino4)
     1.16055294E-06   2        24        25   # BR(Hp -> W h0)
     8.57971146E-12   2        24        35   # BR(Hp -> W HH)
     3.80740561E-12   2        24        36   # BR(Hp -> W A0)
DECAY         6     2.43000000E+00   # top
#    BR                NDA      ID1      ID2
     1.00000000E+00    2           5        24   # BR(t -> b W)
Block HiggsBoundsInputHiggsCouplingsFermions
# ScalarNormEffCoupSq PseudoSNormEffCoupSq NP IP1 IP2 IP2
    9.49379397E-01    0.00000000E+00        3  25   5   5  # h0-b-b eff. coupling^2, normalised to SM
    1.17829306E+03    0.00000000E+00        3  35   5   5  # H0-b-b eff. coupling^2, normalised to SM
    0.00000000E+00    1.17824244E+03        3  36   5   5  # A0-b-b eff. coupling^2, normalised to SM
#
    1.00004296E+00    0.00000000E+00        3  25   6   6  # h0-t-t eff. coupling^2, normalised to SM
    8.05758958E-04    0.00000000E+00        3  35   6   6  # H0-t-t eff. coupling^2, normalised to SM
    0.00000000E+00    8.48721766E-04        3  36   6   6  # A0-t-t eff. coupling^2, normalised to SM
#
    9.49379397E-01    0.00000000E+00        3  25  15  15  # h0-tau-tau eff. coupling^2, normalised to SM
    1.17829306E+03    0.00000000E+00        3  35  15  15  # H0-tau-tau eff. coupling^2, normalised to SM
    0.00000000E+00    1.17824244E+03        3  36  15  15  # A0-tau-tau eff. coupling^2, normalised to SM
#
Block HiggsBoundsInputHiggsCouplingsBosons
    9.99999442E-01        3  25  24  24  # h0-W-W eff. coupling^2, normalised to SM
    5.57901321E-07        3  35  24  24  # H0-W-W eff. coupling^2, normalised to SM
    0.00000000E+00        3  36  24  24  # A0-W-W eff. coupling^2, normalised to SM
#
    9.99999442E-01        3  25  23  23  # h0-Z-Z eff. coupling^2, normalised to SM
    5.57901321E-07        3  35  23  23  # H0-Z-Z eff. coupling^2, normalised to SM
    0.00000000E+00        3  36  23  23  # A0-Z-Z eff. coupling^2, normalised to SM
#
    1.26852141E+00        3  25  21  21  # h0-g-g eff. coupling^2, normalised to SM
    7.30310922E-03        3  35  21  21  # H0-g-g eff. coupling^2, normalised to SM
    1.21962079E-01        3  36  21  21  # A0-g-g eff. coupling^2, normalised to SM
#
    0.00000000E+00        3  25  25  23  # h0-h0-Z eff. coupling^2, normalised to SM
    0.00000000E+00        3  35  25  23  # H0-h0-Z eff. coupling^2, normalised to SM
    5.57901321E-07        3  36  25  23  # A0-h0-Z eff. coupling^2, normalised to SM
    0.00000000E+00        3  35  35  23  # H0-H0-Z eff. coupling^2, normalised to SM
    9.99999442E-01        3  36  35  23  # A0-H0-Z eff. coupling^2, normalised to SM
    0.00000000E+00        3  36  36  23  # A0-A0-Z eff. coupling^2, normalised to SM
#
    0.00000000E+00        4  25  21  21  23  # h0-g-g-Z eff. coupling^2, normalised to SM
    0.00000000E+00        4  35  21  21  23  # H0-g-g-Z eff. coupling^2, normalised to SM
    0.00000000E+00        4  36  21  21  23  # A0-g-g-Z eff. coupling^2, normalised to SM
Block SPhenoLowEnergy  # low energy observables
    1    3.35782163E-04   # BR(b -> s gamma)
    2    1.58789157E-06   # BR(b -> s mu+ mu-)
    3    3.52364861E-05   # BR(b -> s nu nu)
    4    2.44797816E-15   # BR(Bd -> e+ e-)
    5    1.04574931E-10   # BR(Bd -> mu+ mu-)
    6    2.18965742E-08   # BR(Bd -> tau+ tau-)
    7    8.34867551E-14   # BR(Bs -> e+ e-)
    8    3.56655354E-09   # BR(Bs -> mu+ mu-)
    9    7.56616308E-07   # BR(Bs -> tau+ tau-)
   10    9.47991950E-05   # BR(B_u -> tau nu)
   11    9.79239391E-01   # BR(B_u -> tau nu)/BR(B_u -> tau nu)_SM
   12    5.42108835E-01   # |Delta(M_Bd)| [ps^-1] 
   13    1.93592361E+01   # |Delta(M_Bs)| [ps^-1] 
   14    0.00000000E+00   # neutron EDM according to the chiral quark model
   15    0.00000000E+00   # neutron EDM according to the relativistic quark-parton model
   16    2.15791622E-03   # epsilon_K
   17    2.28166659E-15   # Delta(M_K)
   18    2.47875792E-11   # BR(K^0 -> pi^0 nu nu)
   19    8.28756478E-11   # BR(K^+ -> pi^+ nu nu)
   20   -3.51045263E-16   # Delta(g-2)_electron/2
   21   -1.50083737E-11   # Delta(g-2)_muon/2
   22   -4.25281305E-09   # Delta(g-2)_tau/2
   23    0.00000000E+00   # electric dipole moment of the electron
   24    0.00000000E+00   # electric dipole moment of the muon
   25    0.00000000E+00   # electric dipole moment of the tau
   26    0.00000000E+00   # Br(mu -> e gamma)
   27    0.00000000E+00   # Br(tau -> e gamma)
   28    0.00000000E+00   # Br(tau -> mu gamma)
   29    0.00000000E+00   # Br(mu -> 3 e)
   30    0.00000000E+00   # Br(tau -> 3 e)
   31    0.00000000E+00   # Br(tau -> 3 mu)
   39    7.24347887E-05   # Delta(rho_parameter)
   40    0.00000000E+00   # BR(Z -> e mu)
   41    0.00000000E+00   # BR(Z -> e tau)
   42    0.00000000E+00   # BR(Z -> mu tau)
Block FWCOEF Q=  1.60000000E+02  # Wilson coefficients at scale Q
#    id        order  M        value         comment
     0305 4422   00   0    -1.88819110E-01   # C7
     0305 4422   00   2    -2.05176390E-01   # C7
     0305 4322   00   2    -3.02159131E-04   # C7'
     0305 6421   00   0    -9.52278348E-02   # C8
     0305 6421   00   2    -1.12353775E-01   # C8
     0305 6321   00   2    -3.32144638E-04   # C8'
 03051111 4133   00   0     1.62522979E+00   # C9 e+e-
 03051111 4133   00   2     1.62558228E+00   # C9 e+e-
 03051111 4233   00   2     2.36921246E-04   # C9' e+e-
 03051111 4137   00   0    -4.44792189E+00   # C10 e+e-
 03051111 4137   00   2    -4.44472289E+00   # C10 e+e-
 03051111 4237   00   2    -1.75445538E-03   # C10' e+e-
 03051313 4133   00   0     1.62522979E+00   # C9 mu+mu-
 03051313 4133   00   2     1.62558218E+00   # C9 mu+mu-
 03051313 4233   00   2     2.36920234E-04   # C9' mu+mu-
 03051313 4137   00   0    -4.44792189E+00   # C10 mu+mu-
 03051313 4137   00   2    -4.44472299E+00   # C10 mu+mu-
 03051313 4237   00   2    -1.75445464E-03   # C10' mu+mu-
 03051212 4137   00   0     1.50535012E+00   # C11 nu_1 nu_1
 03051212 4137   00   2     1.50465963E+00   # C11 nu_1 nu_1
 03051212 4237   00   2     3.79503121E-04   # C11' nu_1 nu_1
 03051414 4137   00   0     1.50535012E+00   # C11 nu_2 nu_2
 03051414 4137   00   2     1.50465963E+00   # C11 nu_2 nu_2
 03051414 4237   00   2     3.79503325E-04   # C11' nu_2 nu_2
 03051616 4137   00   0     1.50535012E+00   # C11 nu_3 nu_3
 03051616 4137   00   2     1.50465964E+00   # C11 nu_3 nu_3
 03051616 4237   00   2     3.79560902E-04   # C11' nu_3 nu_3
Block IMFWCOEF Q=  1.60000000E+02  # Im(Wilson coefficients) at scale Q
#    id        order  M        value         comment
     0305 4422   00   0     3.85820828E-07   # C7
     0305 4422   00   2    -1.29432455E-05   # C7
     0305 4322   00   2    -4.60173899E-07   # C7'
     0305 6421   00   0     3.30481055E-07   # C8
     0305 6421   00   2     1.56804313E-05   # C8
     0305 6321   00   2     2.30087306E-07   # C8'
 03051111 4133   00   2     6.31248818E-07   # C9 e+e-
 03051111 4233   00   2     5.40741974E-06   # C9' e+e-
 03051111 4137   00   2    -2.27051620E-07   # C10 e+e-
 03051111 4237   00   2    -4.00607557E-05   # C10' e+e-
 03051313 4133   00   2     6.31246148E-07   # C9 mu+mu-
 03051313 4233   00   2     5.40741853E-06   # C9' mu+mu-
 03051313 4137   00   2    -2.27048877E-07   # C10 mu+mu-
 03051313 4237   00   2    -4.00607593E-05   # C10' mu+mu-
 03051212 4137   00   2     7.56166857E-08   # C11 nu_1 nu_1
 03051212 4237   00   2     8.66547394E-06   # C11' nu_1 nu_1
 03051414 4137   00   2     7.56168114E-08   # C11 nu_2 nu_2
 03051414 4237   00   2     8.66547394E-06   # C11' nu_2 nu_2
 03051616 4137   00   2     7.56520582E-08   # C11 nu_3 nu_3
 03051616 4237   00   2     8.66547392E-06   # C11' nu_3 nu_3
