# SUSY Les Houches Accord 2 - MSSM spectrum + Decays
# SPheno v4.0.5be
# W. Porod, Comput. Phys. Commun. 153 (2003) 275-315, hep-ph/0301101;
# W. Porod, F.~Staub, Comput. Phys. Commun. 183 (2012) 2458
#                     arXiv:1104.1573 [hep-ph] 
# in case of problems send email to porod@physik.uni-wuerzburg.de
# Created: 12.05.2022,  15:05
Block SPINFO         # Program information
     1   SPheno      # spectrum calculator
     2   v4.0.5be    # version number
#
Block SPhenoINFO     # SPheno specific information
    1      2         # using 2-loop RGEs
    2      2         # using pole masses for boundary conditions at mZ
Block MODSEL  # Model selection
    1    0    # general MSSM
Block MINPAR  # Input parameters
    3    4.62834035E+01  # tanb at m_Z    
    4   -1.00000000E+00  # Sign(mu)
Block EXTPAR  # non-universal input parameters
    0    3.64485416E+03  # scale for input parameters
    1    1.22599272E+02  # M_1
    2   -2.53141861E+02  # M_2
    3    2.24358134E+03  # M_3
   11    4.72381967E+03  # A_t
   12   -4.97767068E+02  # A_b
   13   -1.27396061E+03  # A_tau
   23   -1.73273568E+03  # mu
   25    4.63358413E+01  # tan(beta)
   26    8.07163482E+02  # m_A, pole mass
   31    1.00000000E+04  # M_L11
   32    1.00000000E+04  # M_L22
   33    1.00000000E+04  # M_L33
   34    1.00000000E+04  # M_E11
   35    1.00000000E+04  # M_E22
   36    1.00000000E+04  # M_E33
   41    1.00000000E+04  # M_Q11
   42    1.00000000E+04  # M_Q22
   43    4.26451608E+03  # M_Q33
   44    1.00000000E+04  # M_U11
   45    1.00000000E+04  # M_U22
   46    3.11029592E+03  # M_U33
   47    1.00000000E+04  # M_D11
   48    1.00000000E+04  # M_D22
   49    2.86148699E+03  # M_D33
Block SMINPUTS  # SM parameters
         1     1.27908970E+02  # alpha_em^-1(MZ)^MSbar
         2     1.16637870E-05  # G_mu [GeV^-2]
         3     1.18400000E-01  # alpha_s(MZ)^MSbar
         4     9.11876000E+01  # m_Z(pole)
         5     4.18000000E+00  # m_b(m_b), MSbar
         6     1.73200000E+02  # m_t(pole)
         7     1.77700000E+00  # m_tau(pole)
         8     0.00000000E+00  # m_nu_3
        11     5.10998930E-04  # m_e(pole)
        12     0.00000000E+00  # m_nu_1
        13     1.05658372E-01  # m_muon(pole)
        14     0.00000000E+00  # m_nu_2
        21     5.00000000E-03  # m_d(2 GeV), MSbar
        22     2.50000000E-03  # m_u(2 GeV), MSbar
        23     9.50000000E-02  # m_s(2 GeV), MSbar
        24     1.27000000E+00  # m_c(m_c), MSbar
Block gauge Q=  3.64485416E+03  # (SUSY scale)
   1    3.55362975E-01  # g'(Q)^DRbar
   2    6.65198874E-01  # g(Q)^DRbar
   3    1.21977796E+00  # g3(Q)^DRbar
Block Yu Q=  3.64485416E+03  # (SUSY scale)
  1  1     8.38632448E-06   # Y_u(Q)^DRbar
  2  2     4.26025283E-03   # Y_c(Q)^DRbar
  3  3     1.01313536E+00   # Y_t(Q)^DRbar
Block Yd Q=  3.64485416E+03  # (SUSY scale)
  1  1     7.80852422E-04   # Y_d(Q)^DRbar
  2  2     1.48361960E-02   # Y_s(Q)^DRbar
  3  3     7.74360919E-01   # Y_b(Q)^DRbar
Block Ye Q=  3.64485416E+03  # (SUSY scale)
  1  1     1.36264458E-04   # Y_e(Q)^DRbar
  2  2     2.81751681E-02   # Y_mu(Q)^DRbar
  3  3     4.73859977E-01   # Y_tau(Q)^DRbar
Block Au Q=  3.64485416E+03  # (SUSY scale)
  1  1     0.00000000E+00   # A_u(Q)^DRbar
  2  2     0.00000000E+00   # A_c(Q)^DRbar
  3  3     4.72381969E+03   # A_t(Q)^DRbar
Block Ad Q=  3.64485416E+03  # (SUSY scale)
  1  1     0.00000000E+00   # A_d(Q)^DRbar
  2  2     0.00000000E+00   # A_s(Q)^DRbar
  3  3    -4.97767048E+02   # A_b(Q)^DRbar
Block Ae Q=  3.64485416E+03  # (SUSY scale)
  1  1     0.00000000E+00   # A_e(Q)^DRbar
  2  2     0.00000000E+00   # A_mu(Q)^DRbar
  3  3    -1.27396061E+03   # A_tau(Q)^DRbar
Block MSOFT Q=  3.64485416E+03  # soft SUSY breaking masses at Q
   1    1.22599272E+02  # M_1
   2   -2.53141861E+02  # M_2
   3    2.24358134E+03  # M_3
  21   -2.37365522E+06  # M^2_(H,d)
  22   -2.78523223E+06  # M^2_(H,u)
  31    1.00000000E+04  # M_(L,11)
  32    1.00000000E+04  # M_(L,22)
  33    1.00000000E+04  # M_(L,33)
  34    1.00000000E+04  # M_(E,11)
  35    1.00000000E+04  # M_(E,22)
  36    1.00000000E+04  # M_(E,33)
  41    1.00000000E+04  # M_(Q,11)
  42    1.00000000E+04  # M_(Q,22)
  43    4.26451608E+03  # M_(Q,33)
  44    1.00000000E+04  # M_(U,11)
  45    1.00000000E+04  # M_(U,22)
  46    3.11029592E+03  # M_(U,33)
  47    1.00000000E+04  # M_(D,11)
  48    1.00000000E+04  # M_(D,22)
  49    2.86148699E+03  # M_(D,33)
Block MASS  # Mass spectrum
#   PDG code      mass          particle
         6     1.73200000E+02  # m_t(pole)
        23     9.11876000E+01  # m_Z(pole)
        24     8.04299946E+01  # W+
        15     1.77700000E+00  # m_tau(pole)
        25     1.25591914E+02  # h0
        35     8.06966114E+02  # H0
        36     8.07163482E+02  # A0
        37     8.23478443E+02  # H+
   1000001     1.01151482E+04  # ~d_L
   2000001     1.00899512E+04  # ~d_R
   1000002     1.01147862E+04  # ~u_L
   2000002     1.00934046E+04  # ~u_R
   1000003     1.01151549E+04  # ~s_L
   2000003     1.00899600E+04  # ~s_R
   1000004     1.01147917E+04  # ~c_L
   2000004     1.00934055E+04  # ~c_R
   1000005     2.91166703E+03  # ~b_1
   2000005     4.25777125E+03  # ~b_2
   1000006     3.11529906E+03  # ~t_1
   2000006     4.26442586E+03  # ~t_2
   1000011     1.00215475E+04  # ~e_L-
   2000011     1.00086762E+04  # ~e_R-
   1000012     1.00207809E+04  # ~nu_eL
   1000013     1.00215869E+04  # ~mu_L-
   2000013     1.00087117E+04  # ~mu_R-
   1000014     1.00208062E+04  # ~nu_muL
   1000015     1.00181549E+04  # ~tau_1-
   2000015     1.00335110E+04  # ~tau_2-
   1000016     1.00280305E+04  # ~nu_tauL
   1000021     2.67590891E+03  # ~g
   1000022     1.23419714E+02  # ~chi_10
   1000023     2.80544395E+02  # ~chi_20
   1000025     1.74469745E+03  # ~chi_30
   1000035     1.74529228E+03  # ~chi_40
   1000024     2.80724123E+02  # ~chi_1+
   1000037     1.74662180E+03  # ~chi_2+
# Higgs mixing
Block alpha # Effective Higgs mixing angle
          -2.23750267E-02   # alpha
Block Hmix Q=  3.64485416E+03  # Higgs mixing parameters
   1   -1.73273568E+03  # mu
   2    4.63358413E+01  # tan[beta](Q)
   3    2.43018871E+02  # v(Q)
   4    6.51512887E+05  # m^2_A(Q)
Block stopmix # stop mixing matrix
   1  1    -7.33666594E-02   # Re[R_st(1,1)]
   1  2     9.97305035E-01   # Re[R_st(1,2)]
   2  1    -9.97305035E-01   # Re[R_st(2,1)]
   2  2    -7.33666594E-02   # Re[R_st(2,2)]
Block sbotmix # sbottom mixing matrix
   1  1    -2.34950678E-02   # Re[R_sb(1,1)]
   1  2     9.99723953E-01   # Re[R_sb(1,2)]
   2  1    -9.99723953E-01   # Re[R_sb(2,1)]
   2  2    -2.34950678E-02   # Re[R_sb(2,2)]
Block staumix # stau mixing matrix
   1  1    -5.57374784E-01   # Re[R_sta(1,1)]
   1  2     8.30261013E-01   # Re[R_sta(1,2)]
   2  1    -8.30261013E-01   # Re[R_sta(2,1)]
   2  2    -5.57374784E-01   # Re[R_sta(2,2)]
Block Nmix # neutralino mixing matrix
   1  1     9.99662082E-01   # Re[N(1,1)]
   1  2     1.19996686E-04   # Re[N(1,2)]
   1  3    -2.59649002E-02   # Re[N(1,3)]
   1  4    -1.23784038E-03   # Re[N(1,4)]
   2  1     1.08153142E-03   # Re[N(2,1)]
   2  2     9.98875353E-01   # Re[N(2,2)]
   2  3     4.66551325E-02   # Re[N(2,3)]
   2  4    -8.37602054E-03   # Re[N(2,4)]
   3  1     1.92231228E-02   # Re[N(3,1)]
   3  2    -2.70786886E-02   # Re[N(3,2)]
   3  3     7.06261602E-01   # Re[N(3,3)]
   3  4     7.07171667E-01   # Re[N(3,4)]
   4  1     1.74649514E-02   # Re[N(4,1)]
   4  2    -3.89199055E-02   # Re[N(4,2)]
   4  3     7.05934609E-01   # Re[N(4,3)]
   4  4    -7.06991191E-01   # Re[N(4,4)]
Block Umix # chargino mixing matrix
   1  1    -9.97824835E-01   # Re[U(1,1)]
   1  2    -6.59211616E-02   # Re[U(1,2)]
   2  1    -6.59211616E-02   # Re[U(2,1)]
   2  2     9.97824835E-01   # Re[U(2,2)]
Block Vmix # chargino mixing matrix
   1  1     9.99929433E-01   # Re[V(1,1)]
   1  2     1.18797949E-02   # Re[V(1,2)]
   2  1     1.18797949E-02   # Re[V(2,1)]
   2  2    -9.99929433E-01   # Re[V(2,2)]
DECAY        23     2.49520000E+00   # Z
DECAY        24     2.08500000E+00   # W
DECAY   2000011     5.02726352E+01   # ~e^-_R
#    BR                NDA      ID1      ID2
     9.99364307E-01    2     1000022        11   # BR(~e^-_R -> chi^0_1 e^-)
     3.47566069E-04    2     1000025        11   # BR(~e^-_R -> chi^0_3 e^-)
     2.86889567E-04    2     1000035        11   # BR(~e^-_R -> chi^0_4 e^-)
DECAY   1000011     1.44682298E+02   # ~e^-_L
#    BR                NDA      ID1      ID2
     8.69628433E-02    2     1000022        11   # BR(~e^-_L -> chi^0_1 e^-)
     3.04065019E-01    2     1000023        11   # BR(~e^-_L -> chi^0_2 e^-)
     2.51000555E-04    2     1000035        11   # BR(~e^-_L -> chi^0_4 e^-)
     6.06148921E-01    2    -1000024        12   # BR(~e^-_L -> chi^-_1 nu_e)
     2.49120297E-03    2    -1000037        12   # BR(~e^-_L -> chi^-_2 nu_e)
#    BR                NDA      ID1      ID2       ID3
DECAY   2000013     5.05700624E+01   # ~mu^-_R
#    BR                NDA      ID1      ID2
     9.93492190E-01    2     1000022        13   # BR(~mu^-_R -> chi^0_1 mu^-)
     1.81128843E-03    2     1000025        13   # BR(~mu^-_R -> chi^0_3 mu^-)
     1.74954949E-03    2     1000035        13   # BR(~mu^-_R -> chi^0_4 mu^-)
     2.92545558E-03    2    -1000037        14   # BR(~mu^-_R -> chi^-_2 nu_mu)
DECAY   1000013     1.44831710E+02   # ~mu^-_L
#    BR                NDA      ID1      ID2
     8.68742085E-02    2     1000022        13   # BR(~mu^-_L -> chi^0_1 mu^-)
     3.03754913E-01    2     1000023        13   # BR(~mu^-_L -> chi^0_2 mu^-)
     5.93463519E-04    2     1000025        13   # BR(~mu^-_L -> chi^0_3 mu^-)
     7.62779308E-04    2     1000035        13   # BR(~mu^-_L -> chi^0_4 mu^-)
     6.05525992E-01    2    -1000024        14   # BR(~mu^-_L -> chi^-_1 nu_mu)
     2.48864400E-03    2    -1000037        14   # BR(~mu^-_L -> chi^-_2 nu_mu)
#    BR                NDA      ID1      ID2       ID3
DECAY   1000015     1.51086659E+02   # ~tau^-_1
#    BR                NDA      ID1      ID2
     2.59273335E-01    2     1000022        15   # BR(~tau^-_1 -> chi^0_1 tau^-)
     1.03726671E-01    2     1000023        15   # BR(~tau^-_1 -> chi^0_2 tau^-)
     1.32284514E-01    2     1000025        15   # BR(~tau^-_1 -> chi^0_3 tau^-)
     1.30220840E-01    2     1000035        15   # BR(~tau^-_1 -> chi^0_4 tau^-)
     2.06427179E-01    2    -1000024        16   # BR(~tau^-_1 -> chi^-_1 nu_tau)
     1.68067461E-01    2    -1000037        16   # BR(~tau^-_1 -> chi^-_2 nu_tau)
DECAY   2000015     1.70395355E+02   # ~tau^-_2
#    BR                NDA      ID1      ID2
     1.39616621E-01    2     1000022        15   # BR(~tau^-_2 -> chi^0_1 tau^-)
     1.67519890E-01    2     1000023        15   # BR(~tau^-_2 -> chi^0_2 tau^-)
     1.29458778E-01    2     1000025        15   # BR(~tau^-_2 -> chi^0_3 tau^-)
     1.31179130E-01    2     1000035        15   # BR(~tau^-_2 -> chi^0_4 tau^-)
     3.33120355E-01    2    -1000024        16   # BR(~tau^-_2 -> chi^-_1 nu_tau)
     9.91052244E-02    2    -1000037        16   # BR(~tau^-_2 -> chi^-_2 nu_tau)
#    BR                NDA      ID1      ID2       ID3
DECAY   1000012     1.44686212E+02   # ~nu_e
#    BR                NDA      ID1      ID2
     8.68757173E-02    2     1000022        12   # BR(~nu_e -> chi^0_1 nu_e)
     3.03330831E-01    2     1000023        12   # BR(~nu_e -> chi^0_2 nu_e)
     3.99831240E-04    2     1000025        12   # BR(~nu_e -> chi^0_3 nu_e)
     6.67293830E-04    2     1000035        12   # BR(~nu_e -> chi^0_4 nu_e)
     6.08645406E-01    2     1000024        11   # BR(~nu_e -> chi^+_1 e^-)
#    BR                NDA      ID1      ID2       ID3
DECAY   1000014     1.44835403E+02   # ~nu_mu
#    BR                NDA      ID1      ID2
     8.67864481E-02    2     1000022        14   # BR(~nu_mu -> chi^0_1 nu_mu)
     3.03019145E-01    2     1000023        14   # BR(~nu_mu -> chi^0_2 nu_mu)
     3.99420518E-04    2     1000025        14   # BR(~nu_mu -> chi^0_3 nu_mu)
     6.66608361E-04    2     1000035        14   # BR(~nu_mu -> chi^0_4 nu_mu)
     6.08024734E-01    2     1000024        13   # BR(~nu_mu -> chi^+_1 mu^-)
     1.10364318E-03    2     1000037        13   # BR(~nu_mu -> chi^+_2 mu^-)
#    BR                NDA      ID1      ID2       ID3
DECAY   1000016     1.86922482E+02   # ~nu_tau
#    BR                NDA      ID1      ID2
     6.72943000E-02    2     1000022        16   # BR(~nu_tau -> chi^0_1 nu_tau)
     2.34961782E-01    2     1000023        16   # BR(~nu_tau -> chi^0_2 nu_tau)
     3.09738831E-04    2     1000025        16   # BR(~nu_tau -> chi^0_3 nu_tau)
     5.16935155E-04    2     1000035        16   # BR(~nu_tau -> chi^0_4 nu_tau)
     4.72499522E-01    2     1000024        15   # BR(~nu_tau -> chi^+_1 tau^-)
     2.24417723E-01    2     1000037        15   # BR(~nu_tau -> chi^+_2 tau^-)
#    BR                NDA      ID1      ID2       ID3
DECAY   2000001     6.93972290E+02   # ~d_R
#    BR                NDA      ID1      ID2
     8.10933792E-03    2     1000022         1   # BR(~d_R -> chi^0_1 d)
     9.91885168E-01    2     1000021         1   # BR(~d_R -> ~g d)
DECAY   1000001     8.25322559E+02   # ~d_L
#    BR                NDA      ID1      ID2
     1.70664019E-03    2     1000022         1   # BR(~d_L -> chi^0_1 d)
     5.37202961E-02    2     1000023         1   # BR(~d_L -> chi^0_2 d)
     1.07255864E-01    2    -1000024         2   # BR(~d_L -> chi^-_1 u)
     4.41305548E-04    2    -1000037         2   # BR(~d_L -> chi^-_2 u)
     8.36738803E-01    2     1000021         1   # BR(~d_L -> ~g d)
DECAY   2000003     6.94056020E+02   # ~s_R
#    BR                NDA      ID1      ID2
     8.10840949E-03    2     1000022         3   # BR(~s_R -> chi^0_1 s)
     9.91766634E-01    2     1000021         3   # BR(~s_R -> ~g s)
DECAY   1000003     8.25368269E+02   # ~s_L
#    BR                NDA      ID1      ID2
     1.70658288E-03    2     1000022         3   # BR(~s_L -> chi^0_1 s)
     5.37174731E-02    2     1000023         3   # BR(~s_L -> chi^0_2 s)
     1.14875079E-04    2     1000035         3   # BR(~s_L -> chi^0_4 s)
     1.07249991E-01    2    -1000024         4   # BR(~s_L -> chi^-_1 c)
     4.45450247E-04    2    -1000037         4   # BR(~s_L -> chi^-_2 c)
     8.36693184E-01    2     1000021         3   # BR(~s_L -> ~g s)
DECAY   1000005     3.55754060E+01   # ~b_1
#    BR                NDA      ID1      ID2
     4.65218067E-02    2     1000022         5   # BR(~b_1 -> chi^0_1 b)
     3.55433901E-03    2     1000023         5   # BR(~b_1 -> chi^0_2 b)
     1.99794442E-01    2     1000025         5   # BR(~b_1 -> chi^0_3 b)
     1.99368300E-01    2     1000035         5   # BR(~b_1 -> chi^0_4 b)
     7.04272849E-03    2    -1000024         6   # BR(~b_1 -> chi^-_1 t)
     3.87896582E-01    2    -1000037         6   # BR(~b_1 -> chi^-_2 t)
     1.55821802E-01    2     1000021         5   # BR(~b_1 -> ~g b)
DECAY   2000005     3.11282114E+02   # ~b_2
#    BR                NDA      ID1      ID2
     1.95062081E-03    2     1000022         5   # BR(~b_2 -> chi^0_1 b)
     5.96314339E-02    2     1000023         5   # BR(~b_2 -> chi^0_2 b)
     5.64710680E-02    2     1000025         5   # BR(~b_2 -> chi^0_3 b)
     5.64618455E-02    2     1000035         5   # BR(~b_2 -> chi^0_4 b)
     1.17972130E-01    2    -1000024         6   # BR(~b_2 -> chi^-_1 t)
     1.93825982E-01    2    -1000037         6   # BR(~b_2 -> chi^-_2 t)
     3.95243598E-01    2     1000021         5   # BR(~b_2 -> ~g b)
     9.03631713E-02    2     1000006       -24   # BR(~b_2 -> ~t_1 W^-)
     1.29749441E-02    2     1000006       -37   # BR(~b_2 -> ~t_1 H^-)
     6.97170945E-03    2     1000005        23   # BR(~b_2 -> ~b_1 Z)
     5.45367395E-04    2     1000005        36   # BR(~b_2 -> ~b_1 A^0)
     7.04118817E-03    2     1000005        25   # BR(~b_2 -> ~b_1 h^0)
     5.46941074E-04    2     1000005        35   # BR(~b_2 -> ~b_1 H^0)
DECAY   2000002     7.11180366E+02   # ~u_R
#    BR                NDA      ID1      ID2
     3.16633207E-02    2     1000022         2   # BR(~u_R -> chi^0_1 u)
     9.68316522E-01    2     1000021         2   # BR(~u_R -> ~g u)
DECAY   1000002     8.25309162E+02   # ~u_L
#    BR                NDA      ID1      ID2
     1.71121450E-03    2     1000022         2   # BR(~u_L -> chi^0_1 u)
     5.37606855E-02    2     1000023         2   # BR(~u_L -> chi^0_2 u)
     1.07706669E-01    2     1000024         1   # BR(~u_L -> chi^+_1 d)
     8.36713427E-01    2     1000021         2   # BR(~u_L -> ~g u)
DECAY   2000004     7.11187276E+02   # ~c_R
#    BR                NDA      ID1      ID2
     3.16630147E-02    2     1000022         4   # BR(~c_R -> chi^0_1 c)
     9.68307183E-01    2     1000021         4   # BR(~c_R -> ~g c)
DECAY   1000004     8.25354715E+02   # ~c_L
#    BR                NDA      ID1      ID2
     1.71112092E-03    2     1000022         4   # BR(~c_L -> chi^0_1 c)
     5.37577459E-02    2     1000023         4   # BR(~c_L -> chi^0_2 c)
     1.07701014E-01    2     1000024         3   # BR(~c_L -> chi^+_1 s)
     8.36667801E-01    2     1000021         4   # BR(~c_L -> ~g c)
DECAY   1000006     8.14928627E+01   # ~t_1
#    BR                NDA      ID1      ID2
     8.40401976E-02    2     1000022         6   # BR(~t_1 -> chi^0_1 t)
     2.68616663E-04    2     1000023         4   # BR(~t_1 -> chi^0_2 c)
     1.37119256E-03    2     1000023         6   # BR(~t_1 -> chi^0_2 t)
     1.84876262E-01    2     1000025         6   # BR(~t_1 -> chi^0_3 t)
     1.82602156E-01    2     1000035         6   # BR(~t_1 -> chi^0_4 t)
     2.77660020E-03    2     1000024         5   # BR(~t_1 -> chi^+_1 b)
     3.65605876E-01    2     1000037         5   # BR(~t_1 -> chi^+_2 b)
     3.37217769E-04    2     1000021         4   # BR(~t_1 -> ~g c)
     1.78110717E-01    2     1000021         6   # BR(~t_1 -> ~g t)
#    BR                NDA      ID1      ID2       ID3
DECAY   2000006     3.22974514E+02   # ~t_2
#    BR                NDA      ID1      ID2
     1.99798444E-03    2     1000022         6   # BR(~t_2 -> chi^0_1 t)
     5.68850694E-02    2     1000023         6   # BR(~t_2 -> chi^0_2 t)
     9.22885320E-02    2     1000025         6   # BR(~t_2 -> chi^0_3 t)
     9.27193398E-02    2     1000035         6   # BR(~t_2 -> chi^0_4 t)
     1.14957780E-01    2     1000024         5   # BR(~t_2 -> chi^+_1 b)
     1.09290013E-01    2     1000037         5   # BR(~t_2 -> chi^+_2 b)
     3.84293155E-01    2     1000021         6   # BR(~t_2 -> ~g t)
     1.35694749E-02    2     1000005        24   # BR(~t_2 -> ~b_1 W^+)
     9.74730502E-04    2     1000005        37   # BR(~t_2 -> ~b_1 H^+)
     4.39187967E-02    2     1000006        23   # BR(~t_2 -> ~t_1 Z)
     6.50146493E-03    2     1000006        36   # BR(~t_2 -> ~t_1 A^0)
     7.62699622E-02    2     1000006        25   # BR(~t_2 -> ~t_1 h^0)
     6.33369717E-03    2     1000006        35   # BR(~t_2 -> ~t_1 H^0)
DECAY   1000024     8.44263992E-06   # chi^+_1
#    BR                NDA      ID1      ID2
     9.99838948E-01    2     1000022        24   # BR(chi^+_1 -> chi^0_1 W^+)
#    BR                NDA      ID1      ID2       ID3
     1.57821905E-04    3     1000022       -15        16   # BR(chi^+_1 -> chi^0_1 tau^+ nu_tau)
DECAY   1000037     2.04150470E+01   # chi^+_2
#    BR                NDA      ID1      ID2
     5.88926507E-02    2     1000022        24   # BR(chi^+_2 -> chi^0_1 W^+)
     1.83971963E-01    2     1000023        24   # BR(chi^+_2 -> chi^0_2 W^+)
     3.21898674E-02    2          37   1000022   # BR(chi^+_2 -> H^+ chi^0_1)
     1.13714714E-01    2          37   1000023   # BR(chi^+_2 -> H^+ chi^0_2)
     1.83197827E-01    2     1000024        23   # BR(chi^+_2 -> chi^+_1 Z)
     1.11698989E-01    2     1000024        36   # BR(chi^+_2 -> chi^+_1 A^0)
     1.87838357E-01    2     1000024        25   # BR(chi^+_2 -> chi^+_1 h^0)
     1.11533588E-01    2     1000024        35   # BR(chi^+_2 -> chi^+_1 H^0)
#    BR                NDA      ID1      ID2       ID3
     8.68366226E-03    3     1000024         6        -6   # BR(chi^+_2 -> chi^+_1 t t_bar)
     1.90150322E-03    3     1000022        -5         6   # BR(chi^+_2 -> chi^0_1 b_bar t)
     6.36679823E-03    3     1000023        -5         6   # BR(chi^+_2 -> chi^0_2 b_bar t)
DECAY   1000022     0.00000000E+00   # chi^0_1
DECAY   1000023     1.76103563E-05   # chi^0_2
#    BR                NDA      ID1      ID2
     4.20829505E-01    2     1000022        23   # BR(chi^0_2 -> chi^0_1 Z)
     5.78347018E-01    2     1000022        25   # BR(chi^0_2 -> chi^0_1 h^0)
#    BR                NDA      ID1      ID2       ID3
     6.76182506E-04    3     1000022         5        -5   # BR(chi^0_2 -> chi^0_1 b b_bar)
DECAY   1000025     2.13745569E+01   # chi^0_3
#    BR                NDA      ID1      ID2
     1.75655817E-01    2     1000024       -24   # BR(chi^0_3 -> chi^+_1 W^-)
     1.75655817E-01    2    -1000024        24   # BR(chi^0_3 -> chi^-_1 W^+)
     1.03847202E-01    2          37  -1000024   # BR(chi^0_3 -> H^+ chi^-_1)
     1.03847202E-01    2         -37   1000024   # BR(chi^0_3 -> H^- chi^+_1)
     2.54203375E-02    2     1000022        23   # BR(chi^0_3 -> chi^0_1 Z)
     1.18407339E-01    2     1000023        23   # BR(chi^0_3 -> chi^0_2 Z)
     1.22882603E-02    2     1000022        36   # BR(chi^0_3 -> chi^0_1 A^0)
     3.10637164E-02    2     1000023        36   # BR(chi^0_3 -> chi^0_2 A^0)
     2.76325763E-02    2     1000022        25   # BR(chi^0_3 -> chi^0_1 h^0)
     1.11321979E-01    2     1000023        25   # BR(chi^0_3 -> chi^0_2 h^0)
     1.92731868E-02    2     1000022        35   # BR(chi^0_3 -> chi^0_1 H^0)
     7.84647217E-02    2     1000023        35   # BR(chi^0_3 -> chi^0_2 H^0)
#    BR                NDA      ID1      ID2       ID3
     1.09569441E-03    3     1000022         6        -6   # BR(chi^0_3 -> chi^0_1 t t_bar)
     3.71603665E-03    3     1000023         6        -6   # BR(chi^0_3 -> chi^0_2 t t_bar)
     6.15021897E-03    3     1000024         5        -6   # BR(chi^0_3 -> chi^+_1 b t_bar)
     6.15021897E-03    3    -1000024        -5         6   # BR(chi^0_3 -> chi^-_1 b_bar t)
DECAY   1000035     2.05561974E+01   # chi^0_4
#    BR                NDA      ID1      ID2
     1.82754650E-01    2     1000024       -24   # BR(chi^0_4 -> chi^+_1 W^-)
     1.82754650E-01    2    -1000024        24   # BR(chi^0_4 -> chi^-_1 W^+)
     1.11959230E-01    2          37  -1000024   # BR(chi^0_4 -> H^+ chi^-_1)
     1.11959230E-01    2         -37   1000024   # BR(chi^0_4 -> H^- chi^+_1)
     3.20019940E-02    2     1000022        23   # BR(chi^0_4 -> chi^0_1 Z)
     5.95180640E-02    2     1000023        23   # BR(chi^0_4 -> chi^0_2 Z)
     1.39126134E-02    2     1000022        36   # BR(chi^0_4 -> chi^0_1 A^0)
     3.51800803E-02    2     1000023        36   # BR(chi^0_4 -> chi^0_2 A^0)
     3.14227550E-02    2     1000022        25   # BR(chi^0_4 -> chi^0_1 h^0)
     1.26261125E-01    2     1000023        25   # BR(chi^0_4 -> chi^0_2 h^0)
     1.82841555E-02    2     1000022        35   # BR(chi^0_4 -> chi^0_1 H^0)
     7.44416900E-02    2     1000023        35   # BR(chi^0_4 -> chi^0_2 H^0)
#    BR                NDA      ID1      ID2       ID3
     1.21484953E-03    3     1000022         6        -6   # BR(chi^0_4 -> chi^0_1 t t_bar)
     4.13537411E-03    3     1000023         6        -6   # BR(chi^0_4 -> chi^0_2 t t_bar)
     7.09329610E-03    3     1000024         5        -6   # BR(chi^0_4 -> chi^+_1 b t_bar)
     7.09329610E-03    3    -1000024        -5         6   # BR(chi^0_4 -> chi^-_1 b_bar t)
DECAY   1000021     4.15614222E-02   # ~g
#    BR                NDA      ID1      ID2
     4.23848013E-03    2     1000025        21   # BR(~g -> chi^0_3 g)
     3.09624472E-03    2     1000035        21   # BR(~g -> chi^0_4 g)
#    BR                NDA      ID1      ID2       ID3
     6.70090879E-04    3     1000022         2        -2   # BR(~g -> chi^0_1 u u_bar)
     6.70090560E-04    3     1000022         4        -4   # BR(~g -> chi^0_1 c c_bar)
     1.40874608E-01    3     1000022         6        -6   # BR(~g -> chi^0_1 t t_bar)
     1.96992569E-04    3     1000022         1        -1   # BR(~g -> chi^0_1 d d_bar)
     1.96994185E-04    3     1000022         3        -3   # BR(~g -> chi^0_1 s s_bar)
     6.62368640E-02    3     1000022         5        -5   # BR(~g -> chi^0_1 b b_bar)
     1.24968658E-03    3     1000023         2        -2   # BR(~g -> chi^0_2 u u_bar)
     1.24968380E-03    3     1000023         4        -4   # BR(~g -> chi^0_2 c c_bar)
     5.57769849E-02    3     1000023         6        -6   # BR(~g -> chi^0_2 t t_bar)
     1.24853870E-03    3     1000023         1        -1   # BR(~g -> chi^0_2 d d_bar)
     1.24854221E-03    3     1000023         3        -3   # BR(~g -> chi^0_2 s s_bar)
     5.99303271E-02    3     1000023         5        -5   # BR(~g -> chi^0_2 b b_bar)
     5.70081775E-02    3     1000025         6        -6   # BR(~g -> chi^0_3 t t_bar)
     7.03434246E-02    3     1000025         5        -5   # BR(~g -> chi^0_3 b b_bar)
     5.49190514E-02    3     1000035         6        -6   # BR(~g -> chi^0_4 t t_bar)
     7.00945317E-02    3     1000035         5        -5   # BR(~g -> chi^0_4 b b_bar)
     1.74043479E-03    3     1000024         1        -2   # BR(~g -> chi^+_1 d u_bar)
     1.74043479E-03    3    -1000024        -1         2   # BR(~g -> chi^-_1 d_bar u)
     1.74043737E-03    3     1000024         3        -4   # BR(~g -> chi^+_1 s c_bar)
     1.74043737E-03    3    -1000024        -3         4   # BR(~g -> chi^-_1 s_bar c)
     8.57053541E-02    3     1000024         5        -6   # BR(~g -> chi^+_1 b t_bar)
     8.57053541E-02    3    -1000024        -5         6   # BR(~g -> chi^-_1 b_bar t)
     1.16180559E-01    3     1000037         5        -6   # BR(~g -> chi^+_2 b t_bar)
     1.16180559E-01    3    -1000037        -5         6   # BR(~g -> chi^-_2 b_bar t)
DECAY        25     3.90367174E-03   # Gamma(h0)
     2.37804031E-03   2        22        22   # BR(h0 -> photon photon)
     1.56991271E-03   2        22        23   # BR(h0 -> photon Z)
     2.95856559E-02   2        23        23   # BR(h0 -> Z Z)
     2.41569094E-01   2       -24        24   # BR(h0 -> W W)
     7.27388839E-02   2        21        21   # BR(h0 -> gluon gluon)
     4.89827277E-09   2       -11        11   # BR(h0 -> Electron electron)
     2.17884240E-04   2       -13        13   # BR(h0 -> Muon muon)
     6.28237974E-02   2       -15        15   # BR(h0 -> Tau tau)
     1.29738350E-07   2        -2         2   # BR(h0 -> Up up)
     2.51792869E-02   2        -4         4   # BR(h0 -> Charm charm)
     5.67739487E-07   2        -1         1   # BR(h0 -> Down down)
     2.05341734E-04   2        -3         3   # BR(h0 -> Strange strange)
     5.63731401E-01   2        -5         5   # BR(h0 -> Bottom bottom)
DECAY        35     4.38013900E+01   # Gamma(HH)
     6.15878930E-08   2        22        22   # BR(HH -> photon photon)
     9.00273597E-08   2        22        23   # BR(HH -> photon Z)
     1.34336929E-06   2        23        23   # BR(HH -> Z Z)
     2.22876602E-06   2       -24        24   # BR(HH -> W W)
     9.18014944E-05   2        21        21   # BR(HH -> gluon gluon)
     5.50667808E-09   2       -11        11   # BR(HH -> Electron electron)
     2.45084533E-04   2       -13        13   # BR(HH -> Muon muon)
     7.07674082E-02   2       -15        15   # BR(HH -> Tau tau)
     3.13818450E-14   2        -2         2   # BR(HH -> Up up)
     6.08541815E-09   2        -4         4   # BR(HH -> Charm charm)
     4.62605358E-04   2        -6         6   # BR(HH -> Top top)
     5.08706653E-07   2        -1         1   # BR(HH -> Down down)
     1.84050695E-04   2        -3         3   # BR(HH -> Strange strange)
     9.27579755E-01   2        -5         5   # BR(HH -> Bottom bottom)
     3.19512866E-04   2  -1000024   1000024   # BR(HH -> Chargino1 chargino1)
     2.32262544E-05   2   1000022   1000022   # BR(HH -> neutralino1 neutralino1)
     1.61680615E-04   2   1000022   1000023   # BR(HH -> neutralino1 neutralino2)
     1.59400616E-04   2   1000023   1000023   # BR(HH -> neutralino2 neutralino2)
     1.23047867E-06   2        25        25   # BR(HH -> h0 h0)
DECAY        36     4.18160065E+01   # Gamma(A0)
     9.78933146E-08   2        22        22   # BR(A0 -> photon photon)
     1.16227638E-07   2        22        23   # BR(A0 -> photon Z)
     1.18225606E-04   2        21        21   # BR(A0 -> gluon gluon)
     5.50431923E-09   2       -11        11   # BR(A0 -> Electron electron)
     2.44979523E-04   2       -13        13   # BR(A0 -> Muon muon)
     7.07385204E-02   2       -15        15   # BR(A0 -> Tau tau)
     2.84079282E-14   2        -2         2   # BR(A0 -> Up up)
     5.50995453E-09   2        -4         4   # BR(A0 -> Charm charm)
     5.23875503E-04   2        -6         6   # BR(A0 -> Top top)
     5.08471472E-07   2        -1         1   # BR(A0 -> Down down)
     1.83965598E-04   2        -3         3   # BR(A0 -> Strange strange)
     9.27186923E-01   2        -5         5   # BR(A0 -> Bottom bottom)
     5.58266004E-04   2  -1000024   1000024   # BR(A0 -> Chargino1 chargino1)
     2.66947135E-05   2   1000022   1000022   # BR(A0 -> neutralino1 neutralino1)
     1.37102875E-04   2   1000022   1000023   # BR(A0 -> neutralino1 neutralino2)
     2.78518821E-04   2   1000023   1000023   # BR(A0 -> neutralino2 neutralino2)
     2.19444539E-06   2        23        25   # BR(A0 -> Z h0)
     2.51725709E-38   2        25        25   # BR(A0 -> h0 h0)
DECAY        37     4.40721630E+01   # Gamma(Hp)
     6.61910255E-09   2       -11        12   # BR(Hp -> Electron nu_e)
     2.82987299E-04   2       -13        14   # BR(Hp -> Muon nu_mu)
     8.00442130E-02   2       -15        16   # BR(Hp -> Tau nu_tau)
     5.30541716E-07   2        -1         2   # BR(Hp -> Down up)
     8.81086075E-06   2        -3         2   # BR(Hp -> Strange up)
     1.03929283E-05   2        -5         2   # BR(Hp -> Bottom up)
     2.46076315E-08   2        -1         4   # BR(Hp -> Down charm)
     1.91264054E-04   2        -3         4   # BR(Hp -> Strange charm)
     1.45537541E-03   2        -5         4   # BR(Hp -> Bottom charm)
     2.40128799E-08   2        -1         6   # BR(Hp -> Down top)
     7.79661149E-07   2        -3         6   # BR(Hp -> Strange top)
     9.17703344E-01   2        -5         6   # BR(Hp -> Bottom top)
     2.99932066E-04   2   1000022   1000024   # BR(Hp -> neutralino1 chargino1)
     2.69432417E-10   2   1000023   1000024   # BR(Hp -> neutralino2 chargino1)
     2.24116671E-06   2        24        25   # BR(Hp -> W h0)
     3.77180634E-08   2        24        35   # BR(Hp -> W HH)
     3.55090883E-08   2        24        36   # BR(Hp -> W A0)
DECAY         6     2.43000000E+00   # top
#    BR                NDA      ID1      ID2
     1.00000000E+00    2           5        24   # BR(t -> b W)
Block HiggsBoundsInputHiggsCouplingsFermions
# ScalarNormEffCoupSq PseudoSNormEffCoupSq NP IP1 IP2 IP2
    1.07520428E+00    0.00000000E+00        3  25   5   5  # h0-b-b eff. coupling^2, normalised to SM
    2.14693498E+03    0.00000000E+00        3  35   5   5  # H0-b-b eff. coupling^2, normalised to SM
    0.00000000E+00    2.14701019E+03        3  36   5   5  # A0-b-b eff. coupling^2, normalised to SM
#
    9.99964973E-01    0.00000000E+00        3  25   6   6  # h0-t-t eff. coupling^2, normalised to SM
    5.00791420E-04    0.00000000E+00        3  35   6   6  # H0-t-t eff. coupling^2, normalised to SM
    0.00000000E+00    4.65763975E-04        3  36   6   6  # A0-t-t eff. coupling^2, normalised to SM
#
    1.07520428E+00    0.00000000E+00        3  25  15  15  # h0-tau-tau eff. coupling^2, normalised to SM
    2.14693498E+03    0.00000000E+00        3  35  15  15  # H0-tau-tau eff. coupling^2, normalised to SM
    0.00000000E+00    2.14701019E+03        3  36  15  15  # A0-tau-tau eff. coupling^2, normalised to SM
#
Block HiggsBoundsInputHiggsCouplingsBosons
    9.99999365E-01        3  25  24  24  # h0-W-W eff. coupling^2, normalised to SM
    6.34907274E-07        3  35  24  24  # H0-W-W eff. coupling^2, normalised to SM
    0.00000000E+00        3  36  24  24  # A0-W-W eff. coupling^2, normalised to SM
#
    9.99999365E-01        3  25  23  23  # h0-Z-Z eff. coupling^2, normalised to SM
    6.34907274E-07        3  35  23  23  # H0-Z-Z eff. coupling^2, normalised to SM
    0.00000000E+00        3  36  23  23  # A0-Z-Z eff. coupling^2, normalised to SM
#
    1.25833252E+00        3  25  21  21  # h0-g-g eff. coupling^2, normalised to SM
    3.71492911E-02        3  35  21  21  # H0-g-g eff. coupling^2, normalised to SM
    1.85403764E-01        3  36  21  21  # A0-g-g eff. coupling^2, normalised to SM
#
    0.00000000E+00        3  25  25  23  # h0-h0-Z eff. coupling^2, normalised to SM
    0.00000000E+00        3  35  25  23  # H0-h0-Z eff. coupling^2, normalised to SM
    6.34907274E-07        3  36  25  23  # A0-h0-Z eff. coupling^2, normalised to SM
    0.00000000E+00        3  35  35  23  # H0-H0-Z eff. coupling^2, normalised to SM
    9.99999365E-01        3  36  35  23  # A0-H0-Z eff. coupling^2, normalised to SM
    0.00000000E+00        3  36  36  23  # A0-A0-Z eff. coupling^2, normalised to SM
#
    0.00000000E+00        4  25  21  21  23  # h0-g-g-Z eff. coupling^2, normalised to SM
    0.00000000E+00        4  35  21  21  23  # H0-g-g-Z eff. coupling^2, normalised to SM
    0.00000000E+00        4  36  21  21  23  # A0-g-g-Z eff. coupling^2, normalised to SM
Block SPhenoLowEnergy  # low energy observables
    1    3.54706689E-04   # BR(b -> s gamma)
    2    1.58716058E-06   # BR(b -> s mu+ mu-)
    3    3.52477274E-05   # BR(b -> s nu nu)
    4    1.38900552E-14   # BR(Bd -> e+ e-)
    5    5.93140512E-10   # BR(Bd -> mu+ mu-)
    6    1.11121996E-07   # BR(Bd -> tau+ tau-)
    7    4.98626825E-13   # BR(Bs -> e+ e-)
    8    2.12931733E-08   # BR(Bs -> mu+ mu-)
    9    4.04169409E-06   # BR(Bs -> tau+ tau-)
   10    8.33452499E-05   # BR(B_u -> tau nu)
   11    8.60924523E-01   # BR(B_u -> tau nu)/BR(B_u -> tau nu)_SM
   12    5.41664699E-01   # |Delta(M_Bd)| [ps^-1] 
   13    1.93646005E+01   # |Delta(M_Bs)| [ps^-1] 
   14    0.00000000E+00   # neutron EDM according to the chiral quark model
   15    0.00000000E+00   # neutron EDM according to the relativistic quark-parton model
   16    2.15697976E-03   # epsilon_K
   17    2.28167707E-15   # Delta(M_K)
   18    2.47952980E-11   # BR(K^0 -> pi^0 nu nu)
   19    8.28938420E-11   # BR(K^+ -> pi^+ nu nu)
   20    2.36805970E-16   # Delta(g-2)_electron/2
   21    1.01242949E-11   # Delta(g-2)_muon/2
   22    2.87134734E-09   # Delta(g-2)_tau/2
   23    0.00000000E+00   # electric dipole moment of the electron
   24    0.00000000E+00   # electric dipole moment of the muon
   25    0.00000000E+00   # electric dipole moment of the tau
   26    0.00000000E+00   # Br(mu -> e gamma)
   27    0.00000000E+00   # Br(tau -> e gamma)
   28    0.00000000E+00   # Br(tau -> mu gamma)
   29    0.00000000E+00   # Br(mu -> 3 e)
   30    0.00000000E+00   # Br(tau -> 3 e)
   31    0.00000000E+00   # Br(tau -> 3 mu)
   39    7.41249304E-05   # Delta(rho_parameter)
   40    0.00000000E+00   # BR(Z -> e mu)
   41    0.00000000E+00   # BR(Z -> e tau)
   42    0.00000000E+00   # BR(Z -> mu tau)
Block FWCOEF Q=  1.60000000E+02  # Wilson coefficients at scale Q
#    id        order  M        value         comment
     0305 4422   00   0    -1.88819110E-01   # C7
     0305 4422   00   2    -2.22041012E-01   # C7
     0305 4322   00   2    -8.37872484E-04   # C7'
     0305 6421   00   0    -9.52278348E-02   # C8
     0305 6421   00   2    -1.39282406E-01   # C8
     0305 6321   00   2    -9.85667055E-04   # C8'
 03051111 4133   00   0     1.62408941E+00   # C9 e+e-
 03051111 4133   00   2     1.62430413E+00   # C9 e+e-
 03051111 4233   00   2     9.79223837E-05   # C9' e+e-
 03051111 4137   00   0    -4.44678151E+00   # C10 e+e-
 03051111 4137   00   2    -4.44465144E+00   # C10 e+e-
 03051111 4237   00   2    -7.25227029E-04   # C10' e+e-
 03051313 4133   00   0     1.62408941E+00   # C9 mu+mu-
 03051313 4133   00   2     1.62430385E+00   # C9 mu+mu-
 03051313 4233   00   2     9.78721117E-05   # C9' mu+mu-
 03051313 4137   00   0    -4.44678151E+00   # C10 mu+mu-
 03051313 4137   00   2    -4.44465172E+00   # C10 mu+mu-
 03051313 4237   00   2    -7.25177352E-04   # C10' mu+mu-
 03051212 4137   00   0     1.50535012E+00   # C11 nu_1 nu_1
 03051212 4137   00   2     1.50489080E+00   # C11 nu_1 nu_1
 03051212 4237   00   2     1.56911951E-04   # C11' nu_1 nu_1
 03051414 4137   00   0     1.50535012E+00   # C11 nu_2 nu_2
 03051414 4137   00   2     1.50489080E+00   # C11 nu_2 nu_2
 03051414 4237   00   2     1.56922798E-04   # C11' nu_2 nu_2
 03051616 4137   00   0     1.50535012E+00   # C11 nu_3 nu_3
 03051616 4137   00   2     1.50489080E+00   # C11 nu_3 nu_3
 03051616 4237   00   2     1.59979703E-04   # C11' nu_3 nu_3
Block IMFWCOEF Q=  1.60000000E+02  # Im(Wilson coefficients) at scale Q
#    id        order  M        value         comment
     0305 4422   00   0     3.85873530E-07   # C7
     0305 4422   00   2    -1.17244126E-07   # C7
     0305 4322   00   2     1.39735622E-06   # C7'
     0305 6421   00   0     3.30526198E-07   # C8
     0305 6421   00   2     2.62970451E-05   # C8
     0305 6321   00   2     1.14025425E-06   # C8'
 03051111 4133   00   2     7.81090462E-07   # C9 e+e-
 03051111 4233   00   2     8.50390059E-06   # C9' e+e-
 03051111 4137   00   2     5.72744017E-07   # C10 e+e-
 03051111 4237   00   2    -6.31591860E-05   # C10' e+e-
 03051313 4133   00   2     7.81085812E-07   # C9 mu+mu-
 03051313 4233   00   2     8.50389786E-06   # C9' mu+mu-
 03051313 4137   00   2     5.72748841E-07   # C10 mu+mu-
 03051313 4237   00   2    -6.31591942E-05   # C10' mu+mu-
 03051212 4137   00   2    -9.62289006E-08   # C11 nu_1 nu_1
 03051212 4237   00   2     1.36653579E-05   # C11' nu_1 nu_1
 03051414 4137   00   2    -9.62286557E-08   # C11 nu_2 nu_2
 03051414 4237   00   2     1.36653579E-05   # C11' nu_2 nu_2
 03051616 4137   00   2    -9.61603651E-08   # C11 nu_3 nu_3
 03051616 4237   00   2     1.36653579E-05   # C11' nu_3 nu_3
