# SUSY Les Houches Accord 2 - MSSM spectrum + Decays
# SPheno v4.0.5be
# W. Porod, Comput. Phys. Commun. 153 (2003) 275-315, hep-ph/0301101;
# W. Porod, F.~Staub, Comput. Phys. Commun. 183 (2012) 2458
#                     arXiv:1104.1573 [hep-ph] 
# in case of problems send email to porod@physik.uni-wuerzburg.de
# Created: 07.09.2021,  20:52
Block SPINFO         # Program information
     1   SPheno      # spectrum calculator
     2   v4.0.5be    # version number
#
Block SPhenoINFO     # SPheno specific information
    1      2         # using 2-loop RGEs
    2      2         # using pole masses for boundary conditions at mZ
Block MODSEL  # Model selection
    1    0    # general MSSM
Block MINPAR  # Input parameters
    3    1.60297409E+01  # tanb at m_Z    
    4   -1.00000000E+00  # Sign(mu)
Block EXTPAR  # non-universal input parameters
    0    3.58390787E+03  # scale for input parameters
    1    1.89878165E+02  # M_1
    2    5.28211135E+02  # M_2
    3    2.00837081E+03  # M_3
   11   -6.78086533E+03  # A_t
   12   -1.07891561E+03  # A_b
   13    1.57150304E+03  # A_tau
   23   -2.09247534E+02  # mu
   25    1.53037178E+01  # tan(beta)
   26    1.21317512E+03  # m_A, pole mass
   31    1.00000000E+04  # M_L11
   32    1.00000000E+04  # M_L22
   33    1.00000000E+04  # M_L33
   34    1.00000000E+04  # M_E11
   35    1.00000000E+04  # M_E22
   36    1.00000000E+04  # M_E33
   41    1.00000000E+04  # M_Q11
   42    1.00000000E+04  # M_Q22
   43    4.76157381E+03  # M_Q33
   44    1.00000000E+04  # M_U11
   45    1.00000000E+04  # M_U22
   46    2.71359209E+03  # M_U33
   47    1.00000000E+04  # M_D11
   48    1.00000000E+04  # M_D22
   49    4.37606948E+03  # M_D33
Block SMINPUTS  # SM parameters
         1     1.27908970E+02  # alpha_em^-1(MZ)^MSbar
         2     1.16637870E-05  # G_mu [GeV^-2]
         3     1.18400000E-01  # alpha_s(MZ)^MSbar
         4     9.11876000E+01  # m_Z(pole)
         5     4.18000000E+00  # m_b(m_b), MSbar
         6     1.73200000E+02  # m_t(pole)
         7     1.77700000E+00  # m_tau(pole)
         8     0.00000000E+00  # m_nu_3
        11     5.10998930E-04  # m_e(pole)
        12     0.00000000E+00  # m_nu_1
        13     1.05658372E-01  # m_muon(pole)
        14     0.00000000E+00  # m_nu_2
        21     5.00000000E-03  # m_d(2 GeV), MSbar
        22     2.50000000E-03  # m_u(2 GeV), MSbar
        23     9.50000000E-02  # m_s(2 GeV), MSbar
        24     1.27000000E+00  # m_c(m_c), MSbar
Block gauge Q=  3.58390787E+03  # (SUSY scale)
   1    3.55362975E-01  # g'(Q)^DRbar
   2    6.65198874E-01  # g(Q)^DRbar
   3    1.21977796E+00  # g3(Q)^DRbar
Block Yu Q=  3.58390787E+03  # (SUSY scale)
  1  1     8.40225280E-06   # Y_u(Q)^DRbar
  2  2     4.26834442E-03   # Y_c(Q)^DRbar
  3  3     1.01505963E+00   # Y_t(Q)^DRbar
Block Yd Q=  3.58390787E+03  # (SUSY scale)
  1  1     2.58388357E-04   # Y_d(Q)^DRbar
  2  2     4.90937878E-03   # Y_s(Q)^DRbar
  3  3     2.56240283E-01   # Y_b(Q)^DRbar
Block Ye Q=  3.58390787E+03  # (SUSY scale)
  1  1     4.50906578E-05   # Y_e(Q)^DRbar
  2  2     9.32331795E-03   # Y_mu(Q)^DRbar
  3  3     1.56802870E-01   # Y_tau(Q)^DRbar
Block Au Q=  3.58390787E+03  # (SUSY scale)
  1  1     0.00000000E+00   # A_u(Q)^DRbar
  2  2     0.00000000E+00   # A_c(Q)^DRbar
  3  3    -6.78086524E+03   # A_t(Q)^DRbar
Block Ad Q=  3.58390787E+03  # (SUSY scale)
  1  1     0.00000000E+00   # A_d(Q)^DRbar
  2  2     0.00000000E+00   # A_s(Q)^DRbar
  3  3    -1.07891561E+03   # A_b(Q)^DRbar
Block Ae Q=  3.58390787E+03  # (SUSY scale)
  1  1     0.00000000E+00   # A_e(Q)^DRbar
  2  2     0.00000000E+00   # A_mu(Q)^DRbar
  3  3     1.57150304E+03   # A_tau(Q)^DRbar
Block MSOFT Q=  3.58390787E+03  # soft SUSY breaking masses at Q
   1    1.89878165E+02  # M_1
   2    5.28211135E+02  # M_2
   3    2.00837081E+03  # M_3
  21    1.40598961E+06  # M^2_(H,d)
  22    1.38938186E+05  # M^2_(H,u)
  31    1.00000000E+04  # M_(L,11)
  32    1.00000000E+04  # M_(L,22)
  33    1.00000000E+04  # M_(L,33)
  34    1.00000000E+04  # M_(E,11)
  35    1.00000000E+04  # M_(E,22)
  36    1.00000000E+04  # M_(E,33)
  41    1.00000000E+04  # M_(Q,11)
  42    1.00000000E+04  # M_(Q,22)
  43    4.76157381E+03  # M_(Q,33)
  44    1.00000000E+04  # M_(U,11)
  45    1.00000000E+04  # M_(U,22)
  46    2.71359209E+03  # M_(U,33)
  47    1.00000000E+04  # M_(D,11)
  48    1.00000000E+04  # M_(D,22)
  49    4.37606948E+03  # M_(D,33)
Block MASS  # Mass spectrum
#   PDG code      mass          particle
         6     1.73200000E+02  # m_t(pole)
        23     9.11876000E+01  # m_Z(pole)
        24     8.04299946E+01  # W+
        15     1.77700000E+00  # m_tau(pole)
        25     1.28375113E+02  # h0
        35     1.21312452E+03  # H0
        36     1.21317512E+03  # A0
        37     1.21490622E+03  # H+
   1000001     1.01167837E+04  # ~d_L
   2000001     1.00916438E+04  # ~d_R
   1000002     1.01164266E+04  # ~u_L
   2000002     1.00949185E+04  # ~u_R
   1000003     1.01167847E+04  # ~s_L
   2000003     1.00916449E+04  # ~s_R
   1000004     1.01164276E+04  # ~c_L
   2000004     1.00949194E+04  # ~c_R
   1000005     4.43201928E+03  # ~b_1
   2000005     4.75885246E+03  # ~b_2
   1000006     2.69464857E+03  # ~t_1
   2000006     4.76663109E+03  # ~t_2
   1000011     1.00213986E+04  # ~e_L-
   2000011     1.00088633E+04  # ~e_R-
   1000012     1.00206354E+04  # ~nu_eL
   1000013     1.00214016E+04  # ~mu_L-
   2000013     1.00088689E+04  # ~mu_R-
   1000014     1.00206383E+04  # ~nu_muL
   1000015     1.00104691E+04  # ~tau_1-
   2000015     1.00222447E+04  # ~tau_2-
   1000016     1.00214654E+04  # ~nu_tauL
   1000021     2.42883259E+03  # ~g
   1000022     1.73722450E+02  # ~chi_10
   1000023     2.29624929E+02  # ~chi_20
   1000025     2.34725554E+02  # ~chi_30
   1000035     5.88050976E+02  # ~chi_40
   1000024     2.19331725E+02  # ~chi_1+
   1000037     5.88222631E+02  # ~chi_2+
# Higgs mixing
Block alpha # Effective Higgs mixing angle
          -6.32649428E-02   # alpha
Block Hmix Q=  3.58390787E+03  # Higgs mixing parameters
   1   -2.09247534E+02  # mu
   2    1.53037178E+01  # tan[beta](Q)
   3    2.43024164E+02  # v(Q)
   4    1.47179387E+06  # m^2_A(Q)
Block stopmix # stop mixing matrix
   1  1     6.21582949E-02   # Re[R_st(1,1)]
   1  2     9.98066304E-01   # Re[R_st(1,2)]
   2  1    -9.98066304E-01   # Re[R_st(2,1)]
   2  2     6.21582949E-02   # Re[R_st(2,2)]
Block sbotmix # sbottom mixing matrix
   1  1    -1.27535711E-03   # Re[R_sb(1,1)]
   1  2     9.99999187E-01   # Re[R_sb(1,2)]
   2  1    -9.99999187E-01   # Re[R_sb(2,1)]
   2  2    -1.27535711E-03   # Re[R_sb(2,2)]
Block staumix # stau mixing matrix
   1  1    -3.57871503E-02   # Re[R_sta(1,1)]
   1  2     9.99359435E-01   # Re[R_sta(1,2)]
   2  1    -9.99359435E-01   # Re[R_sta(2,1)]
   2  2    -3.57871503E-02   # Re[R_sta(2,2)]
Block Nmix # neutralino mixing matrix
   1  1    -8.16153719E-01   # Re[N(1,1)]
   1  2     6.25954583E-02   # Re[N(1,2)]
   1  3     4.58145833E-01   # Re[N(1,3)]
   1  4     3.46521733E-01   # Re[N(1,4)]
   2  1     8.04690535E-02   # Re[N(2,1)]
   2  2    -7.56864340E-02   # Re[N(2,2)]
   2  3     6.92733265E-01   # Re[N(2,3)]
   2  4    -7.12682902E-01   # Re[N(2,4)]
   3  1    -5.71942564E-01   # Re[N(3,1)]
   3  2    -1.29828312E-01   # Re[N(3,2)]
   3  3    -5.54823121E-01   # Re[N(3,3)]
   3  4    -5.90082721E-01   # Re[N(3,4)]
   4  1    -1.73072849E-02   # Re[N(4,1)]
   4  2     9.86660013E-01   # Re[N(4,2)]
   4  3    -4.89318373E-02   # Re[N(4,3)]
   4  4    -1.54298903E-01   # Re[N(4,4)]
Block Umix # chargino mixing matrix
   1  1    -6.96360234E-02   # Re[U(1,1)]
   1  2    -9.97572466E-01   # Re[U(1,2)]
   2  1     9.97572466E-01   # Re[U(2,1)]
   2  2    -6.96360234E-02   # Re[U(2,2)]
Block Vmix # chargino mixing matrix
   1  1    -2.18597275E-01   # Re[V(1,1)]
   1  2     9.75815163E-01   # Re[V(1,2)]
   2  1     9.75815163E-01   # Re[V(2,1)]
   2  2     2.18597275E-01   # Re[V(2,2)]
DECAY        23     2.49520000E+00   # Z
DECAY        24     2.08500000E+00   # W
DECAY   2000011     5.02521647E+01   # ~e^-_R
#    BR                NDA      ID1      ID2
     6.66218512E-01    2     1000022        11   # BR(~e^-_R -> chi^0_1 e^-)
     6.47344150E-03    2     1000023        11   # BR(~e^-_R -> chi^0_2 e^-)
     3.27010332E-01    2     1000025        11   # BR(~e^-_R -> chi^0_3 e^-)
     2.97706904E-04    2     1000035        11   # BR(~e^-_R -> chi^0_4 e^-)
DECAY   1000011     1.44009859E+02   # ~e^-_L
#    BR                NDA      ID1      ID2
     4.26826885E-02    2     1000022        11   # BR(~e^-_L -> chi^0_1 e^-)
     3.27139290E-04    2     1000023        11   # BR(~e^-_L -> chi^0_2 e^-)
     5.79940318E-02    2     1000025        11   # BR(~e^-_L -> chi^0_3 e^-)
     2.90603281E-01    2     1000035        11   # BR(~e^-_L -> chi^0_4 e^-)
     2.96770705E-03    2    -1000024        12   # BR(~e^-_L -> chi^-_1 nu_e)
     6.05425153E-01    2    -1000037        12   # BR(~e^-_L -> chi^-_2 nu_e)
#    BR                NDA      ID1      ID2       ID3
DECAY   2000013     5.02867745E+01   # ~mu^-_R
#    BR                NDA      ID1      ID2
     6.65832566E-01    2     1000022        13   # BR(~mu^-_R -> chi^0_1 mu^-)
     6.63398234E-03    2     1000023        13   # BR(~mu^-_R -> chi^0_2 mu^-)
     3.26891278E-01    2     1000025        13   # BR(~mu^-_R -> chi^0_3 mu^-)
     2.98320550E-04    2     1000035        13   # BR(~mu^-_R -> chi^0_4 mu^-)
     3.42195312E-04    2    -1000024        14   # BR(~mu^-_R -> chi^-_1 nu_mu)
DECAY   1000013     1.44027215E+02   # ~mu^-_L
#    BR                NDA      ID1      ID2
     4.27027971E-02    2     1000022        13   # BR(~mu^-_L -> chi^0_1 mu^-)
     3.84779243E-04    2     1000023        13   # BR(~mu^-_L -> chi^0_2 mu^-)
     5.80240599E-02    2     1000025        13   # BR(~mu^-_L -> chi^0_3 mu^-)
     2.90568634E-01    2     1000035        13   # BR(~mu^-_L -> chi^0_4 mu^-)
     2.96735031E-03    2    -1000024        14   # BR(~mu^-_L -> chi^-_1 nu_mu)
     6.05352379E-01    2    -1000037        14   # BR(~mu^-_L -> chi^-_2 nu_mu)
#    BR                NDA      ID1      ID2       ID3
DECAY   1000015     6.01583073E+01   # ~tau^-_1
#    BR                NDA      ID1      ID2
     5.77083394E-01    2     1000022        15   # BR(~tau^-_1 -> chi^0_1 tau^-)
     4.29865697E-02    2     1000023        15   # BR(~tau^-_1 -> chi^0_2 tau^-)
     2.96359721E-01    2     1000025        15   # BR(~tau^-_1 -> chi^0_3 tau^-)
     4.86708076E-04    2     1000035        15   # BR(~tau^-_1 -> chi^0_4 tau^-)
     8.25419552E-02    2    -1000024        16   # BR(~tau^-_1 -> chi^-_1 nu_tau)
     5.41652034E-04    2    -1000037        16   # BR(~tau^-_1 -> chi^-_2 nu_tau)
DECAY   2000015     1.48804925E+02   # ~tau^-_2
#    BR                NDA      ID1      ID2
     4.68433168E-02    2     1000022        15   # BR(~tau^-_2 -> chi^0_1 tau^-)
     1.66923906E-02    2     1000023        15   # BR(~tau^-_2 -> chi^0_2 tau^-)
     6.70187563E-02    2     1000025        15   # BR(~tau^-_2 -> chi^0_3 tau^-)
     2.81323133E-01    2     1000035        15   # BR(~tau^-_2 -> chi^0_4 tau^-)
     2.21680424E-03    2    -1000024        16   # BR(~tau^-_2 -> chi^-_1 nu_tau)
     5.85905599E-01    2    -1000037        16   # BR(~tau^-_2 -> chi^-_2 nu_tau)
#    BR                NDA      ID1      ID2       ID3
DECAY   1000012     1.44014297E+02   # ~nu_e
#    BR                NDA      ID1      ID2
     7.60920177E-02    2     1000022        12   # BR(~nu_e -> chi^0_1 nu_e)
     4.30876305E-03    2     1000023        12   # BR(~nu_e -> chi^0_2 nu_e)
     9.44571493E-03    2     1000025        12   # BR(~nu_e -> chi^0_3 nu_e)
     3.01670624E-01    2     1000035        12   # BR(~nu_e -> chi^0_4 nu_e)
     2.92412617E-02    2     1000024        11   # BR(~nu_e -> chi^+_1 e^-)
     5.79241619E-01    2     1000037        11   # BR(~nu_e -> chi^+_2 e^-)
#    BR                NDA      ID1      ID2       ID3
DECAY   1000014     1.44031651E+02   # ~nu_mu
#    BR                NDA      ID1      ID2
     7.60828719E-02    2     1000022        14   # BR(~nu_mu -> chi^0_1 nu_mu)
     4.30824516E-03    2     1000023        14   # BR(~nu_mu -> chi^0_2 nu_mu)
     9.44457962E-03    2     1000025        14   # BR(~nu_mu -> chi^0_3 nu_mu)
     3.01634366E-01    2     1000035        14   # BR(~nu_mu -> chi^0_4 nu_mu)
     2.93573598E-02    2     1000024        13   # BR(~nu_mu -> chi^+_1 mu^-)
     5.79172578E-01    2     1000037        13   # BR(~nu_mu -> chi^+_2 mu^-)
#    BR                NDA      ID1      ID2       ID3
DECAY   1000016     1.48923499E+02   # ~nu_tau
#    BR                NDA      ID1      ID2
     7.35897780E-02    2     1000022        16   # BR(~nu_tau -> chi^0_1 nu_tau)
     4.16707231E-03    2     1000023        16   # BR(~nu_tau -> chi^0_2 nu_tau)
     9.13509910E-03    2     1000025        16   # BR(~nu_tau -> chi^0_3 nu_tau)
     2.91750674E-01    2     1000035        16   # BR(~nu_tau -> chi^0_4 nu_tau)
     6.10050920E-02    2     1000024        15   # BR(~nu_tau -> chi^+_1 tau^-)
     5.60352285E-01    2     1000037        15   # BR(~nu_tau -> chi^+_2 tau^-)
#    BR                NDA      ID1      ID2       ID3
DECAY   2000001     7.12586305E+02   # ~d_R
#    BR                NDA      ID1      ID2
     5.26348327E-03    2     1000022         1   # BR(~d_R -> chi^0_1 d)
     2.58358171E-03    2     1000025         1   # BR(~d_R -> chi^0_3 d)
     9.92099411E-01    2     1000021         1   # BR(~d_R -> ~g d)
DECAY   1000001     8.43255719E+02   # ~d_L
#    BR                NDA      ID1      ID2
     2.28175316E-03    2     1000022         1   # BR(~d_L -> chi^0_1 d)
     4.27449108E-04    2     1000023         1   # BR(~d_L -> chi^0_2 d)
     5.13795949E-02    2     1000035         1   # BR(~d_L -> chi^0_4 d)
     5.11653456E-04    2    -1000024         2   # BR(~d_L -> chi^-_1 u)
     1.04391196E-01    2    -1000037         2   # BR(~d_L -> chi^-_2 u)
     8.40967050E-01    2     1000021         1   # BR(~d_L -> ~g d)
DECAY   2000003     7.12596042E+02   # ~s_R
#    BR                NDA      ID1      ID2
     5.26483256E-03    2     1000022         3   # BR(~s_R -> chi^0_1 s)
     2.58562880E-03    2     1000025         3   # BR(~s_R -> chi^0_3 s)
     9.92085988E-01    2     1000021         3   # BR(~s_R -> ~g s)
DECAY   1000003     8.43264314E+02   # ~s_L
#    BR                NDA      ID1      ID2
     2.28293361E-03    2     1000022         3   # BR(~s_L -> chi^0_1 s)
     4.30194781E-04    2     1000023         3   # BR(~s_L -> chi^0_2 s)
     5.13790898E-02    2     1000035         3   # BR(~s_L -> chi^0_4 s)
     5.15784405E-04    2    -1000024         4   # BR(~s_L -> chi^-_1 c)
     1.04390350E-01    2    -1000037         4   # BR(~s_L -> chi^-_2 c)
     8.40958581E-01    2     1000021         3   # BR(~s_L -> ~g s)
DECAY   1000005     1.85227082E+02   # ~b_1
#    BR                NDA      ID1      ID2
     1.54456012E-02    2     1000022         5   # BR(~b_1 -> chi^0_1 b)
     1.49921223E-02    2     1000023         5   # BR(~b_1 -> chi^0_2 b)
     1.38971375E-02    2     1000025         5   # BR(~b_1 -> chi^0_3 b)
     3.08701621E-02    2    -1000024         6   # BR(~b_1 -> chi^-_1 t)
     1.32292971E-04    2    -1000037         6   # BR(~b_1 -> chi^-_2 t)
     9.24584472E-01    2     1000021         5   # BR(~b_1 -> ~g b)
DECAY   2000005     4.59689305E+02   # ~b_2
#    BR                NDA      ID1      ID2
     4.78151080E-03    2     1000022         5   # BR(~b_2 -> chi^0_1 b)
     6.83146779E-03    2     1000023         5   # BR(~b_2 -> chi^0_2 b)
     4.18414681E-03    2     1000025         5   # BR(~b_2 -> chi^0_3 b)
     4.33169513E-02    2     1000035         5   # BR(~b_2 -> chi^0_4 b)
     2.01038966E-01    2    -1000024         6   # BR(~b_2 -> chi^-_1 t)
     9.80481835E-02    2    -1000037         6   # BR(~b_2 -> chi^-_2 t)
     4.46875689E-01    2     1000021         5   # BR(~b_2 -> ~g b)
     1.92782021E-01    2     1000006       -24   # BR(~b_2 -> ~t_1 W^-)
     2.14007763E-03    2     1000006       -37   # BR(~b_2 -> ~t_1 H^-)
DECAY   2000002     7.29768889E+02   # ~u_R
#    BR                NDA      ID1      ID2
     2.05648767E-02    2     1000022         2   # BR(~u_R -> chi^0_1 u)
     1.99824036E-04    2     1000023         2   # BR(~u_R -> chi^0_2 u)
     1.00942616E-02    2     1000025         2   # BR(~u_R -> chi^0_3 u)
     9.69131847E-01    2     1000021         2   # BR(~u_R -> ~g u)
DECAY   1000002     8.43244257E+02   # ~u_L
#    BR                NDA      ID1      ID2
     3.61285930E-04    2     1000022         2   # BR(~u_L -> chi^0_1 u)
     1.98590228E-04    2     1000023         2   # BR(~u_L -> chi^0_2 u)
     2.83120844E-03    2     1000025         2   # BR(~u_L -> chi^0_3 u)
     5.07404958E-02    2     1000035         2   # BR(~u_L -> chi^0_4 u)
     5.04184362E-03    2     1000024         1   # BR(~u_L -> chi^+_1 d)
     9.98850420E-02    2     1000037         1   # BR(~u_L -> chi^+_2 d)
     8.40941534E-01    2     1000021         2   # BR(~u_L -> ~g u)
DECAY   2000004     7.29776248E+02   # ~c_R
#    BR                NDA      ID1      ID2
     2.05652710E-02    2     1000022         4   # BR(~c_R -> chi^0_1 c)
     2.02365665E-04    2     1000023         4   # BR(~c_R -> chi^0_2 c)
     1.00959060E-02    2     1000025         4   # BR(~c_R -> chi^0_3 c)
     9.69122141E-01    2     1000021         4   # BR(~c_R -> ~g c)
DECAY   1000004     8.43252822E+02   # ~c_L
#    BR                NDA      ID1      ID2
     3.61804235E-04    2     1000022         4   # BR(~c_L -> chi^0_1 c)
     2.00794244E-04    2     1000023         4   # BR(~c_L -> chi^0_2 c)
     2.83269144E-03    2     1000025         4   # BR(~c_L -> chi^0_3 c)
     5.07400887E-02    2     1000035         4   # BR(~c_L -> chi^0_4 c)
     5.04749656E-03    2     1000024         3   # BR(~c_L -> chi^+_1 s)
     9.98840648E-02    2     1000037         3   # BR(~c_L -> chi^+_2 s)
     8.40933060E-01    2     1000021         4   # BR(~c_L -> ~g c)
DECAY   1000006     1.20067043E+02   # ~t_1
#    BR                NDA      ID1      ID2
     9.07723367E-02    2     1000022         6   # BR(~t_1 -> chi^0_1 t)
     2.30349057E-01    2     1000023         6   # BR(~t_1 -> chi^0_2 t)
     1.70650898E-01    2     1000025         6   # BR(~t_1 -> chi^0_3 t)
     6.52408771E-03    2     1000035         6   # BR(~t_1 -> chi^0_4 t)
     4.38620060E-01    2     1000024         5   # BR(~t_1 -> chi^+_1 b)
     1.32835721E-02    2     1000037         5   # BR(~t_1 -> chi^+_2 b)
     4.97995459E-02    2     1000021         6   # BR(~t_1 -> ~g t)
#    BR                NDA      ID1      ID2       ID3
DECAY   2000006     4.80118303E+02   # ~t_2
#    BR                NDA      ID1      ID2
     2.26704244E-02    2     1000022         6   # BR(~t_2 -> chi^0_1 t)
     1.01808462E-01    2     1000023         6   # BR(~t_2 -> chi^0_2 t)
     7.38190221E-02    2     1000025         6   # BR(~t_2 -> chi^0_3 t)
     4.74106844E-02    2     1000035         6   # BR(~t_2 -> chi^0_4 t)
     1.41752855E-02    2     1000024         5   # BR(~t_2 -> chi^+_1 b)
     8.39125750E-02    2     1000037         5   # BR(~t_2 -> chi^+_2 b)
     4.24814260E-01    2     1000021         6   # BR(~t_2 -> ~g t)
     9.27489711E-02    2     1000006        23   # BR(~t_2 -> ~t_1 Z)
     1.03278710E-03    2     1000006        36   # BR(~t_2 -> ~t_1 A^0)
     1.36631045E-01    2     1000006        25   # BR(~t_2 -> ~t_1 h^0)
     9.75918289E-04    2     1000006        35   # BR(~t_2 -> ~t_1 H^0)
DECAY   1000024     8.87241097E-05   # chi^+_1
#    BR                NDA      ID1      ID2       ID3
     3.33974012E-01    3     1000022        -1         2   # BR(chi^+_1 -> chi^0_1 d_bar u)
     3.32857450E-01    3     1000022        -3         4   # BR(chi^+_1 -> chi^0_1 s_bar c)
     1.11324862E-01    3     1000022       -11        12   # BR(chi^+_1 -> chi^0_1 e^+ nu_e)
     1.11324285E-01    3     1000022       -13        14   # BR(chi^+_1 -> chi^0_1 mu^+ nu_mu)
     1.10519392E-01    3     1000022       -15        16   # BR(chi^+_1 -> chi^0_1 tau^+ nu_tau)
DECAY   1000037     4.28474676E+00   # chi^+_2
#    BR                NDA      ID1      ID2
     3.98559396E-02    2     1000022        24   # BR(chi^+_2 -> chi^0_1 W^+)
     2.71130957E-01    2     1000023        24   # BR(chi^+_2 -> chi^0_2 W^+)
     2.15753922E-01    2     1000025        24   # BR(chi^+_2 -> chi^0_3 W^+)
     2.48021257E-01    2     1000024        23   # BR(chi^+_2 -> chi^+_1 Z)
     2.23245140E-01    2     1000024        25   # BR(chi^+_2 -> chi^+_1 h^0)
#    BR                NDA      ID1      ID2       ID3
     1.85425426E-04    3     1000022        -5         6   # BR(chi^+_2 -> chi^0_1 b_bar t)
     1.12168489E-03    3     1000023        -5         6   # BR(chi^+_2 -> chi^0_2 b_bar t)
     6.64350004E-04    3     1000025        -5         6   # BR(chi^+_2 -> chi^0_3 b_bar t)
DECAY   1000022     0.00000000E+00   # chi^0_1
DECAY   1000023     6.26507027E-04   # chi^0_2
#    BR                NDA      ID1      ID2
     8.69217657E-03    2     1000022        22   # BR(chi^0_2 -> chi^0_1 photon)
#    BR                NDA      ID1      ID2       ID3
     1.18489256E-01    3     1000022         2        -2   # BR(chi^0_2 -> chi^0_1 u u_bar)
     1.17809709E-01    3     1000022         4        -4   # BR(chi^0_2 -> chi^0_1 c c_bar)
     1.51926059E-01    3     1000022         1        -1   # BR(chi^0_2 -> chi^0_1 d d_bar)
     1.51921928E-01    3     1000022         3        -3   # BR(chi^0_2 -> chi^0_1 s s_bar)
     1.44151746E-01    3     1000022         5        -5   # BR(chi^0_2 -> chi^0_1 b b_bar)
     3.42852091E-02    3     1000022        11       -11   # BR(chi^0_2 -> chi^0_1 e^- e^+)
     3.42837086E-02    3     1000022        13       -13   # BR(chi^0_2 -> chi^0_1 mu^- mu^+)
     3.38641962E-02    3     1000022        15       -15   # BR(chi^0_2 -> chi^0_1 tau^- tau^+)
     2.03171771E-01    3     1000022        12       -12   # BR(chi^0_2 -> chi^0_1 nu_e nu_bar_e)
     2.43467857E-04    3     1000024         1        -2   # BR(chi^0_2 -> chi^+_1 d u_bar)
     2.43467857E-04    3    -1000024        -1         2   # BR(chi^0_2 -> chi^-_1 d_bar u)
     2.26048456E-04    3     1000024         3        -4   # BR(chi^0_2 -> chi^+_1 s c_bar)
     2.26048456E-04    3    -1000024        -3         4   # BR(chi^0_2 -> chi^-_1 s_bar c)
DECAY   1000025     9.75754686E-06   # chi^0_3
#    BR                NDA      ID1      ID2
     1.04107196E-02    2     1000022        22   # BR(chi^0_3 -> chi^0_1 photon)
     1.44256608E-03    2     1000023        22   # BR(chi^0_3 -> chi^0_2 photon)
#    BR                NDA      ID1      ID2       ID3
     9.89205072E-02    3     1000022         2        -2   # BR(chi^0_3 -> chi^0_1 u u_bar)
     9.84603017E-02    3     1000022         4        -4   # BR(chi^0_3 -> chi^0_1 c c_bar)
     1.26799780E-01    3     1000022         1        -1   # BR(chi^0_3 -> chi^0_1 d d_bar)
     1.26796974E-01    3     1000022         3        -3   # BR(chi^0_3 -> chi^0_1 s s_bar)
     1.21623213E-01    3     1000022         5        -5   # BR(chi^0_3 -> chi^0_1 b b_bar)
     2.85793283E-02    3     1000022        11       -11   # BR(chi^0_3 -> chi^0_1 e^- e^+)
     2.85783080E-02    3     1000022        13       -13   # BR(chi^0_3 -> chi^0_1 mu^- mu^+)
     2.82928423E-02    3     1000022        15       -15   # BR(chi^0_3 -> chi^0_1 tau^- tau^+)
     1.69598318E-01    3     1000022        12       -12   # BR(chi^0_3 -> chi^0_1 nu_e nu_bar_e)
     1.17671497E-04    3     1000023         1        -1   # BR(chi^0_3 -> chi^0_2 d d_bar)
     1.17196821E-04    3     1000023         3        -3   # BR(chi^0_3 -> chi^0_2 s s_bar)
     1.57360085E-04    3     1000023        12       -12   # BR(chi^0_3 -> chi^0_2 nu_e nu_bar_e)
     2.71400010E-02    3     1000024         1        -2   # BR(chi^0_3 -> chi^+_1 d u_bar)
     2.71400010E-02    3    -1000024        -1         2   # BR(chi^0_3 -> chi^-_1 d_bar u)
     2.62510722E-02    3     1000024         3        -4   # BR(chi^0_3 -> chi^+_1 s c_bar)
     2.62510722E-02    3    -1000024        -3         4   # BR(chi^0_3 -> chi^-_1 s_bar c)
     9.04661583E-03    3     1000024        11       -12   # BR(chi^0_3 -> chi^+_1 e^- nu_bar_e)
     9.04661583E-03    3    -1000024       -11        12   # BR(chi^0_3 -> chi^-_1 e^+ nu_e)
     9.04450468E-03    3     1000024        13       -14   # BR(chi^0_3 -> chi^+_1 mu^- nu_bar_mu)
     9.04450468E-03    3    -1000024       -13        14   # BR(chi^0_3 -> chi^-_1 mu^+ nu_mu)
     8.47722526E-03    3     1000024        15       -16   # BR(chi^0_3 -> chi^+_1 tau^- nu_bar_tau)
     8.47722526E-03    3    -1000024       -15        16   # BR(chi^0_3 -> chi^-_1 tau^+ nu_tau)
DECAY   1000035     5.18219924E+00   # chi^0_4
#    BR                NDA      ID1      ID2
     2.15689448E-01    2     1000024       -24   # BR(chi^0_4 -> chi^+_1 W^-)
     2.15689448E-01    2    -1000024        24   # BR(chi^0_4 -> chi^-_1 W^+)
     1.02467721E-02    2     1000022        23   # BR(chi^0_4 -> chi^0_1 Z)
     1.80302610E-01    2     1000023        23   # BR(chi^0_4 -> chi^0_2 Z)
     3.48057811E-02    2     1000025        23   # BR(chi^0_4 -> chi^0_3 Z)
     2.01170124E-02    2     1000022        25   # BR(chi^0_4 -> chi^0_1 h^0)
     1.98309667E-01    2     1000023        25   # BR(chi^0_4 -> chi^0_2 h^0)
     1.23310688E-01    2     1000025        25   # BR(chi^0_4 -> chi^0_3 h^0)
#    BR                NDA      ID1      ID2       ID3
     7.52187381E-04    3     1000024         5        -6   # BR(chi^0_4 -> chi^+_1 b t_bar)
     7.52187381E-04    3    -1000024        -5         6   # BR(chi^0_4 -> chi^-_1 b_bar t)
DECAY   1000021     1.57575683E-01   # ~g
#    BR                NDA      ID1      ID2
     3.42788092E-04    2     1000022        21   # BR(~g -> chi^0_1 g)
     3.12661443E-03    2     1000023        21   # BR(~g -> chi^0_2 g)
     2.96950220E-03    2     1000025        21   # BR(~g -> chi^0_3 g)
     1.12829975E-04    2     1000035        21   # BR(~g -> chi^0_4 g)
#    BR                NDA      ID1      ID2       ID3
     7.54397620E-02    3     1000022         6        -6   # BR(~g -> chi^0_1 t t_bar)
     1.77415796E-03    3     1000022         5        -5   # BR(~g -> chi^0_1 b b_bar)
     2.26878793E-01    3     1000023         6        -6   # BR(~g -> chi^0_2 t t_bar)
     2.20052288E-03    3     1000023         5        -5   # BR(~g -> chi^0_2 b b_bar)
     1.81633075E-01    3     1000025         6        -6   # BR(~g -> chi^0_3 t t_bar)
     1.66105246E-03    3     1000025         5        -5   # BR(~g -> chi^0_3 b b_bar)
     1.55485518E-04    3     1000035         2        -2   # BR(~g -> chi^0_4 u u_bar)
     1.55486171E-04    3     1000035         4        -4   # BR(~g -> chi^0_4 c c_bar)
     1.23826988E-02    3     1000035         6        -6   # BR(~g -> chi^0_4 t t_bar)
     1.57398854E-04    3     1000035         1        -1   # BR(~g -> chi^0_4 d d_bar)
     1.57398885E-04    3     1000035         3        -3   # BR(~g -> chi^0_4 s s_bar)
     3.91947765E-03    3     1000035         5        -5   # BR(~g -> chi^0_4 b b_bar)
     2.26053218E-01    3     1000024         5        -6   # BR(~g -> chi^+_1 b t_bar)
     2.26053218E-01    3    -1000024        -5         6   # BR(~g -> chi^-_1 b_bar t)
     3.12828858E-04    3     1000037         1        -2   # BR(~g -> chi^+_2 d u_bar)
     3.12828858E-04    3    -1000037        -1         2   # BR(~g -> chi^-_2 d_bar u)
     3.12829546E-04    3     1000037         3        -4   # BR(~g -> chi^+_2 s c_bar)
     3.12829546E-04    3    -1000037        -3         4   # BR(~g -> chi^-_2 s_bar c)
     1.66150735E-02    3     1000037         5        -6   # BR(~g -> chi^+_2 b t_bar)
     1.66150735E-02    3    -1000037        -5         6   # BR(~g -> chi^-_2 b_bar t)
DECAY        25     4.20058896E-03   # Gamma(h0)
     2.41276451E-03   2        22        22   # BR(h0 -> photon photon)
     1.84177618E-03   2        22        23   # BR(h0 -> photon Z)
     3.84662227E-02   2        23        23   # BR(h0 -> Z Z)
     2.98210352E-01   2       -24        24   # BR(h0 -> W W)
     7.22933887E-02   2        21        21   # BR(h0 -> gluon gluon)
     4.54265086E-09   2       -11        11   # BR(h0 -> Electron electron)
     2.02066869E-04   2       -13        13   # BR(h0 -> Muon muon)
     5.82669657E-02   2       -15        15   # BR(h0 -> Tau tau)
     1.24998304E-07   2        -2         2   # BR(h0 -> Up up)
     2.42604718E-02   2        -4         4   # BR(h0 -> Charm charm)
     5.23350837E-07   2        -1         1   # BR(h0 -> Down down)
     1.89284228E-04   2        -3         3   # BR(h0 -> Strange strange)
     5.03856054E-01   2        -5         5   # BR(h0 -> Bottom bottom)
DECAY        35     1.43533591E+01   # Gamma(HH)
     1.54932054E-07   2        22        22   # BR(HH -> photon photon)
     6.60455171E-07   2        22        23   # BR(HH -> photon Z)
     2.61287381E-05   2        23        23   # BR(HH -> Z Z)
     2.77941525E-05   2       -24        24   # BR(HH -> W W)
     9.06346114E-06   2        21        21   # BR(HH -> gluon gluon)
     3.26522941E-09   2       -11        11   # BR(HH -> Electron electron)
     1.45342793E-04   2       -13        13   # BR(HH -> Muon muon)
     4.19705402E-02   2       -15        15   # BR(HH -> Tau tau)
     8.62990030E-13   2        -2         2   # BR(HH -> Up up)
     1.67369271E-07   2        -4         4   # BR(HH -> Charm charm)
     1.15065320E-02   2        -6         6   # BR(HH -> Top top)
     2.69667661E-07   2        -1         1   # BR(HH -> Down down)
     9.75370253E-05   2        -3         3   # BR(HH -> Strange strange)
     2.54879839E-01   2        -5         5   # BR(HH -> Bottom bottom)
     3.40977145E-02   2  -1000024   1000024   # BR(HH -> Chargino1 chargino1)
     1.85172800E-01   2  -1000024   1000037   # BR(HH -> Chargino1 chargino2)
     1.85172800E-01   2  -1000037   1000024   # BR(HH -> Chargino2 chargino1)
     5.38450030E-04   2  -1000037   1000037   # BR(HH -> Chargino2 chargino2)
     4.16168387E-02   2   1000022   1000022   # BR(HH -> neutralino1 neutralino1)
     2.01308993E-02   2   1000022   1000023   # BR(HH -> neutralino1 neutralino2)
     6.74603090E-03   2   1000022   1000025   # BR(HH -> neutralino1 neutralino3)
     4.36414538E-02   2   1000022   1000035   # BR(HH -> neutralino1 neutralino4)
     3.62033866E-03   2   1000023   1000023   # BR(HH -> neutralino2 neutralino2)
     1.32988062E-02   2   1000023   1000025   # BR(HH -> neutralino2 neutralino3)
     1.01926120E-01   2   1000023   1000035   # BR(HH -> neutralino2 neutralino4)
     7.23084616E-03   2   1000025   1000025   # BR(HH -> neutralino3 neutralino3)
     4.76648191E-02   2   1000025   1000035   # BR(HH -> neutralino3 neutralino4)
     2.76867093E-04   2   1000035   1000035   # BR(HH -> neutralino4 neutralino4)
     2.01182888E-04   2        25        25   # BR(HH -> h0 h0)
DECAY        36     1.42670932E+01   # Gamma(A0)
     4.81009452E-08   2        22        22   # BR(A0 -> photon photon)
     5.41064952E-07   2        22        23   # BR(A0 -> photon Z)
     4.92904949E-05   2        21        21   # BR(A0 -> gluon gluon)
     3.21249919E-09   2       -11        11   # BR(A0 -> Electron electron)
     1.42995876E-04   2       -13        13   # BR(A0 -> Muon muon)
     4.12931968E-02   2       -15        15   # BR(A0 -> Tau tau)
     8.26074450E-13   2        -2         2   # BR(A0 -> Up up)
     1.60176751E-07   2        -4         4   # BR(A0 -> Charm charm)
     1.20607356E-02   2        -6         6   # BR(A0 -> Top top)
     2.65311693E-07   2        -1         1   # BR(A0 -> Down down)
     9.59614453E-05   2        -3         3   # BR(A0 -> Strange strange)
     2.50769906E-01   2        -5         5   # BR(A0 -> Bottom bottom)
     3.57202749E-02   2  -1000024   1000024   # BR(A0 -> Chargino1 chargino1)
     1.85316110E-01   2  -1000024   1000037   # BR(A0 -> Chargino1 chargino2)
     1.85316110E-01   2  -1000037   1000024   # BR(A0 -> Chargino2 chargino1)
     1.22374348E-03   2  -1000037   1000037   # BR(A0 -> Chargino2 chargino2)
     3.72659413E-02   2   1000022   1000022   # BR(A0 -> neutralino1 neutralino1)
     2.63096331E-02   2   1000022   1000023   # BR(A0 -> neutralino1 neutralino2)
     5.44403397E-03   2   1000022   1000025   # BR(A0 -> neutralino1 neutralino3)
     5.13149895E-02   2   1000022   1000035   # BR(A0 -> neutralino1 neutralino4)
     5.41607782E-03   2   1000023   1000023   # BR(A0 -> neutralino2 neutralino2)
     1.28176797E-02   2   1000023   1000025   # BR(A0 -> neutralino2 neutralino3)
     8.63868236E-02   2   1000023   1000035   # BR(A0 -> neutralino2 neutralino4)
     6.41894736E-03   2   1000025   1000025   # BR(A0 -> neutralino3 neutralino3)
     5.59604270E-02   2   1000025   1000035   # BR(A0 -> neutralino3 neutralino4)
     6.40026958E-04   2   1000035   1000035   # BR(A0 -> neutralino4 neutralino4)
     3.60777471E-05   2        23        25   # BR(A0 -> Z h0)
     3.99614683E-38   2        25        25   # BR(A0 -> h0 h0)
DECAY        37     1.42801737E+01   # Gamma(Hp)
     3.61512182E-09   2       -11        12   # BR(Hp -> Electron nu_e)
     1.54557747E-04   2       -13        14   # BR(Hp -> Muon nu_mu)
     4.37175638E-02   2       -15        16   # BR(Hp -> Tau nu_tau)
     2.59139309E-07   2        -1         2   # BR(Hp -> Down up)
     4.32549105E-06   2        -3         2   # BR(Hp -> Strange up)
     2.73650398E-06   2        -5         2   # BR(Hp -> Bottom up)
     2.05967438E-08   2        -1         4   # BR(Hp -> Down charm)
     9.35743679E-05   2        -3         4   # BR(Hp -> Strange charm)
     3.83208045E-04   2        -5         4   # BR(Hp -> Bottom charm)
     9.12167850E-07   2        -1         6   # BR(Hp -> Down top)
     2.00203246E-05   2        -3         6   # BR(Hp -> Strange top)
     2.66483738E-01   2        -5         6   # BR(Hp -> Bottom top)
     4.51637294E-02   2   1000022   1000024   # BR(Hp -> neutralino1 chargino1)
     9.94489301E-02   2   1000022   1000037   # BR(Hp -> neutralino1 chargino2)
     4.14721172E-03   2   1000023   1000024   # BR(Hp -> neutralino2 chargino1)
     1.85369683E-01   2   1000023   1000037   # BR(Hp -> neutralino2 chargino2)
     5.47149969E-02   2   1000024   1000025   # BR(Hp -> chargino1 neutralino3)
     1.10824631E-01   2   1000025   1000037   # BR(Hp -> neutralino3 chargino2)
     1.89433367E-01   2   1000024   1000035   # BR(Hp -> chargino1 neutralino4)
     1.83651997E-07   2   1000035   1000037   # BR(Hp -> neutralino4 chargino2)
     3.63466880E-05   2        24        25   # BR(Hp -> W h0)
     1.70918599E-12   2        24        35   # BR(Hp -> W HH)
     1.47995608E-12   2        24        36   # BR(Hp -> W A0)
DECAY         6     2.43000000E+00   # top
#    BR                NDA      ID1      ID2
     1.00000000E+00    2           5        24   # BR(t -> b W)
Block HiggsBoundsInputHiggsCouplingsFermions
# ScalarNormEffCoupSq PseudoSNormEffCoupSq NP IP1 IP2 IP2
    9.40136777E-01    0.00000000E+00        3  25   5   5  # h0-b-b eff. coupling^2, normalised to SM
    2.34263642E+02    0.00000000E+00        3  35   5   5  # H0-b-b eff. coupling^2, normalised to SM
    0.00000000E+00    2.34203779E+02        3  36   5   5  # A0-b-b eff. coupling^2, normalised to SM
#
    1.00025560E+00    0.00000000E+00        3  25   6   6  # h0-t-t eff. coupling^2, normalised to SM
    4.01418279E-03    0.00000000E+00        3  35   6   6  # H0-t-t eff. coupling^2, normalised to SM
    0.00000000E+00    4.26978594E-03        3  36   6   6  # A0-t-t eff. coupling^2, normalised to SM
#
    9.40136777E-01    0.00000000E+00        3  25  15  15  # h0-tau-tau eff. coupling^2, normalised to SM
    2.34263642E+02    0.00000000E+00        3  35  15  15  # H0-tau-tau eff. coupling^2, normalised to SM
    0.00000000E+00    2.34203779E+02        3  36  15  15  # A0-tau-tau eff. coupling^2, normalised to SM
#
Block HiggsBoundsInputHiggsCouplingsBosons
    9.99996056E-01        3  25  24  24  # h0-W-W eff. coupling^2, normalised to SM
    3.94376475E-06        3  35  24  24  # H0-W-W eff. coupling^2, normalised to SM
    0.00000000E+00        3  36  24  24  # A0-W-W eff. coupling^2, normalised to SM
#
    9.99996056E-01        3  25  23  23  # h0-Z-Z eff. coupling^2, normalised to SM
    3.94376475E-06        3  35  23  23  # H0-Z-Z eff. coupling^2, normalised to SM
    0.00000000E+00        3  36  23  23  # A0-Z-Z eff. coupling^2, normalised to SM
#
    1.26382230E+00        3  25  21  21  # h0-g-g eff. coupling^2, normalised to SM
    3.16104323E-03        3  35  21  21  # H0-g-g eff. coupling^2, normalised to SM
    1.05574275E-01        3  36  21  21  # A0-g-g eff. coupling^2, normalised to SM
#
    0.00000000E+00        3  25  25  23  # h0-h0-Z eff. coupling^2, normalised to SM
    0.00000000E+00        3  35  25  23  # H0-h0-Z eff. coupling^2, normalised to SM
    3.94376475E-06        3  36  25  23  # A0-h0-Z eff. coupling^2, normalised to SM
    0.00000000E+00        3  35  35  23  # H0-H0-Z eff. coupling^2, normalised to SM
    9.99996056E-01        3  36  35  23  # A0-H0-Z eff. coupling^2, normalised to SM
    0.00000000E+00        3  36  36  23  # A0-A0-Z eff. coupling^2, normalised to SM
#
    0.00000000E+00        4  25  21  21  23  # h0-g-g-Z eff. coupling^2, normalised to SM
    0.00000000E+00        4  35  21  21  23  # H0-g-g-Z eff. coupling^2, normalised to SM
    0.00000000E+00        4  36  21  21  23  # A0-g-g-Z eff. coupling^2, normalised to SM
Block SPhenoLowEnergy  # low energy observables
    1    3.56899433E-04   # BR(b -> s gamma)
    2    1.58786234E-06   # BR(b -> s mu+ mu-)
    3    3.52627172E-05   # BR(b -> s nu nu)
    4    2.15388098E-15   # BR(Bd -> e+ e-)
    5    9.20114289E-11   # BR(Bd -> mu+ mu-)
    6    1.92663215E-08   # BR(Bd -> tau+ tau-)
    7    7.25941982E-14   # BR(Bs -> e+ e-)
    8    3.10122445E-09   # BR(Bs -> mu+ mu-)
    9    6.57953000E-07   # BR(Bs -> tau+ tau-)
   10    9.57251925E-05   # BR(B_u -> tau nu)
   11    9.88804590E-01   # BR(B_u -> tau nu)/BR(B_u -> tau nu)_SM
   12    5.42529159E-01   # |Delta(M_Bd)| [ps^-1] 
   13    1.93797525E+01   # |Delta(M_Bs)| [ps^-1] 
   14    0.00000000E+00   # neutron EDM according to the chiral quark model
   15    0.00000000E+00   # neutron EDM according to the relativistic quark-parton model
   16    2.15965976E-03   # epsilon_K
   17    2.28168325E-15   # Delta(M_K)
   18    2.48055745E-11   # BR(K^0 -> pi^0 nu nu)
   19    8.29182845E-11   # BR(K^+ -> pi^+ nu nu)
   20   -1.27466124E-16   # Delta(g-2)_electron/2
   21   -5.44958300E-12   # Delta(g-2)_muon/2
   22   -1.54219093E-09   # Delta(g-2)_tau/2
   23    0.00000000E+00   # electric dipole moment of the electron
   24    0.00000000E+00   # electric dipole moment of the muon
   25    0.00000000E+00   # electric dipole moment of the tau
   26    0.00000000E+00   # Br(mu -> e gamma)
   27    0.00000000E+00   # Br(tau -> e gamma)
   28    0.00000000E+00   # Br(tau -> mu gamma)
   29    0.00000000E+00   # Br(mu -> 3 e)
   30    0.00000000E+00   # Br(tau -> 3 e)
   31    0.00000000E+00   # Br(tau -> 3 mu)
   39    3.36566169E-05   # Delta(rho_parameter)
   40    0.00000000E+00   # BR(Z -> e mu)
   41    0.00000000E+00   # BR(Z -> e tau)
   42    0.00000000E+00   # BR(Z -> mu tau)
Block FWCOEF Q=  1.60000000E+02  # Wilson coefficients at scale Q
#    id        order  M        value         comment
     0305 4422   00   0    -1.88819110E-01   # C7
     0305 4422   00   2    -2.26595391E-01   # C7
     0305 4322   00   2    -6.15495767E-04   # C7'
     0305 6421   00   0    -9.52278348E-02   # C8
     0305 6421   00   2    -1.33908587E-01   # C8
     0305 6321   00   2    -6.78366531E-04   # C8'
 03051111 4133   00   0     1.62246499E+00   # C9 e+e-
 03051111 4133   00   2     1.62277906E+00   # C9 e+e-
 03051111 4233   00   2     3.86645212E-05   # C9' e+e-
 03051111 4137   00   0    -4.44515710E+00   # C10 e+e-
 03051111 4137   00   2    -4.44448809E+00   # C10 e+e-
 03051111 4237   00   2    -2.87322999E-04   # C10' e+e-
 03051313 4133   00   0     1.62246499E+00   # C9 mu+mu-
 03051313 4133   00   2     1.62277901E+00   # C9 mu+mu-
 03051313 4233   00   2     3.86643290E-05   # C9' mu+mu-
 03051313 4137   00   0    -4.44515710E+00   # C10 mu+mu-
 03051313 4137   00   2    -4.44448813E+00   # C10 mu+mu-
 03051313 4237   00   2    -2.87322817E-04   # C10' mu+mu-
 03051212 4137   00   0     1.50535012E+00   # C11 nu_1 nu_1
 03051212 4137   00   2     1.50520693E+00   # C11 nu_1 nu_1
 03051212 4237   00   2     6.21884018E-05   # C11' nu_1 nu_1
 03051414 4137   00   0     1.50535012E+00   # C11 nu_2 nu_2
 03051414 4137   00   2     1.50520693E+00   # C11 nu_2 nu_2
 03051414 4237   00   2     6.21884429E-05   # C11' nu_2 nu_2
 03051616 4137   00   0     1.50535012E+00   # C11 nu_3 nu_3
 03051616 4137   00   2     1.50520693E+00   # C11 nu_3 nu_3
 03051616 4237   00   2     6.22000207E-05   # C11' nu_3 nu_3
Block IMFWCOEF Q=  1.60000000E+02  # Im(Wilson coefficients) at scale Q
#    id        order  M        value         comment
     0305 4422   00   0     3.85817160E-07   # C7
     0305 4422   00   2    -3.83763250E-06   # C7
     0305 4322   00   2    -1.37967763E-06   # C7'
     0305 6421   00   0     3.30477913E-07   # C8
     0305 6421   00   2     7.48540567E-06   # C8
     0305 6321   00   2    -5.83673702E-07   # C8'
 03051111 4133   00   2    -1.25124922E-07   # C9 e+e-
 03051111 4233   00   2     1.15828920E-06   # C9' e+e-
 03051111 4137   00   2     5.60776809E-06   # C10 e+e-
 03051111 4237   00   2    -8.61627194E-06   # C10' e+e-
 03051313 4133   00   2    -1.25125552E-07   # C9 mu+mu-
 03051313 4233   00   2     1.15828916E-06   # C9' mu+mu-
 03051313 4137   00   2     5.60776859E-06   # C10 mu+mu-
 03051313 4237   00   2    -8.61627207E-06   # C10' mu+mu-
 03051212 4137   00   2    -1.18495484E-06   # C11 nu_1 nu_1
 03051212 4237   00   2     1.86492058E-06   # C11' nu_1 nu_1
 03051414 4137   00   2    -1.18495481E-06   # C11 nu_2 nu_2
 03051414 4237   00   2     1.86492058E-06   # C11' nu_2 nu_2
 03051616 4137   00   2    -1.18494682E-06   # C11 nu_3 nu_3
 03051616 4237   00   2     1.86492058E-06   # C11' nu_3 nu_3
