# SUSY Les Houches Accord 2 - MSSM spectrum + Decays
# SPheno v4.0.5be
# W. Porod, Comput. Phys. Commun. 153 (2003) 275-315, hep-ph/0301101;
# W. Porod, F.~Staub, Comput. Phys. Commun. 183 (2012) 2458
#                     arXiv:1104.1573 [hep-ph] 
# in case of problems send email to porod@physik.uni-wuerzburg.de
# Created: 20.12.2022,  22:15
Block SPINFO         # Program information
     1   SPheno      # spectrum calculator
     2   v4.0.5be    # version number
#
Block SPhenoINFO     # SPheno specific information
    1      2         # using 2-loop RGEs
    2      2         # using pole masses for boundary conditions at mZ
Block MODSEL  # Model selection
    1    0    # general MSSM
Block MINPAR  # Input parameters
    3    2.14585226E+01  # tanb at m_Z    
    4   -1.00000000E+00  # Sign(mu)
Block EXTPAR  # non-universal input parameters
    0    2.75685038E+03  # scale for input parameters
    1    1.02901485E+02  # M_1
    2   -2.48899368E+02  # M_2
    3    4.98331660E+03  # M_3
   11   -2.60619675E+03  # A_t
   12    5.68567126E+02  # A_b
   13    4.29551293E+02  # A_tau
   23   -5.81022127E+02  # mu
   25    2.06025264E+01  # tan(beta)
   26    1.34730314E+03  # m_A, pole mass
   31    1.00000000E+04  # M_L11
   32    1.00000000E+04  # M_L22
   33    1.00000000E+04  # M_L33
   34    1.00000000E+04  # M_E11
   35    1.00000000E+04  # M_E22
   36    1.00000000E+04  # M_E33
   41    1.00000000E+04  # M_Q11
   42    1.00000000E+04  # M_Q22
   43    3.32888731E+03  # M_Q33
   44    1.00000000E+04  # M_U11
   45    1.00000000E+04  # M_U22
   46    2.25329424E+03  # M_U33
   47    1.00000000E+04  # M_D11
   48    1.00000000E+04  # M_D22
   49    3.84000374E+03  # M_D33
Block SMINPUTS  # SM parameters
         1     1.27908970E+02  # alpha_em^-1(MZ)^MSbar
         2     1.16637870E-05  # G_mu [GeV^-2]
         3     1.18400000E-01  # alpha_s(MZ)^MSbar
         4     9.11876000E+01  # m_Z(pole)
         5     4.18000000E+00  # m_b(m_b), MSbar
         6     1.73200000E+02  # m_t(pole)
         7     1.77700000E+00  # m_tau(pole)
         8     0.00000000E+00  # m_nu_3
        11     5.10998930E-04  # m_e(pole)
        12     0.00000000E+00  # m_nu_1
        13     1.05658372E-01  # m_muon(pole)
        14     0.00000000E+00  # m_nu_2
        21     5.00000000E-03  # m_d(2 GeV), MSbar
        22     2.50000000E-03  # m_u(2 GeV), MSbar
        23     9.50000000E-02  # m_s(2 GeV), MSbar
        24     1.27000000E+00  # m_c(m_c), MSbar
Block gauge Q=  2.75685038E+03  # (SUSY scale)
   1    3.55362975E-01  # g'(Q)^DRbar
   2    6.65198874E-01  # g(Q)^DRbar
   3    1.21977796E+00  # g3(Q)^DRbar
Block Yu Q=  2.75685038E+03  # (SUSY scale)
  1  1     8.39424274E-06   # Y_u(Q)^DRbar
  2  2     4.26427531E-03   # Y_c(Q)^DRbar
  3  3     1.01409195E+00   # Y_t(Q)^DRbar
Block Yd Q=  2.75685038E+03  # (SUSY scale)
  1  1     3.47521958E-04   # Y_d(Q)^DRbar
  2  2     6.60291721E-03   # Y_s(Q)^DRbar
  3  3     3.44632885E-01   # Y_b(Q)^DRbar
Block Ye Q=  2.75685038E+03  # (SUSY scale)
  1  1     6.06451230E-05   # Y_e(Q)^DRbar
  2  2     1.25394880E-02   # Y_mu(Q)^DRbar
  3  3     2.10893560E-01   # Y_tau(Q)^DRbar
Block Au Q=  2.75685038E+03  # (SUSY scale)
  1  1     0.00000000E+00   # A_u(Q)^DRbar
  2  2     0.00000000E+00   # A_c(Q)^DRbar
  3  3    -2.60619840E+03   # A_t(Q)^DRbar
Block Ad Q=  2.75685038E+03  # (SUSY scale)
  1  1     0.00000000E+00   # A_d(Q)^DRbar
  2  2     0.00000000E+00   # A_s(Q)^DRbar
  3  3     5.68567178E+02   # A_b(Q)^DRbar
Block Ae Q=  2.75685038E+03  # (SUSY scale)
  1  1     0.00000000E+00   # A_e(Q)^DRbar
  2  2     0.00000000E+00   # A_mu(Q)^DRbar
  3  3     4.29551201E+02   # A_tau(Q)^DRbar
Block MSOFT Q=  2.75685038E+03  # soft SUSY breaking masses at Q
   1    1.02901485E+02  # M_1
   2   -2.48899368E+02  # M_2
   3    4.98331660E+03  # M_3
  21    1.40104852E+06  # M^2_(H,d)
  22   -2.04744811E+05  # M^2_(H,u)
  31    1.00000000E+04  # M_(L,11)
  32    1.00000000E+04  # M_(L,22)
  33    1.00000000E+04  # M_(L,33)
  34    1.00000000E+04  # M_(E,11)
  35    1.00000000E+04  # M_(E,22)
  36    1.00000000E+04  # M_(E,33)
  41    1.00000000E+04  # M_(Q,11)
  42    1.00000000E+04  # M_(Q,22)
  43    3.32888731E+03  # M_(Q,33)
  44    1.00000000E+04  # M_(U,11)
  45    1.00000000E+04  # M_(U,22)
  46    2.25329424E+03  # M_(U,33)
  47    1.00000000E+04  # M_(D,11)
  48    1.00000000E+04  # M_(D,22)
  49    3.84000374E+03  # M_(D,33)
Block MASS  # Mass spectrum
#   PDG code      mass          particle
         6     1.73200000E+02  # m_t(pole)
        23     9.11876000E+01  # m_Z(pole)
        24     8.04299946E+01  # W+
        15     1.77700000E+00  # m_tau(pole)
        25     1.22329773E+02  # h0
        35     1.34715677E+03  # H0
        36     1.34730314E+03  # A0
        37     1.35185986E+03  # H+
   1000001     1.00625192E+04  # ~d_L
   2000001     1.00395223E+04  # ~d_R
   1000002     1.00623204E+04  # ~u_L
   2000002     1.00425499E+04  # ~u_R
   1000003     1.00625225E+04  # ~s_L
   2000003     1.00395267E+04  # ~s_R
   1000004     1.00623237E+04  # ~c_L
   2000004     1.00425518E+04  # ~c_R
   1000005     3.37851436E+03  # ~b_1
   2000005     3.91380014E+03  # ~b_2
   1000006     2.24582558E+03  # ~t_1
   2000006     3.38415596E+03  # ~t_2
   1000011     1.00214878E+04  # ~e_L-
   2000011     1.00088085E+04  # ~e_R-
   1000012     1.00207191E+04  # ~nu_eL
   1000013     1.00214991E+04  # ~mu_L-
   2000013     1.00088297E+04  # ~mu_R-
   1000014     1.00207301E+04  # ~nu_muL
   1000015     1.00147732E+04  # ~tau_1-
   2000015     1.00247335E+04  # ~tau_2-
   1000016     1.00238406E+04  # ~nu_tauL
   1000021     5.35948501E+03  # ~g
   1000022     1.03777354E+02  # ~chi_10
   1000023     2.67869051E+02  # ~chi_20
   1000025     5.94234794E+02  # ~chi_30
   1000035     6.01635464E+02  # ~chi_40
   1000024     2.68065837E+02  # ~chi_1+
   1000037     6.03218650E+02  # ~chi_2+
# Higgs mixing
Block alpha # Effective Higgs mixing angle
          -4.72211404E-02   # alpha
Block Hmix Q=  2.75685038E+03  # Higgs mixing parameters
   1   -5.81022127E+02  # mu
   2    2.06025264E+01  # tan[beta](Q)
   3    2.43329521E+02  # v(Q)
   4    1.81522575E+06  # m^2_A(Q)
Block stopmix # stop mixing matrix
   1  1     5.79338908E-02   # Re[R_st(1,1)]
   1  2     9.98320422E-01   # Re[R_st(1,2)]
   2  1    -9.98320422E-01   # Re[R_st(2,1)]
   2  2     5.79338908E-02   # Re[R_st(2,2)]
Block sbotmix # sbottom mixing matrix
   1  1    -9.99971046E-01   # Re[R_sb(1,1)]
   1  2     7.60965927E-03   # Re[R_sb(1,2)]
   2  1    -7.60965927E-03   # Re[R_sb(2,1)]
   2  2    -9.99971046E-01   # Re[R_sb(2,2)]
Block staumix # stau mixing matrix
   1  1    -1.12672328E-01   # Re[R_sta(1,1)]
   1  2     9.93632199E-01   # Re[R_sta(1,2)]
   2  1    -9.93632199E-01   # Re[R_sta(2,1)]
   2  2    -1.12672328E-01   # Re[R_sta(2,2)]
Block Nmix # neutralino mixing matrix
   1  1     9.96927670E-01   # Re[N(1,1)]
   1  2     1.52673800E-03   # Re[N(1,2)]
   1  3    -7.76551403E-02   # Re[N(1,3)]
   1  4    -1.01276444E-02   # Re[N(1,4)]
   2  1    -1.09290303E-02   # Re[N(2,1)]
   2  2    -9.81817721E-01   # Re[N(2,2)]
   2  3    -1.70419704E-01   # Re[N(2,3)]
   2  4     8.28953759E-02   # Re[N(2,4)]
   3  1     6.18875199E-02   # Re[N(3,1)]
   3  2    -6.26063064E-02   # Re[N(3,2)]
   3  3     7.00972466E-01   # Re[N(3,3)]
   3  4     7.07734404E-01   # Re[N(3,4)]
   4  1    -4.67516000E-02   # Re[N(4,1)]
   4  2     1.79198443E-01   # Re[N(4,2)]
   4  3    -6.88160160E-01   # Re[N(4,3)]
   4  4     7.01525338E-01   # Re[N(4,4)]
Block Umix # chargino mixing matrix
   1  1    -9.70715323E-01   # Re[U(1,1)]
   1  2    -2.40232724E-01   # Re[U(1,2)]
   2  1    -2.40232724E-01   # Re[U(2,1)]
   2  2     9.70715323E-01   # Re[U(2,2)]
Block Vmix # chargino mixing matrix
   1  1     9.93093061E-01   # Re[V(1,1)]
   1  2     1.17329329E-01   # Re[V(1,2)]
   2  1     1.17329329E-01   # Re[V(2,1)]
   2  2    -9.93093061E-01   # Re[V(2,2)]
DECAY        23     2.49520000E+00   # Z
DECAY        24     2.08500000E+00   # W
DECAY   2000011     5.02777048E+01   # ~e^-_R
#    BR                NDA      ID1      ID2
     9.93906078E-01    2     1000022        11   # BR(~e^-_R -> chi^0_1 e^-)
     1.19303685E-04    2     1000023        11   # BR(~e^-_R -> chi^0_2 e^-)
     3.80409427E-03    2     1000025        11   # BR(~e^-_R -> chi^0_3 e^-)
     2.17050913E-03    2     1000035        11   # BR(~e^-_R -> chi^0_4 e^-)
DECAY   1000011     1.44690341E+02   # ~e^-_L
#    BR                NDA      ID1      ID2
     8.69476257E-02    2     1000022        11   # BR(~e^-_L -> chi^0_1 e^-)
     2.96952266E-01    2     1000023        11   # BR(~e^-_L -> chi^0_2 e^-)
     2.64240963E-04    2     1000025        11   # BR(~e^-_L -> chi^0_3 e^-)
     7.19874522E-03    2     1000035        11   # BR(~e^-_L -> chi^0_4 e^-)
     5.73703999E-01    2    -1000024        12   # BR(~e^-_L -> chi^-_1 nu_e)
     3.49331231E-02    2    -1000037        12   # BR(~e^-_L -> chi^-_2 nu_e)
#    BR                NDA      ID1      ID2       ID3
DECAY   2000013     5.03399951E+01   # ~mu^-_R
#    BR                NDA      ID1      ID2
     9.92682080E-01    2     1000022        13   # BR(~mu^-_R -> chi^0_1 mu^-)
     1.37193371E-04    2     1000023        13   # BR(~mu^-_R -> chi^0_2 mu^-)
     4.10284074E-03    2     1000025        13   # BR(~mu^-_R -> chi^0_3 mu^-)
     2.46023089E-03    2     1000035        13   # BR(~mu^-_R -> chi^0_4 mu^-)
     5.81812339E-04    2    -1000037        14   # BR(~mu^-_R -> chi^-_2 nu_mu)
DECAY   1000013     1.44721636E+02   # ~mu^-_L
#    BR                NDA      ID1      ID2
     8.69302275E-02    2     1000022        13   # BR(~mu^-_L -> chi^0_1 mu^-)
     2.96894671E-01    2     1000023        13   # BR(~mu^-_L -> chi^0_2 mu^-)
     3.69870660E-04    2     1000025        13   # BR(~mu^-_L -> chi^0_3 mu^-)
     7.29903536E-03    2     1000035        13   # BR(~mu^-_L -> chi^0_4 mu^-)
     5.73580587E-01    2    -1000024        14   # BR(~mu^-_L -> chi^-_1 nu_mu)
     3.49256090E-02    2    -1000037        14   # BR(~mu^-_L -> chi^-_2 nu_mu)
#    BR                NDA      ID1      ID2       ID3
DECAY   1000015     6.90070267E+01   # ~tau^-_1
#    BR                NDA      ID1      ID2
     7.21112284E-01    2     1000022        15   # BR(~tau^-_1 -> chi^0_1 tau^-)
     2.23600112E-02    2     1000023        15   # BR(~tau^-_1 -> chi^0_2 tau^-)
     6.11277615E-02    2     1000025        15   # BR(~tau^-_1 -> chi^0_3 tau^-)
     5.31812911E-02    2     1000035        15   # BR(~tau^-_1 -> chi^0_4 tau^-)
     4.36857834E-02    2    -1000024        16   # BR(~tau^-_1 -> chi^-_1 nu_tau)
     9.85328684E-02    2    -1000037        16   # BR(~tau^-_1 -> chi^-_2 nu_tau)
DECAY   2000015     1.52445974E+02   # ~tau^-_2
#    BR                NDA      ID1      ID2
     8.48238147E-02    2     1000022        15   # BR(~tau^-_2 -> chi^0_1 tau^-)
     2.75219487E-01    2     1000023        15   # BR(~tau^-_2 -> chi^0_2 tau^-)
     3.05878721E-02    2     1000025        15   # BR(~tau^-_2 -> chi^0_3 tau^-)
     3.81661086E-02    2     1000035        15   # BR(~tau^-_2 -> chi^0_4 tau^-)
     5.28252288E-01    2    -1000024        16   # BR(~tau^-_2 -> chi^-_1 nu_tau)
     4.29504295E-02    2    -1000037        16   # BR(~tau^-_2 -> chi^-_2 nu_tau)
#    BR                NDA      ID1      ID2       ID3
DECAY   1000012     1.44694935E+02   # ~nu_e
#    BR                NDA      ID1      ID2
     8.59469862E-02    2     1000022        12   # BR(~nu_e -> chi^0_1 nu_e)
     2.89940550E-01    2     1000023        12   # BR(~nu_e -> chi^0_2 nu_e)
     2.77026521E-03    2     1000025        12   # BR(~nu_e -> chi^0_3 nu_e)
     1.26157600E-02    2     1000035        12   # BR(~nu_e -> chi^0_4 nu_e)
     6.00394638E-01    2     1000024        11   # BR(~nu_e -> chi^+_1 e^-)
     8.33180156E-03    2     1000037        11   # BR(~nu_e -> chi^+_2 e^-)
#    BR                NDA      ID1      ID2       ID3
DECAY   1000014     1.44726224E+02   # ~nu_mu
#    BR                NDA      ID1      ID2
     8.59284994E-02    2     1000022        14   # BR(~nu_mu -> chi^0_1 nu_mu)
     2.89878185E-01    2     1000023        14   # BR(~nu_mu -> chi^0_2 nu_mu)
     2.76966938E-03    2     1000025        14   # BR(~nu_mu -> chi^0_3 nu_mu)
     1.26130466E-02    2     1000035        14   # BR(~nu_mu -> chi^0_4 nu_mu)
     6.00277976E-01    2     1000024        13   # BR(~nu_mu -> chi^+_1 mu^-)
     8.53262353E-03    2     1000037        13   # BR(~nu_mu -> chi^+_2 mu^-)
#    BR                NDA      ID1      ID2       ID3
DECAY   1000016     1.53548320E+02   # ~nu_tau
#    BR                NDA      ID1      ID2
     8.10166410E-02    2     1000022        16   # BR(~nu_tau -> chi^0_1 nu_tau)
     2.73308329E-01    2     1000023        16   # BR(~nu_tau -> chi^0_2 nu_tau)
     2.61136020E-03    2     1000025        16   # BR(~nu_tau -> chi^0_3 nu_tau)
     1.18921094E-02    2     1000035        16   # BR(~nu_tau -> chi^0_4 nu_tau)
     5.69281402E-01    2     1000024        15   # BR(~nu_tau -> chi^+_1 tau^-)
     6.18901580E-02    2     1000037        15   # BR(~nu_tau -> chi^+_2 tau^-)
#    BR                NDA      ID1      ID2       ID3
DECAY   2000001     4.10743845E+02   # ~d_R
#    BR                NDA      ID1      ID2
     1.35593374E-02    2     1000022         1   # BR(~d_R -> chi^0_1 d)
     9.86357407E-01    2     1000021         1   # BR(~d_R -> ~g d)
DECAY   1000001     5.41594783E+02   # ~d_L
#    BR                NDA      ID1      ID2
     2.53260218E-03    2     1000022         1   # BR(~d_L -> chi^0_1 d)
     7.84075656E-02    2     1000023         1   # BR(~d_L -> chi^0_2 d)
     4.40245326E-04    2     1000025         1   # BR(~d_L -> chi^0_3 d)
     2.85522385E-03    2     1000035         1   # BR(~d_L -> chi^0_4 d)
     1.53897841E-01    2    -1000024         2   # BR(~d_L -> chi^-_1 u)
     9.37136189E-03    2    -1000037         2   # BR(~d_L -> chi^-_2 u)
     7.52495160E-01    2     1000021         1   # BR(~d_L -> ~g d)
DECAY   2000003     4.10761555E+02   # ~s_R
#    BR                NDA      ID1      ID2
     1.35588862E-02    2     1000022         3   # BR(~s_R -> chi^0_1 s)
     9.86315999E-01    2     1000021         3   # BR(~s_R -> ~g s)
DECAY   1000003     5.41607430E+02   # ~s_L
#    BR                NDA      ID1      ID2
     2.53264077E-03    2     1000022         3   # BR(~s_L -> chi^0_1 s)
     7.84062269E-02    2     1000023         3   # BR(~s_L -> chi^0_2 s)
     4.48076156E-04    2     1000025         3   # BR(~s_L -> chi^0_3 s)
     2.86271325E-03    2     1000035         3   # BR(~s_L -> chi^0_4 s)
     1.53894382E-01    2    -1000024         4   # BR(~s_L -> chi^-_1 c)
     9.37773521E-03    2    -1000037         4   # BR(~s_L -> chi^-_2 c)
     7.52478225E-01    2     1000021         3   # BR(~s_L -> ~g s)
DECAY   1000005     1.31704667E+02   # ~b_1
#    BR                NDA      ID1      ID2
     3.90829955E-03    2     1000022         5   # BR(~b_1 -> chi^0_1 b)
     1.08994600E-01    2     1000023         5   # BR(~b_1 -> chi^0_2 b)
     2.84607192E-02    2     1000025         5   # BR(~b_1 -> chi^0_3 b)
     3.04599077E-02    2     1000035         5   # BR(~b_1 -> chi^0_4 b)
     2.15853987E-01    2    -1000024         6   # BR(~b_1 -> chi^-_1 t)
     4.96990669E-01    2    -1000037         6   # BR(~b_1 -> chi^-_2 t)
     1.15331817E-01    2     1000006       -24   # BR(~b_1 -> ~t_1 W^-)
DECAY   2000005     1.99140724E+01   # ~b_2
#    BR                NDA      ID1      ID2
     1.11293473E-01    2     1000022         5   # BR(~b_2 -> chi^0_1 b)
     1.18322137E-02    2     1000023         5   # BR(~b_2 -> chi^0_2 b)
     2.18794848E-01    2     1000025         5   # BR(~b_2 -> chi^0_3 b)
     2.11163350E-01    2     1000035         5   # BR(~b_2 -> chi^0_4 b)
     2.34040175E-02    2    -1000024         6   # BR(~b_2 -> chi^-_1 t)
     4.18817047E-01    2    -1000037         6   # BR(~b_2 -> chi^-_2 t)
     1.19676961E-04    2     1000006       -24   # BR(~b_2 -> ~t_1 W^-)
     1.83383461E-03    2     2000006       -24   # BR(~b_2 -> ~t_2 W^-)
     4.13287979E-04    2     1000006       -37   # BR(~b_2 -> ~t_1 H^-)
     9.38756736E-04    2     1000005        23   # BR(~b_2 -> ~b_1 Z)
     1.38949447E-03    2     1000005        25   # BR(~b_2 -> ~b_1 h^0)
DECAY   2000002     4.27878205E+02   # ~u_R
#    BR                NDA      ID1      ID2
     5.20811243E-02    2     1000022         2   # BR(~u_R -> chi^0_1 u)
     1.99345063E-04    2     1000025         2   # BR(~u_R -> chi^0_3 u)
     1.13740679E-04    2     1000035         2   # BR(~u_R -> chi^0_4 u)
     9.47599538E-01    2     1000021         2   # BR(~u_R -> ~g u)
DECAY   1000002     5.41595972E+02   # ~u_L
#    BR                NDA      ID1      ID2
     2.62118452E-03    2     1000022         2   # BR(~u_L -> chi^0_1 u)
     7.90299787E-02    2     1000023         2   # BR(~u_L -> chi^0_2 u)
     2.16098275E-04    2     1000025         2   # BR(~u_L -> chi^0_3 u)
     2.37062660E-03    2     1000035         2   # BR(~u_L -> chi^0_4 u)
     1.61071647E-01    2     1000024         1   # BR(~u_L -> chi^+_1 d)
     2.23537306E-03    2     1000037         1   # BR(~u_L -> chi^+_2 d)
     7.52455092E-01    2     1000021         2   # BR(~u_L -> ~g u)
DECAY   2000004     4.27885591E+02   # ~c_R
#    BR                NDA      ID1      ID2
     5.20802340E-02    2     1000022         4   # BR(~c_R -> chi^0_1 c)
     2.03565701E-04    2     1000025         4   # BR(~c_R -> chi^0_3 c)
     1.17886575E-04    2     1000035         4   # BR(~c_R -> chi^0_4 c)
     9.47583574E-01    2     1000021         4   # BR(~c_R -> ~g c)
DECAY   1000004     5.41608587E+02   # ~c_L
#    BR                NDA      ID1      ID2
     2.62112493E-03    2     1000022         4   # BR(~c_L -> chi^0_1 c)
     7.90282079E-02    2     1000023         4   # BR(~c_L -> chi^0_2 c)
     2.19437209E-04    2     1000025         4   # BR(~c_L -> chi^0_3 c)
     2.37385315E-03    2     1000035         4   # BR(~c_L -> chi^0_4 c)
     1.61068874E-01    2     1000024         3   # BR(~c_L -> chi^+_1 s)
     2.25035646E-03    2     1000037         3   # BR(~c_L -> chi^+_2 s)
     7.52438147E-01    2     1000021         4   # BR(~c_L -> ~g c)
DECAY   1000006     8.34191978E+01   # ~t_1
#    BR                NDA      ID1      ID2
     5.88018152E-02    2     1000022         6   # BR(~t_1 -> chi^0_1 t)
     1.70501528E-03    2     1000023         6   # BR(~t_1 -> chi^0_2 t)
     2.33220957E-01    2     1000025         6   # BR(~t_1 -> chi^0_3 t)
     2.32398321E-01    2     1000035         6   # BR(~t_1 -> chi^0_4 t)
     3.38572292E-03    2     1000024         5   # BR(~t_1 -> chi^+_1 b)
     4.70487971E-01    2     1000037         5   # BR(~t_1 -> chi^+_2 b)
#    BR                NDA      ID1      ID2       ID3
DECAY   2000006     1.35503240E+02   # ~t_2
#    BR                NDA      ID1      ID2
     3.57538802E-03    2     1000022         6   # BR(~t_2 -> chi^0_1 t)
     1.10088687E-01    2     1000023         6   # BR(~t_2 -> chi^0_2 t)
     2.41875208E-01    2     1000025         6   # BR(~t_2 -> chi^0_3 t)
     2.33338047E-01    2     1000035         6   # BR(~t_2 -> chi^0_4 t)
     2.21220401E-01    2     1000024         5   # BR(~t_2 -> chi^+_1 b)
     5.21355743E-02    2     1000037         5   # BR(~t_2 -> chi^+_2 b)
     5.64680478E-02    2     1000006        23   # BR(~t_2 -> ~t_1 Z)
     8.12986466E-02    2     1000006        25   # BR(~t_2 -> ~t_1 h^0)
DECAY   1000024     9.86689948E-04   # chi^+_1
#    BR                NDA      ID1      ID2
     9.99999233E-01    2     1000022        24   # BR(chi^+_1 -> chi^0_1 W^+)
#    BR                NDA      ID1      ID2       ID3
DECAY   1000037     4.10817105E+00   # chi^+_2
#    BR                NDA      ID1      ID2
     9.67074685E-02    2     1000022        24   # BR(chi^+_2 -> chi^0_1 W^+)
     3.44276126E-01    2     1000023        24   # BR(chi^+_2 -> chi^0_2 W^+)
     2.94857647E-01    2     1000024        23   # BR(chi^+_2 -> chi^+_1 Z)
     2.62777722E-01    2     1000024        25   # BR(chi^+_2 -> chi^+_1 h^0)
#    BR                NDA      ID1      ID2       ID3
     5.52070041E-04    3     1000022        -5         6   # BR(chi^+_2 -> chi^0_1 b_bar t)
     8.27362425E-04    3     1000023        -5         6   # BR(chi^+_2 -> chi^0_2 b_bar t)
DECAY   1000022     0.00000000E+00   # chi^0_1
DECAY   1000023     1.92673725E-03   # chi^0_2
#    BR                NDA      ID1      ID2
     5.05625460E-01    2     1000022        23   # BR(chi^0_2 -> chi^0_1 Z)
     4.94315296E-01    2     1000022        25   # BR(chi^0_2 -> chi^0_1 h^0)
#    BR                NDA      ID1      ID2       ID3
DECAY   1000025     4.92695411E+00   # chi^0_3
#    BR                NDA      ID1      ID2
     2.47515898E-01    2     1000024       -24   # BR(chi^0_3 -> chi^+_1 W^-)
     2.47515898E-01    2    -1000024        24   # BR(chi^0_3 -> chi^-_1 W^+)
     3.01969194E-02    2     1000022        23   # BR(chi^0_3 -> chi^0_1 Z)
     2.53843685E-01    2     1000023        23   # BR(chi^0_3 -> chi^0_2 Z)
     4.18747971E-02    2     1000022        25   # BR(chi^0_3 -> chi^0_1 h^0)
     1.77745236E-01    2     1000023        25   # BR(chi^0_3 -> chi^0_2 h^0)
#    BR                NDA      ID1      ID2       ID3
     6.25035607E-04    3     1000024         5        -6   # BR(chi^0_3 -> chi^+_1 b t_bar)
     6.25035607E-04    3    -1000024        -5         6   # BR(chi^0_3 -> chi^-_1 b_bar t)
DECAY   1000035     4.45814964E+00   # chi^0_4
#    BR                NDA      ID1      ID2
     3.17194725E-01    2     1000024       -24   # BR(chi^0_4 -> chi^+_1 W^-)
     3.17194725E-01    2    -1000024        24   # BR(chi^0_4 -> chi^-_1 W^+)
     5.69097086E-02    2     1000022        23   # BR(chi^0_4 -> chi^0_1 Z)
     3.25547419E-02    2     1000023        23   # BR(chi^0_4 -> chi^0_2 Z)
     5.59918469E-02    2     1000022        25   # BR(chi^0_4 -> chi^0_1 h^0)
     2.18210591E-01    2     1000023        25   # BR(chi^0_4 -> chi^0_2 h^0)
#    BR                NDA      ID1      ID2       ID3
     9.36433930E-04    3     1000024         5        -6   # BR(chi^0_4 -> chi^+_1 b t_bar)
     9.36433930E-04    3    -1000024        -5         6   # BR(chi^0_4 -> chi^-_1 b_bar t)
DECAY   1000021     2.56929255E+02   # ~g
#    BR                NDA      ID1      ID2
     2.07810694E-01    2     1000006        -6   # BR(~g -> ~t_1 t_bar)
     2.07810694E-01    2    -1000006         6   # BR(~g -> ~t^*_1 t)
     1.12743734E-01    2     2000006        -6   # BR(~g -> ~t_2 t_bar)
     1.12743734E-01    2    -2000006         6   # BR(~g -> ~t^*_2 t)
     1.12118068E-01    2     1000005        -5   # BR(~g -> ~b_1 b_bar)
     1.12118068E-01    2    -1000005         5   # BR(~g -> ~b^*_1 b)
     6.72465631E-02    2     2000005        -5   # BR(~g -> ~b_2 b_bar)
     6.72465631E-02    2    -2000005         5   # BR(~g -> ~b^*_2 b)
#    BR                NDA      ID1      ID2       ID3
DECAY        25     3.62127215E-03   # Gamma(h0)
     2.30375861E-03   2        22        22   # BR(h0 -> photon photon)
     1.25806344E-03   2        22        23   # BR(h0 -> photon Z)
     2.10420317E-02   2        23        23   # BR(h0 -> Z Z)
     1.83428384E-01   2       -24        24   # BR(h0 -> W W)
     7.30185156E-02   2        21        21   # BR(h0 -> gluon gluon)
     5.51772208E-09   2       -11        11   # BR(h0 -> Electron electron)
     2.45436546E-04   2       -13        13   # BR(h0 -> Muon muon)
     7.07643769E-02   2       -15        15   # BR(h0 -> Tau tau)
     1.53631219E-07   2        -2         2   # BR(h0 -> Up up)
     2.98109520E-02   2        -4         4   # BR(h0 -> Charm charm)
     6.41347678E-07   2        -1         1   # BR(h0 -> Down down)
     2.31960769E-04   2        -3         3   # BR(h0 -> Strange strange)
     6.17895720E-01   2        -5         5   # BR(h0 -> Bottom bottom)
DECAY        35     2.06310521E+01   # Gamma(HH)
     2.39138860E-07   2        22        22   # BR(HH -> photon photon)
     6.94430839E-07   2        22        23   # BR(HH -> photon Z)
     1.18528103E-05   2        23        23   # BR(HH -> Z Z)
     1.09807300E-05   2       -24        24   # BR(HH -> W W)
     1.00172203E-05   2        21        21   # BR(HH -> gluon gluon)
     4.88078284E-09   2       -11        11   # BR(HH -> Electron electron)
     2.17261809E-04   2       -13        13   # BR(HH -> Muon muon)
     6.27397115E-02   2       -15        15   # BR(HH -> Tau tau)
     4.11180512E-13   2        -2         2   # BR(HH -> Up up)
     7.97508619E-08   2        -4         4   # BR(HH -> Charm charm)
     6.05807261E-03   2        -6         6   # BR(HH -> Top top)
     4.02847152E-07   2        -1         1   # BR(HH -> Down down)
     1.45709037E-04   2        -3         3   # BR(HH -> Strange strange)
     3.96516947E-01   2        -5         5   # BR(HH -> Bottom bottom)
     2.25730714E-02   2  -1000024   1000024   # BR(HH -> Chargino1 chargino1)
     1.51079237E-01   2  -1000024   1000037   # BR(HH -> Chargino1 chargino2)
     1.51079237E-01   2  -1000037   1000024   # BR(HH -> Chargino2 chargino1)
     4.73855471E-04   2  -1000037   1000037   # BR(HH -> Chargino2 chargino2)
     8.39168750E-04   2   1000022   1000022   # BR(HH -> neutralino1 neutralino1)
     6.56944199E-03   2   1000022   1000023   # BR(HH -> neutralino1 neutralino2)
     2.32488774E-02   2   1000022   1000025   # BR(HH -> neutralino1 neutralino3)
     2.06689372E-02   2   1000022   1000035   # BR(HH -> neutralino1 neutralino4)
     1.10088338E-02   2   1000023   1000023   # BR(HH -> neutralino2 neutralino2)
     9.36135942E-02   2   1000023   1000025   # BR(HH -> neutralino2 neutralino3)
     4.62372427E-02   2   1000023   1000035   # BR(HH -> neutralino2 neutralino4)
     3.23310212E-04   2   1000025   1000025   # BR(HH -> neutralino3 neutralino3)
     5.54933886E-03   2   1000025   1000035   # BR(HH -> neutralino3 neutralino4)
     9.41634401E-04   2   1000035   1000035   # BR(HH -> neutralino4 neutralino4)
     8.22452811E-05   2        25        25   # BR(HH -> h0 h0)
DECAY        36     2.03745526E+01   # Gamma(A0)
     5.07598061E-07   2        22        22   # BR(A0 -> photon photon)
     1.02251528E-06   2        22        23   # BR(A0 -> photon Z)
     3.89982259E-05   2        21        21   # BR(A0 -> gluon gluon)
     4.81622271E-09   2       -11        11   # BR(A0 -> Electron electron)
     2.14388190E-04   2       -13        13   # BR(A0 -> Muon muon)
     6.19103396E-02   2       -15        15   # BR(A0 -> Tau tau)
     3.95260498E-13   2        -2         2   # BR(A0 -> Up up)
     7.66502615E-08   2        -4         4   # BR(A0 -> Charm charm)
     6.26168798E-03   2        -6         6   # BR(A0 -> Top top)
     3.97513093E-07   2        -1         1   # BR(A0 -> Down down)
     1.43779821E-04   2        -3         3   # BR(A0 -> Strange strange)
     3.91276775E-01   2        -5         5   # BR(A0 -> Bottom bottom)
     2.85418444E-02   2  -1000024   1000024   # BR(A0 -> Chargino1 chargino1)
     1.48401725E-01   2  -1000024   1000037   # BR(A0 -> Chargino1 chargino2)
     1.48401725E-01   2  -1000037   1000024   # BR(A0 -> Chargino2 chargino1)
     3.33163159E-03   2  -1000037   1000037   # BR(A0 -> Chargino2 chargino2)
     8.48925929E-04   2   1000022   1000022   # BR(A0 -> neutralino1 neutralino1)
     6.51202035E-03   2   1000022   1000023   # BR(A0 -> neutralino1 neutralino2)
     2.29017907E-02   2   1000022   1000025   # BR(A0 -> neutralino1 neutralino3)
     2.16283122E-02   2   1000022   1000035   # BR(A0 -> neutralino1 neutralino4)
     1.39436458E-02   2   1000023   1000023   # BR(A0 -> neutralino2 neutralino2)
     5.18448925E-02   2   1000023   1000025   # BR(A0 -> neutralino2 neutralino3)
     8.63015591E-02   2   1000023   1000035   # BR(A0 -> neutralino2 neutralino4)
     1.11798238E-03   2   1000025   1000025   # BR(A0 -> neutralino3 neutralino3)
     1.23341435E-03   2   1000025   1000035   # BR(A0 -> neutralino3 neutralino4)
     5.12638226E-03   2   1000035   1000035   # BR(A0 -> neutralino4 neutralino4)
     1.61696492E-05   2        23        25   # BR(A0 -> Z h0)
     1.04465643E-38   2        25        25   # BR(A0 -> h0 h0)
DECAY        37     1.98871419E+01   # Gamma(Hp)
     5.17630159E-09   2       -11        12   # BR(Hp -> Electron nu_e)
     2.21303058E-04   2       -13        14   # BR(Hp -> Muon nu_mu)
     6.25969172E-02   2       -15        16   # BR(Hp -> Tau nu_tau)
     3.71320299E-07   2        -1         2   # BR(Hp -> Down up)
     6.20665690E-06   2        -3         2   # BR(Hp -> Strange up)
     4.06093410E-06   2        -5         2   # BR(Hp -> Bottom up)
     2.09716977E-08   2        -1         4   # BR(Hp -> Down charm)
     1.33894637E-04   2        -3         4   # BR(Hp -> Strange charm)
     5.68675389E-04   2        -5         4   # BR(Hp -> Bottom charm)
     4.04812891E-07   2        -1         6   # BR(Hp -> Down top)
     9.01730479E-06   2        -3         6   # BR(Hp -> Strange top)
     3.83265155E-01   2        -5         6   # BR(Hp -> Bottom top)
     1.34816262E-02   2   1000022   1000024   # BR(Hp -> neutralino1 chargino1)
     4.32867570E-02   2   1000022   1000037   # BR(Hp -> neutralino1 chargino2)
     1.79514834E-06   2   1000023   1000024   # BR(Hp -> neutralino2 chargino1)
     1.71778192E-01   2   1000023   1000037   # BR(Hp -> neutralino2 chargino2)
     1.59336131E-01   2   1000024   1000025   # BR(Hp -> chargino1 neutralino3)
     3.49619641E-03   2   1000025   1000037   # BR(Hp -> neutralino3 chargino2)
     1.61216075E-01   2   1000024   1000035   # BR(Hp -> chargino1 neutralino4)
     5.80403533E-04   2   1000035   1000037   # BR(Hp -> neutralino4 chargino2)
     1.67915474E-05   2        24        25   # BR(Hp -> W h0)
     1.57075444E-10   2        24        35   # BR(Hp -> W HH)
     1.34113784E-10   2        24        36   # BR(Hp -> W A0)
DECAY         6     2.43000000E+00   # top
#    BR                NDA      ID1      ID2
     1.00000000E+00    2           5        24   # BR(t -> b W)
Block HiggsBoundsInputHiggsCouplingsFermions
# ScalarNormEffCoupSq PseudoSNormEffCoupSq NP IP1 IP2 IP2
    9.48010246E-01    0.00000000E+00        3  25   5   5  # h0-b-b eff. coupling^2, normalised to SM
    4.24516084E+02    0.00000000E+00        3  35   5   5  # H0-b-b eff. coupling^2, normalised to SM
    0.00000000E+00    4.24464094E+02        3  36   5   5  # A0-b-b eff. coupling^2, normalised to SM
#
    1.00012248E+00    0.00000000E+00        3  25   6   6  # h0-t-t eff. coupling^2, normalised to SM
    2.23342860E-03    0.00000000E+00        3  35   6   6  # H0-t-t eff. coupling^2, normalised to SM
    0.00000000E+00    2.35591188E-03        3  36   6   6  # A0-t-t eff. coupling^2, normalised to SM
#
    9.48010246E-01    0.00000000E+00        3  25  15  15  # h0-tau-tau eff. coupling^2, normalised to SM
    4.24516084E+02    0.00000000E+00        3  35  15  15  # H0-tau-tau eff. coupling^2, normalised to SM
    0.00000000E+00    4.24464094E+02        3  36  15  15  # A0-tau-tau eff. coupling^2, normalised to SM
#
Block HiggsBoundsInputHiggsCouplingsBosons
    9.99998365E-01        3  25  24  24  # h0-W-W eff. coupling^2, normalised to SM
    1.63464607E-06        3  35  24  24  # H0-W-W eff. coupling^2, normalised to SM
    0.00000000E+00        3  36  24  24  # A0-W-W eff. coupling^2, normalised to SM
#
    9.99998365E-01        3  25  23  23  # h0-Z-Z eff. coupling^2, normalised to SM
    1.63464607E-06        3  35  23  23  # H0-Z-Z eff. coupling^2, normalised to SM
    0.00000000E+00        3  36  23  23  # A0-Z-Z eff. coupling^2, normalised to SM
#
    1.26311195E+00        3  25  21  21  # h0-g-g eff. coupling^2, normalised to SM
    3.15735310E-03        3  35  21  21  # H0-g-g eff. coupling^2, normalised to SM
    1.05014294E-01        3  36  21  21  # A0-g-g eff. coupling^2, normalised to SM
#
    0.00000000E+00        3  25  25  23  # h0-h0-Z eff. coupling^2, normalised to SM
    0.00000000E+00        3  35  25  23  # H0-h0-Z eff. coupling^2, normalised to SM
    1.63464607E-06        3  36  25  23  # A0-h0-Z eff. coupling^2, normalised to SM
    0.00000000E+00        3  35  35  23  # H0-H0-Z eff. coupling^2, normalised to SM
    9.99998365E-01        3  36  35  23  # A0-H0-Z eff. coupling^2, normalised to SM
    0.00000000E+00        3  36  36  23  # A0-A0-Z eff. coupling^2, normalised to SM
#
    0.00000000E+00        4  25  21  21  23  # h0-g-g-Z eff. coupling^2, normalised to SM
    0.00000000E+00        4  35  21  21  23  # H0-g-g-Z eff. coupling^2, normalised to SM
    0.00000000E+00        4  36  21  21  23  # A0-g-g-Z eff. coupling^2, normalised to SM
Block SPhenoLowEnergy  # low energy observables
    1    3.48388137E-04   # BR(b -> s gamma)
    2    1.58726581E-06   # BR(b -> s mu+ mu-)
    3    3.52424292E-05   # BR(b -> s nu nu)
    4    2.33800980E-15   # BR(Bd -> e+ e-)
    5    9.98771776E-11   # BR(Bd -> mu+ mu-)
    6    2.09114302E-08   # BR(Bd -> tau+ tau-)
    7    7.88888018E-14   # BR(Bs -> e+ e-)
    8    3.37012883E-09   # BR(Bs -> mu+ mu-)
    9    7.14936756E-07   # BR(Bs -> tau+ tau-)
   10    9.52448896E-05   # BR(B_u -> tau nu)
   11    9.83843246E-01   # BR(B_u -> tau nu)/BR(B_u -> tau nu)_SM
   12    5.42198129E-01   # |Delta(M_Bd)| [ps^-1] 
   13    1.93655531E+01   # |Delta(M_Bs)| [ps^-1] 
   14    0.00000000E+00   # neutron EDM according to the chiral quark model
   15    0.00000000E+00   # neutron EDM according to the relativistic quark-parton model
   16    2.15836503E-03   # epsilon_K
   17    2.28167045E-15   # Delta(M_K)
   18    2.47928208E-11   # BR(K^0 -> pi^0 nu nu)
   19    8.28875539E-11   # BR(K^+ -> pi^+ nu nu)
   20    1.14675989E-16   # Delta(g-2)_electron/2
   21    4.90276828E-12   # Delta(g-2)_muon/2
   22    1.38768456E-09   # Delta(g-2)_tau/2
   23    0.00000000E+00   # electric dipole moment of the electron
   24    0.00000000E+00   # electric dipole moment of the muon
   25    0.00000000E+00   # electric dipole moment of the tau
   26    0.00000000E+00   # Br(mu -> e gamma)
   27    0.00000000E+00   # Br(tau -> e gamma)
   28    0.00000000E+00   # Br(tau -> mu gamma)
   29    0.00000000E+00   # Br(mu -> 3 e)
   30    0.00000000E+00   # Br(tau -> 3 e)
   31    0.00000000E+00   # Br(tau -> 3 mu)
   39    5.48281260E-05   # Delta(rho_parameter)
   40    0.00000000E+00   # BR(Z -> e mu)
   41    0.00000000E+00   # BR(Z -> e tau)
   42    0.00000000E+00   # BR(Z -> mu tau)
Block FWCOEF Q=  1.60000000E+02  # Wilson coefficients at scale Q
#    id        order  M        value         comment
     0305 4422   00   0    -1.88819110E-01   # C7
     0305 4422   00   2    -2.17925087E-01   # C7
     0305 4322   00   2    -4.87471552E-04   # C7'
     0305 6421   00   0    -9.52278348E-02   # C8
     0305 6421   00   2    -1.25723280E-01   # C8
     0305 6321   00   2    -5.59326666E-04   # C8'
 03051111 4133   00   0     1.61337529E+00   # C9 e+e-
 03051111 4133   00   2     1.61368439E+00   # C9 e+e-
 03051111 4233   00   2     5.17109177E-05   # C9' e+e-
 03051111 4137   00   0    -4.43606739E+00   # C10 e+e-
 03051111 4137   00   2    -4.43340842E+00   # C10 e+e-
 03051111 4237   00   2    -3.89749008E-04   # C10' e+e-
 03051313 4133   00   0     1.61337529E+00   # C9 mu+mu-
 03051313 4133   00   2     1.61368435E+00   # C9 mu+mu-
 03051313 4233   00   2     5.17104962E-05   # C9' mu+mu-
 03051313 4137   00   0    -4.43606739E+00   # C10 mu+mu-
 03051313 4137   00   2    -4.43340847E+00   # C10 mu+mu-
 03051313 4237   00   2    -3.89748615E-04   # C10' mu+mu-
 03051212 4137   00   0     1.50535012E+00   # C11 nu_1 nu_1
 03051212 4137   00   2     1.50477476E+00   # C11 nu_1 nu_1
 03051212 4237   00   2     8.45307616E-05   # C11' nu_1 nu_1
 03051414 4137   00   0     1.50535012E+00   # C11 nu_2 nu_2
 03051414 4137   00   2     1.50477476E+00   # C11 nu_2 nu_2
 03051414 4237   00   2     8.45308515E-05   # C11' nu_2 nu_2
 03051616 4137   00   0     1.50535012E+00   # C11 nu_3 nu_3
 03051616 4137   00   2     1.50477476E+00   # C11 nu_3 nu_3
 03051616 4237   00   2     8.45561802E-05   # C11' nu_3 nu_3
Block IMFWCOEF Q=  1.60000000E+02  # Im(Wilson coefficients) at scale Q
#    id        order  M        value         comment
     0305 4422   00   0     3.85810135E-07   # C7
     0305 4422   00   2     2.43320944E-06   # C7
     0305 4322   00   2    -6.41920742E-07   # C7'
     0305 6421   00   0     3.30471896E-07   # C8
     0305 6421   00   2     2.10438349E-06   # C8
     0305 6321   00   2    -2.19638438E-07   # C8'
 03051111 4133   00   2     4.50193746E-07   # C9 e+e-
 03051111 4233   00   2     1.62558953E-06   # C9' e+e-
 03051111 4137   00   2     1.75071135E-06   # C10 e+e-
 03051111 4237   00   2    -1.22611018E-05   # C10' e+e-
 03051313 4133   00   2     4.50192998E-07   # C9 mu+mu-
 03051313 4233   00   2     1.62558940E-06   # C9' mu+mu-
 03051313 4137   00   2     1.75071215E-06   # C10 mu+mu-
 03051313 4237   00   2    -1.22611022E-05   # C10' mu+mu-
 03051212 4137   00   2    -3.55743237E-07   # C11 nu_1 nu_1
 03051212 4237   00   2     2.65925856E-06   # C11' nu_1 nu_1
 03051414 4137   00   2    -3.55743196E-07   # C11 nu_2 nu_2
 03051414 4237   00   2     2.65925856E-06   # C11' nu_2 nu_2
 03051616 4137   00   2    -3.55731742E-07   # C11 nu_3 nu_3
 03051616 4237   00   2     2.65925855E-06   # C11' nu_3 nu_3
