# SUSY Les Houches Accord 2 - MSSM spectrum + Decays
# SPheno v4.0.5be
# W. Porod, Comput. Phys. Commun. 153 (2003) 275-315, hep-ph/0301101;
# W. Porod, F.~Staub, Comput. Phys. Commun. 183 (2012) 2458
#                     arXiv:1104.1573 [hep-ph] 
# in case of problems send email to porod@physik.uni-wuerzburg.de
# Created: 07.09.2021,  22:38
Block SPINFO         # Program information
     1   SPheno      # spectrum calculator
     2   v4.0.5be    # version number
#
Block SPhenoINFO     # SPheno specific information
    1      2         # using 2-loop RGEs
    2      2         # using pole masses for boundary conditions at mZ
Block MODSEL  # Model selection
    1    0    # general MSSM
Block MINPAR  # Input parameters
    3    7.81480509E+00  # tanb at m_Z    
    4   -1.00000000E+00  # Sign(mu)
Block EXTPAR  # non-universal input parameters
    0    3.92492265E+03  # scale for input parameters
    1    2.06117098E+02  # M_1
    2   -1.92354993E+03  # M_2
    3    4.67643566E+03  # M_3
   11    5.43466249E+03  # A_t
   12   -1.44317308E+02  # A_b
   13    1.55925690E+03  # A_tau
   23   -2.31207632E+02  # mu
   25    7.41342775E+00  # tan(beta)
   26    4.84127522E+03  # m_A, pole mass
   31    1.00000000E+04  # M_L11
   32    1.00000000E+04  # M_L22
   33    1.00000000E+04  # M_L33
   34    1.00000000E+04  # M_E11
   35    1.00000000E+04  # M_E22
   36    1.00000000E+04  # M_E33
   41    1.00000000E+04  # M_Q11
   42    1.00000000E+04  # M_Q22
   43    3.20339196E+03  # M_Q33
   44    1.00000000E+04  # M_U11
   45    1.00000000E+04  # M_U22
   46    4.59946964E+03  # M_U33
   47    1.00000000E+04  # M_D11
   48    1.00000000E+04  # M_D22
   49    4.08886465E+03  # M_D33
Block SMINPUTS  # SM parameters
         1     1.27908970E+02  # alpha_em^-1(MZ)^MSbar
         2     1.16637870E-05  # G_mu [GeV^-2]
         3     1.18400000E-01  # alpha_s(MZ)^MSbar
         4     9.11876000E+01  # m_Z(pole)
         5     4.18000000E+00  # m_b(m_b), MSbar
         6     1.73200000E+02  # m_t(pole)
         7     1.77700000E+00  # m_tau(pole)
         8     0.00000000E+00  # m_nu_3
        11     5.10998930E-04  # m_e(pole)
        12     0.00000000E+00  # m_nu_1
        13     1.05658372E-01  # m_muon(pole)
        14     0.00000000E+00  # m_nu_2
        21     5.00000000E-03  # m_d(2 GeV), MSbar
        22     2.50000000E-03  # m_u(2 GeV), MSbar
        23     9.50000000E-02  # m_s(2 GeV), MSbar
        24     1.27000000E+00  # m_c(m_c), MSbar
Block gauge Q=  3.92492265E+03  # (SUSY scale)
   1    3.55362975E-01  # g'(Q)^DRbar
   2    6.65198874E-01  # g(Q)^DRbar
   3    1.21977796E+00  # g3(Q)^DRbar
Block Yu Q=  3.92492265E+03  # (SUSY scale)
  1  1     8.46030683E-06   # Y_u(Q)^DRbar
  2  2     4.29783587E-03   # Y_c(Q)^DRbar
  3  3     1.02207302E+00   # Y_t(Q)^DRbar
Block Yd Q=  3.92492265E+03  # (SUSY scale)
  1  1     1.26033333E-04   # Y_d(Q)^DRbar
  2  2     2.39463332E-03   # Y_s(Q)^DRbar
  3  3     1.24985573E-01   # Y_b(Q)^DRbar
Block Ye Q=  3.92492265E+03  # (SUSY scale)
  1  1     2.19937382E-05   # Y_e(Q)^DRbar
  2  2     4.54760751E-03   # Y_mu(Q)^DRbar
  3  3     7.64832771E-02   # Y_tau(Q)^DRbar
Block Au Q=  3.92492265E+03  # (SUSY scale)
  1  1     0.00000000E+00   # A_u(Q)^DRbar
  2  2     0.00000000E+00   # A_c(Q)^DRbar
  3  3     5.43466248E+03   # A_t(Q)^DRbar
Block Ad Q=  3.92492265E+03  # (SUSY scale)
  1  1     0.00000000E+00   # A_d(Q)^DRbar
  2  2     0.00000000E+00   # A_s(Q)^DRbar
  3  3    -1.44317307E+02   # A_b(Q)^DRbar
Block Ae Q=  3.92492265E+03  # (SUSY scale)
  1  1     0.00000000E+00   # A_e(Q)^DRbar
  2  2     0.00000000E+00   # A_mu(Q)^DRbar
  3  3     1.55925690E+03   # A_tau(Q)^DRbar
Block MSOFT Q=  3.92492265E+03  # soft SUSY breaking masses at Q
   1    2.06117098E+02  # M_1
   2   -1.92354993E+03  # M_2
   3    4.67643566E+03  # M_3
  21    2.28868859E+07  # M^2_(H,d)
  22    6.18873808E+05  # M^2_(H,u)
  31    1.00000000E+04  # M_(L,11)
  32    1.00000000E+04  # M_(L,22)
  33    1.00000000E+04  # M_(L,33)
  34    1.00000000E+04  # M_(E,11)
  35    1.00000000E+04  # M_(E,22)
  36    1.00000000E+04  # M_(E,33)
  41    1.00000000E+04  # M_(Q,11)
  42    1.00000000E+04  # M_(Q,22)
  43    3.20339196E+03  # M_(Q,33)
  44    1.00000000E+04  # M_(U,11)
  45    1.00000000E+04  # M_(U,22)
  46    4.59946964E+03  # M_(U,33)
  47    1.00000000E+04  # M_(D,11)
  48    1.00000000E+04  # M_(D,22)
  49    4.08886465E+03  # M_(D,33)
Block MASS  # Mass spectrum
#   PDG code      mass          particle
         6     1.73200000E+02  # m_t(pole)
        23     9.11876000E+01  # m_Z(pole)
        24     8.04299946E+01  # W+
        15     1.77700000E+00  # m_tau(pole)
        25     1.24645168E+02  # h0
        35     4.84099225E+03  # H0
        36     4.84127522E+03  # A0
        37     4.84179428E+03  # H+
   1000001     1.00952329E+04  # ~d_L
   2000001     1.00720983E+04  # ~d_R
   1000002     1.00948789E+04  # ~u_L
   2000002     1.00750766E+04  # ~u_R
   1000003     1.00952333E+04  # ~s_L
   2000003     1.00720985E+04  # ~s_R
   1000004     1.00948794E+04  # ~c_L
   2000004     1.00750772E+04  # ~c_R
   1000005     3.33588367E+03  # ~b_1
   2000005     4.23564213E+03  # ~b_2
   1000006     3.32988531E+03  # ~t_1
   2000006     4.62629082E+03  # ~t_2
   1000011     1.00200401E+04  # ~e_L-
   2000011     1.00090180E+04  # ~e_R-
   1000012     1.00192882E+04  # ~nu_eL
   1000013     1.00200406E+04  # ~mu_L-
   2000013     1.00090189E+04  # ~mu_R-
   1000014     1.00192886E+04  # ~nu_muL
   1000015     1.00092827E+04  # ~tau_1-
   2000015     1.00201873E+04  # ~tau_2-
   1000016     1.00194278E+04  # ~nu_tauL
   1000021     5.13817036E+03  # ~g
   1000022     1.96368594E+02  # ~chi_10
   1000023     2.45798934E+02  # ~chi_20
   1000025     2.60843927E+02  # ~chi_30
   1000035     2.03718698E+03  # ~chi_40
   1000024     2.44327038E+02  # ~chi_1+
   1000037     2.03715551E+03  # ~chi_2+
# Higgs mixing
Block alpha # Effective Higgs mixing angle
          -1.27394815E-01   # alpha
Block Hmix Q=  3.92492265E+03  # Higgs mixing parameters
   1   -2.31207632E+02  # mu
   2    7.41342775E+00  # tan[beta](Q)
   3    2.42967386E+02  # v(Q)
   4    2.34379458E+07  # m^2_A(Q)
Block stopmix # stop mixing matrix
   1  1    -9.97379882E-01   # Re[R_st(1,1)]
   1  2     7.23420409E-02   # Re[R_st(1,2)]
   2  1    -7.23420409E-02   # Re[R_st(2,1)]
   2  2    -9.97379882E-01   # Re[R_st(2,2)]
Block sbotmix # sbottom mixing matrix
   1  1    -9.99999906E-01   # Re[R_sb(1,1)]
   1  2     4.33039891E-04   # Re[R_sb(1,2)]
   2  1    -4.33039891E-04   # Re[R_sb(2,1)]
   2  2    -9.99999906E-01   # Re[R_sb(2,2)]
Block staumix # stau mixing matrix
   1  1    -2.65797731E-02   # Re[R_sta(1,1)]
   1  2     9.99646695E-01   # Re[R_sta(1,2)]
   2  1    -9.99646695E-01   # Re[R_sta(2,1)]
   2  2    -2.65797731E-02   # Re[R_sta(2,2)]
Block Nmix # neutralino mixing matrix
   1  1     8.78647447E-01   # Re[N(1,1)]
   1  2     8.46627699E-03   # Re[N(1,2)]
   1  3    -3.82537737E-01   # Re[N(1,3)]
   1  4    -2.85607890E-01   # Re[N(1,4)]
   2  1     7.70775133E-02   # Re[N(2,1)]
   2  2     3.55885087E-02   # Re[N(2,2)]
   2  3     7.04154167E-01   # Re[N(2,3)]
   2  4    -7.04953490E-01   # Re[N(2,4)]
   3  1     4.71208055E-01   # Re[N(3,1)]
   3  2    -1.98462912E-02   # Re[N(3,2)]
   3  3     5.98107512E-01   # Re[N(3,3)]
   3  4     6.47947912E-01   # Re[N(3,4)]
   4  1     8.30934076E-04   # Re[N(4,1)]
   4  2    -9.99133577E-01   # Re[N(4,2)]
   4  3     9.95953958E-03   # Re[N(4,3)]
   4  4    -4.04006459E-02   # Re[N(4,4)]
Block Umix # chargino mixing matrix
   1  1    -1.40790655E-02   # Re[U(1,1)]
   1  2    -9.99900885E-01   # Re[U(1,2)]
   2  1    -9.99900885E-01   # Re[U(2,1)]
   2  2     1.40790655E-02   # Re[U(2,2)]
Block Vmix # chargino mixing matrix
   1  1     5.71492704E-02   # Re[V(1,1)]
   1  2     9.98365645E-01   # Re[V(1,2)]
   2  1     9.98365645E-01   # Re[V(2,1)]
   2  2    -5.71492704E-02   # Re[V(2,2)]
DECAY        23     2.49520000E+00   # Z
DECAY        24     2.08500000E+00   # W
DECAY   2000011     5.02462500E+01   # ~e^-_R
#    BR                NDA      ID1      ID2
     7.72124297E-01    2     1000022        11   # BR(~e^-_R -> chi^0_1 e^-)
     5.93914297E-03    2     1000023        11   # BR(~e^-_R -> chi^0_2 e^-)
     2.21935923E-01    2     1000025        11   # BR(~e^-_R -> chi^0_3 e^-)
DECAY   1000011     1.34184676E+02   # ~e^-_L
#    BR                NDA      ID1      ID2
     7.49952155E-02    2     1000022        11   # BR(~e^-_L -> chi^0_1 e^-)
     1.93451637E-03    2     1000023        11   # BR(~e^-_L -> chi^0_2 e^-)
     1.76489100E-02    2     1000025        11   # BR(~e^-_L -> chi^0_3 e^-)
     3.01275723E-01    2     1000035        11   # BR(~e^-_L -> chi^0_4 e^-)
     1.30145981E-04    2    -1000024        12   # BR(~e^-_L -> chi^-_1 nu_e)
     6.04015489E-01    2    -1000037        12   # BR(~e^-_L -> chi^-_2 nu_e)
#    BR                NDA      ID1      ID2       ID3
DECAY   2000013     5.02544804E+01   # ~mu^-_R
#    BR                NDA      ID1      ID2
     7.72009897E-01    2     1000022        13   # BR(~mu^-_R -> chi^0_1 mu^-)
     5.97875052E-03    2     1000023        13   # BR(~mu^-_R -> chi^0_2 mu^-)
     2.21928866E-01    2     1000025        13   # BR(~mu^-_R -> chi^0_3 mu^-)
DECAY   1000013     1.34188801E+02   # ~mu^-_L
#    BR                NDA      ID1      ID2
     7.49974054E-02    2     1000022        13   # BR(~mu^-_L -> chi^0_1 mu^-)
     1.94967147E-03    2     1000023        13   # BR(~mu^-_L -> chi^0_2 mu^-)
     1.76593439E-02    2     1000025        13   # BR(~mu^-_L -> chi^0_3 mu^-)
     3.01266481E-01    2     1000035        13   # BR(~mu^-_L -> chi^0_4 mu^-)
     1.30141986E-04    2    -1000024        14   # BR(~mu^-_L -> chi^-_1 nu_mu)
     6.03996956E-01    2    -1000037        14   # BR(~mu^-_L -> chi^-_2 nu_mu)
#    BR                NDA      ID1      ID2       ID3
DECAY   1000015     5.26337352E+01   # ~tau^-_1
#    BR                NDA      ID1      ID2
     7.41244997E-01    2     1000022        15   # BR(~tau^-_1 -> chi^0_1 tau^-)
     1.66008780E-02    2     1000023        15   # BR(~tau^-_1 -> chi^0_2 tau^-)
     2.18488726E-01    2     1000025        15   # BR(~tau^-_1 -> chi^0_3 tau^-)
     4.78412308E-04    2     1000035        15   # BR(~tau^-_1 -> chi^0_4 tau^-)
     2.22287393E-02    2    -1000024        16   # BR(~tau^-_1 -> chi^-_1 nu_tau)
     9.58247443E-04    2    -1000037        16   # BR(~tau^-_1 -> chi^-_2 nu_tau)
DECAY   2000015     1.35292278E+02   # ~tau^-_2
#    BR                NDA      ID1      ID2
     7.52965564E-02    2     1000022        15   # BR(~tau^-_2 -> chi^0_1 tau^-)
     6.19856291E-03    2     1000023        15   # BR(~tau^-_2 -> chi^0_2 tau^-)
     2.10868708E-02    2     1000025        15   # BR(~tau^-_2 -> chi^0_3 tau^-)
     2.98629760E-01    2     1000035        15   # BR(~tau^-_2 -> chi^0_4 tau^-)
     5.98709191E-01    2    -1000037        16   # BR(~tau^-_2 -> chi^-_2 nu_tau)
#    BR                NDA      ID1      ID2       ID3
DECAY   1000012     1.34187941E+02   # ~nu_e
#    BR                NDA      ID1      ID2
     6.97676330E-02    2     1000022        12   # BR(~nu_e -> chi^0_1 nu_e)
     2.42057405E-02    2     1000025        12   # BR(~nu_e -> chi^0_3 nu_e)
     3.01777714E-01    2     1000035        12   # BR(~nu_e -> chi^0_4 nu_e)
     2.14418075E-03    2     1000024        11   # BR(~nu_e -> chi^+_1 e^-)
     6.02094483E-01    2     1000037        11   # BR(~nu_e -> chi^+_2 e^-)
#    BR                NDA      ID1      ID2       ID3
DECAY   1000014     1.34192064E+02   # ~nu_mu
#    BR                NDA      ID1      ID2
     6.97654920E-02    2     1000022        14   # BR(~nu_mu -> chi^0_1 nu_mu)
     2.42049977E-02    2     1000025        14   # BR(~nu_mu -> chi^0_3 nu_mu)
     3.01768455E-01    2     1000035        14   # BR(~nu_mu -> chi^0_4 nu_mu)
     2.17479030E-03    2     1000024        13   # BR(~nu_mu -> chi^+_1 mu^-)
     6.02076016E-01    2     1000037        13   # BR(~nu_mu -> chi^+_2 mu^-)
#    BR                NDA      ID1      ID2       ID3
DECAY   1000016     1.35354722E+02   # ~nu_tau
#    BR                NDA      ID1      ID2
     6.91671893E-02    2     1000022        16   # BR(~nu_tau -> chi^0_1 nu_tau)
     2.39974182E-02    2     1000025        16   # BR(~nu_tau -> chi^0_3 nu_tau)
     2.99181226E-01    2     1000035        16   # BR(~nu_tau -> chi^0_4 nu_tau)
     1.07282548E-02    2     1000024        15   # BR(~nu_tau -> chi^+_1 tau^-)
     5.96915751E-01    2     1000037        15   # BR(~nu_tau -> chi^+_2 tau^-)
#    BR                NDA      ID1      ID2       ID3
DECAY   2000001     4.40688986E+02   # ~d_R
#    BR                NDA      ID1      ID2
     9.84348482E-03    2     1000022         1   # BR(~d_R -> chi^0_1 d)
     2.82938992E-03    2     1000025         1   # BR(~d_R -> chi^0_3 d)
     9.87251390E-01    2     1000021         1   # BR(~d_R -> ~g d)
DECAY   1000001     5.61557734E+02   # ~d_L
#    BR                NDA      ID1      ID2
     1.73183255E-03    2     1000022         1   # BR(~d_L -> chi^0_1 d)
     8.50691980E-04    2     1000025         1   # BR(~d_L -> chi^0_3 d)
     7.27092713E-02    2     1000035         1   # BR(~d_L -> chi^0_4 d)
     1.45599237E-01    2    -1000037         2   # BR(~d_L -> chi^-_2 u)
     7.79039855E-01    2     1000021         1   # BR(~d_L -> ~g d)
DECAY   2000003     4.40691296E+02   # ~s_R
#    BR                NDA      ID1      ID2
     9.84381373E-03    2     1000022         3   # BR(~s_R -> chi^0_1 s)
     2.83030392E-03    2     1000025         3   # BR(~s_R -> chi^0_3 s)
     9.87246263E-01    2     1000021         3   # BR(~s_R -> ~g s)
DECAY   1000003     5.61562632E+02   # ~s_L
#    BR                NDA      ID1      ID2
     1.73211660E-03    2     1000022         3   # BR(~s_L -> chi^0_1 s)
     8.51415169E-04    2     1000025         3   # BR(~s_L -> chi^0_3 s)
     7.27086405E-02    2     1000035         3   # BR(~s_L -> chi^0_4 s)
     1.45597994E-01    2    -1000037         4   # BR(~s_L -> chi^-_2 c)
     7.79033132E-01    2     1000021         3   # BR(~s_L -> ~g s)
DECAY   1000005     8.69355416E+01   # ~b_1
#    BR                NDA      ID1      ID2
     5.41431880E-03    2     1000022         5   # BR(~b_1 -> chi^0_1 b)
     5.92879622E-03    2     1000023         5   # BR(~b_1 -> chi^0_2 b)
     6.00266746E-03    2     1000025         5   # BR(~b_1 -> chi^0_3 b)
     6.63134873E-02    2     1000035         5   # BR(~b_1 -> chi^0_4 b)
     7.82017157E-01    2    -1000024         6   # BR(~b_1 -> chi^-_1 t)
     1.34323574E-01    2    -1000037         6   # BR(~b_1 -> chi^-_2 t)
DECAY   2000005     4.96479139E+00   # ~b_2
#    BR                NDA      ID1      ID2
     4.04636452E-01    2     1000022         5   # BR(~b_2 -> chi^0_1 b)
     1.33388277E-01    2     1000023         5   # BR(~b_2 -> chi^0_2 b)
     1.99198935E-01    2     1000025         5   # BR(~b_2 -> chi^0_3 b)
     2.62429816E-01    2    -1000024         6   # BR(~b_2 -> chi^-_1 t)
     1.06956466E-04    2     1000006       -24   # BR(~b_2 -> ~t_1 W^-)
     1.23832130E-04    2     1000005        25   # BR(~b_2 -> ~b_1 h^0)
DECAY   2000002     4.57859807E+02   # ~u_R
#    BR                NDA      ID1      ID2
     3.79085430E-02    2     1000022         2   # BR(~u_R -> chi^0_1 u)
     2.91592324E-04    2     1000023         2   # BR(~u_R -> chi^0_2 u)
     1.08963444E-02    2     1000025         2   # BR(~u_R -> chi^0_3 u)
     9.50903489E-01    2     1000021         2   # BR(~u_R -> ~g u)
DECAY   1000002     5.61539502E+02   # ~u_L
#    BR                NDA      ID1      ID2
     2.15077671E-03    2     1000022         2   # BR(~u_L -> chi^0_1 u)
     1.92198017E-04    2     1000023         2   # BR(~u_L -> chi^0_2 u)
     3.24312600E-04    2     1000025         2   # BR(~u_L -> chi^0_3 u)
     7.26655907E-02    2     1000035         2   # BR(~u_L -> chi^0_4 u)
     5.16263176E-04    2     1000024         1   # BR(~u_L -> chi^+_1 d)
     1.45151235E-01    2     1000037         1   # BR(~u_L -> chi^+_2 d)
     7.78999624E-01    2     1000021         2   # BR(~u_L -> ~g u)
DECAY   2000004     4.57867234E+02   # ~c_R
#    BR                NDA      ID1      ID2
     3.79085862E-02    2     1000022         4   # BR(~c_R -> chi^0_1 c)
     2.95600794E-04    2     1000023         4   # BR(~c_R -> chi^0_2 c)
     1.08995609E-02    2     1000025         4   # BR(~c_R -> chi^0_3 c)
     9.50888134E-01    2     1000021         4   # BR(~c_R -> ~g c)
DECAY   1000004     5.61544379E+02   # ~c_L
#    BR                NDA      ID1      ID2
     2.15129689E-03    2     1000022         4   # BR(~c_L -> chi^0_1 c)
     1.95475763E-04    2     1000023         4   # BR(~c_L -> chi^0_2 c)
     3.27079134E-04    2     1000025         4   # BR(~c_L -> chi^0_3 c)
     7.26649675E-02    2     1000035         4   # BR(~c_L -> chi^0_4 c)
     5.18300975E-04    2     1000024         3   # BR(~c_L -> chi^+_1 s)
     1.45149983E-01    2     1000037         3   # BR(~c_L -> chi^+_2 s)
     7.78992897E-01    2     1000021         4   # BR(~c_L -> ~g c)
DECAY   1000006     8.74730091E+01   # ~t_1
#    BR                NDA      ID1      ID2
     6.19685800E-02    2     1000022         6   # BR(~t_1 -> chi^0_1 t)
     3.87580500E-01    2     1000023         6   # BR(~t_1 -> chi^0_2 t)
     3.36282802E-01    2     1000025         6   # BR(~t_1 -> chi^0_3 t)
     6.27574685E-02    2     1000035         6   # BR(~t_1 -> chi^0_4 t)
     2.09892446E-02    2     1000024         5   # BR(~t_1 -> chi^+_1 b)
     1.28440925E-01    2     1000037         5   # BR(~t_1 -> chi^+_2 b)
#    BR                NDA      ID1      ID2       ID3
     1.98042121E-03    3     1000022        24         5   # BR(~t_1 -> chi^0_1 W^+ b)
DECAY   2000006     2.89613334E+02   # ~t_2
#    BR                NDA      ID1      ID2
     5.68395960E-02    2     1000022         6   # BR(~t_2 -> chi^0_1 t)
     1.63741563E-01    2     1000023         6   # BR(~t_2 -> chi^0_2 t)
     1.42259037E-01    2     1000025         6   # BR(~t_2 -> chi^0_3 t)
     1.16004688E-03    2     1000035         6   # BR(~t_2 -> chi^0_4 t)
     3.25586926E-01    2     1000024         5   # BR(~t_2 -> chi^+_1 b)
     2.33342768E-03    2     1000037         5   # BR(~t_2 -> chi^+_2 b)
     1.33876490E-01    2     1000005        24   # BR(~t_2 -> ~b_1 W^+)
     6.72576392E-02    2     1000006        23   # BR(~t_2 -> ~t_1 Z)
     1.06945273E-01    2     1000006        25   # BR(~t_2 -> ~t_1 h^0)
DECAY   1000024     8.03278662E-05   # chi^+_1
#    BR                NDA      ID1      ID2       ID3
     3.33909935E-01    3     1000022        -1         2   # BR(chi^+_1 -> chi^0_1 d_bar u)
     3.32918970E-01    3     1000022        -3         4   # BR(chi^+_1 -> chi^0_1 s_bar c)
     1.11302912E-01    3     1000022       -11        12   # BR(chi^+_1 -> chi^0_1 e^+ nu_e)
     1.11302288E-01    3     1000022       -13        14   # BR(chi^+_1 -> chi^0_1 mu^+ nu_mu)
     1.10565895E-01    3     1000022       -15        16   # BR(chi^+_1 -> chi^0_1 tau^+ nu_tau)
DECAY   1000037     1.96154144E+01   # chi^+_2
#    BR                NDA      ID1      ID2
     4.56580666E-02    2     1000022        24   # BR(chi^+_2 -> chi^0_1 W^+)
     2.43189334E-01    2     1000023        24   # BR(chi^+_2 -> chi^0_2 W^+)
     1.96947138E-01    2     1000025        24   # BR(chi^+_2 -> chi^0_3 W^+)
     2.42251228E-01    2     1000024        23   # BR(chi^+_2 -> chi^+_1 Z)
     2.39334595E-01    2     1000024        25   # BR(chi^+_2 -> chi^+_1 h^0)
#    BR                NDA      ID1      ID2       ID3
     1.41078708E-02    3     1000024         6        -6   # BR(chi^+_2 -> chi^+_1 t t_bar)
     1.86736557E-03    3     1000022        -5         6   # BR(chi^+_2 -> chi^0_1 b_bar t)
     8.56811463E-03    3     1000023        -5         6   # BR(chi^+_2 -> chi^0_2 b_bar t)
     8.07276121E-03    3     1000025        -5         6   # BR(chi^+_2 -> chi^0_3 b_bar t)
DECAY   1000022     0.00000000E+00   # chi^0_1
DECAY   1000023     2.26891261E-04   # chi^0_2
#    BR                NDA      ID1      ID2
     1.13717732E-02    2     1000022        22   # BR(chi^0_2 -> chi^0_1 photon)
#    BR                NDA      ID1      ID2       ID3
     1.18695993E-01    3     1000022         2        -2   # BR(chi^0_2 -> chi^0_1 u u_bar)
     1.17784138E-01    3     1000022         4        -4   # BR(chi^0_2 -> chi^0_1 c c_bar)
     1.52191174E-01    3     1000022         1        -1   # BR(chi^0_2 -> chi^0_1 d d_bar)
     1.52185594E-01    3     1000022         3        -3   # BR(chi^0_2 -> chi^0_1 s s_bar)
     1.41781154E-01    3     1000022         5        -5   # BR(chi^0_2 -> chi^0_1 b b_bar)
     3.43443478E-02    3     1000022        11       -11   # BR(chi^0_2 -> chi^0_1 e^- e^+)
     3.43423308E-02    3     1000022        13       -13   # BR(chi^0_2 -> chi^0_1 mu^- mu^+)
     3.37800436E-02    3     1000022        15       -15   # BR(chi^0_2 -> chi^0_1 tau^- tau^+)
     2.03523311E-01    3     1000022        12       -12   # BR(chi^0_2 -> chi^0_1 nu_e nu_bar_e)
DECAY   1000025     1.39504403E-05   # chi^0_3
#    BR                NDA      ID1      ID2
     7.97276350E-03    2     1000022        22   # BR(chi^0_3 -> chi^0_1 photon)
     2.77566427E-02    2     1000023        22   # BR(chi^0_3 -> chi^0_2 photon)
#    BR                NDA      ID1      ID2       ID3
     7.90678654E-02    3     1000022         2        -2   # BR(chi^0_3 -> chi^0_1 u u_bar)
     7.87539078E-02    3     1000022         4        -4   # BR(chi^0_3 -> chi^0_1 c c_bar)
     1.01349721E-01    3     1000022         1        -1   # BR(chi^0_3 -> chi^0_1 d d_bar)
     1.01347839E-01    3     1000022         3        -3   # BR(chi^0_3 -> chi^0_1 s s_bar)
     9.78124930E-02    3     1000022         5        -5   # BR(chi^0_3 -> chi^0_1 b b_bar)
     2.28471725E-02    3     1000022        11       -11   # BR(chi^0_3 -> chi^0_1 e^- e^+)
     2.28465091E-02    3     1000022        13       -13   # BR(chi^0_3 -> chi^0_1 mu^- mu^+)
     2.26607028E-02    3     1000022        15       -15   # BR(chi^0_3 -> chi^0_1 tau^- tau^+)
     1.35577337E-01    3     1000022        12       -12   # BR(chi^0_3 -> chi^0_1 nu_e nu_bar_e)
     1.65096749E-02    3     1000023         2        -2   # BR(chi^0_3 -> chi^0_2 u u_bar)
     1.50196468E-02    3     1000023         4        -4   # BR(chi^0_3 -> chi^0_2 c c_bar)
     2.11687475E-02    3     1000023         1        -1   # BR(chi^0_3 -> chi^0_2 d d_bar)
     2.11590184E-02    3     1000023         3        -3   # BR(chi^0_3 -> chi^0_2 s s_bar)
     8.10336525E-03    3     1000023         5        -5   # BR(chi^0_3 -> chi^0_2 b b_bar)
     4.77722493E-03    3     1000023        11       -11   # BR(chi^0_3 -> chi^0_2 e^- e^+)
     4.77376173E-03    3     1000023        13       -13   # BR(chi^0_3 -> chi^0_2 mu^- mu^+)
     3.89958272E-03    3     1000023        15       -15   # BR(chi^0_3 -> chi^0_2 tau^- tau^+)
     2.83086917E-02    3     1000023        12       -12   # BR(chi^0_3 -> chi^0_2 nu_e nu_bar_e)
     3.01865870E-02    3     1000024         1        -2   # BR(chi^0_3 -> chi^+_1 d u_bar)
     3.01865870E-02    3    -1000024        -1         2   # BR(chi^0_3 -> chi^-_1 d_bar u)
     2.93264169E-02    3     1000024         3        -4   # BR(chi^0_3 -> chi^+_1 s c_bar)
     2.93264169E-02    3    -1000024        -3         4   # BR(chi^0_3 -> chi^-_1 s_bar c)
     1.00622142E-02    3     1000024        11       -12   # BR(chi^0_3 -> chi^+_1 e^- nu_bar_e)
     1.00622142E-02    3    -1000024       -11        12   # BR(chi^0_3 -> chi^-_1 e^+ nu_e)
     1.00620276E-02    3     1000024        13       -14   # BR(chi^0_3 -> chi^+_1 mu^- nu_bar_mu)
     1.00620276E-02    3    -1000024       -13        14   # BR(chi^0_3 -> chi^-_1 mu^+ nu_mu)
     9.50642081E-03    3     1000024        15       -16   # BR(chi^0_3 -> chi^+_1 tau^- nu_bar_tau)
     9.50642081E-03    3    -1000024       -15        16   # BR(chi^0_3 -> chi^-_1 tau^+ nu_tau)
DECAY   1000035     2.03954894E+01   # chi^0_4
#    BR                NDA      ID1      ID2
     2.34017108E-01    2     1000024       -24   # BR(chi^0_4 -> chi^+_1 W^-)
     2.34017108E-01    2    -1000024        24   # BR(chi^0_4 -> chi^-_1 W^+)
     3.23429276E-02    2     1000022        23   # BR(chi^0_4 -> chi^0_1 Z)
     6.22865472E-02    2     1000023        23   # BR(chi^0_4 -> chi^0_2 Z)
     1.38797581E-01    2     1000025        23   # BR(chi^0_4 -> chi^0_3 Z)
     1.67253794E-02    2     1000022        25   # BR(chi^0_4 -> chi^0_1 h^0)
     1.68020561E-01    2     1000023        25   # BR(chi^0_4 -> chi^0_2 h^0)
     8.42389736E-02    2     1000025        25   # BR(chi^0_4 -> chi^0_3 h^0)
#    BR                NDA      ID1      ID2       ID3
     1.11647016E-03    3     1000022         6        -6   # BR(chi^0_4 -> chi^0_1 t t_bar)
     6.16421975E-03    3     1000023         6        -6   # BR(chi^0_4 -> chi^0_2 t t_bar)
     4.58901336E-03    3     1000025         6        -6   # BR(chi^0_4 -> chi^0_3 t t_bar)
     8.82361354E-03    3     1000024         5        -6   # BR(chi^0_4 -> chi^+_1 b t_bar)
     8.82361354E-03    3    -1000024        -5         6   # BR(chi^0_4 -> chi^-_1 b_bar t)
DECAY   1000021     1.23305901E+02   # ~g
#    BR                NDA      ID1      ID2
     2.10339795E-01    2     1000006        -6   # BR(~g -> ~t_1 t_bar)
     2.10339795E-01    2    -1000006         6   # BR(~g -> ~t^*_1 t)
     1.98537057E-02    2     2000006        -6   # BR(~g -> ~t_2 t_bar)
     1.98537057E-02    2    -2000006         6   # BR(~g -> ~t^*_2 t)
     2.06387267E-01    2     1000005        -5   # BR(~g -> ~b_1 b_bar)
     2.06387267E-01    2    -1000005         5   # BR(~g -> ~b^*_1 b)
     6.33287268E-02    2     2000005        -5   # BR(~g -> ~b_2 b_bar)
     6.33287268E-02    2    -2000005         5   # BR(~g -> ~b^*_2 b)
#    BR                NDA      ID1      ID2       ID3
DECAY        25     3.41225945E-03   # Gamma(h0)
     2.64150186E-03   2        22        22   # BR(h0 -> photon photon)
     1.65087247E-03   2        22        23   # BR(h0 -> photon Z)
     3.00755163E-02   2        23        23   # BR(h0 -> Z Z)
     2.50205219E-01   2       -24        24   # BR(h0 -> W W)
     8.18142299E-02   2        21        21   # BR(h0 -> gluon gluon)
     4.88424600E-09   2       -11        11   # BR(h0 -> Electron electron)
     2.17259814E-04   2       -13        13   # BR(h0 -> Muon muon)
     6.26434515E-02   2       -15        15   # BR(h0 -> Tau tau)
     1.39144502E-07   2        -2         2   # BR(h0 -> Up up)
     2.70056065E-02   2        -4         4   # BR(h0 -> Charm charm)
     5.65611961E-07   2        -1         1   # BR(h0 -> Down down)
     2.04568283E-04   2        -3         3   # BR(h0 -> Strange strange)
     5.43541065E-01   2        -5         5   # BR(h0 -> Bottom bottom)
DECAY        35     5.34921395E+01   # Gamma(HH)
     8.55317601E-08   2        22        22   # BR(HH -> photon photon)
     5.74491262E-08   2        22        23   # BR(HH -> photon Z)
     4.03458725E-06   2        23        23   # BR(HH -> Z Z)
     6.90119243E-07   2       -24        24   # BR(HH -> W W)
     5.69328873E-06   2        21        21   # BR(HH -> gluon gluon)
     7.26992338E-10   2       -11        11   # BR(HH -> Electron electron)
     3.23740799E-05   2       -13        13   # BR(HH -> Muon muon)
     9.35072760E-03   2       -15        15   # BR(HH -> Tau tau)
     3.10194852E-12   2        -2         2   # BR(HH -> Up up)
     6.01822838E-07   2        -4         4   # BR(HH -> Charm charm)
     4.53709465E-02   2        -6         6   # BR(HH -> Top top)
     5.06631363E-08   2        -1         1   # BR(HH -> Down down)
     1.83253145E-05   2        -3         3   # BR(HH -> Strange strange)
     4.84494884E-02   2        -5         5   # BR(HH -> Bottom bottom)
     2.45073759E-03   2  -1000024   1000024   # BR(HH -> Chargino1 chargino1)
     2.62692543E-01   2  -1000024   1000037   # BR(HH -> Chargino1 chargino2)
     2.62692543E-01   2  -1000037   1000024   # BR(HH -> Chargino2 chargino1)
     7.82048274E-06   2  -1000037   1000037   # BR(HH -> Chargino2 chargino2)
     3.10750158E-02   2   1000022   1000022   # BR(HH -> neutralino1 neutralino1)
     2.57848183E-02   2   1000022   1000023   # BR(HH -> neutralino1 neutralino2)
     6.47564569E-03   2   1000022   1000025   # BR(HH -> neutralino1 neutralino3)
     5.93842195E-02   2   1000022   1000035   # BR(HH -> neutralino1 neutralino4)
     4.52668718E-06   2   1000023   1000023   # BR(HH -> neutralino2 neutralino2)
     1.35567214E-02   2   1000023   1000025   # BR(HH -> neutralino2 neutralino3)
     9.21549981E-02   2   1000023   1000035   # BR(HH -> neutralino2 neutralino4)
     2.86930198E-02   2   1000025   1000025   # BR(HH -> neutralino3 neutralino3)
     1.11760063E-01   2   1000025   1000035   # BR(HH -> neutralino3 neutralino4)
     3.94694977E-06   2   1000035   1000035   # BR(HH -> neutralino4 neutralino4)
     3.03050240E-05   2        25        25   # BR(HH -> h0 h0)
DECAY        36     5.31874556E+01   # Gamma(A0)
     1.20008429E-07   2        22        22   # BR(A0 -> photon photon)
     9.79718550E-08   2        22        23   # BR(A0 -> photon Z)
     1.39960384E-05   2        21        21   # BR(A0 -> gluon gluon)
     7.03986474E-10   2       -11        11   # BR(A0 -> Electron electron)
     3.13496085E-05   2       -13        13   # BR(A0 -> Muon muon)
     9.05483112E-03   2       -15        15   # BR(A0 -> Tau tau)
     2.85764639E-12   2        -2         2   # BR(A0 -> Up up)
     5.54411476E-07   2        -4         4   # BR(A0 -> Charm charm)
     4.20021557E-02   2        -6         6   # BR(A0 -> Top top)
     4.90594600E-08   2        -1         1   # BR(A0 -> Down down)
     1.77451375E-05   2        -3         3   # BR(A0 -> Strange strange)
     4.69140004E-02   2        -5         5   # BR(A0 -> Bottom bottom)
     2.81800907E-03   2  -1000024   1000024   # BR(A0 -> Chargino1 chargino1)
     2.63946013E-01   2  -1000024   1000037   # BR(A0 -> Chargino1 chargino2)
     2.63946013E-01   2  -1000037   1000024   # BR(A0 -> Chargino2 chargino1)
     2.22390100E-04   2  -1000037   1000037   # BR(A0 -> Chargino2 chargino2)
     2.10215285E-02   2   1000022   1000022   # BR(A0 -> neutralino1 neutralino1)
     4.33259958E-02   2   1000022   1000023   # BR(A0 -> neutralino1 neutralino2)
     3.04644271E-03   2   1000022   1000025   # BR(A0 -> neutralino1 neutralino3)
     3.60492372E-02   2   1000022   1000035   # BR(A0 -> neutralino1 neutralino4)
     7.69364412E-06   2   1000023   1000023   # BR(A0 -> neutralino2 neutralino2)
     2.23488716E-02   2   1000023   1000025   # BR(A0 -> neutralino2 neutralino3)
     1.69966857E-01   2   1000023   1000035   # BR(A0 -> neutralino2 neutralino4)
     1.65186052E-02   2   1000025   1000025   # BR(A0 -> neutralino3 neutralino3)
     5.86252668E-02   2   1000025   1000035   # BR(A0 -> neutralino3 neutralino4)
     1.11405409E-04   2   1000035   1000035   # BR(A0 -> neutralino4 neutralino4)
     1.07699266E-05   2        23        25   # BR(A0 -> Z h0)
     2.83798388E-40   2        25        25   # BR(A0 -> h0 h0)
DECAY        37     5.46297159E+01   # Gamma(Hp)
     8.95105772E-10   2       -11        12   # BR(Hp -> Electron nu_e)
     3.82685675E-05   2       -13        14   # BR(Hp -> Muon nu_mu)
     1.08245317E-02   2       -15        16   # BR(Hp -> Tau nu_tau)
     5.42194774E-08   2        -1         2   # BR(Hp -> Down up)
     9.19973692E-07   2        -3         2   # BR(Hp -> Strange up)
     6.00887478E-07   2        -5         2   # BR(Hp -> Bottom up)
     3.49754621E-08   2        -1         4   # BR(Hp -> Down charm)
     2.02286294E-05   2        -3         4   # BR(Hp -> Strange charm)
     8.41468399E-05   2        -5         4   # BR(Hp -> Bottom charm)
     3.56261658E-06   2        -1         6   # BR(Hp -> Down top)
     7.77060478E-05   2        -3         6   # BR(Hp -> Strange top)
     1.11121444E-01   2        -5         6   # BR(Hp -> Bottom top)
     7.84238615E-02   2   1000022   1000024   # BR(Hp -> neutralino1 chargino1)
     9.32393684E-02   2   1000022   1000037   # BR(Hp -> neutralino1 chargino2)
     1.46681598E-03   2   1000023   1000024   # BR(Hp -> neutralino2 chargino1)
     2.56584293E-01   2   1000023   1000037   # BR(Hp -> neutralino2 chargino2)
     2.41912605E-02   2   1000024   1000025   # BR(Hp -> chargino1 neutralino3)
     1.66424035E-01   2   1000025   1000037   # BR(Hp -> neutralino3 chargino2)
     2.57488374E-01   2   1000024   1000035   # BR(Hp -> chargino1 neutralino4)
     9.02198455E-11   2   1000035   1000037   # BR(Hp -> neutralino4 chargino2)
     1.04914672E-05   2        24        25   # BR(Hp -> W h0)
DECAY         6     2.43000000E+00   # top
#    BR                NDA      ID1      ID2
     1.00000000E+00    2           5        24   # BR(t -> b W)
Block HiggsBoundsInputHiggsCouplingsFermions
# ScalarNormEffCoupSq PseudoSNormEffCoupSq NP IP1 IP2 IP2
    9.03279252E-01    0.00000000E+00        3  25   5   5  # h0-b-b eff. coupling^2, normalised to SM
    5.50556318E+01    0.00000000E+00        3  35   5   5  # H0-b-b eff. coupling^2, normalised to SM
    0.00000000E+00    5.49589110E+01        3  36   5   5  # A0-b-b eff. coupling^2, normalised to SM
#
    1.00175987E+00    0.00000000E+00        3  25   6   6  # h0-t-t eff. coupling^2, normalised to SM
    1.64355377E-02    0.00000000E+00        3  35   6   6  # H0-t-t eff. coupling^2, normalised to SM
    0.00000000E+00    1.81954115E-02        3  36   6   6  # A0-t-t eff. coupling^2, normalised to SM
#
    9.03279252E-01    0.00000000E+00        3  25  15  15  # h0-tau-tau eff. coupling^2, normalised to SM
    5.50556318E+01    0.00000000E+00        3  35  15  15  # H0-tau-tau eff. coupling^2, normalised to SM
    0.00000000E+00    5.49589110E+01        3  36  15  15  # A0-tau-tau eff. coupling^2, normalised to SM
#
Block HiggsBoundsInputHiggsCouplingsBosons
    9.99955295E-01        3  25  24  24  # h0-W-W eff. coupling^2, normalised to SM
    4.47051662E-05        3  35  24  24  # H0-W-W eff. coupling^2, normalised to SM
    0.00000000E+00        3  36  24  24  # A0-W-W eff. coupling^2, normalised to SM
#
    9.99955295E-01        3  25  23  23  # h0-Z-Z eff. coupling^2, normalised to SM
    4.47051662E-05        3  35  23  23  # H0-Z-Z eff. coupling^2, normalised to SM
    0.00000000E+00        3  36  23  23  # A0-Z-Z eff. coupling^2, normalised to SM
#
    1.27278705E+00        3  25  21  21  # h0-g-g eff. coupling^2, normalised to SM
    1.27051373E-02        3  35  21  21  # H0-g-g eff. coupling^2, normalised to SM
    1.49804203E-01        3  36  21  21  # A0-g-g eff. coupling^2, normalised to SM
#
    0.00000000E+00        3  25  25  23  # h0-h0-Z eff. coupling^2, normalised to SM
    0.00000000E+00        3  35  25  23  # H0-h0-Z eff. coupling^2, normalised to SM
    4.47051662E-05        3  36  25  23  # A0-h0-Z eff. coupling^2, normalised to SM
    0.00000000E+00        3  35  35  23  # H0-H0-Z eff. coupling^2, normalised to SM
    9.99955295E-01        3  36  35  23  # A0-H0-Z eff. coupling^2, normalised to SM
    0.00000000E+00        3  36  36  23  # A0-A0-Z eff. coupling^2, normalised to SM
#
    0.00000000E+00        4  25  21  21  23  # h0-g-g-Z eff. coupling^2, normalised to SM
    0.00000000E+00        4  35  21  21  23  # H0-g-g-Z eff. coupling^2, normalised to SM
    0.00000000E+00        4  36  21  21  23  # A0-g-g-Z eff. coupling^2, normalised to SM
Block SPhenoLowEnergy  # low energy observables
    1    3.22027474E-04   # BR(b -> s gamma)
    2    1.59044929E-06   # BR(b -> s mu+ mu-)
    3    3.52616810E-05   # BR(b -> s nu nu)
    4    2.59856764E-15   # BR(Bd -> e+ e-)
    5    1.11007856E-10   # BR(Bd -> mu+ mu-)
    6    2.32382109E-08   # BR(Bd -> tau+ tau-)
    7    8.77462916E-14   # BR(Bs -> e+ e-)
    8    3.74851866E-09   # BR(Bs -> mu+ mu-)
    9    7.95086399E-07   # BR(Bs -> tau+ tau-)
   10    9.67929706E-05   # BR(B_u -> tau nu)
   11    9.99834330E-01   # BR(B_u -> tau nu)/BR(B_u -> tau nu)_SM
   12    5.41974289E-01   # |Delta(M_Bd)| [ps^-1] 
   13    1.93650969E+01   # |Delta(M_Bs)| [ps^-1] 
   14    0.00000000E+00   # neutron EDM according to the chiral quark model
   15    0.00000000E+00   # neutron EDM according to the relativistic quark-parton model
   16    2.15721558E-03   # epsilon_K
   17    2.28165708E-15   # Delta(M_K)
   18    2.48043024E-11   # BR(K^0 -> pi^0 nu nu)
   19    8.29157186E-11   # BR(K^+ -> pi^+ nu nu)
   20    6.59355247E-17   # Delta(g-2)_electron/2
   21    2.81894997E-12   # Delta(g-2)_muon/2
   22    7.97331050E-10   # Delta(g-2)_tau/2
   23    0.00000000E+00   # electric dipole moment of the electron
   24    0.00000000E+00   # electric dipole moment of the muon
   25    0.00000000E+00   # electric dipole moment of the tau
   26    0.00000000E+00   # Br(mu -> e gamma)
   27    0.00000000E+00   # Br(tau -> e gamma)
   28    0.00000000E+00   # Br(tau -> mu gamma)
   29    0.00000000E+00   # Br(mu -> 3 e)
   30    0.00000000E+00   # Br(tau -> 3 e)
   31    0.00000000E+00   # Br(tau -> 3 mu)
   39   -1.39274177E-04   # Delta(rho_parameter)
   40    0.00000000E+00   # BR(Z -> e mu)
   41    0.00000000E+00   # BR(Z -> e tau)
   42    0.00000000E+00   # BR(Z -> mu tau)
Block FWCOEF Q=  1.60000000E+02  # Wilson coefficients at scale Q
#    id        order  M        value         comment
     0305 4422   00   0    -1.88819110E-01   # C7
     0305 4422   00   2    -1.90564983E-01   # C7
     0305 4322   00   2    -5.23186212E-05   # C7'
     0305 6421   00   0    -9.52278348E-02   # C8
     0305 6421   00   2    -9.86856992E-02   # C8
     0305 6321   00   2    -7.66753567E-05   # C8'
 03051111 4133   00   0     1.62554657E+00   # C9 e+e-
 03051111 4133   00   2     1.62582442E+00   # C9 e+e-
 03051111 4233   00   2     1.68338664E-05   # C9' e+e-
 03051111 4137   00   0    -4.44823867E+00   # C10 e+e-
 03051111 4137   00   2    -4.44746285E+00   # C10 e+e-
 03051111 4237   00   2    -1.24474395E-04   # C10' e+e-
 03051313 4133   00   0     1.62554657E+00   # C9 mu+mu-
 03051313 4133   00   2     1.62582441E+00   # C9 mu+mu-
 03051313 4233   00   2     1.68338661E-05   # C9' mu+mu-
 03051313 4137   00   0    -4.44823867E+00   # C10 mu+mu-
 03051313 4137   00   2    -4.44746285E+00   # C10 mu+mu-
 03051313 4237   00   2    -1.24474396E-04   # C10' mu+mu-
 03051212 4137   00   0     1.50535012E+00   # C11 nu_1 nu_1
 03051212 4137   00   2     1.50518341E+00   # C11 nu_1 nu_1
 03051212 4237   00   2     2.69223486E-05   # C11' nu_1 nu_1
 03051414 4137   00   0     1.50535012E+00   # C11 nu_2 nu_2
 03051414 4137   00   2     1.50518341E+00   # C11 nu_2 nu_2
 03051414 4237   00   2     2.69223487E-05   # C11' nu_2 nu_2
 03051616 4137   00   0     1.50535012E+00   # C11 nu_3 nu_3
 03051616 4137   00   2     1.50518341E+00   # C11 nu_3 nu_3
 03051616 4237   00   2     2.69223534E-05   # C11' nu_3 nu_3
Block IMFWCOEF Q=  1.60000000E+02  # Im(Wilson coefficients) at scale Q
#    id        order  M        value         comment
     0305 4422   00   0     3.85824477E-07   # C7
     0305 4422   00   2     1.60663230E-06   # C7
     0305 4322   00   2     1.52625963E-07   # C7'
     0305 6421   00   0     3.30484181E-07   # C8
     0305 6421   00   2     1.66601267E-06   # C8
     0305 6321   00   2     7.25356223E-08   # C8'
 03051111 4133   00   2     2.42045225E-07   # C9 e+e-
 03051111 4233   00   2     3.13444192E-07   # C9' e+e-
 03051111 4137   00   2    -2.18365561E-07   # C10 e+e-
 03051111 4237   00   2    -2.31798553E-06   # C10' e+e-
 03051313 4133   00   2     2.42045129E-07   # C9 mu+mu-
 03051313 4233   00   2     3.13444189E-07   # C9' mu+mu-
 03051313 4137   00   2    -2.18365464E-07   # C10 mu+mu-
 03051313 4237   00   2    -2.31798554E-06   # C10' mu+mu-
 03051212 4137   00   2     6.67064397E-08   # C11 nu_1 nu_1
 03051212 4237   00   2     5.01353501E-07   # C11' nu_1 nu_1
 03051414 4137   00   2     6.67064435E-08   # C11 nu_2 nu_2
 03051414 4237   00   2     5.01353501E-07   # C11' nu_2 nu_2
 03051616 4137   00   2     6.67075065E-08   # C11 nu_3 nu_3
 03051616 4237   00   2     5.01353500E-07   # C11' nu_3 nu_3
